{
    "textures": {
        "0": "gci:items/common/mpz",
        "particle": "MPZ"
    },
    "elements": [
        {
            "from": [
                4.48757,
                4.9812,
                -1.9693
            ],
            "to": [
                5.51243,
                5.0812,
                -1.7293
            ],
            "rotation": {
                "angle": 0,
                "axis": "y",
                "origin": [
                    5,
                    5.0312,
                    -1.8493
                ]
            },
            "faces": {
                "north": {
                    "uv": [
                        0.5,
                        3.26667,
                        2,
                        4.68333
                    ],
                    "rotation": 270,
                    "texture": "#0"
                },
                "east": {
                    "uv": [
                        0.5,
                        3.26667,
                        2,
                        4.68333
                    ],
                    "rotation": 270,
                    "texture": "#0"
                },
                "south": {
                    "uv": [
                        0.5,
                        3.26667,
                        2,
                        4.68333
                    ],
                    "rotation": 270,
                    "texture": "#0"
                },
                "west": {
                    "uv": [
                        0.5,
                        3.26667,
                        2,
                        4.68333
                    ],
                    "rotation": 270,
                    "texture": "#0"
                },
                "up": {
                    "uv": [
                        0.5,
                        3.26667,
                        2,
                        4.68333
                    ],
                    "rotation": 270,
                    "texture": "#0"
                },
                "down": {
                    "uv": [
                        0.5,
                        3.26667,
                        2,
                        4.68333
                    ],
                    "rotation": 270,
                    "texture": "#0"
                }
            }
        },
        {
            "from": [
                1.27452,
                -1.25918,
                -2.09031
            ],
            "to": [
                2.17452,
                -1.05918,
                -1.61031
            ],
            "rotation": {
                "angle": 0,
                "axis": "y",
                "origin": [
                    2.57903,
                    0.4,
                    -1.85031
                ]
            },
            "faces": {
                "north": {
                    "uv": [
                        11.16667,
                        0.6,
                        12.66667,
                        2.01667
                    ],
                    "rotation": 270,
                    "texture": "#0"
                },
                "east": {
                    "uv": [
                        11.16667,
                        0.6,
                        12.66667,
                        2.01667
                    ],
                    "rotation": 270,
                    "texture": "#0"
                },
                "south": {
                    "uv": [
                        11.16667,
                        0.6,
                        12.66667,
                        2.01667
                    ],
                    "rotation": 270,
                    "texture": "#0"
                },
                "west": {
                    "uv": [
                        11.16667,
                        0.6,
                        12.66667,
                        2.01667
                    ],
                    "rotation": 270,
                    "texture": "#0"
                },
                "up": {
                    "uv": [
                        11.16667,
                        0.6,
                        12.66667,
                        2.01667
                    ],
                    "rotation": 270,
                    "texture": "#0"
                },
                "down": {
                    "uv": [
                        11.16667,
                        0.6,
                        12.66667,
                        2.01667
                    ],
                    "rotation": 270,
                    "texture": "#0"
                }
            }
        },
        {
            "from": [
                1.65105,
                -1.0744,
                -1.99031
            ],
            "to": [
                2.25105,
                -0.8744,
                -1.71031
            ],
            "rotation": {
                "angle": 0,
                "axis": "y",
                "origin": [
                    2.57903,
                    0.4,
                    -1.85031
                ]
            },
            "faces": {
                "north": {
                    "uv": [
                        11.16667,
                        0.6,
                        12.66667,
                        2.01667
                    ],
                    "rotation": 270,
                    "texture": "#0"
                },
                "east": {
                    "uv": [
                        11.16667,
                        0.6,
                        12.66667,
                        2.01667
                    ],
                    "rotation": 270,
                    "texture": "#0"
                },
                "south": {
                    "uv": [
                        11.16667,
                        0.6,
                        12.66667,
                        2.01667
                    ],
                    "rotation": 270,
                    "texture": "#0"
                },
                "west": {
                    "uv": [
                        11.16667,
                        0.6,
                        12.66667,
                        2.01667
                    ],
                    "rotation": 270,
                    "texture": "#0"
                },
                "up": {
                    "uv": [
                        11.16667,
                        0.6,
                        12.66667,
                        2.01667
                    ],
                    "rotation": 270,
                    "texture": "#0"
                },
                "down": {
                    "uv": [
                        11.16667,
                        0.6,
                        12.66667,
                        2.01667
                    ],
                    "rotation": 270,
                    "texture": "#0"
                }
            }
        },
        {
            "from": [
                2.82399,
                -1.45731,
                -1.99031
            ],
            "to": [
                3.02399,
                -1.15731,
                -1.71031
            ],
            "rotation": {
                "angle": -45,
                "axis": "z",
                "origin": [
                    2.57903,
                    0.4,
                    -1.85031
                ]
            },
            "faces": {
                "north": {
                    "uv": [
                        11.16667,
                        0.6,
                        12.66667,
                        2.01667
                    ],
                    "rotation": 270,
                    "texture": "#0"
                },
                "east": {
                    "uv": [
                        11.16667,
                        0.6,
                        12.66667,
                        2.01667
                    ],
                    "rotation": 270,
                    "texture": "#0"
                },
                "south": {
                    "uv": [
                        11.16667,
                        0.6,
                        12.66667,
                        2.01667
                    ],
                    "rotation": 270,
                    "texture": "#0"
                },
                "west": {
                    "uv": [
                        11.16667,
                        0.6,
                        12.66667,
                        2.01667
                    ],
                    "rotation": 270,
                    "texture": "#0"
                },
                "up": {
                    "uv": [
                        11.16667,
                        0.6,
                        12.66667,
                        2.01667
                    ],
                    "rotation": 270,
                    "texture": "#0"
                },
                "down": {
                    "uv": [
                        11.16667,
                        0.6,
                        12.66667,
                        2.01667
                    ],
                    "rotation": 270,
                    "texture": "#0"
                }
            }
        },
        {
            "from": [
                2.73924,
                -1.28768,
                -2.0893
            ],
            "to": [
                2.83924,
                5.41232,
                -1.9893
            ],
            "rotation": {
                "angle": -22.5,
                "axis": "z",
                "origin": [
                    2.57903,
                    0.4,
                    -1.85031
                ]
            },
            "faces": {
                "north": {
                    "uv": [
                        11.16667,
                        0.6,
                        12.66667,
                        2.01667
                    ],
                    "rotation": 180,
                    "texture": "#0"
                },
                "east": {
                    "uv": [
                        11.16667,
                        0.6,
                        12.66667,
                        2.01667
                    ],
                    "rotation": 180,
                    "texture": "#0"
                },
                "south": {
                    "uv": [
                        11.16667,
                        0.6,
                        12.66667,
                        2.01667
                    ],
                    "rotation": 180,
                    "texture": "#0"
                },
                "west": {
                    "uv": [
                        11.16667,
                        0.6,
                        12.66667,
                        2.01667
                    ],
                    "rotation": 180,
                    "texture": "#0"
                },
                "up": {
                    "uv": [
                        11.16667,
                        0.6,
                        12.66667,
                        2.01667
                    ],
                    "rotation": 180,
                    "texture": "#0"
                },
                "down": {
                    "uv": [
                        11.16667,
                        0.6,
                        12.66667,
                        2.01667
                    ],
                    "rotation": 180,
                    "texture": "#0"
                }
            }
        },
        {
            "from": [
                2.73924,
                -1.28768,
                -1.71131
            ],
            "to": [
                2.83924,
                5.41232,
                -1.61131
            ],
            "rotation": {
                "angle": -22.5,
                "axis": "z",
                "origin": [
                    2.57903,
                    0.4,
                    -1.85031
                ]
            },
            "faces": {
                "north": {
                    "uv": [
                        11.16667,
                        0.6,
                        12.66667,
                        2.01667
                    ],
                    "texture": "#0"
                },
                "east": {
                    "uv": [
                        11.16667,
                        0.6,
                        12.66667,
                        2.01667
                    ],
                    "texture": "#0"
                },
                "south": {
                    "uv": [
                        11.16667,
                        0.6,
                        12.66667,
                        2.01667
                    ],
                    "texture": "#0"
                },
                "west": {
                    "uv": [
                        11.16667,
                        0.6,
                        12.66667,
                        2.01667
                    ],
                    "texture": "#0"
                },
                "up": {
                    "uv": [
                        11.16667,
                        0.6,
                        12.66667,
                        2.01667
                    ],
                    "texture": "#0"
                },
                "down": {
                    "uv": [
                        11.16667,
                        0.6,
                        12.66667,
                        2.01667
                    ],
                    "texture": "#0"
                }
            }
        },
        {
            "from": [
                4.48757,
                4.9812,
                -1.9693
            ],
            "to": [
                5.51243,
                5.0812,
                -1.7293
            ],
            "rotation": {
                "angle": 0,
                "axis": "y",
                "origin": [
                    5,
                    5.0312,
                    -1.8493
                ]
            },
            "faces": {
                "north": {
                    "uv": [
                        0.5,
                        3.26667,
                        2,
                        4.68333
                    ],
                    "rotation": 270,
                    "texture": "#0"
                },
                "east": {
                    "uv": [
                        0.5,
                        3.26667,
                        2,
                        4.68333
                    ],
                    "rotation": 270,
                    "texture": "#0"
                },
                "south": {
                    "uv": [
                        0.5,
                        3.26667,
                        2,
                        4.68333
                    ],
                    "rotation": 270,
                    "texture": "#0"
                },
                "west": {
                    "uv": [
                        0.5,
                        3.26667,
                        2,
                        4.68333
                    ],
                    "rotation": 270,
                    "texture": "#0"
                },
                "up": {
                    "uv": [
                        0.5,
                        3.26667,
                        2,
                        4.68333
                    ],
                    "rotation": 270,
                    "texture": "#0"
                },
                "down": {
                    "uv": [
                        0.5,
                        3.26667,
                        2,
                        4.68333
                    ],
                    "rotation": 270,
                    "texture": "#0"
                }
            }
        },
        {
            "from": [
                1.27452,
                -1.25918,
                -2.09031
            ],
            "to": [
                2.17452,
                -1.05918,
                -1.61031
            ],
            "rotation": {
                "angle": 0,
                "axis": "y",
                "origin": [
                    2.57903,
                    0.4,
                    -1.85031
                ]
            },
            "faces": {
                "north": {
                    "uv": [
                        11.16667,
                        0.6,
                        12.66667,
                        2.01667
                    ],
                    "rotation": 270,
                    "texture": "#0"
                },
                "east": {
                    "uv": [
                        11.16667,
                        0.6,
                        12.66667,
                        2.01667
                    ],
                    "rotation": 270,
                    "texture": "#0"
                },
                "south": {
                    "uv": [
                        11.16667,
                        0.6,
                        12.66667,
                        2.01667
                    ],
                    "rotation": 270,
                    "texture": "#0"
                },
                "west": {
                    "uv": [
                        11.16667,
                        0.6,
                        12.66667,
                        2.01667
                    ],
                    "rotation": 270,
                    "texture": "#0"
                },
                "up": {
                    "uv": [
                        11.16667,
                        0.6,
                        12.66667,
                        2.01667
                    ],
                    "rotation": 270,
                    "texture": "#0"
                },
                "down": {
                    "uv": [
                        11.16667,
                        0.6,
                        12.66667,
                        2.01667
                    ],
                    "rotation": 270,
                    "texture": "#0"
                }
            }
        },
        {
            "from": [
                1.65105,
                -1.0744,
                -1.99031
            ],
            "to": [
                2.25105,
                -0.8744,
                -1.71031
            ],
            "rotation": {
                "angle": 0,
                "axis": "y",
                "origin": [
                    2.57903,
                    0.4,
                    -1.85031
                ]
            },
            "faces": {
                "north": {
                    "uv": [
                        11.16667,
                        0.6,
                        12.66667,
                        2.01667
                    ],
                    "rotation": 270,
                    "texture": "#0"
                },
                "east": {
                    "uv": [
                        11.16667,
                        0.6,
                        12.66667,
                        2.01667
                    ],
                    "rotation": 270,
                    "texture": "#0"
                },
                "south": {
                    "uv": [
                        11.16667,
                        0.6,
                        12.66667,
                        2.01667
                    ],
                    "rotation": 270,
                    "texture": "#0"
                },
                "west": {
                    "uv": [
                        11.16667,
                        0.6,
                        12.66667,
                        2.01667
                    ],
                    "rotation": 270,
                    "texture": "#0"
                },
                "up": {
                    "uv": [
                        11.16667,
                        0.6,
                        12.66667,
                        2.01667
                    ],
                    "rotation": 270,
                    "texture": "#0"
                },
                "down": {
                    "uv": [
                        11.16667,
                        0.6,
                        12.66667,
                        2.01667
                    ],
                    "rotation": 270,
                    "texture": "#0"
                }
            }
        },
        {
            "from": [
                2.82399,
                -1.45731,
                -1.99031
            ],
            "to": [
                3.02399,
                -1.15731,
                -1.71031
            ],
            "rotation": {
                "angle": -45,
                "axis": "z",
                "origin": [
                    2.57903,
                    0.4,
                    -1.85031
                ]
            },
            "faces": {
                "north": {
                    "uv": [
                        11.16667,
                        0.6,
                        12.66667,
                        2.01667
                    ],
                    "rotation": 270,
                    "texture": "#0"
                },
                "east": {
                    "uv": [
                        11.16667,
                        0.6,
                        12.66667,
                        2.01667
                    ],
                    "rotation": 270,
                    "texture": "#0"
                },
                "south": {
                    "uv": [
                        11.16667,
                        0.6,
                        12.66667,
                        2.01667
                    ],
                    "rotation": 270,
                    "texture": "#0"
                },
                "west": {
                    "uv": [
                        11.16667,
                        0.6,
                        12.66667,
                        2.01667
                    ],
                    "rotation": 270,
                    "texture": "#0"
                },
                "up": {
                    "uv": [
                        11.16667,
                        0.6,
                        12.66667,
                        2.01667
                    ],
                    "rotation": 270,
                    "texture": "#0"
                },
                "down": {
                    "uv": [
                        11.16667,
                        0.6,
                        12.66667,
                        2.01667
                    ],
                    "rotation": 270,
                    "texture": "#0"
                }
            }
        },
        {
            "from": [
                2.73924,
                -1.28768,
                -2.0893
            ],
            "to": [
                2.83924,
                5.41232,
                -1.9893
            ],
            "rotation": {
                "angle": -22.5,
                "axis": "z",
                "origin": [
                    2.57903,
                    0.4,
                    -1.85031
                ]
            },
            "faces": {
                "north": {
                    "uv": [
                        11.16667,
                        0.6,
                        12.66667,
                        2.01667
                    ],
                    "rotation": 180,
                    "texture": "#0"
                },
                "east": {
                    "uv": [
                        11.16667,
                        0.6,
                        12.66667,
                        2.01667
                    ],
                    "rotation": 180,
                    "texture": "#0"
                },
                "south": {
                    "uv": [
                        11.16667,
                        0.6,
                        12.66667,
                        2.01667
                    ],
                    "rotation": 180,
                    "texture": "#0"
                },
                "west": {
                    "uv": [
                        11.16667,
                        0.6,
                        12.66667,
                        2.01667
                    ],
                    "rotation": 180,
                    "texture": "#0"
                },
                "up": {
                    "uv": [
                        11.16667,
                        0.6,
                        12.66667,
                        2.01667
                    ],
                    "rotation": 180,
                    "texture": "#0"
                },
                "down": {
                    "uv": [
                        11.16667,
                        0.6,
                        12.66667,
                        2.01667
                    ],
                    "rotation": 180,
                    "texture": "#0"
                }
            }
        },
        {
            "from": [
                2.73924,
                -1.28768,
                -1.71131
            ],
            "to": [
                2.83924,
                5.41232,
                -1.61131
            ],
            "rotation": {
                "angle": -22.5,
                "axis": "z",
                "origin": [
                    2.57903,
                    0.4,
                    -1.85031
                ]
            },
            "faces": {
                "north": {
                    "uv": [
                        11.16667,
                        0.6,
                        12.66667,
                        2.01667
                    ],
                    "texture": "#0"
                },
                "east": {
                    "uv": [
                        11.16667,
                        0.6,
                        12.66667,
                        2.01667
                    ],
                    "texture": "#0"
                },
                "south": {
                    "uv": [
                        11.16667,
                        0.6,
                        12.66667,
                        2.01667
                    ],
                    "texture": "#0"
                },
                "west": {
                    "uv": [
                        11.16667,
                        0.6,
                        12.66667,
                        2.01667
                    ],
                    "texture": "#0"
                },
                "up": {
                    "uv": [
                        11.16667,
                        0.6,
                        12.66667,
                        2.01667
                    ],
                    "texture": "#0"
                },
                "down": {
                    "uv": [
                        11.16667,
                        0.6,
                        12.66667,
                        2.01667
                    ],
                    "texture": "#0"
                }
            }
        },
        {
            "from": [
                7.16076,
                -1.28768,
                -1.71131
            ],
            "to": [
                7.26076,
                5.41232,
                -1.61131
            ],
            "rotation": {
                "angle": 22.5,
                "axis": "z",
                "origin": [
                    7.42097,
                    0.4,
                    -1.85031
                ]
            },
            "faces": {
                "north": {
                    "uv": [
                        11.16667,
                        0.6,
                        12.66667,
                        2.01667
                    ],
                    "texture": "#0"
                },
                "east": {
                    "uv": [
                        11.16667,
                        0.6,
                        12.66667,
                        2.01667
                    ],
                    "texture": "#0"
                },
                "south": {
                    "uv": [
                        11.16667,
                        0.6,
                        12.66667,
                        2.01667
                    ],
                    "texture": "#0"
                },
                "west": {
                    "uv": [
                        11.16667,
                        0.6,
                        12.66667,
                        2.01667
                    ],
                    "texture": "#0"
                },
                "up": {
                    "uv": [
                        11.16667,
                        0.6,
                        12.66667,
                        2.01667
                    ],
                    "texture": "#0"
                },
                "down": {
                    "uv": [
                        11.16667,
                        0.6,
                        12.66667,
                        2.01667
                    ],
                    "texture": "#0"
                }
            }
        },
        {
            "from": [
                7.16076,
                -1.28768,
                -2.0893
            ],
            "to": [
                7.26076,
                5.41232,
                -1.9893
            ],
            "rotation": {
                "angle": 22.5,
                "axis": "z",
                "origin": [
                    7.42097,
                    0.4,
                    -1.85031
                ]
            },
            "faces": {
                "north": {
                    "uv": [
                        11.16667,
                        0.6,
                        12.66667,
                        2.01667
                    ],
                    "rotation": 180,
                    "texture": "#0"
                },
                "east": {
                    "uv": [
                        11.16667,
                        0.6,
                        12.66667,
                        2.01667
                    ],
                    "rotation": 180,
                    "texture": "#0"
                },
                "south": {
                    "uv": [
                        11.16667,
                        0.6,
                        12.66667,
                        2.01667
                    ],
                    "rotation": 180,
                    "texture": "#0"
                },
                "west": {
                    "uv": [
                        11.16667,
                        0.6,
                        12.66667,
                        2.01667
                    ],
                    "rotation": 180,
                    "texture": "#0"
                },
                "up": {
                    "uv": [
                        11.16667,
                        0.6,
                        12.66667,
                        2.01667
                    ],
                    "rotation": 180,
                    "texture": "#0"
                },
                "down": {
                    "uv": [
                        11.16667,
                        0.6,
                        12.66667,
                        2.01667
                    ],
                    "rotation": 180,
                    "texture": "#0"
                }
            }
        },
        {
            "from": [
                7.82548,
                -1.25918,
                -2.09031
            ],
            "to": [
                8.72548,
                -1.05918,
                -1.61031
            ],
            "rotation": {
                "angle": 0,
                "axis": "y",
                "origin": [
                    7.42097,
                    0.4,
                    -1.85031
                ]
            },
            "faces": {
                "north": {
                    "uv": [
                        11.16667,
                        0.6,
                        12.66667,
                        2.01667
                    ],
                    "rotation": 270,
                    "texture": "#0"
                },
                "east": {
                    "uv": [
                        11.16667,
                        0.6,
                        12.66667,
                        2.01667
                    ],
                    "rotation": 270,
                    "texture": "#0"
                },
                "south": {
                    "uv": [
                        11.16667,
                        0.6,
                        12.66667,
                        2.01667
                    ],
                    "rotation": 270,
                    "texture": "#0"
                },
                "west": {
                    "uv": [
                        11.16667,
                        0.6,
                        12.66667,
                        2.01667
                    ],
                    "rotation": 270,
                    "texture": "#0"
                },
                "up": {
                    "uv": [
                        11.16667,
                        0.6,
                        12.66667,
                        2.01667
                    ],
                    "rotation": 270,
                    "texture": "#0"
                },
                "down": {
                    "uv": [
                        11.16667,
                        0.6,
                        12.66667,
                        2.01667
                    ],
                    "rotation": 270,
                    "texture": "#0"
                }
            }
        },
        {
            "from": [
                7.74895,
                -1.0744,
                -1.99031
            ],
            "to": [
                8.34895,
                -0.8744,
                -1.71031
            ],
            "rotation": {
                "angle": 0,
                "axis": "y",
                "origin": [
                    7.42097,
                    0.4,
                    -1.85031
                ]
            },
            "faces": {
                "north": {
                    "uv": [
                        11.16667,
                        0.6,
                        12.66667,
                        2.01667
                    ],
                    "rotation": 270,
                    "texture": "#0"
                },
                "east": {
                    "uv": [
                        11.16667,
                        0.6,
                        12.66667,
                        2.01667
                    ],
                    "rotation": 270,
                    "texture": "#0"
                },
                "south": {
                    "uv": [
                        11.16667,
                        0.6,
                        12.66667,
                        2.01667
                    ],
                    "rotation": 270,
                    "texture": "#0"
                },
                "west": {
                    "uv": [
                        11.16667,
                        0.6,
                        12.66667,
                        2.01667
                    ],
                    "rotation": 270,
                    "texture": "#0"
                },
                "up": {
                    "uv": [
                        11.16667,
                        0.6,
                        12.66667,
                        2.01667
                    ],
                    "rotation": 270,
                    "texture": "#0"
                },
                "down": {
                    "uv": [
                        11.16667,
                        0.6,
                        12.66667,
                        2.01667
                    ],
                    "rotation": 270,
                    "texture": "#0"
                }
            }
        },
        {
            "from": [
                6.97601,
                -1.45731,
                -1.99031
            ],
            "to": [
                7.17601,
                -1.15731,
                -1.71031
            ],
            "rotation": {
                "angle": 45,
                "axis": "z",
                "origin": [
                    7.42097,
                    0.4,
                    -1.85031
                ]
            },
            "faces": {
                "north": {
                    "uv": [
                        11.16667,
                        0.6,
                        12.66667,
                        2.01667
                    ],
                    "rotation": 270,
                    "texture": "#0"
                },
                "east": {
                    "uv": [
                        11.16667,
                        0.6,
                        12.66667,
                        2.01667
                    ],
                    "rotation": 270,
                    "texture": "#0"
                },
                "south": {
                    "uv": [
                        11.16667,
                        0.6,
                        12.66667,
                        2.01667
                    ],
                    "rotation": 270,
                    "texture": "#0"
                },
                "west": {
                    "uv": [
                        11.16667,
                        0.6,
                        12.66667,
                        2.01667
                    ],
                    "rotation": 270,
                    "texture": "#0"
                },
                "up": {
                    "uv": [
                        11.16667,
                        0.6,
                        12.66667,
                        2.01667
                    ],
                    "rotation": 270,
                    "texture": "#0"
                },
                "down": {
                    "uv": [
                        11.16667,
                        0.6,
                        12.66667,
                        2.01667
                    ],
                    "rotation": 270,
                    "texture": "#0"
                }
            }
        },
        {
            "from": [
                4.48757,
                4.9812,
                -1.9693
            ],
            "to": [
                5.51243,
                5.0812,
                -1.7293
            ],
            "rotation": {
                "angle": 0,
                "axis": "y",
                "origin": [
                    5,
                    5.0312,
                    -1.8493
                ]
            },
            "faces": {
                "north": {
                    "uv": [
                        0.5,
                        3.26667,
                        2,
                        4.68333
                    ],
                    "rotation": 270,
                    "texture": "#0"
                },
                "east": {
                    "uv": [
                        0.5,
                        3.26667,
                        2,
                        4.68333
                    ],
                    "rotation": 270,
                    "texture": "#0"
                },
                "south": {
                    "uv": [
                        0.5,
                        3.26667,
                        2,
                        4.68333
                    ],
                    "rotation": 270,
                    "texture": "#0"
                },
                "west": {
                    "uv": [
                        0.5,
                        3.26667,
                        2,
                        4.68333
                    ],
                    "rotation": 270,
                    "texture": "#0"
                },
                "up": {
                    "uv": [
                        0.5,
                        3.26667,
                        2,
                        4.68333
                    ],
                    "rotation": 270,
                    "texture": "#0"
                },
                "down": {
                    "uv": [
                        0.5,
                        3.26667,
                        2,
                        4.68333
                    ],
                    "rotation": 270,
                    "texture": "#0"
                }
            }
        },
        {
            "from": [
                2.64025,
                -1.28768,
                -1.99031
            ],
            "to": [
                2.84025,
                5.41232,
                -1.71031
            ],
            "rotation": {
                "angle": -22.5,
                "axis": "z",
                "origin": [
                    2.57903,
                    0.4,
                    -1.85031
                ]
            },
            "faces": {
                "north": {
                    "uv": [
                        11.16667,
                        0.6,
                        12.66667,
                        2.01667
                    ],
                    "rotation": 270,
                    "texture": "#0"
                },
                "east": {
                    "uv": [
                        11.16667,
                        0.6,
                        12.66667,
                        2.01667
                    ],
                    "rotation": 270,
                    "texture": "#0"
                },
                "south": {
                    "uv": [
                        11.16667,
                        0.6,
                        12.66667,
                        2.01667
                    ],
                    "rotation": 270,
                    "texture": "#0"
                },
                "west": {
                    "uv": [
                        11.16667,
                        0.6,
                        12.66667,
                        2.01667
                    ],
                    "rotation": 270,
                    "texture": "#0"
                },
                "up": {
                    "uv": [
                        11.16667,
                        0.6,
                        12.66667,
                        2.01667
                    ],
                    "rotation": 270,
                    "texture": "#0"
                },
                "down": {
                    "uv": [
                        11.16667,
                        0.6,
                        12.66667,
                        2.01667
                    ],
                    "rotation": 270,
                    "texture": "#0"
                }
            }
        },
        {
            "from": [
                1.27452,
                -1.25918,
                -2.09031
            ],
            "to": [
                2.17452,
                -1.05918,
                -1.61031
            ],
            "rotation": {
                "angle": 0,
                "axis": "y",
                "origin": [
                    2.57903,
                    0.4,
                    -1.85031
                ]
            },
            "faces": {
                "north": {
                    "uv": [
                        11.16667,
                        0.6,
                        12.66667,
                        2.01667
                    ],
                    "rotation": 270,
                    "texture": "#0"
                },
                "east": {
                    "uv": [
                        11.16667,
                        0.6,
                        12.66667,
                        2.01667
                    ],
                    "rotation": 270,
                    "texture": "#0"
                },
                "south": {
                    "uv": [
                        11.16667,
                        0.6,
                        12.66667,
                        2.01667
                    ],
                    "rotation": 270,
                    "texture": "#0"
                },
                "west": {
                    "uv": [
                        11.16667,
                        0.6,
                        12.66667,
                        2.01667
                    ],
                    "rotation": 270,
                    "texture": "#0"
                },
                "up": {
                    "uv": [
                        11.16667,
                        0.6,
                        12.66667,
                        2.01667
                    ],
                    "rotation": 270,
                    "texture": "#0"
                },
                "down": {
                    "uv": [
                        11.16667,
                        0.6,
                        12.66667,
                        2.01667
                    ],
                    "rotation": 270,
                    "texture": "#0"
                }
            }
        },
        {
            "from": [
                1.65105,
                -1.0744,
                -1.99031
            ],
            "to": [
                2.25105,
                -0.8744,
                -1.71031
            ],
            "rotation": {
                "angle": 0,
                "axis": "y",
                "origin": [
                    2.57903,
                    0.4,
                    -1.85031
                ]
            },
            "faces": {
                "north": {
                    "uv": [
                        11.16667,
                        0.6,
                        12.66667,
                        2.01667
                    ],
                    "rotation": 270,
                    "texture": "#0"
                },
                "east": {
                    "uv": [
                        11.16667,
                        0.6,
                        12.66667,
                        2.01667
                    ],
                    "rotation": 270,
                    "texture": "#0"
                },
                "south": {
                    "uv": [
                        11.16667,
                        0.6,
                        12.66667,
                        2.01667
                    ],
                    "rotation": 270,
                    "texture": "#0"
                },
                "west": {
                    "uv": [
                        11.16667,
                        0.6,
                        12.66667,
                        2.01667
                    ],
                    "rotation": 270,
                    "texture": "#0"
                },
                "up": {
                    "uv": [
                        11.16667,
                        0.6,
                        12.66667,
                        2.01667
                    ],
                    "rotation": 270,
                    "texture": "#0"
                },
                "down": {
                    "uv": [
                        11.16667,
                        0.6,
                        12.66667,
                        2.01667
                    ],
                    "rotation": 270,
                    "texture": "#0"
                }
            }
        },
        {
            "from": [
                2.82399,
                -1.45731,
                -1.99031
            ],
            "to": [
                3.02399,
                -1.15731,
                -1.71031
            ],
            "rotation": {
                "angle": -45,
                "axis": "z",
                "origin": [
                    2.57903,
                    0.4,
                    -1.85031
                ]
            },
            "faces": {
                "north": {
                    "uv": [
                        11.16667,
                        0.6,
                        12.66667,
                        2.01667
                    ],
                    "rotation": 270,
                    "texture": "#0"
                },
                "east": {
                    "uv": [
                        11.16667,
                        0.6,
                        12.66667,
                        2.01667
                    ],
                    "rotation": 270,
                    "texture": "#0"
                },
                "south": {
                    "uv": [
                        11.16667,
                        0.6,
                        12.66667,
                        2.01667
                    ],
                    "rotation": 270,
                    "texture": "#0"
                },
                "west": {
                    "uv": [
                        11.16667,
                        0.6,
                        12.66667,
                        2.01667
                    ],
                    "rotation": 270,
                    "texture": "#0"
                },
                "up": {
                    "uv": [
                        11.16667,
                        0.6,
                        12.66667,
                        2.01667
                    ],
                    "rotation": 270,
                    "texture": "#0"
                },
                "down": {
                    "uv": [
                        11.16667,
                        0.6,
                        12.66667,
                        2.01667
                    ],
                    "rotation": 270,
                    "texture": "#0"
                }
            }
        },
        {
            "from": [
                2.73924,
                -1.28768,
                -2.0893
            ],
            "to": [
                2.83924,
                5.41232,
                -1.9893
            ],
            "rotation": {
                "angle": -22.5,
                "axis": "z",
                "origin": [
                    2.57903,
                    0.4,
                    -1.85031
                ]
            },
            "faces": {
                "north": {
                    "uv": [
                        11.16667,
                        0.6,
                        12.66667,
                        2.01667
                    ],
                    "rotation": 180,
                    "texture": "#0"
                },
                "east": {
                    "uv": [
                        11.16667,
                        0.6,
                        12.66667,
                        2.01667
                    ],
                    "rotation": 180,
                    "texture": "#0"
                },
                "south": {
                    "uv": [
                        11.16667,
                        0.6,
                        12.66667,
                        2.01667
                    ],
                    "rotation": 180,
                    "texture": "#0"
                },
                "west": {
                    "uv": [
                        11.16667,
                        0.6,
                        12.66667,
                        2.01667
                    ],
                    "rotation": 180,
                    "texture": "#0"
                },
                "up": {
                    "uv": [
                        11.16667,
                        0.6,
                        12.66667,
                        2.01667
                    ],
                    "rotation": 180,
                    "texture": "#0"
                },
                "down": {
                    "uv": [
                        11.16667,
                        0.6,
                        12.66667,
                        2.01667
                    ],
                    "rotation": 180,
                    "texture": "#0"
                }
            }
        },
        {
            "from": [
                2.73924,
                -1.28768,
                -1.71131
            ],
            "to": [
                2.83924,
                5.41232,
                -1.61131
            ],
            "rotation": {
                "angle": -22.5,
                "axis": "z",
                "origin": [
                    2.57903,
                    0.4,
                    -1.85031
                ]
            },
            "faces": {
                "north": {
                    "uv": [
                        11.16667,
                        0.6,
                        12.66667,
                        2.01667
                    ],
                    "texture": "#0"
                },
                "east": {
                    "uv": [
                        11.16667,
                        0.6,
                        12.66667,
                        2.01667
                    ],
                    "texture": "#0"
                },
                "south": {
                    "uv": [
                        11.16667,
                        0.6,
                        12.66667,
                        2.01667
                    ],
                    "texture": "#0"
                },
                "west": {
                    "uv": [
                        11.16667,
                        0.6,
                        12.66667,
                        2.01667
                    ],
                    "texture": "#0"
                },
                "up": {
                    "uv": [
                        11.16667,
                        0.6,
                        12.66667,
                        2.01667
                    ],
                    "texture": "#0"
                },
                "down": {
                    "uv": [
                        11.16667,
                        0.6,
                        12.66667,
                        2.01667
                    ],
                    "texture": "#0"
                }
            }
        },
        {
            "from": [
                7.15975,
                -1.28768,
                -1.99031
            ],
            "to": [
                7.35975,
                5.41232,
                -1.71031
            ],
            "rotation": {
                "angle": 22.5,
                "axis": "z",
                "origin": [
                    7.42097,
                    0.4,
                    -1.85031
                ]
            },
            "faces": {
                "north": {
                    "uv": [
                        11.16667,
                        0.6,
                        12.66667,
                        2.01667
                    ],
                    "rotation": 270,
                    "texture": "#0"
                },
                "east": {
                    "uv": [
                        11.16667,
                        0.6,
                        12.66667,
                        2.01667
                    ],
                    "rotation": 270,
                    "texture": "#0"
                },
                "south": {
                    "uv": [
                        11.16667,
                        0.6,
                        12.66667,
                        2.01667
                    ],
                    "rotation": 270,
                    "texture": "#0"
                },
                "west": {
                    "uv": [
                        11.16667,
                        0.6,
                        12.66667,
                        2.01667
                    ],
                    "rotation": 270,
                    "texture": "#0"
                },
                "up": {
                    "uv": [
                        11.16667,
                        0.6,
                        12.66667,
                        2.01667
                    ],
                    "rotation": 270,
                    "texture": "#0"
                },
                "down": {
                    "uv": [
                        11.16667,
                        0.6,
                        12.66667,
                        2.01667
                    ],
                    "rotation": 270,
                    "texture": "#0"
                }
            }
        },
        {
            "from": [
                7.16076,
                -1.28768,
                -1.71131
            ],
            "to": [
                7.26076,
                5.41232,
                -1.61131
            ],
            "rotation": {
                "angle": 22.5,
                "axis": "z",
                "origin": [
                    7.42097,
                    0.4,
                    -1.85031
                ]
            },
            "faces": {
                "north": {
                    "uv": [
                        11.16667,
                        0.6,
                        12.66667,
                        2.01667
                    ],
                    "texture": "#0"
                },
                "east": {
                    "uv": [
                        11.16667,
                        0.6,
                        12.66667,
                        2.01667
                    ],
                    "texture": "#0"
                },
                "south": {
                    "uv": [
                        11.16667,
                        0.6,
                        12.66667,
                        2.01667
                    ],
                    "texture": "#0"
                },
                "west": {
                    "uv": [
                        11.16667,
                        0.6,
                        12.66667,
                        2.01667
                    ],
                    "texture": "#0"
                },
                "up": {
                    "uv": [
                        11.16667,
                        0.6,
                        12.66667,
                        2.01667
                    ],
                    "texture": "#0"
                },
                "down": {
                    "uv": [
                        11.16667,
                        0.6,
                        12.66667,
                        2.01667
                    ],
                    "texture": "#0"
                }
            }
        },
        {
            "from": [
                7.16076,
                -1.28768,
                -2.0893
            ],
            "to": [
                7.26076,
                5.41232,
                -1.9893
            ],
            "rotation": {
                "angle": 22.5,
                "axis": "z",
                "origin": [
                    7.42097,
                    0.4,
                    -1.85031
                ]
            },
            "faces": {
                "north": {
                    "uv": [
                        11.16667,
                        0.6,
                        12.66667,
                        2.01667
                    ],
                    "rotation": 180,
                    "texture": "#0"
                },
                "east": {
                    "uv": [
                        11.16667,
                        0.6,
                        12.66667,
                        2.01667
                    ],
                    "rotation": 180,
                    "texture": "#0"
                },
                "south": {
                    "uv": [
                        11.16667,
                        0.6,
                        12.66667,
                        2.01667
                    ],
                    "rotation": 180,
                    "texture": "#0"
                },
                "west": {
                    "uv": [
                        11.16667,
                        0.6,
                        12.66667,
                        2.01667
                    ],
                    "rotation": 180,
                    "texture": "#0"
                },
                "up": {
                    "uv": [
                        11.16667,
                        0.6,
                        12.66667,
                        2.01667
                    ],
                    "rotation": 180,
                    "texture": "#0"
                },
                "down": {
                    "uv": [
                        11.16667,
                        0.6,
                        12.66667,
                        2.01667
                    ],
                    "rotation": 180,
                    "texture": "#0"
                }
            }
        },
        {
            "from": [
                7.82548,
                -1.25918,
                -2.09031
            ],
            "to": [
                8.72548,
                -1.05918,
                -1.61031
            ],
            "rotation": {
                "angle": 0,
                "axis": "y",
                "origin": [
                    7.42097,
                    0.4,
                    -1.85031
                ]
            },
            "faces": {
                "north": {
                    "uv": [
                        11.16667,
                        0.6,
                        12.66667,
                        2.01667
                    ],
                    "rotation": 270,
                    "texture": "#0"
                },
                "east": {
                    "uv": [
                        11.16667,
                        0.6,
                        12.66667,
                        2.01667
                    ],
                    "rotation": 270,
                    "texture": "#0"
                },
                "south": {
                    "uv": [
                        11.16667,
                        0.6,
                        12.66667,
                        2.01667
                    ],
                    "rotation": 270,
                    "texture": "#0"
                },
                "west": {
                    "uv": [
                        11.16667,
                        0.6,
                        12.66667,
                        2.01667
                    ],
                    "rotation": 270,
                    "texture": "#0"
                },
                "up": {
                    "uv": [
                        11.16667,
                        0.6,
                        12.66667,
                        2.01667
                    ],
                    "rotation": 270,
                    "texture": "#0"
                },
                "down": {
                    "uv": [
                        11.16667,
                        0.6,
                        12.66667,
                        2.01667
                    ],
                    "rotation": 270,
                    "texture": "#0"
                }
            }
        },
        {
            "from": [
                7.74895,
                -1.0744,
                -1.99031
            ],
            "to": [
                8.34895,
                -0.8744,
                -1.71031
            ],
            "rotation": {
                "angle": 0,
                "axis": "y",
                "origin": [
                    7.42097,
                    0.4,
                    -1.85031
                ]
            },
            "faces": {
                "north": {
                    "uv": [
                        11.16667,
                        0.6,
                        12.66667,
                        2.01667
                    ],
                    "rotation": 270,
                    "texture": "#0"
                },
                "east": {
                    "uv": [
                        11.16667,
                        0.6,
                        12.66667,
                        2.01667
                    ],
                    "rotation": 270,
                    "texture": "#0"
                },
                "south": {
                    "uv": [
                        11.16667,
                        0.6,
                        12.66667,
                        2.01667
                    ],
                    "rotation": 270,
                    "texture": "#0"
                },
                "west": {
                    "uv": [
                        11.16667,
                        0.6,
                        12.66667,
                        2.01667
                    ],
                    "rotation": 270,
                    "texture": "#0"
                },
                "up": {
                    "uv": [
                        11.16667,
                        0.6,
                        12.66667,
                        2.01667
                    ],
                    "rotation": 270,
                    "texture": "#0"
                },
                "down": {
                    "uv": [
                        11.16667,
                        0.6,
                        12.66667,
                        2.01667
                    ],
                    "rotation": 270,
                    "texture": "#0"
                }
            }
        },
        {
            "from": [
                6.97601,
                -1.45731,
                -1.99031
            ],
            "to": [
                7.17601,
                -1.15731,
                -1.71031
            ],
            "rotation": {
                "angle": 45,
                "axis": "z",
                "origin": [
                    7.42097,
                    0.4,
                    -1.85031
                ]
            },
            "faces": {
                "north": {
                    "uv": [
                        11.16667,
                        0.6,
                        12.66667,
                        2.01667
                    ],
                    "rotation": 270,
                    "texture": "#0"
                },
                "east": {
                    "uv": [
                        11.16667,
                        0.6,
                        12.66667,
                        2.01667
                    ],
                    "rotation": 270,
                    "texture": "#0"
                },
                "south": {
                    "uv": [
                        11.16667,
                        0.6,
                        12.66667,
                        2.01667
                    ],
                    "rotation": 270,
                    "texture": "#0"
                },
                "west": {
                    "uv": [
                        11.16667,
                        0.6,
                        12.66667,
                        2.01667
                    ],
                    "rotation": 270,
                    "texture": "#0"
                },
                "up": {
                    "uv": [
                        11.16667,
                        0.6,
                        12.66667,
                        2.01667
                    ],
                    "rotation": 270,
                    "texture": "#0"
                },
                "down": {
                    "uv": [
                        11.16667,
                        0.6,
                        12.66667,
                        2.01667
                    ],
                    "rotation": 270,
                    "texture": "#0"
                }
            }
        }
    ],
    "display": {
        "thirdperson_righthand": {
            "translation": [
                3,
                3,
                -4
            ]
        },
        "thirdperson_lefthand": {
            "translation": [
                -3,
                3.25,
                -4
            ]
        },
        "firstperson_righthand": {
            "translation": [
                -1.5,
                7.25,
                1.25
            ]
        },
        "firstperson_lefthand": {
            "translation": [
                -7.75,
                6.75,
                0
            ]
        },
        "ground": {
            "translation": [
                3.75,
                4.5,
                0.5
            ]
        },
        "gui": {
            "rotation": [
                90,
                45,
                -90
            ],
            "translation": [
                1.75,
                1.25,
                0
            ],
            "scale": [
                0.8,
                0.8,
                0.8
            ]
        },
        "fixed": {
            "rotation": [
                90,
                45,
                -90
            ],
            "translation": [
                2.75,
                1,
                -3.5
            ]
        }
    }
}