{
    "textures": {
        "0": "gci:items/common/mpz",
        "1": "gci:items/common/all_in_one",
        "particle": "gci:items/common/mpz"
    },
    "elements": [
        {
            "from": [
                7.86201,
                6.26426,
                -3.58726
            ],
            "to": [
                8.23001,
                6.80826,
                -3.43126
            ],
            "rotation": {
                "angle": -45,
                "axis": "y",
                "origin": [
                    8.04601,
                    5.81626,
                    -3.50926
                ]
            },
            "faces": {
                "north": {
                    "uv": [
                        3,
                        3,
                        3,
                        3
                    ],
                    "rotation": 90,
                    "texture": "#1"
                },
                "east": {
                    "uv": [
                        3,
                        3,
                        3,
                        3
                    ],
                    "rotation": 90,
                    "texture": "#1"
                },
                "south": {
                    "uv": [
                        3,
                        3,
                        3,
                        3
                    ],
                    "rotation": 90,
                    "texture": "#1"
                },
                "west": {
                    "uv": [
                        3,
                        3,
                        3,
                        3
                    ],
                    "rotation": 90,
                    "texture": "#1"
                },
                "up": {
                    "uv": [
                        3,
                        3,
                        3,
                        3
                    ],
                    "rotation": 90,
                    "texture": "#1"
                },
                "down": {
                    "uv": [
                        3,
                        3,
                        3,
                        3
                    ],
                    "rotation": 90,
                    "texture": "#1"
                }
            }
        },
        {
            "from": [
                7.86201,
                4.05626,
                -3.58726
            ],
            "to": [
                8.23001,
                6.13626,
                -3.43126
            ],
            "rotation": {
                "angle": -45,
                "axis": "y",
                "origin": [
                    8.04601,
                    5.14426,
                    -3.50926
                ]
            },
            "faces": {
                "north": {
                    "uv": [
                        3,
                        3,
                        3,
                        3
                    ],
                    "rotation": 90,
                    "texture": "#1"
                },
                "east": {
                    "uv": [
                        3,
                        3,
                        3,
                        3
                    ],
                    "rotation": 90,
                    "texture": "#1"
                },
                "south": {
                    "uv": [
                        3,
                        3,
                        3,
                        3
                    ],
                    "rotation": 90,
                    "texture": "#1"
                },
                "west": {
                    "uv": [
                        3,
                        3,
                        3,
                        3
                    ],
                    "rotation": 90,
                    "texture": "#1"
                },
                "up": {
                    "uv": [
                        3,
                        3,
                        3,
                        3
                    ],
                    "rotation": 90,
                    "texture": "#1"
                },
                "down": {
                    "uv": [
                        3,
                        3,
                        3,
                        3
                    ],
                    "rotation": 90,
                    "texture": "#1"
                }
            }
        },
        {
            "from": [
                8.59318,
                6.26426,
                -4.13532
            ],
            "to": [
                8.74918,
                6.80826,
                -3.76732
            ],
            "rotation": {
                "angle": 45,
                "axis": "y",
                "origin": [
                    8.52599,
                    5.81626,
                    -3.85977
                ]
            },
            "faces": {
                "north": {
                    "uv": [
                        3,
                        3,
                        3,
                        3
                    ],
                    "rotation": 90,
                    "texture": "#1"
                },
                "east": {
                    "uv": [
                        3,
                        3,
                        3,
                        3
                    ],
                    "rotation": 90,
                    "texture": "#1"
                },
                "south": {
                    "uv": [
                        3,
                        3,
                        3,
                        3
                    ],
                    "rotation": 90,
                    "texture": "#1"
                },
                "west": {
                    "uv": [
                        3,
                        3,
                        3,
                        3
                    ],
                    "rotation": 90,
                    "texture": "#1"
                },
                "up": {
                    "uv": [
                        3,
                        3,
                        3,
                        3
                    ],
                    "texture": "#1"
                },
                "down": {
                    "uv": [
                        3,
                        3,
                        3,
                        3
                    ],
                    "rotation": 180,
                    "texture": "#1"
                }
            }
        },
        {
            "from": [
                8.59318,
                4.05626,
                -4.13532
            ],
            "to": [
                8.74918,
                6.13626,
                -3.76732
            ],
            "rotation": {
                "angle": 45,
                "axis": "y",
                "origin": [
                    8.52599,
                    5.14426,
                    -3.85977
                ]
            },
            "faces": {
                "north": {
                    "uv": [
                        3,
                        3,
                        3,
                        3
                    ],
                    "rotation": 90,
                    "texture": "#1"
                },
                "east": {
                    "uv": [
                        3,
                        3,
                        3,
                        3
                    ],
                    "rotation": 90,
                    "texture": "#1"
                },
                "south": {
                    "uv": [
                        3,
                        3,
                        3,
                        3
                    ],
                    "rotation": 90,
                    "texture": "#1"
                },
                "west": {
                    "uv": [
                        3,
                        3,
                        3,
                        3
                    ],
                    "rotation": 90,
                    "texture": "#1"
                },
                "up": {
                    "uv": [
                        3,
                        3,
                        3,
                        3
                    ],
                    "texture": "#1"
                },
                "down": {
                    "uv": [
                        3,
                        3,
                        3,
                        3
                    ],
                    "rotation": 180,
                    "texture": "#1"
                }
            }
        },
        {
            "from": [
                7.96801,
                6.26426,
                -4.21117
            ],
            "to": [
                8.12401,
                6.80826,
                -3.84317
            ],
            "rotation": {
                "angle": -45,
                "axis": "y",
                "origin": [
                    8.04601,
                    5.81626,
                    -4.02717
                ]
            },
            "faces": {
                "north": {
                    "uv": [
                        3,
                        3,
                        3,
                        3
                    ],
                    "rotation": 90,
                    "texture": "#1"
                },
                "east": {
                    "uv": [
                        3,
                        3,
                        3,
                        3
                    ],
                    "rotation": 90,
                    "texture": "#1"
                },
                "south": {
                    "uv": [
                        3,
                        3,
                        3,
                        3
                    ],
                    "rotation": 90,
                    "texture": "#1"
                },
                "west": {
                    "uv": [
                        3,
                        3,
                        3,
                        3
                    ],
                    "rotation": 90,
                    "texture": "#1"
                },
                "up": {
                    "uv": [
                        3,
                        3,
                        3,
                        3
                    ],
                    "texture": "#1"
                },
                "down": {
                    "uv": [
                        3,
                        3,
                        3,
                        3
                    ],
                    "rotation": 180,
                    "texture": "#1"
                }
            }
        },
        {
            "from": [
                7.96801,
                4.05626,
                -4.21117
            ],
            "to": [
                8.12401,
                6.13626,
                -3.84317
            ],
            "rotation": {
                "angle": -45,
                "axis": "y",
                "origin": [
                    8.04601,
                    5.14426,
                    -4.02717
                ]
            },
            "faces": {
                "north": {
                    "uv": [
                        3,
                        3,
                        3,
                        3
                    ],
                    "rotation": 90,
                    "texture": "#1"
                },
                "east": {
                    "uv": [
                        3,
                        3,
                        3,
                        3
                    ],
                    "rotation": 90,
                    "texture": "#1"
                },
                "south": {
                    "uv": [
                        3,
                        3,
                        3,
                        3
                    ],
                    "rotation": 90,
                    "texture": "#1"
                },
                "west": {
                    "uv": [
                        3,
                        3,
                        3,
                        3
                    ],
                    "rotation": 90,
                    "texture": "#1"
                },
                "up": {
                    "uv": [
                        3,
                        3,
                        3,
                        3
                    ],
                    "texture": "#1"
                },
                "down": {
                    "uv": [
                        3,
                        3,
                        3,
                        3
                    ],
                    "rotation": 180,
                    "texture": "#1"
                }
            }
        },
        {
            "from": [
                8.12096,
                6.26426,
                -3.66311
            ],
            "to": [
                8.48896,
                6.80826,
                -3.50711
            ],
            "rotation": {
                "angle": 45,
                "axis": "y",
                "origin": [
                    8.52599,
                    5.81626,
                    -3.85977
                ]
            },
            "faces": {
                "north": {
                    "uv": [
                        3,
                        3,
                        3,
                        3
                    ],
                    "rotation": 90,
                    "texture": "#1"
                },
                "east": {
                    "uv": [
                        3,
                        3,
                        3,
                        3
                    ],
                    "rotation": 90,
                    "texture": "#1"
                },
                "south": {
                    "uv": [
                        3,
                        3,
                        3,
                        3
                    ],
                    "rotation": 90,
                    "texture": "#1"
                },
                "west": {
                    "uv": [
                        3,
                        3,
                        3,
                        3
                    ],
                    "rotation": 90,
                    "texture": "#1"
                },
                "up": {
                    "uv": [
                        3,
                        3,
                        3,
                        3
                    ],
                    "rotation": 270,
                    "texture": "#1"
                },
                "down": {
                    "uv": [
                        3,
                        3,
                        3,
                        3
                    ],
                    "rotation": 270,
                    "texture": "#1"
                }
            }
        },
        {
            "from": [
                8.12096,
                4.05626,
                -3.66311
            ],
            "to": [
                8.48896,
                6.13626,
                -3.50711
            ],
            "rotation": {
                "angle": 45,
                "axis": "y",
                "origin": [
                    8.52599,
                    5.14426,
                    -3.85977
                ]
            },
            "faces": {
                "north": {
                    "uv": [
                        3,
                        3,
                        3,
                        3
                    ],
                    "rotation": 90,
                    "texture": "#1"
                },
                "east": {
                    "uv": [
                        3,
                        3,
                        3,
                        3
                    ],
                    "rotation": 90,
                    "texture": "#1"
                },
                "south": {
                    "uv": [
                        3,
                        3,
                        3,
                        3
                    ],
                    "rotation": 90,
                    "texture": "#1"
                },
                "west": {
                    "uv": [
                        3,
                        3,
                        3,
                        3
                    ],
                    "rotation": 90,
                    "texture": "#1"
                },
                "up": {
                    "uv": [
                        3,
                        3,
                        3,
                        3
                    ],
                    "rotation": 270,
                    "texture": "#1"
                },
                "down": {
                    "uv": [
                        3,
                        3,
                        3,
                        3
                    ],
                    "rotation": 270,
                    "texture": "#1"
                }
            }
        },
        {
            "from": [
                7.86074,
                6.26426,
                -3.95222
            ],
            "to": [
                8.01674,
                7.25626,
                -3.58422
            ],
            "rotation": {
                "angle": 0,
                "axis": "y",
                "origin": [
                    7.93874,
                    5.81626,
                    -3.76822
                ]
            },
            "faces": {
                "north": {
                    "uv": [
                        3,
                        3,
                        3,
                        3
                    ],
                    "rotation": 90,
                    "texture": "#1"
                },
                "east": {
                    "uv": [
                        3,
                        3,
                        3,
                        3
                    ],
                    "rotation": 90,
                    "texture": "#1"
                },
                "south": {
                    "uv": [
                        3,
                        3,
                        3,
                        3
                    ],
                    "rotation": 90,
                    "texture": "#1"
                },
                "west": {
                    "uv": [
                        3,
                        3,
                        3,
                        3
                    ],
                    "rotation": 90,
                    "texture": "#1"
                },
                "up": {
                    "uv": [
                        3,
                        3,
                        3,
                        3
                    ],
                    "rotation": 180,
                    "texture": "#1"
                },
                "down": {
                    "uv": [
                        3,
                        3,
                        3,
                        3
                    ],
                    "texture": "#1"
                }
            }
        },
        {
            "from": [
                7.82874,
                6.96826,
                -3.85622
            ],
            "to": [
                8.78474,
                7.14426,
                -3.68022
            ],
            "rotation": {
                "angle": 45,
                "axis": "x",
                "origin": [
                    7.92274,
                    7.04026,
                    -3.78422
                ]
            },
            "faces": {
                "north": {
                    "uv": [
                        4.375,
                        3.375,
                        4.375,
                        3.375
                    ],
                    "rotation": 90,
                    "texture": "#1"
                },
                "east": {
                    "uv": [
                        4.375,
                        3.375,
                        4.375,
                        3.375
                    ],
                    "rotation": 90,
                    "texture": "#1"
                },
                "south": {
                    "uv": [
                        4.375,
                        3.375,
                        4.375,
                        3.375
                    ],
                    "rotation": 90,
                    "texture": "#1"
                },
                "west": {
                    "uv": [
                        4.375,
                        3.375,
                        4.375,
                        3.375
                    ],
                    "rotation": 90,
                    "texture": "#1"
                },
                "up": {
                    "uv": [
                        4.375,
                        3.375,
                        4.375,
                        3.375
                    ],
                    "rotation": 90,
                    "texture": "#1"
                },
                "down": {
                    "uv": [
                        4.375,
                        3.375,
                        4.375,
                        3.375
                    ],
                    "rotation": 90,
                    "texture": "#1"
                }
            }
        },
        {
            "from": [
                7.86074,
                4.05626,
                -3.95222
            ],
            "to": [
                8.01674,
                6.13626,
                -3.58422
            ],
            "rotation": {
                "angle": 0,
                "axis": "y",
                "origin": [
                    7.93874,
                    5.14426,
                    -3.76822
                ]
            },
            "faces": {
                "north": {
                    "uv": [
                        3,
                        3,
                        3,
                        3
                    ],
                    "rotation": 90,
                    "texture": "#1"
                },
                "east": {
                    "uv": [
                        3,
                        3,
                        3,
                        3
                    ],
                    "rotation": 90,
                    "texture": "#1"
                },
                "south": {
                    "uv": [
                        3,
                        3,
                        3,
                        3
                    ],
                    "rotation": 90,
                    "texture": "#1"
                },
                "west": {
                    "uv": [
                        3,
                        3,
                        3,
                        3
                    ],
                    "rotation": 90,
                    "texture": "#1"
                },
                "up": {
                    "uv": [
                        3,
                        3,
                        3,
                        3
                    ],
                    "rotation": 180,
                    "texture": "#1"
                },
                "down": {
                    "uv": [
                        3,
                        3,
                        3,
                        3
                    ],
                    "texture": "#1"
                }
            }
        },
        {
            "from": [
                8.59318,
                6.26426,
                -3.95222
            ],
            "to": [
                8.74918,
                7.25626,
                -3.58422
            ],
            "rotation": {
                "angle": 0,
                "axis": "y",
                "origin": [
                    8.52599,
                    5.81626,
                    -3.85977
                ]
            },
            "faces": {
                "north": {
                    "uv": [
                        3,
                        3,
                        3,
                        3
                    ],
                    "rotation": 90,
                    "texture": "#1"
                },
                "east": {
                    "uv": [
                        3,
                        3,
                        3,
                        3
                    ],
                    "rotation": 90,
                    "texture": "#1"
                },
                "south": {
                    "uv": [
                        3,
                        3,
                        3,
                        3
                    ],
                    "rotation": 90,
                    "texture": "#1"
                },
                "west": {
                    "uv": [
                        3,
                        3,
                        3,
                        3
                    ],
                    "rotation": 90,
                    "texture": "#1"
                },
                "up": {
                    "uv": [
                        3,
                        3,
                        3,
                        3
                    ],
                    "texture": "#1"
                },
                "down": {
                    "uv": [
                        3,
                        3,
                        3,
                        3
                    ],
                    "rotation": 180,
                    "texture": "#1"
                }
            }
        },
        {
            "from": [
                8.59318,
                4.05626,
                -3.95222
            ],
            "to": [
                8.74918,
                6.13626,
                -3.58422
            ],
            "rotation": {
                "angle": 0,
                "axis": "y",
                "origin": [
                    8.52599,
                    5.14426,
                    -3.85977
                ]
            },
            "faces": {
                "north": {
                    "uv": [
                        3,
                        3,
                        3,
                        3
                    ],
                    "rotation": 90,
                    "texture": "#1"
                },
                "east": {
                    "uv": [
                        3,
                        3,
                        3,
                        3
                    ],
                    "rotation": 90,
                    "texture": "#1"
                },
                "south": {
                    "uv": [
                        3,
                        3,
                        3,
                        3
                    ],
                    "rotation": 90,
                    "texture": "#1"
                },
                "west": {
                    "uv": [
                        3,
                        3,
                        3,
                        3
                    ],
                    "rotation": 90,
                    "texture": "#1"
                },
                "up": {
                    "uv": [
                        3,
                        3,
                        3,
                        3
                    ],
                    "texture": "#1"
                },
                "down": {
                    "uv": [
                        3,
                        3,
                        3,
                        3
                    ],
                    "rotation": 180,
                    "texture": "#1"
                }
            }
        },
        {
            "from": [
                8.12096,
                6.26426,
                -3.48
            ],
            "to": [
                8.48896,
                6.80826,
                -3.324
            ],
            "rotation": {
                "angle": 0,
                "axis": "y",
                "origin": [
                    8.30496,
                    5.81626,
                    -3.402
                ]
            },
            "faces": {
                "north": {
                    "uv": [
                        3,
                        3,
                        3,
                        3
                    ],
                    "rotation": 90,
                    "texture": "#1"
                },
                "east": {
                    "uv": [
                        3,
                        3,
                        3,
                        3
                    ],
                    "rotation": 90,
                    "texture": "#1"
                },
                "south": {
                    "uv": [
                        3,
                        3,
                        3,
                        3
                    ],
                    "rotation": 90,
                    "texture": "#1"
                },
                "west": {
                    "uv": [
                        3,
                        3,
                        3,
                        3
                    ],
                    "rotation": 90,
                    "texture": "#1"
                },
                "up": {
                    "uv": [
                        3,
                        3,
                        3,
                        3
                    ],
                    "rotation": 90,
                    "texture": "#1"
                },
                "down": {
                    "uv": [
                        3,
                        3,
                        3,
                        3
                    ],
                    "rotation": 90,
                    "texture": "#1"
                }
            }
        },
        {
            "from": [
                8.12096,
                4.05626,
                -3.48
            ],
            "to": [
                8.48896,
                6.13626,
                -3.324
            ],
            "rotation": {
                "angle": 0,
                "axis": "y",
                "origin": [
                    8.30496,
                    5.14426,
                    -3.402
                ]
            },
            "faces": {
                "north": {
                    "uv": [
                        3,
                        3,
                        3,
                        3
                    ],
                    "rotation": 90,
                    "texture": "#1"
                },
                "east": {
                    "uv": [
                        3,
                        3,
                        3,
                        3
                    ],
                    "rotation": 90,
                    "texture": "#1"
                },
                "south": {
                    "uv": [
                        3,
                        3,
                        3,
                        3
                    ],
                    "rotation": 90,
                    "texture": "#1"
                },
                "west": {
                    "uv": [
                        3,
                        3,
                        3,
                        3
                    ],
                    "rotation": 90,
                    "texture": "#1"
                },
                "up": {
                    "uv": [
                        3,
                        3,
                        3,
                        3
                    ],
                    "rotation": 90,
                    "texture": "#1"
                },
                "down": {
                    "uv": [
                        3,
                        3,
                        3,
                        3
                    ],
                    "rotation": 90,
                    "texture": "#1"
                }
            }
        },
        {
            "from": [
                7.938,
                3.86426,
                -3.90696
            ],
            "to": [
                8.094,
                6.80826,
                -3.60296
            ],
            "rotation": {
                "angle": 0,
                "axis": "y",
                "origin": [
                    8.016,
                    6.58426,
                    -3.75496
                ]
            },
            "faces": {
                "north": {
                    "uv": [
                        7.625,
                        11.875,
                        7.625,
                        11.875
                    ],
                    "rotation": 90,
                    "texture": "#1"
                },
                "east": {
                    "uv": [
                        7.625,
                        11.875,
                        7.625,
                        11.875
                    ],
                    "rotation": 90,
                    "texture": "#1"
                },
                "south": {
                    "uv": [
                        7.625,
                        11.875,
                        7.625,
                        11.875
                    ],
                    "rotation": 90,
                    "texture": "#1"
                },
                "west": {
                    "uv": [
                        7.625,
                        11.875,
                        7.625,
                        11.875
                    ],
                    "rotation": 90,
                    "texture": "#1"
                },
                "up": {
                    "uv": [
                        7.625,
                        11.875,
                        7.625,
                        11.875
                    ],
                    "rotation": 90,
                    "texture": "#1"
                },
                "down": {
                    "uv": [
                        7.625,
                        11.875,
                        7.625,
                        11.875
                    ],
                    "rotation": 90,
                    "texture": "#1"
                }
            }
        },
        {
            "from": [
                8.06792,
                3.86426,
                -3.90696
            ],
            "to": [
                8.67192,
                6.80826,
                -3.60296
            ],
            "rotation": {
                "angle": 0,
                "axis": "y",
                "origin": [
                    8.47936,
                    6.58426,
                    -3.8272
                ]
            },
            "faces": {
                "north": {
                    "uv": [
                        7.625,
                        11.875,
                        7.625,
                        11.875
                    ],
                    "rotation": 90,
                    "texture": "#1"
                },
                "east": {
                    "uv": [
                        7.625,
                        11.875,
                        7.625,
                        11.875
                    ],
                    "rotation": 90,
                    "texture": "#1"
                },
                "south": {
                    "uv": [
                        7.625,
                        11.875,
                        7.625,
                        11.875
                    ],
                    "rotation": 90,
                    "texture": "#1"
                },
                "west": {
                    "uv": [
                        7.625,
                        11.875,
                        7.625,
                        11.875
                    ],
                    "rotation": 90,
                    "texture": "#1"
                },
                "up": {
                    "uv": [
                        7.625,
                        11.875,
                        7.625,
                        11.875
                    ],
                    "rotation": 90,
                    "texture": "#1"
                },
                "down": {
                    "uv": [
                        7.625,
                        11.875,
                        7.625,
                        11.875
                    ],
                    "rotation": 90,
                    "texture": "#1"
                }
            }
        },
        {
            "from": [
                7.94863,
                3.86426,
                -3.62863
            ],
            "to": [
                8.25263,
                6.80826,
                -3.47263
            ],
            "rotation": {
                "angle": -45,
                "axis": "y",
                "origin": [
                    8.10063,
                    6.58426,
                    -3.55063
                ]
            },
            "faces": {
                "north": {
                    "uv": [
                        7.625,
                        11.875,
                        7.625,
                        11.875
                    ],
                    "rotation": 90,
                    "texture": "#1"
                },
                "east": {
                    "uv": [
                        7.625,
                        11.875,
                        7.625,
                        11.875
                    ],
                    "rotation": 90,
                    "texture": "#1"
                },
                "south": {
                    "uv": [
                        7.625,
                        11.875,
                        7.625,
                        11.875
                    ],
                    "rotation": 90,
                    "texture": "#1"
                },
                "west": {
                    "uv": [
                        7.625,
                        11.875,
                        7.625,
                        11.875
                    ],
                    "rotation": 90,
                    "texture": "#1"
                },
                "up": {
                    "uv": [
                        7.625,
                        11.875,
                        7.625,
                        11.875
                    ],
                    "rotation": 90,
                    "texture": "#1"
                },
                "down": {
                    "uv": [
                        7.625,
                        11.875,
                        7.625,
                        11.875
                    ],
                    "rotation": 90,
                    "texture": "#1"
                }
            }
        },
        {
            "from": [
                8.25512,
                3.86426,
                -4.01976
            ],
            "to": [
                8.55912,
                6.80826,
                -3.86376
            ],
            "rotation": {
                "angle": -45,
                "axis": "y",
                "origin": [
                    8.47936,
                    6.58426,
                    -3.8272
                ]
            },
            "faces": {
                "north": {
                    "uv": [
                        7.625,
                        11.875,
                        7.625,
                        11.875
                    ],
                    "rotation": 90,
                    "texture": "#1"
                },
                "east": {
                    "uv": [
                        7.625,
                        11.875,
                        7.625,
                        11.875
                    ],
                    "rotation": 90,
                    "texture": "#1"
                },
                "south": {
                    "uv": [
                        7.625,
                        11.875,
                        7.625,
                        11.875
                    ],
                    "rotation": 90,
                    "texture": "#1"
                },
                "west": {
                    "uv": [
                        7.625,
                        11.875,
                        7.625,
                        11.875
                    ],
                    "rotation": 90,
                    "texture": "#1"
                },
                "up": {
                    "uv": [
                        7.625,
                        11.875,
                        7.625,
                        11.875
                    ],
                    "rotation": 90,
                    "texture": "#1"
                },
                "down": {
                    "uv": [
                        7.625,
                        11.875,
                        7.625,
                        11.875
                    ],
                    "rotation": 90,
                    "texture": "#1"
                }
            }
        },
        {
            "from": [
                8.15296,
                3.86426,
                -3.544
            ],
            "to": [
                8.45696,
                6.80826,
                -3.388
            ],
            "rotation": {
                "angle": 0,
                "axis": "y",
                "origin": [
                    8.30496,
                    6.58426,
                    -3.466
                ]
            },
            "faces": {
                "north": {
                    "uv": [
                        7.625,
                        11.875,
                        7.625,
                        11.875
                    ],
                    "rotation": 90,
                    "texture": "#1"
                },
                "east": {
                    "uv": [
                        7.625,
                        11.875,
                        7.625,
                        11.875
                    ],
                    "rotation": 90,
                    "texture": "#1"
                },
                "south": {
                    "uv": [
                        7.625,
                        11.875,
                        7.625,
                        11.875
                    ],
                    "rotation": 90,
                    "texture": "#1"
                },
                "west": {
                    "uv": [
                        7.625,
                        11.875,
                        7.625,
                        11.875
                    ],
                    "rotation": 90,
                    "texture": "#1"
                },
                "up": {
                    "uv": [
                        7.625,
                        11.875,
                        7.625,
                        11.875
                    ],
                    "rotation": 90,
                    "texture": "#1"
                },
                "down": {
                    "uv": [
                        7.625,
                        11.875,
                        7.625,
                        11.875
                    ],
                    "rotation": 90,
                    "texture": "#1"
                }
            }
        },
        {
            "from": [
                8.15296,
                3.86426,
                -4.12192
            ],
            "to": [
                8.45696,
                6.80826,
                -3.42192
            ],
            "rotation": {
                "angle": 0,
                "axis": "y",
                "origin": [
                    8.47936,
                    6.58426,
                    -3.8272
                ]
            },
            "faces": {
                "north": {
                    "uv": [
                        7.625,
                        11.875,
                        7.625,
                        11.875
                    ],
                    "rotation": 90,
                    "texture": "#1"
                },
                "east": {
                    "uv": [
                        7.625,
                        11.875,
                        7.625,
                        11.875
                    ],
                    "rotation": 90,
                    "texture": "#1"
                },
                "south": {
                    "uv": [
                        7.625,
                        11.875,
                        7.625,
                        11.875
                    ],
                    "rotation": 90,
                    "texture": "#1"
                },
                "west": {
                    "uv": [
                        7.625,
                        11.875,
                        7.625,
                        11.875
                    ],
                    "rotation": 90,
                    "texture": "#1"
                },
                "up": {
                    "uv": [
                        7.625,
                        11.875,
                        7.625,
                        11.875
                    ],
                    "rotation": 90,
                    "texture": "#1"
                },
                "down": {
                    "uv": [
                        7.625,
                        11.875,
                        7.625,
                        11.875
                    ],
                    "rotation": 90,
                    "texture": "#1"
                }
            }
        },
        {
            "from": [
                7.92896,
                6.74426,
                -4.31392
            ],
            "to": [
                8.68096,
                7.28826,
                -3.26192
            ],
            "rotation": {
                "angle": 0,
                "axis": "y",
                "origin": [
                    8.47936,
                    6.58426,
                    -3.8272
                ]
            },
            "faces": {
                "north": {
                    "uv": [
                        7.625,
                        11.875,
                        7.625,
                        11.875
                    ],
                    "rotation": 90,
                    "texture": "#1"
                },
                "east": {
                    "uv": [
                        7.625,
                        11.875,
                        7.625,
                        11.875
                    ],
                    "rotation": 90,
                    "texture": "#1"
                },
                "south": {
                    "uv": [
                        7.625,
                        11.875,
                        7.625,
                        11.875
                    ],
                    "rotation": 90,
                    "texture": "#1"
                },
                "west": {
                    "uv": [
                        7.625,
                        11.875,
                        7.625,
                        11.875
                    ],
                    "rotation": 90,
                    "texture": "#1"
                },
                "up": {
                    "uv": [
                        7.625,
                        11.875,
                        7.625,
                        11.875
                    ],
                    "rotation": 90,
                    "texture": "#1"
                },
                "down": {
                    "uv": [
                        7.625,
                        11.875,
                        7.625,
                        11.875
                    ],
                    "rotation": 90,
                    "texture": "#1"
                }
            }
        },
        {
            "from": [
                7.94863,
                3.86426,
                -4.03729
            ],
            "to": [
                8.25263,
                6.80826,
                -3.88129
            ],
            "rotation": {
                "angle": 45,
                "axis": "y",
                "origin": [
                    8.10063,
                    6.58426,
                    -3.95929
                ]
            },
            "faces": {
                "north": {
                    "uv": [
                        7.625,
                        11.875,
                        7.625,
                        11.875
                    ],
                    "rotation": 90,
                    "texture": "#1"
                },
                "east": {
                    "uv": [
                        7.625,
                        11.875,
                        7.625,
                        11.875
                    ],
                    "rotation": 90,
                    "texture": "#1"
                },
                "south": {
                    "uv": [
                        7.625,
                        11.875,
                        7.625,
                        11.875
                    ],
                    "rotation": 90,
                    "texture": "#1"
                },
                "west": {
                    "uv": [
                        7.625,
                        11.875,
                        7.625,
                        11.875
                    ],
                    "rotation": 90,
                    "texture": "#1"
                },
                "up": {
                    "uv": [
                        7.625,
                        11.875,
                        7.625,
                        11.875
                    ],
                    "rotation": 90,
                    "texture": "#1"
                },
                "down": {
                    "uv": [
                        7.625,
                        11.875,
                        7.625,
                        11.875
                    ],
                    "rotation": 90,
                    "texture": "#1"
                }
            }
        },
        {
            "from": [
                8.61808,
                3.86426,
                -3.8048
            ],
            "to": [
                8.77408,
                6.80826,
                -3.5008
            ],
            "rotation": {
                "angle": -45,
                "axis": "y",
                "origin": [
                    8.47936,
                    6.58426,
                    -3.8272
                ]
            },
            "faces": {
                "north": {
                    "uv": [
                        7.625,
                        11.875,
                        7.625,
                        11.875
                    ],
                    "rotation": 90,
                    "texture": "#1"
                },
                "east": {
                    "uv": [
                        7.625,
                        11.875,
                        7.625,
                        11.875
                    ],
                    "rotation": 90,
                    "texture": "#1"
                },
                "south": {
                    "uv": [
                        7.625,
                        11.875,
                        7.625,
                        11.875
                    ],
                    "rotation": 90,
                    "texture": "#1"
                },
                "west": {
                    "uv": [
                        7.625,
                        11.875,
                        7.625,
                        11.875
                    ],
                    "rotation": 90,
                    "texture": "#1"
                },
                "up": {
                    "uv": [
                        7.625,
                        11.875,
                        7.625,
                        11.875
                    ],
                    "rotation": 90,
                    "texture": "#1"
                },
                "down": {
                    "uv": [
                        7.625,
                        11.875,
                        7.625,
                        11.875
                    ],
                    "rotation": 90,
                    "texture": "#1"
                }
            }
        },
        {
            "from": [
                8.12096,
                6.26426,
                -4.21243
            ],
            "to": [
                8.48896,
                6.80826,
                -4.05643
            ],
            "rotation": {
                "angle": 0,
                "axis": "y",
                "origin": [
                    8.52599,
                    5.81626,
                    -3.85977
                ]
            },
            "faces": {
                "north": {
                    "uv": [
                        3,
                        3,
                        3,
                        3
                    ],
                    "rotation": 90,
                    "texture": "#1"
                },
                "east": {
                    "uv": [
                        3,
                        3,
                        3,
                        3
                    ],
                    "rotation": 90,
                    "texture": "#1"
                },
                "south": {
                    "uv": [
                        3,
                        3,
                        3,
                        3
                    ],
                    "rotation": 90,
                    "texture": "#1"
                },
                "west": {
                    "uv": [
                        3,
                        3,
                        3,
                        3
                    ],
                    "rotation": 90,
                    "texture": "#1"
                },
                "up": {
                    "uv": [
                        3,
                        3,
                        3,
                        3
                    ],
                    "rotation": 270,
                    "texture": "#1"
                },
                "down": {
                    "uv": [
                        3,
                        3,
                        3,
                        3
                    ],
                    "rotation": 270,
                    "texture": "#1"
                }
            }
        },
        {
            "from": [
                8.12096,
                4.05626,
                -4.21243
            ],
            "to": [
                8.48896,
                6.13626,
                -4.05643
            ],
            "rotation": {
                "angle": 0,
                "axis": "y",
                "origin": [
                    8.52599,
                    5.14426,
                    -3.85977
                ]
            },
            "faces": {
                "north": {
                    "uv": [
                        3,
                        3,
                        3,
                        3
                    ],
                    "rotation": 90,
                    "texture": "#1"
                },
                "east": {
                    "uv": [
                        3,
                        3,
                        3,
                        3
                    ],
                    "rotation": 90,
                    "texture": "#1"
                },
                "south": {
                    "uv": [
                        3,
                        3,
                        3,
                        3
                    ],
                    "rotation": 90,
                    "texture": "#1"
                },
                "west": {
                    "uv": [
                        3,
                        3,
                        3,
                        3
                    ],
                    "rotation": 90,
                    "texture": "#1"
                },
                "up": {
                    "uv": [
                        3,
                        3,
                        3,
                        3
                    ],
                    "rotation": 270,
                    "texture": "#1"
                },
                "down": {
                    "uv": [
                        3,
                        3,
                        3,
                        3
                    ],
                    "rotation": 270,
                    "texture": "#1"
                }
            }
        }
    ],
    "display": {
        "thirdperson_righthand": {
            "translation": [
                -0.25,
                1,
                6.25
            ]
        },
        "thirdperson_lefthand": {
            "translation": [
                0,
                1,
                6.25
            ]
        },
        "firstperson_righthand": {
            "translation": [
                -2.25,
                3,
                5.75
            ]
        },
        "firstperson_lefthand": {
            "translation": [
                -1.75,
                3.5,
                6.25
            ]
        },
        "ground": {
            "translation": [
                0,
                0,
                8.5
            ]
        },
        "gui": {
            "rotation": [
                31,
                33,
                -21
            ],
            "translation": [
                4,
                -1.25,
                0
            ],
            "scale": [
                0.86,
                0.86,
                0.86
            ]
        },
        "fixed": {
            "rotation": [
                90,
                45,
                -90
            ],
            "translation": [
                5.75,
                -4.25,
                -1.75
            ]
        }
    }
}