{
    "textures": {
        "0": "gci:items/common/mpz",
        "1": "gci:items/common/all_in_one",
        "particle": "gci:items/common/mpz"
    },
    "elements": [
        {
            "from": [
                8.20294,
                6.6988,
                -6.63068
            ],
            "to": [
                8.37394,
                6.7558,
                -5.83268
            ],
            "rotation": {
                "angle": 0,
                "axis": "y",
                "origin": [
                    8.23795,
                    6.7273,
                    -5.93236
                ]
            },
            "faces": {
                "north": {
                    "uv": [
                        6,
                        3.33333,
                        7,
                        4.66667
                    ],
                    "rotation": 90,
                    "texture": "#0"
                },
                "east": {
                    "uv": [
                        6,
                        3.33333,
                        7,
                        4.66667
                    ],
                    "rotation": 90,
                    "texture": "#0"
                },
                "south": {
                    "uv": [
                        6,
                        3.33333,
                        7,
                        4.66667
                    ],
                    "rotation": 90,
                    "texture": "#0"
                },
                "west": {
                    "uv": [
                        6,
                        3.33333,
                        7,
                        4.66667
                    ],
                    "rotation": 90,
                    "texture": "#0"
                },
                "up": {
                    "uv": [
                        6,
                        3.33333,
                        7,
                        4.66667
                    ],
                    "rotation": 90,
                    "texture": "#0"
                },
                "down": {
                    "uv": [
                        6,
                        3.33333,
                        7,
                        4.66667
                    ],
                    "rotation": 90,
                    "texture": "#0"
                }
            }
        },
        {
            "from": [
                8.18014,
                6.75578,
                -6.28868
            ],
            "to": [
                8.39674,
                6.81278,
                -6.17468
            ],
            "rotation": {
                "angle": 0,
                "axis": "y",
                "origin": [
                    8.23795,
                    6.7273,
                    -6.16036
                ]
            },
            "faces": {
                "north": {
                    "uv": [
                        6,
                        3.33333,
                        7,
                        4.66667
                    ],
                    "rotation": 90,
                    "texture": "#0"
                },
                "east": {
                    "uv": [
                        6,
                        3.33333,
                        7,
                        4.66667
                    ],
                    "rotation": 90,
                    "texture": "#0"
                },
                "south": {
                    "uv": [
                        6,
                        3.33333,
                        7,
                        4.66667
                    ],
                    "rotation": 90,
                    "texture": "#0"
                },
                "west": {
                    "uv": [
                        6,
                        3.33333,
                        7,
                        4.66667
                    ],
                    "rotation": 90,
                    "texture": "#0"
                },
                "up": {
                    "uv": [
                        6,
                        3.33333,
                        7,
                        4.66667
                    ],
                    "rotation": 90,
                    "texture": "#0"
                },
                "down": {
                    "uv": [
                        6,
                        3.33333,
                        7,
                        4.66667
                    ],
                    "rotation": 90,
                    "texture": "#0"
                }
            }
        },
        {
            "from": [
                8.18014,
                6.28986,
                -6.28868
            ],
            "to": [
                8.39674,
                6.34686,
                -6.17468
            ],
            "rotation": {
                "angle": 0,
                "axis": "y",
                "origin": [
                    8.23795,
                    6.26138,
                    -6.16036
                ]
            },
            "faces": {
                "north": {
                    "uv": [
                        6,
                        3.33333,
                        7,
                        4.66667
                    ],
                    "rotation": 90,
                    "texture": "#0"
                },
                "east": {
                    "uv": [
                        6,
                        3.33333,
                        7,
                        4.66667
                    ],
                    "rotation": 90,
                    "texture": "#0"
                },
                "south": {
                    "uv": [
                        6,
                        3.33333,
                        7,
                        4.66667
                    ],
                    "rotation": 90,
                    "texture": "#0"
                },
                "west": {
                    "uv": [
                        6,
                        3.33333,
                        7,
                        4.66667
                    ],
                    "rotation": 90,
                    "texture": "#0"
                },
                "up": {
                    "uv": [
                        6,
                        3.33333,
                        7,
                        4.66667
                    ],
                    "rotation": 90,
                    "texture": "#0"
                },
                "down": {
                    "uv": [
                        6,
                        3.33333,
                        7,
                        4.66667
                    ],
                    "rotation": 90,
                    "texture": "#0"
                }
            }
        },
        {
            "from": [
                8.4929,
                6.44302,
                -6.28868
            ],
            "to": [
                8.5499,
                6.65962,
                -6.17468
            ],
            "rotation": {
                "angle": 0,
                "axis": "y",
                "origin": [
                    8.57838,
                    6.49513,
                    -6.16036
                ]
            },
            "faces": {
                "north": {
                    "uv": [
                        6,
                        3.33333,
                        7,
                        4.66667
                    ],
                    "rotation": 180,
                    "texture": "#0"
                },
                "east": {
                    "uv": [
                        6,
                        3.33333,
                        7,
                        4.66667
                    ],
                    "rotation": 180,
                    "texture": "#0"
                },
                "south": {
                    "uv": [
                        6,
                        3.33333,
                        7,
                        4.66667
                    ],
                    "rotation": 180,
                    "texture": "#0"
                },
                "west": {
                    "uv": [
                        6,
                        3.33333,
                        7,
                        4.66667
                    ],
                    "rotation": 180,
                    "texture": "#0"
                },
                "up": {
                    "uv": [
                        6,
                        3.33333,
                        7,
                        4.66667
                    ],
                    "rotation": 180,
                    "texture": "#0"
                },
                "down": {
                    "uv": [
                        6,
                        3.33333,
                        7,
                        4.66667
                    ],
                    "rotation": 180,
                    "texture": "#0"
                }
            }
        },
        {
            "from": [
                8.02698,
                6.44302,
                -6.28868
            ],
            "to": [
                8.08398,
                6.65962,
                -6.17468
            ],
            "rotation": {
                "angle": 0,
                "axis": "y",
                "origin": [
                    8.11246,
                    6.49513,
                    -6.16036
                ]
            },
            "faces": {
                "north": {
                    "uv": [
                        6,
                        3.33333,
                        7,
                        4.66667
                    ],
                    "rotation": 180,
                    "texture": "#0"
                },
                "east": {
                    "uv": [
                        6,
                        3.33333,
                        7,
                        4.66667
                    ],
                    "rotation": 180,
                    "texture": "#0"
                },
                "south": {
                    "uv": [
                        6,
                        3.33333,
                        7,
                        4.66667
                    ],
                    "rotation": 180,
                    "texture": "#0"
                },
                "west": {
                    "uv": [
                        6,
                        3.33333,
                        7,
                        4.66667
                    ],
                    "rotation": 180,
                    "texture": "#0"
                },
                "up": {
                    "uv": [
                        6,
                        3.33333,
                        7,
                        4.66667
                    ],
                    "rotation": 180,
                    "texture": "#0"
                },
                "down": {
                    "uv": [
                        6,
                        3.33333,
                        7,
                        4.66667
                    ],
                    "rotation": 180,
                    "texture": "#0"
                }
            }
        },
        {
            "from": [
                8.07216,
                6.6645,
                -6.28868
            ],
            "to": [
                8.28876,
                6.7215,
                -6.17468
            ],
            "rotation": {
                "angle": 45,
                "axis": "z",
                "origin": [
                    8.12427,
                    6.63602,
                    -6.16036
                ]
            },
            "faces": {
                "north": {
                    "uv": [
                        6,
                        3.33333,
                        7,
                        4.66667
                    ],
                    "rotation": 90,
                    "texture": "#0"
                },
                "east": {
                    "uv": [
                        6,
                        3.33333,
                        7,
                        4.66667
                    ],
                    "rotation": 90,
                    "texture": "#0"
                },
                "south": {
                    "uv": [
                        6,
                        3.33333,
                        7,
                        4.66667
                    ],
                    "rotation": 90,
                    "texture": "#0"
                },
                "west": {
                    "uv": [
                        6,
                        3.33333,
                        7,
                        4.66667
                    ],
                    "rotation": 90,
                    "texture": "#0"
                },
                "up": {
                    "uv": [
                        6,
                        3.33333,
                        7,
                        4.66667
                    ],
                    "rotation": 90,
                    "texture": "#0"
                },
                "down": {
                    "uv": [
                        6,
                        3.33333,
                        7,
                        4.66667
                    ],
                    "rotation": 90,
                    "texture": "#0"
                }
            }
        },
        {
            "from": [
                8.40161,
                6.33505,
                -6.28868
            ],
            "to": [
                8.61821,
                6.39205,
                -6.17468
            ],
            "rotation": {
                "angle": 45,
                "axis": "z",
                "origin": [
                    8.45372,
                    6.30657,
                    -6.16036
                ]
            },
            "faces": {
                "north": {
                    "uv": [
                        6,
                        3.33333,
                        7,
                        4.66667
                    ],
                    "rotation": 90,
                    "texture": "#0"
                },
                "east": {
                    "uv": [
                        6,
                        3.33333,
                        7,
                        4.66667
                    ],
                    "rotation": 90,
                    "texture": "#0"
                },
                "south": {
                    "uv": [
                        6,
                        3.33333,
                        7,
                        4.66667
                    ],
                    "rotation": 90,
                    "texture": "#0"
                },
                "west": {
                    "uv": [
                        6,
                        3.33333,
                        7,
                        4.66667
                    ],
                    "rotation": 90,
                    "texture": "#0"
                },
                "up": {
                    "uv": [
                        6,
                        3.33333,
                        7,
                        4.66667
                    ],
                    "rotation": 90,
                    "texture": "#0"
                },
                "down": {
                    "uv": [
                        6,
                        3.33333,
                        7,
                        4.66667
                    ],
                    "rotation": 90,
                    "texture": "#0"
                }
            }
        },
        {
            "from": [
                8.32103,
                6.74397,
                -6.28868
            ],
            "to": [
                8.53763,
                6.80097,
                -6.17468
            ],
            "rotation": {
                "angle": -45,
                "axis": "z",
                "origin": [
                    8.37314,
                    6.71549,
                    -6.16036
                ]
            },
            "faces": {
                "north": {
                    "uv": [
                        6,
                        3.33333,
                        7,
                        4.66667
                    ],
                    "rotation": 90,
                    "texture": "#0"
                },
                "east": {
                    "uv": [
                        6,
                        3.33333,
                        7,
                        4.66667
                    ],
                    "rotation": 90,
                    "texture": "#0"
                },
                "south": {
                    "uv": [
                        6,
                        3.33333,
                        7,
                        4.66667
                    ],
                    "rotation": 90,
                    "texture": "#0"
                },
                "west": {
                    "uv": [
                        6,
                        3.33333,
                        7,
                        4.66667
                    ],
                    "rotation": 90,
                    "texture": "#0"
                },
                "up": {
                    "uv": [
                        6,
                        3.33333,
                        7,
                        4.66667
                    ],
                    "rotation": 90,
                    "texture": "#0"
                },
                "down": {
                    "uv": [
                        6,
                        3.33333,
                        7,
                        4.66667
                    ],
                    "rotation": 90,
                    "texture": "#0"
                }
            }
        },
        {
            "from": [
                7.99159,
                6.41451,
                -6.28868
            ],
            "to": [
                8.20819,
                6.47151,
                -6.17468
            ],
            "rotation": {
                "angle": -45,
                "axis": "z",
                "origin": [
                    8.0437,
                    6.38603,
                    -6.16036
                ]
            },
            "faces": {
                "north": {
                    "uv": [
                        6,
                        3.33333,
                        7,
                        4.66667
                    ],
                    "rotation": 90,
                    "texture": "#0"
                },
                "east": {
                    "uv": [
                        6,
                        3.33333,
                        7,
                        4.66667
                    ],
                    "rotation": 90,
                    "texture": "#0"
                },
                "south": {
                    "uv": [
                        6,
                        3.33333,
                        7,
                        4.66667
                    ],
                    "rotation": 90,
                    "texture": "#0"
                },
                "west": {
                    "uv": [
                        6,
                        3.33333,
                        7,
                        4.66667
                    ],
                    "rotation": 90,
                    "texture": "#0"
                },
                "up": {
                    "uv": [
                        6,
                        3.33333,
                        7,
                        4.66667
                    ],
                    "rotation": 90,
                    "texture": "#0"
                },
                "down": {
                    "uv": [
                        6,
                        3.33333,
                        7,
                        4.66667
                    ],
                    "rotation": 90,
                    "texture": "#0"
                }
            }
        },
        {
            "from": [
                8.08549,
                6.62654,
                -6.63068
            ],
            "to": [
                8.25649,
                6.68354,
                -5.83268
            ],
            "rotation": {
                "angle": 45,
                "axis": "z",
                "origin": [
                    8.14249,
                    6.65504,
                    -5.88968
                ]
            },
            "faces": {
                "north": {
                    "uv": [
                        6,
                        3.33333,
                        7,
                        4.66667
                    ],
                    "rotation": 90,
                    "texture": "#0"
                },
                "east": {
                    "uv": [
                        6,
                        3.33333,
                        7,
                        4.66667
                    ],
                    "rotation": 90,
                    "texture": "#0"
                },
                "south": {
                    "uv": [
                        6,
                        3.33333,
                        7,
                        4.66667
                    ],
                    "rotation": 90,
                    "texture": "#0"
                },
                "west": {
                    "uv": [
                        6,
                        3.33333,
                        7,
                        4.66667
                    ],
                    "rotation": 90,
                    "texture": "#0"
                },
                "up": {
                    "uv": [
                        6,
                        3.33333,
                        7,
                        4.66667
                    ],
                    "rotation": 90,
                    "texture": "#0"
                },
                "down": {
                    "uv": [
                        6,
                        3.33333,
                        7,
                        4.66667
                    ],
                    "rotation": 90,
                    "texture": "#0"
                }
            }
        },
        {
            "from": [
                8.08202,
                6.46389,
                -6.63068
            ],
            "to": [
                8.13902,
                6.63489,
                -5.83268
            ],
            "rotation": {
                "angle": 0,
                "axis": "y",
                "origin": [
                    8.46962,
                    6.89529,
                    -6.18608
                ]
            },
            "faces": {
                "north": {
                    "uv": [
                        6,
                        3.33333,
                        7,
                        4.66667
                    ],
                    "rotation": 270,
                    "texture": "#0"
                },
                "east": {
                    "uv": [
                        6,
                        3.33333,
                        7,
                        4.66667
                    ],
                    "rotation": 270,
                    "texture": "#0"
                },
                "south": {
                    "uv": [
                        6,
                        3.33333,
                        7,
                        4.66667
                    ],
                    "rotation": 270,
                    "texture": "#0"
                },
                "west": {
                    "uv": [
                        6,
                        3.33333,
                        7,
                        4.66667
                    ],
                    "rotation": 270,
                    "texture": "#0"
                },
                "up": {
                    "uv": [
                        6,
                        3.33333,
                        7,
                        4.66667
                    ],
                    "rotation": 270,
                    "texture": "#0"
                },
                "down": {
                    "uv": [
                        6,
                        3.33333,
                        7,
                        4.66667
                    ],
                    "rotation": 270,
                    "texture": "#0"
                }
            }
        },
        {
            "from": [
                8.15429,
                6.34643,
                -6.63068
            ],
            "to": [
                8.21129,
                6.51743,
                -5.83268
            ],
            "rotation": {
                "angle": 45,
                "axis": "z",
                "origin": [
                    8.18279,
                    6.40343,
                    -5.88968
                ]
            },
            "faces": {
                "north": {
                    "uv": [
                        6,
                        3.33333,
                        7,
                        4.66667
                    ],
                    "rotation": 270,
                    "texture": "#0"
                },
                "east": {
                    "uv": [
                        6,
                        3.33333,
                        7,
                        4.66667
                    ],
                    "rotation": 270,
                    "texture": "#0"
                },
                "south": {
                    "uv": [
                        6,
                        3.33333,
                        7,
                        4.66667
                    ],
                    "rotation": 270,
                    "texture": "#0"
                },
                "west": {
                    "uv": [
                        6,
                        3.33333,
                        7,
                        4.66667
                    ],
                    "rotation": 270,
                    "texture": "#0"
                },
                "up": {
                    "uv": [
                        6,
                        3.33333,
                        7,
                        4.66667
                    ],
                    "rotation": 270,
                    "texture": "#0"
                },
                "down": {
                    "uv": [
                        6,
                        3.33333,
                        7,
                        4.66667
                    ],
                    "rotation": 270,
                    "texture": "#0"
                }
            }
        },
        {
            "from": [
                8.4059,
                6.59804,
                -6.63068
            ],
            "to": [
                8.4629,
                6.76904,
                -5.83268
            ],
            "rotation": {
                "angle": 45,
                "axis": "z",
                "origin": [
                    8.4344,
                    6.65504,
                    -5.88968
                ]
            },
            "faces": {
                "north": {
                    "uv": [
                        6,
                        3.33333,
                        7,
                        4.66667
                    ],
                    "rotation": 270,
                    "texture": "#0"
                },
                "east": {
                    "uv": [
                        6,
                        3.33333,
                        7,
                        4.66667
                    ],
                    "rotation": 270,
                    "texture": "#0"
                },
                "south": {
                    "uv": [
                        6,
                        3.33333,
                        7,
                        4.66667
                    ],
                    "rotation": 270,
                    "texture": "#0"
                },
                "west": {
                    "uv": [
                        6,
                        3.33333,
                        7,
                        4.66667
                    ],
                    "rotation": 270,
                    "texture": "#0"
                },
                "up": {
                    "uv": [
                        6,
                        3.33333,
                        7,
                        4.66667
                    ],
                    "rotation": 270,
                    "texture": "#0"
                },
                "down": {
                    "uv": [
                        6,
                        3.33333,
                        7,
                        4.66667
                    ],
                    "rotation": 270,
                    "texture": "#0"
                }
            }
        },
        {
            "from": [
                8.43786,
                6.46389,
                -6.63068
            ],
            "to": [
                8.49486,
                6.63489,
                -5.83268
            ],
            "rotation": {
                "angle": 0,
                "axis": "y",
                "origin": [
                    8.75707,
                    6.66729,
                    -6.18608
                ]
            },
            "faces": {
                "north": {
                    "uv": [
                        6,
                        3.33333,
                        7,
                        4.66667
                    ],
                    "rotation": 270,
                    "texture": "#0"
                },
                "east": {
                    "uv": [
                        6,
                        3.33333,
                        7,
                        4.66667
                    ],
                    "rotation": 270,
                    "texture": "#0"
                },
                "south": {
                    "uv": [
                        6,
                        3.33333,
                        7,
                        4.66667
                    ],
                    "rotation": 270,
                    "texture": "#0"
                },
                "west": {
                    "uv": [
                        6,
                        3.33333,
                        7,
                        4.66667
                    ],
                    "rotation": 270,
                    "texture": "#0"
                },
                "up": {
                    "uv": [
                        6,
                        3.33333,
                        7,
                        4.66667
                    ],
                    "rotation": 270,
                    "texture": "#0"
                },
                "down": {
                    "uv": [
                        6,
                        3.33333,
                        7,
                        4.66667
                    ],
                    "rotation": 270,
                    "texture": "#0"
                }
            }
        },
        {
            "from": [
                8.3371,
                6.37493,
                -6.63068
            ],
            "to": [
                8.5081,
                6.43193,
                -5.83268
            ],
            "rotation": {
                "angle": 45,
                "axis": "z",
                "origin": [
                    8.3941,
                    6.40343,
                    -5.88968
                ]
            },
            "faces": {
                "north": {
                    "uv": [
                        6,
                        3.33333,
                        7,
                        4.66667
                    ],
                    "rotation": 90,
                    "texture": "#0"
                },
                "east": {
                    "uv": [
                        6,
                        3.33333,
                        7,
                        4.66667
                    ],
                    "rotation": 90,
                    "texture": "#0"
                },
                "south": {
                    "uv": [
                        6,
                        3.33333,
                        7,
                        4.66667
                    ],
                    "rotation": 90,
                    "texture": "#0"
                },
                "west": {
                    "uv": [
                        6,
                        3.33333,
                        7,
                        4.66667
                    ],
                    "rotation": 90,
                    "texture": "#0"
                },
                "up": {
                    "uv": [
                        6,
                        3.33333,
                        7,
                        4.66667
                    ],
                    "rotation": 90,
                    "texture": "#0"
                },
                "down": {
                    "uv": [
                        6,
                        3.33333,
                        7,
                        4.66667
                    ],
                    "rotation": 90,
                    "texture": "#0"
                }
            }
        },
        {
            "from": [
                8.20294,
                6.34297,
                -6.63068
            ],
            "to": [
                8.37394,
                6.39997,
                -5.83268
            ],
            "rotation": {
                "angle": 0,
                "axis": "y",
                "origin": [
                    8.26644,
                    6.37147,
                    -5.93236
                ]
            },
            "faces": {
                "north": {
                    "uv": [
                        6,
                        3.33333,
                        7,
                        4.66667
                    ],
                    "rotation": 90,
                    "texture": "#0"
                },
                "east": {
                    "uv": [
                        6,
                        3.33333,
                        7,
                        4.66667
                    ],
                    "rotation": 90,
                    "texture": "#0"
                },
                "south": {
                    "uv": [
                        6,
                        3.33333,
                        7,
                        4.66667
                    ],
                    "rotation": 90,
                    "texture": "#0"
                },
                "west": {
                    "uv": [
                        6,
                        3.33333,
                        7,
                        4.66667
                    ],
                    "rotation": 90,
                    "texture": "#0"
                },
                "up": {
                    "uv": [
                        6,
                        3.33333,
                        7,
                        4.66667
                    ],
                    "rotation": 90,
                    "texture": "#0"
                },
                "down": {
                    "uv": [
                        6,
                        3.33333,
                        7,
                        4.66667
                    ],
                    "rotation": 90,
                    "texture": "#0"
                }
            }
        },
        {
            "from": [
                7.94644,
                6.16708,
                -5.80988
            ],
            "to": [
                8.63044,
                6.39508,
                -3.18788
            ],
            "rotation": {
                "angle": 0,
                "axis": "y",
                "origin": [
                    8.28844,
                    7.11912,
                    0.67332
                ]
            },
            "faces": {
                "north": {
                    "uv": [
                        0,
                        0,
                        2.33333,
                        2.33333
                    ],
                    "texture": "#0"
                },
                "east": {
                    "uv": [
                        0,
                        0,
                        2.33333,
                        2.33333
                    ],
                    "texture": "#0"
                },
                "south": {
                    "uv": [
                        0,
                        0,
                        2.33333,
                        2.33333
                    ],
                    "texture": "#0"
                },
                "west": {
                    "uv": [
                        0,
                        0,
                        2.33333,
                        2.33333
                    ],
                    "texture": "#0"
                },
                "up": {
                    "uv": [
                        0,
                        0,
                        2.33333,
                        2.33333
                    ],
                    "texture": "#0"
                },
                "down": {
                    "uv": [
                        0,
                        0,
                        2.33333,
                        2.33333
                    ],
                    "texture": "#0"
                }
            }
        },
        {
            "from": [
                8.06044,
                6.39508,
                -5.80988
            ],
            "to": [
                8.63044,
                6.73708,
                -3.07388
            ],
            "rotation": {
                "angle": 0,
                "axis": "y",
                "origin": [
                    8.40244,
                    7.34712,
                    0.67332
                ]
            },
            "faces": {
                "north": {
                    "uv": [
                        0,
                        0,
                        2.33333,
                        2.33333
                    ],
                    "texture": "#0"
                },
                "east": {
                    "uv": [
                        0,
                        0,
                        2.33333,
                        2.33333
                    ],
                    "texture": "#0"
                },
                "south": {
                    "uv": [
                        0,
                        0,
                        2.33333,
                        2.33333
                    ],
                    "texture": "#0"
                },
                "west": {
                    "uv": [
                        0,
                        0,
                        2.33333,
                        2.33333
                    ],
                    "texture": "#0"
                },
                "up": {
                    "uv": [
                        0,
                        0,
                        2.33333,
                        2.33333
                    ],
                    "texture": "#0"
                },
                "down": {
                    "uv": [
                        0,
                        0,
                        2.33333,
                        2.33333
                    ],
                    "texture": "#0"
                }
            }
        },
        {
            "from": [
                7.94644,
                6.39508,
                -5.80988
            ],
            "to": [
                8.06044,
                6.73708,
                -5.58188
            ],
            "rotation": {
                "angle": 0,
                "axis": "y",
                "origin": [
                    8.28844,
                    7.34712,
                    0.67332
                ]
            },
            "faces": {
                "north": {
                    "uv": [
                        0,
                        0,
                        3.032,
                        2.394
                    ],
                    "texture": "#0"
                },
                "east": {
                    "uv": [
                        0,
                        0,
                        3.032,
                        2.394
                    ],
                    "texture": "#0"
                },
                "south": {
                    "uv": [
                        0,
                        0,
                        3.032,
                        2.394
                    ],
                    "texture": "#0"
                },
                "west": {
                    "uv": [
                        0,
                        0,
                        3.032,
                        2.394
                    ],
                    "texture": "#0"
                },
                "up": {
                    "uv": [
                        0,
                        0,
                        3.032,
                        2.394
                    ],
                    "rotation": 270,
                    "texture": "#0"
                },
                "down": {
                    "uv": [
                        0,
                        0,
                        3.032,
                        2.394
                    ],
                    "rotation": 90,
                    "texture": "#0"
                }
            }
        },
        {
            "from": [
                7.91224,
                6.85108,
                -2.95988
            ],
            "to": [
                8.02844,
                7.19708,
                -2.73188
            ],
            "rotation": {
                "angle": 0,
                "axis": "y",
                "origin": [
                    8.28844,
                    7.80312,
                    3.52332
                ]
            },
            "faces": {
                "north": {
                    "uv": [
                        0,
                        0,
                        2.33333,
                        2.33333
                    ],
                    "texture": "#0"
                },
                "east": {
                    "uv": [
                        0,
                        0,
                        2.33333,
                        2.33333
                    ],
                    "texture": "#0"
                },
                "south": {
                    "uv": [
                        0,
                        0,
                        2.33333,
                        2.33333
                    ],
                    "texture": "#0"
                },
                "west": {
                    "uv": [
                        0,
                        0,
                        2.33333,
                        2.33333
                    ],
                    "texture": "#0"
                },
                "up": {
                    "uv": [
                        0,
                        0,
                        2.33333,
                        2.33333
                    ],
                    "texture": "#0"
                },
                "down": {
                    "uv": [
                        0,
                        0,
                        2.33333,
                        2.33333
                    ],
                    "texture": "#0"
                }
            }
        },
        {
            "from": [
                7.91224,
                6.85108,
                -5.35388
            ],
            "to": [
                8.02844,
                7.19708,
                -5.12588
            ],
            "rotation": {
                "angle": 0,
                "axis": "y",
                "origin": [
                    8.28844,
                    7.80312,
                    1.12932
                ]
            },
            "faces": {
                "north": {
                    "uv": [
                        0,
                        0,
                        2.33333,
                        2.33333
                    ],
                    "texture": "#0"
                },
                "east": {
                    "uv": [
                        0,
                        0,
                        2.33333,
                        2.33333
                    ],
                    "texture": "#0"
                },
                "south": {
                    "uv": [
                        0,
                        0,
                        2.33333,
                        2.33333
                    ],
                    "texture": "#0"
                },
                "west": {
                    "uv": [
                        0,
                        0,
                        2.33333,
                        2.33333
                    ],
                    "texture": "#0"
                },
                "up": {
                    "uv": [
                        0,
                        0,
                        2.33333,
                        2.33333
                    ],
                    "texture": "#0"
                },
                "down": {
                    "uv": [
                        0,
                        0,
                        2.33333,
                        2.33333
                    ],
                    "texture": "#0"
                }
            }
        },
        {
            "from": [
                8.54844,
                6.85108,
                -2.95988
            ],
            "to": [
                8.66464,
                7.19708,
                -2.73188
            ],
            "rotation": {
                "angle": 0,
                "axis": "y",
                "origin": [
                    8.85844,
                    7.80312,
                    3.52332
                ]
            },
            "faces": {
                "north": {
                    "uv": [
                        0,
                        0,
                        3.032,
                        2.394
                    ],
                    "texture": "#0"
                },
                "east": {
                    "uv": [
                        0,
                        0,
                        3.032,
                        2.394
                    ],
                    "texture": "#0"
                },
                "south": {
                    "uv": [
                        0,
                        0,
                        3.032,
                        2.394
                    ],
                    "texture": "#0"
                },
                "west": {
                    "uv": [
                        0,
                        0,
                        3.032,
                        2.394
                    ],
                    "texture": "#0"
                },
                "up": {
                    "uv": [
                        0,
                        0,
                        3.032,
                        2.394
                    ],
                    "rotation": 270,
                    "texture": "#0"
                },
                "down": {
                    "uv": [
                        0,
                        0,
                        3.032,
                        2.394
                    ],
                    "rotation": 90,
                    "texture": "#0"
                }
            }
        },
        {
            "from": [
                8.54844,
                6.85108,
                -5.35388
            ],
            "to": [
                8.66464,
                7.19708,
                -5.12588
            ],
            "rotation": {
                "angle": 0,
                "axis": "y",
                "origin": [
                    8.85844,
                    7.80312,
                    1.12932
                ]
            },
            "faces": {
                "north": {
                    "uv": [
                        0,
                        0,
                        3.032,
                        2.394
                    ],
                    "texture": "#0"
                },
                "east": {
                    "uv": [
                        0,
                        0,
                        3.032,
                        2.394
                    ],
                    "texture": "#0"
                },
                "south": {
                    "uv": [
                        0,
                        0,
                        3.032,
                        2.394
                    ],
                    "texture": "#0"
                },
                "west": {
                    "uv": [
                        0,
                        0,
                        3.032,
                        2.394
                    ],
                    "texture": "#0"
                },
                "up": {
                    "uv": [
                        0,
                        0,
                        3.032,
                        2.394
                    ],
                    "rotation": 270,
                    "texture": "#0"
                },
                "down": {
                    "uv": [
                        0,
                        0,
                        3.032,
                        2.394
                    ],
                    "rotation": 90,
                    "texture": "#0"
                }
            }
        },
        {
            "from": [
                7.94644,
                6.71428,
                -5.80988
            ],
            "to": [
                8.63044,
                7.16628,
                -2.61788
            ],
            "rotation": {
                "angle": 0,
                "axis": "y",
                "origin": [
                    8.28844,
                    7.57512,
                    0.67332
                ]
            },
            "faces": {
                "north": {
                    "uv": [
                        0,
                        0,
                        2.33333,
                        2.33333
                    ],
                    "texture": "#0"
                },
                "east": {
                    "uv": [
                        0,
                        0,
                        2.33333,
                        2.33333
                    ],
                    "texture": "#0"
                },
                "south": {
                    "uv": [
                        0,
                        0,
                        2.33333,
                        2.33333
                    ],
                    "texture": "#0"
                },
                "west": {
                    "uv": [
                        0,
                        0,
                        2.33333,
                        2.33333
                    ],
                    "texture": "#0"
                },
                "up": {
                    "uv": [
                        0,
                        0,
                        2.33333,
                        2.33333
                    ],
                    "texture": "#0"
                },
                "down": {
                    "uv": [
                        0,
                        0,
                        2.33333,
                        2.33333
                    ],
                    "texture": "#0"
                }
            }
        },
        {
            "from": [
                7.94644,
                5.74089,
                -4.66988
            ],
            "to": [
                8.63044,
                6.42489,
                -3.87188
            ],
            "rotation": {
                "angle": -22.5,
                "axis": "x",
                "origin": [
                    8.28844,
                    6.08289,
                    -4.38488
                ]
            },
            "faces": {
                "north": {
                    "uv": [
                        0,
                        0,
                        2.33333,
                        2.33333
                    ],
                    "texture": "#0"
                },
                "east": {
                    "uv": [
                        0,
                        0,
                        2.33333,
                        2.33333
                    ],
                    "texture": "#0"
                },
                "south": {
                    "uv": [
                        0,
                        0,
                        2.33333,
                        2.33333
                    ],
                    "texture": "#0"
                },
                "west": {
                    "uv": [
                        0,
                        0,
                        2.33333,
                        2.33333
                    ],
                    "texture": "#0"
                },
                "up": {
                    "uv": [
                        0,
                        0,
                        2.33333,
                        2.33333
                    ],
                    "texture": "#0"
                },
                "down": {
                    "uv": [
                        0,
                        0,
                        2.33333,
                        2.33333
                    ],
                    "texture": "#0"
                }
            }
        },
        {
            "from": [
                7.94644,
                5.91628,
                -4.32788
            ],
            "to": [
                8.63044,
                6.71428,
                -3.07388
            ],
            "rotation": {
                "angle": 0,
                "axis": "y",
                "origin": [
                    8.28844,
                    6.14428,
                    -3.70088
                ]
            },
            "faces": {
                "north": {
                    "uv": [
                        0,
                        0,
                        2.33333,
                        2.33333
                    ],
                    "texture": "#0"
                },
                "east": {
                    "uv": [
                        0,
                        0,
                        2.33333,
                        2.33333
                    ],
                    "texture": "#0"
                },
                "south": {
                    "uv": [
                        0,
                        0,
                        2.33333,
                        2.33333
                    ],
                    "texture": "#0"
                },
                "west": {
                    "uv": [
                        0,
                        0,
                        2.33333,
                        2.33333
                    ],
                    "texture": "#0"
                },
                "up": {
                    "uv": [
                        0,
                        0,
                        2.33333,
                        2.33333
                    ],
                    "texture": "#0"
                },
                "down": {
                    "uv": [
                        0,
                        0,
                        2.33333,
                        2.33333
                    ],
                    "texture": "#0"
                }
            }
        },
        {
            "from": [
                7.94644,
                5.83206,
                -3.34069
            ],
            "to": [
                8.63044,
                6.85806,
                -2.77069
            ],
            "rotation": {
                "angle": 22.5,
                "axis": "x",
                "origin": [
                    8.28844,
                    6.40206,
                    -3.05569
                ]
            },
            "faces": {
                "north": {
                    "uv": [
                        0,
                        0,
                        2.33333,
                        2.33333
                    ],
                    "texture": "#0"
                },
                "east": {
                    "uv": [
                        0,
                        0,
                        2.33333,
                        2.33333
                    ],
                    "texture": "#0"
                },
                "south": {
                    "uv": [
                        0,
                        0,
                        2.33333,
                        2.33333
                    ],
                    "texture": "#0"
                },
                "west": {
                    "uv": [
                        0,
                        0,
                        2.33333,
                        2.33333
                    ],
                    "texture": "#0"
                },
                "up": {
                    "uv": [
                        0,
                        0,
                        2.33333,
                        2.33333
                    ],
                    "texture": "#0"
                },
                "down": {
                    "uv": [
                        0,
                        0,
                        2.33333,
                        2.33333
                    ],
                    "texture": "#0"
                }
            }
        },
        {
            "from": [
                8.17444,
                5.75001,
                -5.68797
            ],
            "to": [
                8.40244,
                5.80701,
                -5.34597
            ],
            "rotation": {
                "angle": 45,
                "axis": "x",
                "origin": [
                    8.28844,
                    5.77851,
                    -5.63097
                ]
            },
            "faces": {
                "north": {
                    "uv": [
                        5.66667,
                        3.33333,
                        7,
                        4.66667
                    ],
                    "texture": "#0"
                },
                "east": {
                    "uv": [
                        5.66667,
                        3.33333,
                        7,
                        4.66667
                    ],
                    "texture": "#0"
                },
                "south": {
                    "uv": [
                        5.66667,
                        3.33333,
                        7,
                        4.66667
                    ],
                    "texture": "#0"
                },
                "west": {
                    "uv": [
                        5.66667,
                        3.33333,
                        7,
                        4.66667
                    ],
                    "texture": "#0"
                },
                "up": {
                    "uv": [
                        5.66667,
                        3.33333,
                        7,
                        4.66667
                    ],
                    "texture": "#0"
                },
                "down": {
                    "uv": [
                        5.66667,
                        3.33333,
                        7,
                        4.66667
                    ],
                    "texture": "#0"
                }
            }
        },
        {
            "from": [
                8.17444,
                5.79656,
                -5.75904
            ],
            "to": [
                8.40244,
                6.02456,
                -5.70204
            ],
            "rotation": {
                "angle": -22.5,
                "axis": "x",
                "origin": [
                    8.28844,
                    5.96756,
                    -5.73054
                ]
            },
            "faces": {
                "north": {
                    "uv": [
                        5.66667,
                        3.33333,
                        7,
                        4.66667
                    ],
                    "rotation": 90,
                    "texture": "#0"
                },
                "east": {
                    "uv": [
                        5.66667,
                        3.33333,
                        7,
                        4.66667
                    ],
                    "rotation": 90,
                    "texture": "#0"
                },
                "south": {
                    "uv": [
                        5.66667,
                        3.33333,
                        7,
                        4.66667
                    ],
                    "rotation": 90,
                    "texture": "#0"
                },
                "west": {
                    "uv": [
                        5.66667,
                        3.33333,
                        7,
                        4.66667
                    ],
                    "rotation": 90,
                    "texture": "#0"
                },
                "up": {
                    "uv": [
                        5.66667,
                        3.33333,
                        7,
                        4.66667
                    ],
                    "rotation": 90,
                    "texture": "#0"
                },
                "down": {
                    "uv": [
                        5.66667,
                        3.33333,
                        7,
                        4.66667
                    ],
                    "rotation": 90,
                    "texture": "#0"
                }
            }
        },
        {
            "from": [
                8.17444,
                6.00932,
                -5.77868
            ],
            "to": [
                8.40244,
                6.23732,
                -5.72168
            ],
            "rotation": {
                "angle": 0,
                "axis": "y",
                "origin": [
                    8.28844,
                    6.18032,
                    -5.75018
                ]
            },
            "faces": {
                "north": {
                    "uv": [
                        5.66667,
                        3.33333,
                        7,
                        4.66667
                    ],
                    "rotation": 90,
                    "texture": "#0"
                },
                "east": {
                    "uv": [
                        5.66667,
                        3.33333,
                        7,
                        4.66667
                    ],
                    "rotation": 90,
                    "texture": "#0"
                },
                "south": {
                    "uv": [
                        5.66667,
                        3.33333,
                        7,
                        4.66667
                    ],
                    "rotation": 90,
                    "texture": "#0"
                },
                "west": {
                    "uv": [
                        5.66667,
                        3.33333,
                        7,
                        4.66667
                    ],
                    "rotation": 90,
                    "texture": "#0"
                },
                "up": {
                    "uv": [
                        5.66667,
                        3.33333,
                        7,
                        4.66667
                    ],
                    "rotation": 90,
                    "texture": "#0"
                },
                "down": {
                    "uv": [
                        5.66667,
                        3.33333,
                        7,
                        4.66667
                    ],
                    "rotation": 90,
                    "texture": "#0"
                }
            }
        },
        {
            "from": [
                8.17444,
                5.55684,
                -5.44959
            ],
            "to": [
                8.40244,
                5.61384,
                -4.87959
            ],
            "rotation": {
                "angle": 0,
                "axis": "y",
                "origin": [
                    8.28844,
                    5.58534,
                    -4.96509
                ]
            },
            "faces": {
                "north": {
                    "uv": [
                        5.66667,
                        3.33333,
                        7,
                        4.66667
                    ],
                    "texture": "#0"
                },
                "east": {
                    "uv": [
                        5.66667,
                        3.33333,
                        7,
                        4.66667
                    ],
                    "texture": "#0"
                },
                "south": {
                    "uv": [
                        5.66667,
                        3.33333,
                        7,
                        4.66667
                    ],
                    "texture": "#0"
                },
                "west": {
                    "uv": [
                        5.66667,
                        3.33333,
                        7,
                        4.66667
                    ],
                    "texture": "#0"
                },
                "up": {
                    "uv": [
                        5.66667,
                        3.33333,
                        7,
                        4.66667
                    ],
                    "texture": "#0"
                },
                "down": {
                    "uv": [
                        5.66667,
                        3.33333,
                        7,
                        4.66667
                    ],
                    "texture": "#0"
                }
            }
        },
        {
            "from": [
                8.17444,
                5.59613,
                -4.91009
            ],
            "to": [
                8.40244,
                5.65313,
                -4.39709
            ],
            "rotation": {
                "angle": -22.5,
                "axis": "x",
                "origin": [
                    8.28844,
                    5.65313,
                    -4.79609
                ]
            },
            "faces": {
                "north": {
                    "uv": [
                        5.66667,
                        3.33333,
                        7,
                        4.66667
                    ],
                    "texture": "#0"
                },
                "east": {
                    "uv": [
                        5.66667,
                        3.33333,
                        7,
                        4.66667
                    ],
                    "texture": "#0"
                },
                "south": {
                    "uv": [
                        5.66667,
                        3.33333,
                        7,
                        4.66667
                    ],
                    "texture": "#0"
                },
                "west": {
                    "uv": [
                        5.66667,
                        3.33333,
                        7,
                        4.66667
                    ],
                    "texture": "#0"
                },
                "up": {
                    "uv": [
                        5.66667,
                        3.33333,
                        7,
                        4.66667
                    ],
                    "texture": "#0"
                },
                "down": {
                    "uv": [
                        5.66667,
                        3.33333,
                        7,
                        4.66667
                    ],
                    "texture": "#0"
                }
            }
        },
        {
            "from": [
                8.23144,
                5.87547,
                -4.87087
            ],
            "to": [
                8.34544,
                5.98947,
                -4.81387
            ],
            "rotation": {
                "angle": 22.5,
                "axis": "x",
                "origin": [
                    8.28844,
                    6.04647,
                    -4.84237
                ]
            },
            "faces": {
                "north": {
                    "uv": [
                        3,
                        3.33333,
                        4.33333,
                        4.66667
                    ],
                    "rotation": 270,
                    "texture": "#0"
                },
                "east": {
                    "uv": [
                        3,
                        3.33333,
                        4.33333,
                        4.66667
                    ],
                    "rotation": 270,
                    "texture": "#0"
                },
                "south": {
                    "uv": [
                        3,
                        3.33333,
                        4.33333,
                        4.66667
                    ],
                    "rotation": 270,
                    "texture": "#0"
                },
                "west": {
                    "uv": [
                        3,
                        3.33333,
                        4.33333,
                        4.66667
                    ],
                    "rotation": 270,
                    "texture": "#0"
                },
                "up": {
                    "uv": [
                        3,
                        3.33333,
                        4.33333,
                        4.66667
                    ],
                    "rotation": 270,
                    "texture": "#0"
                },
                "down": {
                    "uv": [
                        3,
                        3.33333,
                        4.33333,
                        4.66667
                    ],
                    "rotation": 270,
                    "texture": "#0"
                }
            }
        },
        {
            "from": [
                8.23144,
                5.80044,
                -4.97044
            ],
            "to": [
                8.34544,
                5.91444,
                -4.91344
            ],
            "rotation": {
                "angle": 45,
                "axis": "x",
                "origin": [
                    8.28844,
                    5.85744,
                    -4.94194
                ]
            },
            "faces": {
                "north": {
                    "uv": [
                        3,
                        3.33333,
                        4.33333,
                        4.66667
                    ],
                    "rotation": 270,
                    "texture": "#0"
                },
                "east": {
                    "uv": [
                        3,
                        3.33333,
                        4.33333,
                        4.66667
                    ],
                    "rotation": 270,
                    "texture": "#0"
                },
                "south": {
                    "uv": [
                        3,
                        3.33333,
                        4.33333,
                        4.66667
                    ],
                    "rotation": 270,
                    "texture": "#0"
                },
                "west": {
                    "uv": [
                        3,
                        3.33333,
                        4.33333,
                        4.66667
                    ],
                    "rotation": 270,
                    "texture": "#0"
                },
                "up": {
                    "uv": [
                        3,
                        3.33333,
                        4.33333,
                        4.66667
                    ],
                    "rotation": 270,
                    "texture": "#0"
                },
                "down": {
                    "uv": [
                        3,
                        3.33333,
                        4.33333,
                        4.66667
                    ],
                    "rotation": 270,
                    "texture": "#0"
                }
            }
        },
        {
            "from": [
                8.23144,
                5.9808,
                -4.82725
            ],
            "to": [
                8.34544,
                6.3228,
                -4.77025
            ],
            "rotation": {
                "angle": 22.5,
                "axis": "x",
                "origin": [
                    8.28844,
                    6.1518,
                    -4.79875
                ]
            },
            "faces": {
                "north": {
                    "uv": [
                        3,
                        3.33333,
                        4.33333,
                        4.66667
                    ],
                    "rotation": 270,
                    "texture": "#0"
                },
                "east": {
                    "uv": [
                        3,
                        3.33333,
                        4.33333,
                        4.66667
                    ],
                    "rotation": 270,
                    "texture": "#0"
                },
                "south": {
                    "uv": [
                        3,
                        3.33333,
                        4.33333,
                        4.66667
                    ],
                    "rotation": 270,
                    "texture": "#0"
                },
                "west": {
                    "uv": [
                        3,
                        3.33333,
                        4.33333,
                        4.66667
                    ],
                    "rotation": 270,
                    "texture": "#0"
                },
                "up": {
                    "uv": [
                        3,
                        3.33333,
                        4.33333,
                        4.66667
                    ],
                    "rotation": 270,
                    "texture": "#0"
                },
                "down": {
                    "uv": [
                        3,
                        3.33333,
                        4.33333,
                        4.66667
                    ],
                    "rotation": 270,
                    "texture": "#0"
                }
            }
        },
        {
            "from": [
                8.23144,
                6.07299,
                -4.83159
            ],
            "to": [
                8.34544,
                6.41499,
                -4.77459
            ],
            "rotation": {
                "angle": 22.5,
                "axis": "x",
                "origin": [
                    8.28844,
                    6.24399,
                    -4.80309
                ]
            },
            "faces": {
                "north": {
                    "uv": [
                        3,
                        3.33333,
                        4.33333,
                        4.66667
                    ],
                    "rotation": 270,
                    "texture": "#0"
                },
                "east": {
                    "uv": [
                        3,
                        3.33333,
                        4.33333,
                        4.66667
                    ],
                    "rotation": 270,
                    "texture": "#0"
                },
                "south": {
                    "uv": [
                        3,
                        3.33333,
                        4.33333,
                        4.66667
                    ],
                    "rotation": 270,
                    "texture": "#0"
                },
                "west": {
                    "uv": [
                        3,
                        3.33333,
                        4.33333,
                        4.66667
                    ],
                    "rotation": 270,
                    "texture": "#0"
                },
                "up": {
                    "uv": [
                        3,
                        3.33333,
                        4.33333,
                        4.66667
                    ],
                    "rotation": 270,
                    "texture": "#0"
                },
                "down": {
                    "uv": [
                        3,
                        3.33333,
                        4.33333,
                        4.66667
                    ],
                    "rotation": 270,
                    "texture": "#0"
                }
            }
        },
        {
            "from": [
                8.23144,
                6.0969,
                -4.89486
            ],
            "to": [
                8.34544,
                6.4389,
                -4.83786
            ],
            "rotation": {
                "angle": 0,
                "axis": "y",
                "origin": [
                    8.28844,
                    6.2679,
                    -4.86636
                ]
            },
            "faces": {
                "north": {
                    "uv": [
                        3,
                        3.33333,
                        4.33333,
                        4.66667
                    ],
                    "rotation": 270,
                    "texture": "#0"
                },
                "east": {
                    "uv": [
                        3,
                        3.33333,
                        4.33333,
                        4.66667
                    ],
                    "rotation": 270,
                    "texture": "#0"
                },
                "south": {
                    "uv": [
                        3,
                        3.33333,
                        4.33333,
                        4.66667
                    ],
                    "rotation": 270,
                    "texture": "#0"
                },
                "west": {
                    "uv": [
                        3,
                        3.33333,
                        4.33333,
                        4.66667
                    ],
                    "rotation": 270,
                    "texture": "#0"
                },
                "up": {
                    "uv": [
                        3,
                        3.33333,
                        4.33333,
                        4.66667
                    ],
                    "rotation": 270,
                    "texture": "#0"
                },
                "down": {
                    "uv": [
                        3,
                        3.33333,
                        4.33333,
                        4.66667
                    ],
                    "rotation": 270,
                    "texture": "#0"
                }
            }
        },
        {
            "from": [
                8.23144,
                5.9829,
                -4.89486
            ],
            "to": [
                8.34544,
                6.0969,
                -4.83786
            ],
            "rotation": {
                "angle": 0,
                "axis": "y",
                "origin": [
                    8.28844,
                    6.1539,
                    -4.86636
                ]
            },
            "faces": {
                "north": {
                    "uv": [
                        3,
                        3.33333,
                        4.33333,
                        4.66667
                    ],
                    "rotation": 270,
                    "texture": "#0"
                },
                "east": {
                    "uv": [
                        3,
                        3.33333,
                        4.33333,
                        4.66667
                    ],
                    "rotation": 270,
                    "texture": "#0"
                },
                "south": {
                    "uv": [
                        3,
                        3.33333,
                        4.33333,
                        4.66667
                    ],
                    "rotation": 270,
                    "texture": "#0"
                },
                "west": {
                    "uv": [
                        3,
                        3.33333,
                        4.33333,
                        4.66667
                    ],
                    "rotation": 270,
                    "texture": "#0"
                },
                "up": {
                    "uv": [
                        3,
                        3.33333,
                        4.33333,
                        4.66667
                    ],
                    "rotation": 270,
                    "texture": "#0"
                },
                "down": {
                    "uv": [
                        3,
                        3.33333,
                        4.33333,
                        4.66667
                    ],
                    "rotation": 270,
                    "texture": "#0"
                }
            }
        },
        {
            "from": [
                7.9681,
                6.39508,
                -5.58188
            ],
            "to": [
                8.0821,
                6.73708,
                -4.21388
            ],
            "rotation": {
                "angle": 0,
                "axis": "y",
                "origin": [
                    8.28844,
                    7.34712,
                    0.90132
                ]
            },
            "faces": {
                "north": {
                    "uv": [
                        0,
                        3,
                        1.66667,
                        4.33333
                    ],
                    "rotation": 270,
                    "texture": "#0"
                },
                "east": {
                    "uv": [
                        0,
                        3,
                        1.66667,
                        4.33333
                    ],
                    "rotation": 270,
                    "texture": "#0"
                },
                "south": {
                    "uv": [
                        0,
                        3,
                        1.66667,
                        4.33333
                    ],
                    "rotation": 270,
                    "texture": "#0"
                },
                "west": {
                    "uv": [
                        0,
                        3,
                        1.66667,
                        4.33333
                    ],
                    "rotation": 270,
                    "texture": "#0"
                },
                "up": {
                    "uv": [
                        0,
                        3,
                        1.66667,
                        4.33333
                    ],
                    "rotation": 270,
                    "texture": "#0"
                },
                "down": {
                    "uv": [
                        0,
                        3,
                        1.66667,
                        4.33333
                    ],
                    "rotation": 270,
                    "texture": "#0"
                }
            }
        },
        {
            "from": [
                7.60559,
                6.52744,
                -5.40486
            ],
            "to": [
                7.82219,
                6.66424,
                -5.31366
            ],
            "rotation": {
                "angle": 45,
                "axis": "y",
                "origin": [
                    7.71959,
                    6.59584,
                    -5.37066
                ]
            },
            "faces": {
                "north": {
                    "uv": [
                        0,
                        3,
                        1.66667,
                        4.33333
                    ],
                    "rotation": 270,
                    "texture": "#0"
                },
                "east": {
                    "uv": [
                        0,
                        3,
                        1.66667,
                        4.33333
                    ],
                    "rotation": 270,
                    "texture": "#0"
                },
                "south": {
                    "uv": [
                        0,
                        3,
                        1.66667,
                        4.33333
                    ],
                    "rotation": 270,
                    "texture": "#0"
                },
                "west": {
                    "uv": [
                        0,
                        3,
                        1.66667,
                        4.33333
                    ],
                    "rotation": 270,
                    "texture": "#0"
                },
                "up": {
                    "uv": [
                        0,
                        3,
                        1.66667,
                        4.33333
                    ],
                    "rotation": 270,
                    "texture": "#0"
                },
                "down": {
                    "uv": [
                        0,
                        3,
                        1.66667,
                        4.33333
                    ],
                    "rotation": 270,
                    "texture": "#0"
                }
            }
        },
        {
            "from": [
                7.67854,
                6.52744,
                -5.4656
            ],
            "to": [
                7.76974,
                6.66424,
                -5.249
            ],
            "rotation": {
                "angle": 0,
                "axis": "y",
                "origin": [
                    7.72414,
                    6.59584,
                    -5.3573
                ]
            },
            "faces": {
                "north": {
                    "uv": [
                        0,
                        3,
                        1.66667,
                        4.33333
                    ],
                    "rotation": 270,
                    "texture": "#0"
                },
                "east": {
                    "uv": [
                        0,
                        3,
                        1.66667,
                        4.33333
                    ],
                    "rotation": 270,
                    "texture": "#0"
                },
                "south": {
                    "uv": [
                        0,
                        3,
                        1.66667,
                        4.33333
                    ],
                    "rotation": 270,
                    "texture": "#0"
                },
                "west": {
                    "uv": [
                        0,
                        3,
                        1.66667,
                        4.33333
                    ],
                    "rotation": 270,
                    "texture": "#0"
                },
                "up": {
                    "uv": [
                        0,
                        3,
                        1.66667,
                        4.33333
                    ],
                    "rotation": 270,
                    "texture": "#0"
                },
                "down": {
                    "uv": [
                        0,
                        3,
                        1.66667,
                        4.33333
                    ],
                    "rotation": 270,
                    "texture": "#0"
                }
            }
        },
        {
            "from": [
                7.61584,
                6.52744,
                -5.4029
            ],
            "to": [
                7.83244,
                6.66424,
                -5.3117
            ],
            "rotation": {
                "angle": 0,
                "axis": "y",
                "origin": [
                    7.95784,
                    7.46112,
                    1.4713
                ]
            },
            "faces": {
                "north": {
                    "uv": [
                        0,
                        3,
                        1.66667,
                        4.33333
                    ],
                    "rotation": 270,
                    "texture": "#0"
                },
                "east": {
                    "uv": [
                        0,
                        3,
                        1.66667,
                        4.33333
                    ],
                    "rotation": 270,
                    "texture": "#0"
                },
                "south": {
                    "uv": [
                        0,
                        3,
                        1.66667,
                        4.33333
                    ],
                    "rotation": 270,
                    "texture": "#0"
                },
                "west": {
                    "uv": [
                        0,
                        3,
                        1.66667,
                        4.33333
                    ],
                    "rotation": 270,
                    "texture": "#0"
                },
                "up": {
                    "uv": [
                        0,
                        3,
                        1.66667,
                        4.33333
                    ],
                    "rotation": 270,
                    "texture": "#0"
                },
                "down": {
                    "uv": [
                        0,
                        3,
                        1.66667,
                        4.33333
                    ],
                    "rotation": 270,
                    "texture": "#0"
                }
            }
        },
        {
            "from": [
                7.61584,
                6.52744,
                -5.4029
            ],
            "to": [
                7.83244,
                6.66424,
                -5.3117
            ],
            "rotation": {
                "angle": -45,
                "axis": "y",
                "origin": [
                    7.72414,
                    6.59584,
                    -5.3573
                ]
            },
            "faces": {
                "north": {
                    "uv": [
                        0,
                        3,
                        1.66667,
                        4.33333
                    ],
                    "rotation": 270,
                    "texture": "#0"
                },
                "east": {
                    "uv": [
                        0,
                        3,
                        1.66667,
                        4.33333
                    ],
                    "rotation": 270,
                    "texture": "#0"
                },
                "south": {
                    "uv": [
                        0,
                        3,
                        1.66667,
                        4.33333
                    ],
                    "rotation": 270,
                    "texture": "#0"
                },
                "west": {
                    "uv": [
                        0,
                        3,
                        1.66667,
                        4.33333
                    ],
                    "rotation": 270,
                    "texture": "#0"
                },
                "up": {
                    "uv": [
                        0,
                        3,
                        1.66667,
                        4.33333
                    ],
                    "rotation": 270,
                    "texture": "#0"
                },
                "down": {
                    "uv": [
                        0,
                        3,
                        1.66667,
                        4.33333
                    ],
                    "rotation": 270,
                    "texture": "#0"
                }
            }
        },
        {
            "from": [
                7.83244,
                6.55024,
                -5.4029
            ],
            "to": [
                8.34544,
                6.64144,
                -5.3117
            ],
            "rotation": {
                "angle": 0,
                "axis": "y",
                "origin": [
                    8.17444,
                    7.46112,
                    1.4713
                ]
            },
            "faces": {
                "north": {
                    "uv": [
                        0,
                        3,
                        1.66667,
                        4.33333
                    ],
                    "rotation": 270,
                    "texture": "#0"
                },
                "east": {
                    "uv": [
                        0,
                        3,
                        1.66667,
                        4.33333
                    ],
                    "rotation": 270,
                    "texture": "#0"
                },
                "south": {
                    "uv": [
                        0,
                        3,
                        1.66667,
                        4.33333
                    ],
                    "rotation": 270,
                    "texture": "#0"
                },
                "west": {
                    "uv": [
                        0,
                        3,
                        1.66667,
                        4.33333
                    ],
                    "rotation": 270,
                    "texture": "#0"
                },
                "up": {
                    "uv": [
                        0,
                        3,
                        1.66667,
                        4.33333
                    ],
                    "rotation": 270,
                    "texture": "#0"
                },
                "down": {
                    "uv": [
                        0,
                        3,
                        1.66667,
                        4.33333
                    ],
                    "rotation": 270,
                    "texture": "#0"
                }
            }
        }
    ],
    "display": {
        "thirdperson_righthand": {
            "translation": [
                -0.25,
                1,
                6.25
            ]
        },
        "thirdperson_lefthand": {
            "translation": [
                0,
                1,
                6.25
            ]
        },
        "firstperson_righthand": {
            "translation": [
                -2.25,
                3,
                5.75
            ]
        },
        "firstperson_lefthand": {
            "translation": [
                -1.75,
                3.5,
                6.25
            ]
        },
        "ground": {
            "translation": [
                0,
                0,
                8.5
            ]
        },
        "gui": {
            "rotation": [
                31,
                33,
                -21
            ],
            "translation": [
                4,
                -1.25,
                0
            ],
            "scale": [
                0.86,
                0.86,
                0.86
            ]
        },
        "fixed": {
            "rotation": [
                90,
                45,
                -90
            ],
            "translation": [
                5.75,
                -4.25,
                -1.75
            ]
        }
    }
}