{
    "textures": {
        "0": "gci:items/common/mpz",
        "particle": "gci:items/common/mpz"
    },
    "elements": [
        {
            "from": [
                5.999,
                4.15552,
                6.4893
            ],
            "to": [
                6.501,
                4.55552,
                6.8893
            ],
            "rotation": {
                "angle": 45,
                "axis": "x",
                "origin": [
                    6.25,
                    4.35551,
                    6.6893
                ]
            },
            "faces": {
                "north": {
                    "uv": [
                        0.33333,
                        0.33333,
                        2,
                        2
                    ],
                    "rotation": 270,
                    "texture": "#0"
                },
                "east": {
                    "uv": [
                        0.33333,
                        0.33333,
                        2,
                        2
                    ],
                    "rotation": 270,
                    "texture": "#0"
                },
                "south": {
                    "uv": [
                        0.33333,
                        0.33333,
                        2,
                        2
                    ],
                    "rotation": 270,
                    "texture": "#0"
                },
                "west": {
                    "uv": [
                        0.33333,
                        0.33333,
                        2,
                        2
                    ],
                    "rotation": 270,
                    "texture": "#0"
                },
                "up": {
                    "uv": [
                        0.33333,
                        0.33333,
                        2,
                        2
                    ],
                    "rotation": 270,
                    "texture": "#0"
                },
                "down": {
                    "uv": [
                        0.33333,
                        0.33333,
                        2,
                        2
                    ],
                    "rotation": 270,
                    "texture": "#0"
                }
            }
        },
        {
            "from": [
                5.998,
                4.2055,
                6.5393
            ],
            "to": [
                6.502,
                4.5055,
                6.8393
            ],
            "rotation": {
                "angle": 45,
                "axis": "x",
                "origin": [
                    6.25,
                    4.35551,
                    6.6893
                ]
            },
            "faces": {
                "north": {
                    "uv": [
                        11,
                        3,
                        12.33333,
                        4.66667
                    ],
                    "rotation": 270,
                    "texture": "#0"
                },
                "east": {
                    "uv": [
                        11,
                        3,
                        12.33333,
                        4.66667
                    ],
                    "rotation": 270,
                    "texture": "#0"
                },
                "south": {
                    "uv": [
                        11,
                        3,
                        12.33333,
                        4.66667
                    ],
                    "rotation": 270,
                    "texture": "#0"
                },
                "west": {
                    "uv": [
                        11,
                        3,
                        12.33333,
                        4.66667
                    ],
                    "rotation": 270,
                    "texture": "#0"
                },
                "up": {
                    "uv": [
                        11,
                        3,
                        12.33333,
                        4.66667
                    ],
                    "rotation": 270,
                    "texture": "#0"
                },
                "down": {
                    "uv": [
                        11,
                        3,
                        12.33333,
                        4.66667
                    ],
                    "rotation": 270,
                    "texture": "#0"
                }
            }
        },
        {
            "from": [
                6,
                3.85552,
                6.0893
            ],
            "to": [
                6.5,
                4.85552,
                7.2893
            ],
            "rotation": {
                "angle": 0,
                "axis": "x",
                "origin": [
                    6.25,
                    4.55552,
                    8.2893
                ]
            },
            "faces": {
                "north": {
                    "uv": [
                        8.33333,
                        0.66667,
                        10,
                        2
                    ],
                    "texture": "#0"
                },
                "east": {
                    "uv": [
                        8.33333,
                        0.66667,
                        10,
                        2
                    ],
                    "texture": "#0"
                },
                "south": {
                    "uv": [
                        8.33333,
                        0.66667,
                        10,
                        2
                    ],
                    "texture": "#0"
                },
                "west": {
                    "uv": [
                        8.33333,
                        0.66667,
                        10,
                        2
                    ],
                    "texture": "#0"
                },
                "up": {
                    "uv": [
                        8.33333,
                        0.66667,
                        10,
                        2
                    ],
                    "texture": "#0"
                },
                "down": {
                    "uv": [
                        8.33333,
                        0.66667,
                        10,
                        2
                    ],
                    "texture": "#0"
                }
            }
        },
        {
            "from": [
                6.23655,
                3.67471,
                6.0893
            ],
            "to": [
                6.43655,
                3.87471,
                7.2893
            ],
            "rotation": {
                "angle": 45,
                "axis": "z",
                "origin": [
                    6.25003,
                    3.84171,
                    7.2643
                ]
            },
            "faces": {
                "north": {
                    "uv": [
                        8.33333,
                        0.66667,
                        10,
                        2
                    ],
                    "rotation": 180,
                    "texture": "#0"
                },
                "east": {
                    "uv": [
                        8.33333,
                        0.66667,
                        10,
                        2
                    ],
                    "rotation": 180,
                    "texture": "#0"
                },
                "south": {
                    "uv": [
                        8.33333,
                        0.66667,
                        10,
                        2
                    ],
                    "rotation": 180,
                    "texture": "#0"
                },
                "west": {
                    "uv": [
                        8.33333,
                        0.66667,
                        10,
                        2
                    ],
                    "rotation": 180,
                    "texture": "#0"
                },
                "up": {
                    "uv": [
                        8.33333,
                        0.66667,
                        10,
                        2
                    ],
                    "rotation": 180,
                    "texture": "#0"
                },
                "down": {
                    "uv": [
                        8.33333,
                        0.66667,
                        10,
                        2
                    ],
                    "rotation": 180,
                    "texture": "#0"
                }
            }
        },
        {
            "from": [
                6.14158,
                3.71409,
                6.0893
            ],
            "to": [
                6.35858,
                3.91409,
                7.2893
            ],
            "rotation": {
                "angle": 0,
                "axis": "z",
                "origin": [
                    6.25003,
                    3.84171,
                    7.2643
                ]
            },
            "faces": {
                "north": {
                    "uv": [
                        8.33333,
                        0.66667,
                        10,
                        2
                    ],
                    "rotation": 270,
                    "texture": "#0"
                },
                "east": {
                    "uv": [
                        8.33333,
                        0.66667,
                        10,
                        2
                    ],
                    "rotation": 270,
                    "texture": "#0"
                },
                "south": {
                    "uv": [
                        8.33333,
                        0.66667,
                        10,
                        2
                    ],
                    "rotation": 270,
                    "texture": "#0"
                },
                "west": {
                    "uv": [
                        8.33333,
                        0.66667,
                        10,
                        2
                    ],
                    "rotation": 270,
                    "texture": "#0"
                },
                "up": {
                    "uv": [
                        8.33333,
                        0.66667,
                        10,
                        2
                    ],
                    "rotation": 270,
                    "texture": "#0"
                },
                "down": {
                    "uv": [
                        8.33333,
                        0.66667,
                        10,
                        2
                    ],
                    "rotation": 270,
                    "texture": "#0"
                }
            }
        },
        {
            "from": [
                6.08299,
                3.82827,
                6.0893
            ],
            "to": [
                6.28299,
                4.02827,
                7.2893
            ],
            "rotation": {
                "angle": 45,
                "axis": "z",
                "origin": [
                    6.25003,
                    3.84171,
                    7.2643
                ]
            },
            "faces": {
                "north": {
                    "uv": [
                        8.33333,
                        0.66667,
                        10,
                        2
                    ],
                    "rotation": 180,
                    "texture": "#0"
                },
                "east": {
                    "uv": [
                        8.33333,
                        0.66667,
                        10,
                        2
                    ],
                    "rotation": 180,
                    "texture": "#0"
                },
                "south": {
                    "uv": [
                        8.33333,
                        0.66667,
                        10,
                        2
                    ],
                    "rotation": 180,
                    "texture": "#0"
                },
                "west": {
                    "uv": [
                        8.33333,
                        0.66667,
                        10,
                        2
                    ],
                    "rotation": 180,
                    "texture": "#0"
                },
                "up": {
                    "uv": [
                        8.33333,
                        0.66667,
                        10,
                        2
                    ],
                    "rotation": 180,
                    "texture": "#0"
                },
                "down": {
                    "uv": [
                        8.33333,
                        0.66667,
                        10,
                        2
                    ],
                    "rotation": 180,
                    "texture": "#0"
                }
            }
        }
    ],
    "display": {
        "thirdperson_righthand": {
            "translation": [
                3,
                6.1,
                1
            ],
            "scale": [
                2,
                2,
                2
            ]
        },
        "thirdperson_lefthand": {
            "translation": [
                -4,
                6.1,
                1
            ],
            "scale": [
                2,
                2,
                2
            ]
        },
        "firstperson_righthand": {
            "translation": [
                0,
                9.25,
                3
            ],
            "scale": [
                2,
                2,
                2
            ]
        },
        "firstperson_lefthand": {
            "translation": [
                -6.25,
                8.25,
                1.75
            ],
            "scale": [
                2,
                2,
                2
            ]
        },
        "ground": {
            "translation": [
                4.25,
                6.25,
                0
            ],
            "scale": [
                2,
                2,
                2
            ]
        },
        "gui": {
            "rotation": [
                33,
                -38,
                19
            ],
            "translation": [
                0,
                11.75,
                0
            ],
            "scale": [
                4,
                4,
                4
            ]
        },
        "head": {
            "translation": [
                1.75,
                1.5,
                -7.5
            ]
        },
        "fixed": {
            "rotation": [
                0,
                -90,
                0
            ],
            "translation": [
                -2.5,
                3.5,
                4.5
            ],
            "scale": [
                3,
                3,
                3
            ]
        }
    }
}