{
	"credit": "Made with Blockbench",
	"textures": {
		"0": "gci:items/common/all_in_one",
		"2": "gci:items/common/mpz",
		"particle": "gci:items/common/all_in_one"
	},
	"elements": [
		{
			"name": "octagon",
			"from": [7.99147, 4.9, 18.42],
			"to": [8.48853, 6.1, 18.97],
			"rotation": {"angle": 45, "axis": "z", "origin": [8.24, 5.5, 19.77]},
			"faces": {
				"north": {"uv": [1.375, 11.25, 2.375, 12.25], "texture": "#0"},
				"east": {"uv": [1.375, 11.25, 2.375, 12.25], "texture": "#0"},
				"south": {"uv": [1.375, 11.25, 2.375, 12.25], "texture": "#0"},
				"west": {"uv": [1.375, 11.25, 2.375, 12.25], "texture": "#0"},
				"up": {"uv": [1.375, 11.25, 2.375, 12.25], "texture": "#0"},
				"down": {"uv": [1.375, 11.25, 2.375, 12.25], "texture": "#0"}
			}
		},
		{
			"name": "octagon",
			"from": [7.99147, 4.9, 18.42],
			"to": [8.48853, 6.1, 18.97],
			"rotation": {"angle": 0, "axis": "y", "origin": [8.24, 5.5, 19.77]},
			"faces": {
				"north": {"uv": [1.375, 11.25, 2.375, 12.25], "texture": "#0"},
				"east": {"uv": [1.375, 11.25, 2.375, 12.25], "texture": "#0"},
				"south": {"uv": [1.375, 11.25, 2.375, 12.25], "texture": "#0"},
				"west": {"uv": [1.375, 11.25, 2.375, 12.25], "texture": "#0"},
				"up": {"uv": [1.375, 11.25, 2.375, 12.25], "texture": "#0"},
				"down": {"uv": [1.375, 11.25, 2.375, 12.25], "texture": "#0"}
			}
		},
		{
			"name": "octagon",
			"from": [7.64, 5.25147, 18.42],
			"to": [8.84, 5.74853, 18.97],
			"rotation": {"angle": 45, "axis": "z", "origin": [8.24, 5.5, 19.77]},
			"faces": {
				"north": {"uv": [1.375, 11.25, 2.375, 12.25], "texture": "#0"},
				"east": {"uv": [1.375, 11.25, 2.375, 12.25], "texture": "#0"},
				"south": {"uv": [1.375, 11.25, 2.375, 12.25], "texture": "#0"},
				"west": {"uv": [1.375, 11.25, 2.375, 12.25], "texture": "#0"},
				"up": {"uv": [1.375, 11.25, 2.375, 12.25], "texture": "#0"},
				"down": {"uv": [1.375, 11.25, 2.375, 12.25], "texture": "#0"}
			}
		},
		{
			"name": "octagon",
			"from": [7.64, 5.25147, 18.42],
			"to": [8.84, 5.74853, 18.97],
			"rotation": {"angle": 0, "axis": "y", "origin": [8.24, 5.5, 19.77]},
			"faces": {
				"north": {"uv": [1.375, 11.25, 2.375, 12.25], "texture": "#0"},
				"east": {"uv": [1.375, 11.25, 2.375, 12.25], "texture": "#0"},
				"south": {"uv": [1.375, 11.25, 2.375, 12.25], "texture": "#0"},
				"west": {"uv": [1.375, 11.25, 2.375, 12.25], "texture": "#0"},
				"up": {"uv": [1.375, 11.25, 2.375, 12.25], "texture": "#0"},
				"down": {"uv": [1.375, 11.25, 2.375, 12.25], "texture": "#0"}
			}
		},
		{
			"name": "octagon",
			"from": [7.99, 5.25147, 18.67],
			"to": [8.49, 5.74853, 19.37],
			"rotation": {"angle": 0, "axis": "y", "origin": [8.24, 5.5, 19.77]},
			"faces": {
				"north": {"uv": [1.375, 11.25, 2.375, 12.25], "texture": "#0"},
				"east": {"uv": [1.375, 11.25, 2.375, 12.25], "texture": "#0"},
				"south": {"uv": [1.375, 11.25, 2.375, 12.25], "texture": "#0"},
				"west": {"uv": [1.375, 11.25, 2.375, 12.25], "texture": "#0"},
				"up": {"uv": [1.375, 11.25, 2.375, 12.25], "texture": "#0"},
				"down": {"uv": [1.375, 11.25, 2.375, 12.25], "texture": "#0"}
			}
		},
		{
			"name": "octagon",
			"from": [8.04289, 5, -10.875],
			"to": [8.45711, 5.25, 18.475],
			"rotation": {"angle": 45, "axis": "z", "origin": [8.25, 5.5, 8.25]},
			"faces": {
				"north": {"uv": [1.375, 11.25, 2.375, 12.25], "texture": "#0"},
				"east": {"uv": [1.375, 11.25, 2.375, 12.25], "texture": "#0"},
				"south": {"uv": [1.375, 11.25, 2.375, 12.25], "texture": "#0"},
				"west": {"uv": [1.375, 11.25, 2.375, 12.25], "texture": "#0"},
				"up": {"uv": [1.375, 11.25, 2.375, 12.25], "texture": "#0"},
				"down": {"uv": [1.375, 11.25, 2.375, 12.25], "texture": "#0"}
			}
		},
		{
			"name": "octagon",
			"from": [8.04289, 5, -10.875],
			"to": [8.45711, 5.25, 18.475],
			"rotation": {"angle": 0, "axis": "y", "origin": [8.25, 5.5, 8.25]},
			"faces": {
				"north": {"uv": [1.375, 11.25, 2.375, 12.25], "texture": "#0"},
				"east": {"uv": [1.375, 11.25, 2.375, 12.25], "texture": "#0"},
				"south": {"uv": [1.375, 11.25, 2.375, 12.25], "texture": "#0"},
				"west": {"uv": [1.375, 11.25, 2.375, 12.25], "texture": "#0"},
				"up": {"uv": [1.375, 11.25, 2.375, 12.25], "texture": "#0"},
				"down": {"uv": [1.375, 11.25, 2.375, 12.25], "texture": "#0"}
			}
		},
		{
			"name": "octagon",
			"from": [8.04289, 5.75, 9.125],
			"to": [8.45711, 6, 18.475],
			"rotation": {"angle": 45, "axis": "z", "origin": [8.25, 5.5, 8.25]},
			"faces": {
				"north": {"uv": [1.375, 11.25, 2.375, 12.25], "texture": "#0"},
				"east": {"uv": [1.375, 11.25, 2.375, 12.25], "texture": "#0"},
				"south": {"uv": [1.375, 11.25, 2.375, 12.25], "texture": "#0"},
				"west": {"uv": [1.375, 11.25, 2.375, 12.25], "texture": "#0"},
				"up": {"uv": [1.375, 11.25, 2.375, 12.25], "texture": "#0"},
				"down": {"uv": [1.375, 11.25, 2.375, 12.25], "texture": "#0"}
			}
		},
		{
			"name": "octagon",
			"from": [8.04289, 5.75, 5.975],
			"to": [8.45711, 5.95, 9.275],
			"rotation": {"angle": 45, "axis": "z", "origin": [8.25, 5.5, 8.25]},
			"faces": {
				"north": {"uv": [1.375, 11.25, 2.375, 12.25], "texture": "#0"},
				"east": {"uv": [1.375, 11.25, 2.375, 12.25], "texture": "#0"},
				"south": {"uv": [1.375, 11.25, 2.375, 12.25], "texture": "#0"},
				"west": {"uv": [1.375, 11.25, 2.375, 12.25], "texture": "#0"},
				"up": {"uv": [1.375, 11.25, 2.375, 12.25], "texture": "#0"},
				"down": {"uv": [1.375, 11.25, 2.375, 12.25], "texture": "#0"}
			}
		},
		{
			"name": "octagon",
			"from": [8.04289, 5.75, -10.875],
			"to": [8.45711, 6, 6.025],
			"rotation": {"angle": 45, "axis": "z", "origin": [8.25, 5.5, 8.25]},
			"faces": {
				"north": {"uv": [1.375, 11.25, 2.375, 12.25], "texture": "#0"},
				"east": {"uv": [1.375, 11.25, 2.375, 12.25], "texture": "#0"},
				"south": {"uv": [1.375, 11.25, 2.375, 12.25], "texture": "#0"},
				"west": {"uv": [1.375, 11.25, 2.375, 12.25], "texture": "#0"},
				"up": {"uv": [1.375, 11.25, 2.375, 12.25], "texture": "#0"},
				"down": {"uv": [1.375, 11.25, 2.375, 12.25], "texture": "#0"}
			}
		},
		{
			"name": "octagon",
			"from": [8.04289, 5.75, -10.875],
			"to": [8.45711, 6, 18.475],
			"rotation": {"angle": 0, "axis": "y", "origin": [8.25, 5.5, 8.25]},
			"faces": {
				"north": {"uv": [1.375, 11.25, 2.375, 12.25], "texture": "#0"},
				"east": {"uv": [1.375, 11.25, 2.375, 12.25], "texture": "#0"},
				"south": {"uv": [1.375, 11.25, 2.375, 12.25], "texture": "#0"},
				"west": {"uv": [1.375, 11.25, 2.375, 12.25], "texture": "#0"},
				"up": {"uv": [1.375, 11.25, 2.375, 12.25], "texture": "#0"},
				"down": {"uv": [1.375, 11.25, 2.375, 12.25], "texture": "#0"}
			}
		},
		{
			"name": "octagon",
			"from": [8.14289, 6, -10.875],
			"to": [8.35711, 6.25, -10.525],
			"rotation": {"angle": 0, "axis": "y", "origin": [8.25, 5.5, 8.25]},
			"faces": {
				"north": {"uv": [1.375, 11.25, 2.375, 12.25], "texture": "#0"},
				"east": {"uv": [1.375, 11.25, 2.375, 12.25], "texture": "#0"},
				"south": {"uv": [1.375, 11.25, 2.375, 12.25], "texture": "#0"},
				"west": {"uv": [1.375, 11.25, 2.375, 12.25], "texture": "#0"},
				"up": {"uv": [1.375, 11.25, 2.375, 12.25], "texture": "#0"},
				"down": {"uv": [1.375, 11.25, 2.375, 12.25], "texture": "#0"}
			}
		},
		{
			"name": "octagon",
			"from": [7.79289, 6.25, 10.125],
			"to": [8.70711, 6.5, 10.475],
			"rotation": {"angle": 0, "axis": "y", "origin": [8.25, 5.5, 8.25]},
			"faces": {
				"north": {"uv": [1.375, 11.25, 2.375, 12.25], "texture": "#0"},
				"east": {"uv": [1.375, 11.25, 2.375, 12.25], "texture": "#0"},
				"south": {"uv": [1.375, 11.25, 2.375, 12.25], "texture": "#0"},
				"west": {"uv": [1.375, 11.25, 2.375, 12.25], "texture": "#0"},
				"up": {"uv": [1.375, 11.25, 2.375, 12.25], "texture": "#0"},
				"down": {"uv": [1.375, 11.25, 2.375, 12.25], "texture": "#0"}
			}
		},
		{
			"name": "octagon",
			"from": [8.29289, 6.5, 10.125],
			"to": [8.70711, 6.55, 10.475],
			"rotation": {"angle": 0, "axis": "y", "origin": [8.25, 5.5, 8.25]},
			"faces": {
				"north": {"uv": [1.375, 11.25, 2.375, 12.25], "texture": "#0"},
				"east": {"uv": [1.375, 11.25, 2.375, 12.25], "texture": "#0"},
				"south": {"uv": [1.375, 11.25, 2.375, 12.25], "texture": "#0"},
				"west": {"uv": [1.375, 11.25, 2.375, 12.25], "texture": "#0"},
				"up": {"uv": [1.375, 11.25, 2.375, 12.25], "texture": "#0"},
				"down": {"uv": [1.375, 11.25, 2.375, 12.25], "texture": "#0"}
			}
		},
		{
			"name": "octagon",
			"from": [7.79289, 6.5, 10.125],
			"to": [8.20711, 6.55, 10.475],
			"rotation": {"angle": 0, "axis": "y", "origin": [8.25, 5.5, 8.25]},
			"faces": {
				"north": {"uv": [1.375, 11.25, 2.375, 12.25], "texture": "#0"},
				"east": {"uv": [1.375, 11.25, 2.375, 12.25], "texture": "#0"},
				"south": {"uv": [1.375, 11.25, 2.375, 12.25], "texture": "#0"},
				"west": {"uv": [1.375, 11.25, 2.375, 12.25], "texture": "#0"},
				"up": {"uv": [1.375, 11.25, 2.375, 12.25], "texture": "#0"},
				"down": {"uv": [1.375, 11.25, 2.375, 12.25], "texture": "#0"}
			}
		},
		{
			"name": "octagon",
			"from": [7.75, 5.29289, -10.875],
			"to": [8, 5.70711, 18.475],
			"rotation": {"angle": 45, "axis": "z", "origin": [8.25, 5.5, 8.25]},
			"faces": {
				"north": {"uv": [1.375, 11.25, 2.375, 12.25], "texture": "#0"},
				"east": {"uv": [1.375, 11.25, 2.375, 12.25], "texture": "#0"},
				"south": {"uv": [1.375, 11.25, 2.375, 12.25], "texture": "#0"},
				"west": {"uv": [1.375, 11.25, 2.375, 12.25], "texture": "#0"},
				"up": {"uv": [1.375, 11.25, 2.375, 12.25], "texture": "#0"},
				"down": {"uv": [1.375, 11.25, 2.375, 12.25], "texture": "#0"}
			}
		},
		{
			"name": "octagon",
			"from": [7.75, 5.29289, 9.125],
			"to": [8, 5.70711, 17.675],
			"rotation": {"angle": 0, "axis": "y", "origin": [8.25, 5.5, 8.25]},
			"faces": {
				"north": {"uv": [1.375, 11.25, 2.375, 12.25], "texture": "#0"},
				"east": {"uv": [1.375, 11.25, 2.375, 12.25], "texture": "#0"},
				"south": {"uv": [1.375, 11.25, 2.375, 12.25], "texture": "#0"},
				"west": {"uv": [1.375, 11.25, 2.375, 12.25], "texture": "#0"},
				"up": {"uv": [1.375, 11.25, 2.375, 12.25], "texture": "#0"},
				"down": {"uv": [1.375, 11.25, 2.375, 12.25], "texture": "#0"}
			}
		},
		{
			"name": "octagon",
			"from": [7.75, 5.29289, -10.875],
			"to": [8, 5.70711, 6.025],
			"rotation": {"angle": 0, "axis": "y", "origin": [8.25, 5.5, 8.25]},
			"faces": {
				"north": {"uv": [1.375, 11.25, 2.375, 12.25], "texture": "#0"},
				"east": {"uv": [1.375, 11.25, 2.375, 12.25], "texture": "#0"},
				"south": {"uv": [1.375, 11.25, 2.375, 12.25], "texture": "#0"},
				"west": {"uv": [1.375, 11.25, 2.375, 12.25], "texture": "#0"},
				"up": {"uv": [1.375, 11.25, 2.375, 12.25], "texture": "#0"},
				"down": {"uv": [1.375, 11.25, 2.375, 12.25], "texture": "#0"}
			}
		},
		{
			"name": "octagon",
			"from": [7.78536, 5.25754, 5.975],
			"to": [7.93536, 5.67175, 9.175],
			"rotation": {"angle": 0, "axis": "y", "origin": [12.18536, 5.46464, 8.2]},
			"faces": {
				"north": {"uv": [1.375, 11.25, 2.375, 12.25], "texture": "#0"},
				"east": {"uv": [1.375, 11.25, 2.375, 12.25], "texture": "#0"},
				"south": {"uv": [1.375, 11.25, 2.375, 12.25], "texture": "#0"},
				"west": {"uv": [1.375, 11.25, 2.375, 12.25], "texture": "#0"},
				"up": {"uv": [1.375, 11.25, 2.375, 12.25], "texture": "#0"},
				"down": {"uv": [1.375, 11.25, 2.375, 12.25], "texture": "#0"}
			}
		},
		{
			"name": "octagon",
			"from": [8.5, 5.29289, -10.875],
			"to": [8.75, 5.70711, 18.475],
			"rotation": {"angle": 45, "axis": "z", "origin": [8.25, 5.5, 8.25]},
			"faces": {
				"north": {"uv": [1.375, 11.25, 2.375, 12.25], "texture": "#0"},
				"east": {"uv": [1.375, 11.25, 2.375, 12.25], "texture": "#0"},
				"south": {"uv": [1.375, 11.25, 2.375, 12.25], "texture": "#0"},
				"west": {"uv": [1.375, 11.25, 2.375, 12.25], "texture": "#0"},
				"up": {"uv": [1.375, 11.25, 2.375, 12.25], "texture": "#0"},
				"down": {"uv": [1.375, 11.25, 2.375, 12.25], "texture": "#0"}
			}
		},
		{
			"name": "octagon",
			"from": [8.5, 5.29289, -10.875],
			"to": [8.75, 5.70711, 18.475],
			"rotation": {"angle": 0, "axis": "y", "origin": [8.25, 5.5, 8.25]},
			"faces": {
				"north": {"uv": [1.375, 11.25, 2.375, 12.25], "texture": "#0"},
				"east": {"uv": [1.375, 11.25, 2.375, 12.25], "texture": "#0"},
				"south": {"uv": [1.375, 11.25, 2.375, 12.25], "texture": "#0"},
				"west": {"uv": [1.375, 11.25, 2.375, 12.25], "texture": "#0"},
				"up": {"uv": [1.375, 11.25, 2.375, 12.25], "texture": "#0"},
				"down": {"uv": [1.375, 11.25, 2.375, 12.25], "texture": "#0"}
			}
		},
		{
			"name": "octagon",
			"from": [8.04289, 4.75, -9.125],
			"to": [8.45711, 5, 18.675],
			"rotation": {"angle": 0, "axis": "y", "origin": [8.25, 5.5, 8.25]},
			"faces": {
				"north": {"uv": [15.25, 13.75, 15.375, 13.875], "texture": "#0"},
				"east": {"uv": [15.25, 13.75, 15.375, 13.875], "texture": "#0"},
				"south": {"uv": [15.25, 13.75, 15.375, 13.875], "texture": "#0"},
				"west": {"uv": [15.25, 13.75, 15.375, 13.875], "texture": "#0"},
				"up": {"uv": [15.25, 13.75, 15.375, 13.875], "texture": "#0"},
				"down": {"uv": [15.25, 13.75, 15.375, 13.875], "texture": "#0"}
			}
		},
		{
			"name": "octagon",
			"from": [7.79289, 3.75, -3.625],
			"to": [8.70711, 5.25, 18.475],
			"rotation": {"angle": 0, "axis": "y", "origin": [8.25, 5.5, 8.25]},
			"faces": {
				"north": {"uv": [9.375, 11.75, 9.5, 11.875], "texture": "#0"},
				"east": {"uv": [9.375, 11.75, 9.5, 11.875], "texture": "#0"},
				"south": {"uv": [9.375, 11.75, 9.5, 11.875], "texture": "#0"},
				"west": {"uv": [9.375, 11.75, 9.5, 11.875], "texture": "#0"},
				"up": {"uv": [9.375, 11.75, 9.5, 11.875], "texture": "#0"},
				"down": {"uv": [9.375, 11.75, 9.5, 11.875], "texture": "#0"}
			}
		},
		{
			"name": "octagon",
			"from": [7.54289, 5.25, 9.375],
			"to": [8.95711, 6.25, 18.425],
			"rotation": {"angle": 0, "axis": "y", "origin": [8.25, 5.5, 8.25]},
			"faces": {
				"north": {"uv": [9.375, 11.75, 9.5, 11.875], "texture": "#0"},
				"east": {"uv": [9.375, 11.75, 9.5, 11.875], "texture": "#0"},
				"south": {"uv": [9.375, 11.75, 9.5, 11.875], "texture": "#0"},
				"west": {"uv": [9.375, 11.75, 9.5, 11.875], "texture": "#0"},
				"up": {"uv": [9.375, 11.75, 9.5, 11.875], "texture": "#0"},
				"down": {"uv": [9.375, 11.75, 9.5, 11.875], "texture": "#0"}
			}
		},
		{
			"name": "octagon",
			"from": [7.44289, 5.5, 16.375],
			"to": [9.05711, 5.8, 16.675],
			"rotation": {"angle": -45, "axis": "x", "origin": [8.25, 5.65, 16.525]},
			"faces": {
				"north": {"uv": [14.66667, 1, 14.79167, 1.125], "texture": "#2"},
				"east": {"uv": [14.66667, 1, 14.79167, 1.125], "texture": "#2"},
				"south": {"uv": [14.66667, 1, 14.79167, 1.125], "texture": "#2"},
				"west": {"uv": [14.66667, 1, 14.79167, 1.125], "texture": "#2"},
				"up": {"uv": [14.66667, 1, 14.79167, 1.125], "texture": "#2"},
				"down": {"uv": [14.66667, 1, 14.79167, 1.125], "texture": "#2"}
			}
		},
		{
			"name": "octagon",
			"from": [7.69289, 4.08579, 13.63236],
			"to": [8.80711, 4.38579, 13.93236],
			"rotation": {"angle": -45, "axis": "x", "origin": [8.25, 4.23579, 13.78236]},
			"faces": {
				"north": {"uv": [14.66667, 1, 14.79167, 1.125], "texture": "#2"},
				"east": {"uv": [14.66667, 1, 14.79167, 1.125], "texture": "#2"},
				"south": {"uv": [14.66667, 1, 14.79167, 1.125], "texture": "#2"},
				"west": {"uv": [14.66667, 1, 14.79167, 1.125], "texture": "#2"},
				"up": {"uv": [14.66667, 1, 14.79167, 1.125], "texture": "#2"},
				"down": {"uv": [14.66667, 1, 14.79167, 1.125], "texture": "#2"}
			}
		},
		{
			"name": "octagon",
			"from": [7.69289, 4.08579, 8.38236],
			"to": [8.80711, 4.38579, 8.68236],
			"rotation": {"angle": -45, "axis": "x", "origin": [8.25, 4.23579, 8.53236]},
			"faces": {
				"north": {"uv": [14.66667, 1, 14.79167, 1.125], "texture": "#2"},
				"east": {"uv": [14.66667, 1, 14.79167, 1.125], "texture": "#2"},
				"south": {"uv": [14.66667, 1, 14.79167, 1.125], "texture": "#2"},
				"west": {"uv": [14.66667, 1, 14.79167, 1.125], "texture": "#2"},
				"up": {"uv": [14.66667, 1, 14.79167, 1.125], "texture": "#2"},
				"down": {"uv": [14.66667, 1, 14.79167, 1.125], "texture": "#2"}
			}
		},
		{
			"name": "octagon",
			"from": [7.69289, 4.08579, 6.38236],
			"to": [8.80711, 4.38579, 6.68236],
			"rotation": {"angle": -45, "axis": "x", "origin": [8.25, 4.23579, 6.53236]},
			"faces": {
				"north": {"uv": [14.66667, 1, 14.79167, 1.125], "texture": "#2"},
				"east": {"uv": [14.66667, 1, 14.79167, 1.125], "texture": "#2"},
				"south": {"uv": [14.66667, 1, 14.79167, 1.125], "texture": "#2"},
				"west": {"uv": [14.66667, 1, 14.79167, 1.125], "texture": "#2"},
				"up": {"uv": [14.66667, 1, 14.79167, 1.125], "texture": "#2"},
				"down": {"uv": [14.66667, 1, 14.79167, 1.125], "texture": "#2"}
			}
		},
		{
			"name": "octagon",
			"from": [7.8197, 3.85841, 9.375],
			"to": [8.0879, 5.35841, 18.425],
			"rotation": {"angle": 22.5, "axis": "z", "origin": [7.9538, 4.60841, 13.9]},
			"faces": {
				"north": {"uv": [9.375, 11.75, 9.5, 11.875], "texture": "#0"},
				"east": {"uv": [9.375, 11.75, 9.5, 11.875], "texture": "#0"},
				"south": {"uv": [9.375, 11.75, 9.5, 11.875], "texture": "#0"},
				"west": {"uv": [9.375, 11.75, 9.5, 11.875], "texture": "#0"},
				"up": {"uv": [9.375, 11.75, 9.5, 11.875], "texture": "#0"},
				"down": {"uv": [9.375, 11.75, 9.5, 11.875], "texture": "#0"}
			}
		},
		{
			"name": "octagon",
			"from": [8.41594, 3.85765, 9.375],
			"to": [8.68015, 5.35765, 18.425],
			"rotation": {"angle": -22.5, "axis": "z", "origin": [8.54804, 4.60765, 13.9]},
			"faces": {
				"north": {"uv": [9.375, 11.75, 9.5, 11.875], "texture": "#0"},
				"east": {"uv": [9.375, 11.75, 9.5, 11.875], "texture": "#0"},
				"south": {"uv": [9.375, 11.75, 9.5, 11.875], "texture": "#0"},
				"west": {"uv": [9.375, 11.75, 9.5, 11.875], "texture": "#0"},
				"up": {"uv": [9.375, 11.75, 9.5, 11.875], "texture": "#0"},
				"down": {"uv": [9.375, 11.75, 9.5, 11.875], "texture": "#0"}
			}
		},
		{
			"name": "octagon",
			"from": [7.79289, 3.25, 5.875],
			"to": [8.70711, 3.75, 9.375],
			"rotation": {"angle": 0, "axis": "y", "origin": [8.25, 5.5, 8.25]},
			"faces": {
				"north": {"uv": [5.625, 12.75, 5.75, 12.875], "texture": "#0"},
				"east": {"uv": [5.625, 12.75, 5.75, 12.875], "texture": "#0"},
				"south": {"uv": [5.625, 12.75, 5.75, 12.875], "texture": "#0"},
				"west": {"uv": [5.625, 12.75, 5.75, 12.875], "texture": "#0"},
				"up": {"uv": [5.625, 12.75, 5.75, 12.875], "texture": "#0"},
				"down": {"uv": [5.625, 12.75, 5.75, 12.875], "texture": "#0"}
			}
		},
		{
			"name": "octagon",
			"from": [8.13934, 3.03359, 12.47255],
			"to": [8.36066, 3.13359, 13.17255],
			"rotation": {"angle": 0, "axis": "y", "origin": [8.25, 5.08359, 2.79755]},
			"faces": {
				"north": {"uv": [2, 11.625, 2.125, 11.75], "texture": "#0"},
				"east": {"uv": [2, 11.625, 2.125, 11.75], "texture": "#0"},
				"south": {"uv": [2, 11.625, 2.125, 11.75], "texture": "#0"},
				"west": {"uv": [2, 11.625, 2.125, 11.75], "texture": "#0"},
				"up": {"uv": [2, 11.625, 2.125, 11.75], "texture": "#0"},
				"down": {"uv": [2, 11.625, 2.125, 11.75], "texture": "#0"}
			}
		},
		{
			"name": "octagon",
			"from": [8.13934, 3.28411, 12.11774],
			"to": [8.36066, 3.38411, 12.61774],
			"rotation": {"angle": 45, "axis": "x", "origin": [8.25, 3.33411, 12.24274]},
			"faces": {
				"north": {"uv": [2, 11.625, 2.125, 11.75], "texture": "#0"},
				"east": {"uv": [2, 11.625, 2.125, 11.75], "texture": "#0"},
				"south": {"uv": [2, 11.625, 2.125, 11.75], "texture": "#0"},
				"west": {"uv": [2, 11.625, 2.125, 11.75], "texture": "#0"},
				"up": {"uv": [2, 11.625, 2.125, 11.75], "texture": "#0"},
				"down": {"uv": [2, 11.625, 2.125, 11.75], "texture": "#0"}
			}
		},
		{
			"name": "octagon",
			"from": [8.13934, 3.37773, 11.97169],
			"to": [8.36066, 3.77773, 12.07169],
			"rotation": {"angle": -22.5, "axis": "x", "origin": [8.25, 3.75273, 12.02169]},
			"faces": {
				"north": {"uv": [2, 11.625, 2.125, 11.75], "rotation": 90, "texture": "#0"},
				"east": {"uv": [2, 11.625, 2.125, 11.75], "rotation": 90, "texture": "#0"},
				"south": {"uv": [2, 11.625, 2.125, 11.75], "rotation": 90, "texture": "#0"},
				"west": {"uv": [2, 11.625, 2.125, 11.75], "rotation": 90, "texture": "#0"},
				"up": {"uv": [2, 11.625, 2.125, 11.75], "rotation": 90, "texture": "#0"},
				"down": {"uv": [2, 11.625, 2.125, 11.75], "rotation": 90, "texture": "#0"}
			}
		},
		{
			"name": "octagon",
			"from": [8.13934, 3.1884, 13.04629],
			"to": [8.36066, 3.2884, 13.39629],
			"rotation": {"angle": -45, "axis": "x", "origin": [8.25, 3.2634, 13.29629]},
			"faces": {
				"north": {"uv": [2, 11.625, 2.125, 11.75], "rotation": 90, "texture": "#0"},
				"east": {"uv": [2, 11.625, 2.125, 11.75], "rotation": 90, "texture": "#0"},
				"south": {"uv": [2, 11.625, 2.125, 11.75], "rotation": 90, "texture": "#0"},
				"west": {"uv": [2, 11.625, 2.125, 11.75], "rotation": 90, "texture": "#0"},
				"up": {"uv": [2, 11.625, 2.125, 11.75], "rotation": 90, "texture": "#0"},
				"down": {"uv": [2, 11.625, 2.125, 11.75], "rotation": 90, "texture": "#0"}
			}
		},
		{
			"name": "octagon",
			"from": [8.13934, 3.2884, 12.74629],
			"to": [8.36066, 3.3884, 12.99629],
			"rotation": {"angle": -45, "axis": "x", "origin": [8.25, 3.3634, 12.89629]},
			"faces": {
				"north": {"uv": [2, 11.625, 2.125, 11.75], "rotation": 90, "texture": "#0"},
				"east": {"uv": [2, 11.625, 2.125, 11.75], "rotation": 90, "texture": "#0"},
				"south": {"uv": [2, 11.625, 2.125, 11.75], "rotation": 90, "texture": "#0"},
				"west": {"uv": [2, 11.625, 2.125, 11.75], "rotation": 90, "texture": "#0"},
				"up": {"uv": [2, 11.625, 2.125, 11.75], "rotation": 90, "texture": "#0"},
				"down": {"uv": [2, 11.625, 2.125, 11.75], "rotation": 90, "texture": "#0"}
			}
		},
		{
			"name": "octagon",
			"from": [7.88934, 3.18107, 13.32004],
			"to": [8.61066, 3.78107, 14.42004],
			"rotation": {"angle": 0, "axis": "y", "origin": [8.25, 3.33107, 13.34504]},
			"faces": {
				"north": {"uv": [0.25, 3.375, 0.375, 3.5], "texture": "#0"},
				"east": {"uv": [0.25, 3.375, 0.375, 3.5], "texture": "#0"},
				"south": {"uv": [0.25, 3.375, 0.375, 3.5], "texture": "#0"},
				"west": {"uv": [0.25, 3.375, 0.375, 3.5], "texture": "#0"},
				"up": {"uv": [0.25, 3.375, 0.375, 3.5], "texture": "#0"},
				"down": {"uv": [0.25, 3.375, 0.375, 3.5], "texture": "#0"}
			}
		},
		{
			"name": "octagon",
			"from": [7.88934, 1.55427, 14.00167],
			"to": [8.61066, 1.75427, 15.10167],
			"rotation": {"angle": 0, "axis": "y", "origin": [8.25, 3.30427, 13.27667]},
			"faces": {
				"north": {"uv": [0.25, 3.375, 0.375, 3.5], "texture": "#0"},
				"east": {"uv": [0.25, 3.375, 0.375, 3.5], "texture": "#0"},
				"south": {"uv": [0.25, 3.375, 0.375, 3.5], "texture": "#0"},
				"west": {"uv": [0.25, 3.375, 0.375, 3.5], "texture": "#0"},
				"up": {"uv": [0.25, 3.375, 0.375, 3.5], "texture": "#0"},
				"down": {"uv": [0.25, 3.375, 0.375, 3.5], "texture": "#0"}
			}
		},
		{
			"name": "octagon",
			"from": [7.88934, 1.35427, 14.10167],
			"to": [8.61066, 1.55427, 15.10167],
			"rotation": {"angle": 0, "axis": "y", "origin": [8.25, 3.30427, 13.27667]},
			"faces": {
				"north": {"uv": [0.25, 3.375, 0.375, 3.5], "texture": "#0"},
				"east": {"uv": [0.25, 3.375, 0.375, 3.5], "texture": "#0"},
				"south": {"uv": [0.25, 3.375, 0.375, 3.5], "texture": "#0"},
				"west": {"uv": [0.25, 3.375, 0.375, 3.5], "texture": "#0"},
				"up": {"uv": [0.25, 3.375, 0.375, 3.5], "texture": "#0"},
				"down": {"uv": [0.25, 3.375, 0.375, 3.5], "texture": "#0"}
			}
		},
		{
			"name": "octagon",
			"from": [7.88934, 1.41058, 13.37384],
			"to": [8.61066, 3.41058, 14.47384],
			"rotation": {"angle": -22.5, "axis": "x", "origin": [8.25, 3.16058, 13.92384]},
			"faces": {
				"north": {"uv": [0.25, 3.375, 0.375, 3.5], "texture": "#0"},
				"east": {"uv": [0.25, 3.375, 0.375, 3.5], "texture": "#0"},
				"south": {"uv": [0.25, 3.375, 0.375, 3.5], "texture": "#0"},
				"west": {"uv": [0.25, 3.375, 0.375, 3.5], "texture": "#0"},
				"up": {"uv": [0.25, 3.375, 0.375, 3.5], "texture": "#0"},
				"down": {"uv": [0.25, 3.375, 0.375, 3.5], "texture": "#0"}
			}
		},
		{
			"name": "octagon",
			"from": [8.13934, 3.38107, 12.92004],
			"to": [8.36066, 3.78107, 13.02004],
			"rotation": {"angle": 0, "axis": "y", "origin": [8.25, 3.33107, 12.94504]},
			"faces": {
				"north": {"uv": [2, 11.625, 2.125, 11.75], "texture": "#0"},
				"east": {"uv": [2, 11.625, 2.125, 11.75], "texture": "#0"},
				"south": {"uv": [2, 11.625, 2.125, 11.75], "texture": "#0"},
				"west": {"uv": [2, 11.625, 2.125, 11.75], "texture": "#0"},
				"up": {"uv": [2, 11.625, 2.125, 11.75], "texture": "#0"},
				"down": {"uv": [2, 11.625, 2.125, 11.75], "texture": "#0"}
			}
		},
		{
			"name": "octagon",
			"from": [7.99289, 6.25, 10.875],
			"to": [8.50711, 6.3, 16.225],
			"rotation": {"angle": 0, "axis": "y", "origin": [8.25, 5.5, 8.25]},
			"faces": {
				"north": {"uv": [3.75, 3.625, 3.875, 3.75], "texture": "#0"},
				"east": {"uv": [3.75, 3.625, 3.875, 3.75], "texture": "#0"},
				"south": {"uv": [3.75, 3.625, 3.875, 3.75], "texture": "#0"},
				"west": {"uv": [3.75, 3.625, 3.875, 3.75], "texture": "#0"},
				"up": {"uv": [3.75, 3.625, 3.875, 3.75], "texture": "#0"},
				"down": {"uv": [3.75, 3.625, 3.875, 3.75], "texture": "#0"}
			}
		},
		{
			"name": "octagon",
			"from": [7.99289, 6.25, 16.075],
			"to": [8.50711, 6.4, 16.225],
			"rotation": {"angle": 0, "axis": "y", "origin": [8.25, 5.5, 8.25]},
			"faces": {
				"north": {"uv": [3.75, 3.625, 3.875, 3.75], "texture": "#0"},
				"east": {"uv": [3.75, 3.625, 3.875, 3.75], "texture": "#0"},
				"south": {"uv": [3.75, 3.625, 3.875, 3.75], "texture": "#0"},
				"west": {"uv": [3.75, 3.625, 3.875, 3.75], "texture": "#0"},
				"up": {"uv": [3.75, 3.625, 3.875, 3.75], "texture": "#0"},
				"down": {"uv": [3.75, 3.625, 3.875, 3.75], "texture": "#0"}
			}
		},
		{
			"name": "octagon",
			"from": [7.99289, 6.25, 15.775],
			"to": [8.50711, 6.4, 15.925],
			"rotation": {"angle": 0, "axis": "y", "origin": [8.25, 5.5, 8.25]},
			"faces": {
				"north": {"uv": [3.75, 3.625, 3.875, 3.75], "texture": "#0"},
				"east": {"uv": [3.75, 3.625, 3.875, 3.75], "texture": "#0"},
				"south": {"uv": [3.75, 3.625, 3.875, 3.75], "texture": "#0"},
				"west": {"uv": [3.75, 3.625, 3.875, 3.75], "texture": "#0"},
				"up": {"uv": [3.75, 3.625, 3.875, 3.75], "texture": "#0"},
				"down": {"uv": [3.75, 3.625, 3.875, 3.75], "texture": "#0"}
			}
		},
		{
			"name": "octagon",
			"from": [7.99289, 6.25, 15.475],
			"to": [8.50711, 6.4, 15.625],
			"rotation": {"angle": 0, "axis": "y", "origin": [8.25, 5.5, 8.25]},
			"faces": {
				"north": {"uv": [3.75, 3.625, 3.875, 3.75], "texture": "#0"},
				"east": {"uv": [3.75, 3.625, 3.875, 3.75], "texture": "#0"},
				"south": {"uv": [3.75, 3.625, 3.875, 3.75], "texture": "#0"},
				"west": {"uv": [3.75, 3.625, 3.875, 3.75], "texture": "#0"},
				"up": {"uv": [3.75, 3.625, 3.875, 3.75], "texture": "#0"},
				"down": {"uv": [3.75, 3.625, 3.875, 3.75], "texture": "#0"}
			}
		},
		{
			"name": "octagon",
			"from": [7.99289, 6.25, 15.175],
			"to": [8.50711, 6.4, 15.325],
			"rotation": {"angle": 0, "axis": "y", "origin": [8.25, 5.5, 8.25]},
			"faces": {
				"north": {"uv": [3.75, 3.625, 3.875, 3.75], "texture": "#0"},
				"east": {"uv": [3.75, 3.625, 3.875, 3.75], "texture": "#0"},
				"south": {"uv": [3.75, 3.625, 3.875, 3.75], "texture": "#0"},
				"west": {"uv": [3.75, 3.625, 3.875, 3.75], "texture": "#0"},
				"up": {"uv": [3.75, 3.625, 3.875, 3.75], "texture": "#0"},
				"down": {"uv": [3.75, 3.625, 3.875, 3.75], "texture": "#0"}
			}
		},
		{
			"name": "octagon",
			"from": [7.99289, 6.25, 14.875],
			"to": [8.50711, 6.4, 15.025],
			"rotation": {"angle": 0, "axis": "y", "origin": [8.25, 5.5, 8.25]},
			"faces": {
				"north": {"uv": [3.75, 3.625, 3.875, 3.75], "texture": "#0"},
				"east": {"uv": [3.75, 3.625, 3.875, 3.75], "texture": "#0"},
				"south": {"uv": [3.75, 3.625, 3.875, 3.75], "texture": "#0"},
				"west": {"uv": [3.75, 3.625, 3.875, 3.75], "texture": "#0"},
				"up": {"uv": [3.75, 3.625, 3.875, 3.75], "texture": "#0"},
				"down": {"uv": [3.75, 3.625, 3.875, 3.75], "texture": "#0"}
			}
		},
		{
			"name": "octagon",
			"from": [7.99289, 6.25, 14.575],
			"to": [8.50711, 6.4, 14.725],
			"rotation": {"angle": 0, "axis": "y", "origin": [8.25, 5.5, 8.25]},
			"faces": {
				"north": {"uv": [3.75, 3.625, 3.875, 3.75], "texture": "#0"},
				"east": {"uv": [3.75, 3.625, 3.875, 3.75], "texture": "#0"},
				"south": {"uv": [3.75, 3.625, 3.875, 3.75], "texture": "#0"},
				"west": {"uv": [3.75, 3.625, 3.875, 3.75], "texture": "#0"},
				"up": {"uv": [3.75, 3.625, 3.875, 3.75], "texture": "#0"},
				"down": {"uv": [3.75, 3.625, 3.875, 3.75], "texture": "#0"}
			}
		},
		{
			"name": "octagon",
			"from": [7.99289, 6.25, 14.275],
			"to": [8.50711, 6.4, 14.425],
			"rotation": {"angle": 0, "axis": "y", "origin": [8.25, 5.5, 8.25]},
			"faces": {
				"north": {"uv": [3.75, 3.625, 3.875, 3.75], "texture": "#0"},
				"east": {"uv": [3.75, 3.625, 3.875, 3.75], "texture": "#0"},
				"south": {"uv": [3.75, 3.625, 3.875, 3.75], "texture": "#0"},
				"west": {"uv": [3.75, 3.625, 3.875, 3.75], "texture": "#0"},
				"up": {"uv": [3.75, 3.625, 3.875, 3.75], "texture": "#0"},
				"down": {"uv": [3.75, 3.625, 3.875, 3.75], "texture": "#0"}
			}
		},
		{
			"name": "octagon",
			"from": [7.99289, 6.25, 13.975],
			"to": [8.50711, 6.4, 14.125],
			"rotation": {"angle": 0, "axis": "y", "origin": [8.25, 5.5, 8.25]},
			"faces": {
				"north": {"uv": [3.75, 3.625, 3.875, 3.75], "texture": "#0"},
				"east": {"uv": [3.75, 3.625, 3.875, 3.75], "texture": "#0"},
				"south": {"uv": [3.75, 3.625, 3.875, 3.75], "texture": "#0"},
				"west": {"uv": [3.75, 3.625, 3.875, 3.75], "texture": "#0"},
				"up": {"uv": [3.75, 3.625, 3.875, 3.75], "texture": "#0"},
				"down": {"uv": [3.75, 3.625, 3.875, 3.75], "texture": "#0"}
			}
		},
		{
			"name": "octagon",
			"from": [7.99289, 6.25, 13.675],
			"to": [8.50711, 6.4, 13.825],
			"rotation": {"angle": 0, "axis": "y", "origin": [8.25, 5.5, 8.25]},
			"faces": {
				"north": {"uv": [3.75, 3.625, 3.875, 3.75], "texture": "#0"},
				"east": {"uv": [3.75, 3.625, 3.875, 3.75], "texture": "#0"},
				"south": {"uv": [3.75, 3.625, 3.875, 3.75], "texture": "#0"},
				"west": {"uv": [3.75, 3.625, 3.875, 3.75], "texture": "#0"},
				"up": {"uv": [3.75, 3.625, 3.875, 3.75], "texture": "#0"},
				"down": {"uv": [3.75, 3.625, 3.875, 3.75], "texture": "#0"}
			}
		},
		{
			"name": "octagon",
			"from": [7.99289, 6.25, 13.375],
			"to": [8.50711, 6.4, 13.525],
			"rotation": {"angle": 0, "axis": "y", "origin": [8.25, 5.5, 8.25]},
			"faces": {
				"north": {"uv": [3.75, 3.625, 3.875, 3.75], "texture": "#0"},
				"east": {"uv": [3.75, 3.625, 3.875, 3.75], "texture": "#0"},
				"south": {"uv": [3.75, 3.625, 3.875, 3.75], "texture": "#0"},
				"west": {"uv": [3.75, 3.625, 3.875, 3.75], "texture": "#0"},
				"up": {"uv": [3.75, 3.625, 3.875, 3.75], "texture": "#0"},
				"down": {"uv": [3.75, 3.625, 3.875, 3.75], "texture": "#0"}
			}
		},
		{
			"name": "octagon",
			"from": [7.99289, 6.25, 13.075],
			"to": [8.50711, 6.4, 13.225],
			"rotation": {"angle": 0, "axis": "y", "origin": [8.25, 5.5, 8.25]},
			"faces": {
				"north": {"uv": [3.75, 3.625, 3.875, 3.75], "texture": "#0"},
				"east": {"uv": [3.75, 3.625, 3.875, 3.75], "texture": "#0"},
				"south": {"uv": [3.75, 3.625, 3.875, 3.75], "texture": "#0"},
				"west": {"uv": [3.75, 3.625, 3.875, 3.75], "texture": "#0"},
				"up": {"uv": [3.75, 3.625, 3.875, 3.75], "texture": "#0"},
				"down": {"uv": [3.75, 3.625, 3.875, 3.75], "texture": "#0"}
			}
		},
		{
			"name": "octagon",
			"from": [7.99289, 6.25, 12.775],
			"to": [8.50711, 6.4, 12.925],
			"rotation": {"angle": 0, "axis": "y", "origin": [8.25, 5.5, 8.25]},
			"faces": {
				"north": {"uv": [3.75, 3.625, 3.875, 3.75], "texture": "#0"},
				"east": {"uv": [3.75, 3.625, 3.875, 3.75], "texture": "#0"},
				"south": {"uv": [3.75, 3.625, 3.875, 3.75], "texture": "#0"},
				"west": {"uv": [3.75, 3.625, 3.875, 3.75], "texture": "#0"},
				"up": {"uv": [3.75, 3.625, 3.875, 3.75], "texture": "#0"},
				"down": {"uv": [3.75, 3.625, 3.875, 3.75], "texture": "#0"}
			}
		},
		{
			"name": "octagon",
			"from": [7.99289, 6.25, 12.475],
			"to": [8.50711, 6.4, 12.625],
			"rotation": {"angle": 0, "axis": "y", "origin": [8.25, 5.5, 8.25]},
			"faces": {
				"north": {"uv": [3.75, 3.625, 3.875, 3.75], "texture": "#0"},
				"east": {"uv": [3.75, 3.625, 3.875, 3.75], "texture": "#0"},
				"south": {"uv": [3.75, 3.625, 3.875, 3.75], "texture": "#0"},
				"west": {"uv": [3.75, 3.625, 3.875, 3.75], "texture": "#0"},
				"up": {"uv": [3.75, 3.625, 3.875, 3.75], "texture": "#0"},
				"down": {"uv": [3.75, 3.625, 3.875, 3.75], "texture": "#0"}
			}
		},
		{
			"name": "octagon",
			"from": [7.99289, 6.25, 12.175],
			"to": [8.50711, 6.4, 12.325],
			"rotation": {"angle": 0, "axis": "y", "origin": [8.25, 5.5, 8.25]},
			"faces": {
				"north": {"uv": [3.75, 3.625, 3.875, 3.75], "texture": "#0"},
				"east": {"uv": [3.75, 3.625, 3.875, 3.75], "texture": "#0"},
				"south": {"uv": [3.75, 3.625, 3.875, 3.75], "texture": "#0"},
				"west": {"uv": [3.75, 3.625, 3.875, 3.75], "texture": "#0"},
				"up": {"uv": [3.75, 3.625, 3.875, 3.75], "texture": "#0"},
				"down": {"uv": [3.75, 3.625, 3.875, 3.75], "texture": "#0"}
			}
		},
		{
			"name": "octagon",
			"from": [7.99289, 6.25, 11.875],
			"to": [8.50711, 6.4, 12.025],
			"rotation": {"angle": 0, "axis": "y", "origin": [8.25, 5.5, 8.25]},
			"faces": {
				"north": {"uv": [3.75, 3.625, 3.875, 3.75], "texture": "#0"},
				"east": {"uv": [3.75, 3.625, 3.875, 3.75], "texture": "#0"},
				"south": {"uv": [3.75, 3.625, 3.875, 3.75], "texture": "#0"},
				"west": {"uv": [3.75, 3.625, 3.875, 3.75], "texture": "#0"},
				"up": {"uv": [3.75, 3.625, 3.875, 3.75], "texture": "#0"},
				"down": {"uv": [3.75, 3.625, 3.875, 3.75], "texture": "#0"}
			}
		},
		{
			"name": "octagon",
			"from": [7.99289, 6.25, 11.575],
			"to": [8.50711, 6.4, 11.725],
			"rotation": {"angle": 0, "axis": "y", "origin": [8.25, 5.5, 8.25]},
			"faces": {
				"north": {"uv": [3.75, 3.625, 3.875, 3.75], "texture": "#0"},
				"east": {"uv": [3.75, 3.625, 3.875, 3.75], "texture": "#0"},
				"south": {"uv": [3.75, 3.625, 3.875, 3.75], "texture": "#0"},
				"west": {"uv": [3.75, 3.625, 3.875, 3.75], "texture": "#0"},
				"up": {"uv": [3.75, 3.625, 3.875, 3.75], "texture": "#0"},
				"down": {"uv": [3.75, 3.625, 3.875, 3.75], "texture": "#0"}
			}
		},
		{
			"name": "octagon",
			"from": [7.99289, 6.25, 11.275],
			"to": [8.50711, 6.4, 11.425],
			"rotation": {"angle": 0, "axis": "y", "origin": [8.25, 5.5, 8.25]},
			"faces": {
				"north": {"uv": [3.75, 3.625, 3.875, 3.75], "texture": "#0"},
				"east": {"uv": [3.75, 3.625, 3.875, 3.75], "texture": "#0"},
				"south": {"uv": [3.75, 3.625, 3.875, 3.75], "texture": "#0"},
				"west": {"uv": [3.75, 3.625, 3.875, 3.75], "texture": "#0"},
				"up": {"uv": [3.75, 3.625, 3.875, 3.75], "texture": "#0"},
				"down": {"uv": [3.75, 3.625, 3.875, 3.75], "texture": "#0"}
			}
		},
		{
			"name": "octagon",
			"from": [7.99289, 6.25, 10.725],
			"to": [8.50711, 6.5, 11.125],
			"rotation": {"angle": 0, "axis": "y", "origin": [8.25, 5.5, 8.25]},
			"faces": {
				"north": {"uv": [3.75, 3.625, 3.875, 3.75], "texture": "#0"},
				"east": {"uv": [3.75, 3.625, 3.875, 3.75], "texture": "#0"},
				"south": {"uv": [3.75, 3.625, 3.875, 3.75], "texture": "#0"},
				"west": {"uv": [3.75, 3.625, 3.875, 3.75], "texture": "#0"},
				"up": {"uv": [3.75, 3.625, 3.875, 3.75], "texture": "#0"},
				"down": {"uv": [3.75, 3.625, 3.875, 3.75], "texture": "#0"}
			}
		}
	],
	"display": {
		"thirdperson_righthand": {
			"translation": [-1.5, 3.5, -3.5],
			"scale": [0.8, 0.8, 0.8]
		},
		"thirdperson_lefthand": {
			"translation": [-0.75, 3.5, -3.5],
			"scale": [0.8, 0.8, 0.8]
		},
		"firstperson_righthand": {
			"translation": [-5.75, 6, 0],
			"scale": [1, 1, 0.9]
		},
		"firstperson_lefthand": {
			"translation": [-5.5, 4.75, 0],
			"scale": [1, 1, 0.9]
		},
		"ground": {
			"rotation": [0, 0, 45],
			"scale": [0.88, 0.88, 0.88]
		},
		"gui": {
			"rotation": [20, 27, -14],
			"translation": [-1, 2, 0]
		},
		"head": {
			"rotation": [0, 122, 90],
			"translation": [-3.25, 7.25, 1.75]
		},
		"fixed": {
			"rotation": [90, 45, -90],
			"translation": [2, 3.25, -1.25]
		}
	},
	"groups": [
		{
			"name": "gun",
			"origin": [8, 8, 8],
			"children": [
				{
					"name": "barell",
					"origin": [8, 8, 8],
					"children": [
						{
							"name": "barell cap",
							"origin": [8, 8, 8],
							"children": [0, 1, 2, 3, 4]
						},
						{
							"name": "barell",
							"origin": [8, 8, 8],
							"children": [5, 6, 7, 8, 9, 10, 11, 12, 13, 14, 15, 16, 17, 18, 19, 20]
						}
					]
				},
				{
					"name": "gun proper",
					"origin": [8.25, 5.5, 8.25],
					"children": [21, 22, 23, 24, 25, 26, 27, 28, 29, 30]
				},
				{
					"name": "trigger+handle",
					"origin": [8.25, 3.33107, 12.94504],
					"children": [31, 32, 33, 34, 35, 36, 37, 38, 39, 40]
				},
				{
					"name": "sight holder",
					"origin": [8, 8, 8],
					"children": [41, 42, 43, 44, 45, 46, 47, 48, 49, 50, 51, 52, 53, 54, 55, 56, 57, 58, 59]
				}
			]
		}
	]
}
