{
    "textures": {
        "0": "gci:items/common/all_in_one",
        "particle": "gci:items/common/all_in_one"
    },
    "elements": [
        {
            "from": [
                7.90277,
                6.23292,
                11.132
            ],
            "to": [
                8.59077,
                6.61692,
                12.792
            ],
            "rotation": {
                "angle": 0,
                "axis": "y",
                "origin": [
                    8.23377,
                    6.54359,
                    12.634
                ]
            },
            "faces": {
                "north": {
                    "uv": [
                        2.875,
                        3,
                        2.875,
                        3.25
                    ],
                    "rotation": 270,
                    "texture": "#0"
                },
                "east": {
                    "uv": [
                        2.875,
                        3,
                        2.875,
                        3.25
                    ],
                    "rotation": 270,
                    "texture": "#0"
                },
                "south": {
                    "uv": [
                        2.875,
                        3,
                        2.875,
                        3.25
                    ],
                    "rotation": 270,
                    "texture": "#0"
                },
                "west": {
                    "uv": [
                        2.875,
                        3,
                        2.875,
                        3.25
                    ],
                    "rotation": 270,
                    "texture": "#0"
                },
                "up": {
                    "uv": [
                        2.875,
                        3,
                        2.875,
                        3.25
                    ],
                    "rotation": 270,
                    "texture": "#0"
                },
                "down": {
                    "uv": [
                        2.875,
                        3,
                        2.875,
                        3.25
                    ],
                    "rotation": 270,
                    "texture": "#0"
                }
            }
        },
        {
            "from": [
                7.87077,
                6.29892,
                11.258
            ],
            "to": [
                8.62277,
                6.42292,
                11.386
            ],
            "rotation": {
                "angle": -45,
                "axis": "x",
                "origin": [
                    8.24677,
                    6.36092,
                    11.322
                ]
            },
            "faces": {
                "north": {
                    "uv": [
                        14.25,
                        6.625,
                        14.25,
                        6.625
                    ],
                    "texture": "#0"
                },
                "east": {
                    "uv": [
                        14.25,
                        6.625,
                        14.25,
                        6.625
                    ],
                    "texture": "#0"
                },
                "south": {
                    "uv": [
                        14.25,
                        6.625,
                        14.25,
                        6.625
                    ],
                    "texture": "#0"
                },
                "west": {
                    "uv": [
                        14.25,
                        6.625,
                        14.25,
                        6.625
                    ],
                    "texture": "#0"
                },
                "up": {
                    "uv": [
                        14.25,
                        6.625,
                        14.25,
                        6.625
                    ],
                    "texture": "#0"
                },
                "down": {
                    "uv": [
                        14.25,
                        6.625,
                        14.25,
                        6.625
                    ],
                    "texture": "#0"
                }
            }
        },
        {
            "from": [
                7.87077,
                6.29892,
                12.57
            ],
            "to": [
                8.62277,
                6.42292,
                12.698
            ],
            "rotation": {
                "angle": -45,
                "axis": "x",
                "origin": [
                    8.24677,
                    6.36092,
                    12.634
                ]
            },
            "faces": {
                "north": {
                    "uv": [
                        14.25,
                        6.625,
                        14.25,
                        6.625
                    ],
                    "texture": "#0"
                },
                "east": {
                    "uv": [
                        14.25,
                        6.625,
                        14.25,
                        6.625
                    ],
                    "texture": "#0"
                },
                "south": {
                    "uv": [
                        14.25,
                        6.625,
                        14.25,
                        6.625
                    ],
                    "texture": "#0"
                },
                "west": {
                    "uv": [
                        14.25,
                        6.625,
                        14.25,
                        6.625
                    ],
                    "texture": "#0"
                },
                "up": {
                    "uv": [
                        14.25,
                        6.625,
                        14.25,
                        6.625
                    ],
                    "texture": "#0"
                },
                "down": {
                    "uv": [
                        14.25,
                        6.625,
                        14.25,
                        6.625
                    ],
                    "texture": "#0"
                }
            }
        },
        {
            "from": [
                7.87077,
                6.74692,
                12.666
            ],
            "to": [
                8.62277,
                6.87092,
                12.794
            ],
            "rotation": {
                "angle": -45,
                "axis": "x",
                "origin": [
                    8.24677,
                    6.80892,
                    12.73
                ]
            },
            "faces": {
                "north": {
                    "uv": [
                        2.875,
                        1,
                        2.875,
                        1.25
                    ],
                    "texture": "#0"
                },
                "east": {
                    "uv": [
                        2.875,
                        1,
                        2.875,
                        1.25
                    ],
                    "texture": "#0"
                },
                "south": {
                    "uv": [
                        2.875,
                        1,
                        2.875,
                        1.25
                    ],
                    "texture": "#0"
                },
                "west": {
                    "uv": [
                        2.875,
                        1,
                        2.875,
                        1.25
                    ],
                    "texture": "#0"
                },
                "up": {
                    "uv": [
                        2.875,
                        1,
                        2.875,
                        1.25
                    ],
                    "texture": "#0"
                },
                "down": {
                    "uv": [
                        2.875,
                        1,
                        2.875,
                        1.25
                    ],
                    "texture": "#0"
                }
            }
        },
        {
            "from": [
                7.90277,
                6.68092,
                11.132
            ],
            "to": [
                8.59077,
                6.84092,
                13.208
            ],
            "rotation": {
                "angle": 0,
                "axis": "y",
                "origin": [
                    8.23377,
                    6.99159,
                    12.634
                ]
            },
            "faces": {
                "north": {
                    "uv": [
                        2.875,
                        3,
                        2.875,
                        3.25
                    ],
                    "rotation": 270,
                    "texture": "#0"
                },
                "east": {
                    "uv": [
                        2.875,
                        3,
                        2.875,
                        3.25
                    ],
                    "rotation": 270,
                    "texture": "#0"
                },
                "south": {
                    "uv": [
                        2.875,
                        3,
                        2.875,
                        3.25
                    ],
                    "rotation": 270,
                    "texture": "#0"
                },
                "west": {
                    "uv": [
                        2.875,
                        3,
                        2.875,
                        3.25
                    ],
                    "rotation": 270,
                    "texture": "#0"
                },
                "up": {
                    "uv": [
                        2.875,
                        3,
                        2.875,
                        3.25
                    ],
                    "rotation": 270,
                    "texture": "#0"
                },
                "down": {
                    "uv": [
                        2.875,
                        3,
                        2.875,
                        3.25
                    ],
                    "rotation": 270,
                    "texture": "#0"
                }
            }
        },
        {
            "from": [
                8.19077,
                6.84092,
                11.868
            ],
            "to": [
                8.30277,
                6.94092,
                11.98
            ],
            "rotation": {
                "angle": -45,
                "axis": "y",
                "origin": [
                    8.24677,
                    6.90492,
                    11.924
                ]
            },
            "faces": {
                "north": {
                    "uv": [
                        4.25,
                        3.125,
                        4.25,
                        3.375
                    ],
                    "rotation": 270,
                    "texture": "#0"
                },
                "east": {
                    "uv": [
                        4.25,
                        3.125,
                        4.25,
                        3.375
                    ],
                    "rotation": 270,
                    "texture": "#0"
                },
                "south": {
                    "uv": [
                        4.25,
                        3.125,
                        4.25,
                        3.375
                    ],
                    "rotation": 270,
                    "texture": "#0"
                },
                "west": {
                    "uv": [
                        4.25,
                        3.125,
                        4.25,
                        3.375
                    ],
                    "rotation": 270,
                    "texture": "#0"
                },
                "up": {
                    "uv": [
                        4.25,
                        3.125,
                        4.25,
                        3.375
                    ],
                    "rotation": 270,
                    "texture": "#0"
                },
                "down": {
                    "uv": [
                        4.25,
                        3.125,
                        4.25,
                        3.375
                    ],
                    "rotation": 270,
                    "texture": "#0"
                }
            }
        },
        {
            "from": [
                7.99691,
                6.84092,
                11.79553
            ],
            "to": [
                8.72891,
                6.93692,
                12.09953
            ],
            "rotation": {
                "angle": 45,
                "axis": "y",
                "origin": [
                    8.27691,
                    6.87292,
                    12.07553
                ]
            },
            "faces": {
                "north": {
                    "uv": [
                        14.25,
                        6.625,
                        14.25,
                        6.625
                    ],
                    "rotation": 270,
                    "texture": "#0"
                },
                "east": {
                    "uv": [
                        14.25,
                        6.625,
                        14.25,
                        6.625
                    ],
                    "rotation": 270,
                    "texture": "#0"
                },
                "south": {
                    "uv": [
                        14.25,
                        6.625,
                        14.25,
                        6.625
                    ],
                    "rotation": 270,
                    "texture": "#0"
                },
                "west": {
                    "uv": [
                        14.25,
                        6.625,
                        14.25,
                        6.625
                    ],
                    "rotation": 270,
                    "texture": "#0"
                },
                "up": {
                    "uv": [
                        14.25,
                        6.625,
                        14.25,
                        6.625
                    ],
                    "rotation": 270,
                    "texture": "#0"
                },
                "down": {
                    "uv": [
                        14.25,
                        6.625,
                        14.25,
                        6.625
                    ],
                    "rotation": 270,
                    "texture": "#0"
                }
            }
        },
        {
            "from": [
                7.88121,
                6.84092,
                11.77221
            ],
            "to": [
                8.61321,
                6.93692,
                12.07621
            ],
            "rotation": {
                "angle": 0,
                "axis": "y",
                "origin": [
                    8.24721,
                    6.88892,
                    11.92421
                ]
            },
            "faces": {
                "north": {
                    "uv": [
                        14.25,
                        6.625,
                        14.25,
                        6.625
                    ],
                    "rotation": 270,
                    "texture": "#0"
                },
                "east": {
                    "uv": [
                        14.25,
                        6.625,
                        14.25,
                        6.625
                    ],
                    "rotation": 270,
                    "texture": "#0"
                },
                "south": {
                    "uv": [
                        14.25,
                        6.625,
                        14.25,
                        6.625
                    ],
                    "rotation": 270,
                    "texture": "#0"
                },
                "west": {
                    "uv": [
                        14.25,
                        6.625,
                        14.25,
                        6.625
                    ],
                    "rotation": 270,
                    "texture": "#0"
                },
                "up": {
                    "uv": [
                        14.25,
                        6.625,
                        14.25,
                        6.625
                    ],
                    "rotation": 270,
                    "texture": "#0"
                },
                "down": {
                    "uv": [
                        14.25,
                        6.625,
                        14.25,
                        6.625
                    ],
                    "rotation": 270,
                    "texture": "#0"
                }
            }
        },
        {
            "from": [
                8.09521,
                6.84092,
                11.55821
            ],
            "to": [
                8.39921,
                6.93692,
                12.29021
            ],
            "rotation": {
                "angle": 45,
                "axis": "y",
                "origin": [
                    8.24721,
                    6.88892,
                    11.92421
                ]
            },
            "faces": {
                "north": {
                    "uv": [
                        14.25,
                        6.625,
                        14.25,
                        6.625
                    ],
                    "texture": "#0"
                },
                "east": {
                    "uv": [
                        14.25,
                        6.625,
                        14.25,
                        6.625
                    ],
                    "texture": "#0"
                },
                "south": {
                    "uv": [
                        14.25,
                        6.625,
                        14.25,
                        6.625
                    ],
                    "texture": "#0"
                },
                "west": {
                    "uv": [
                        14.25,
                        6.625,
                        14.25,
                        6.625
                    ],
                    "texture": "#0"
                },
                "up": {
                    "uv": [
                        14.25,
                        6.625,
                        14.25,
                        6.625
                    ],
                    "texture": "#0"
                },
                "down": {
                    "uv": [
                        14.25,
                        6.625,
                        14.25,
                        6.625
                    ],
                    "texture": "#0"
                }
            }
        },
        {
            "from": [
                8.09521,
                6.84092,
                11.55821
            ],
            "to": [
                8.39921,
                6.93692,
                12.29021
            ],
            "rotation": {
                "angle": 0,
                "axis": "y",
                "origin": [
                    8.24721,
                    6.88892,
                    11.92421
                ]
            },
            "faces": {
                "north": {
                    "uv": [
                        14.25,
                        6.625,
                        14.25,
                        6.625
                    ],
                    "texture": "#0"
                },
                "east": {
                    "uv": [
                        14.25,
                        6.625,
                        14.25,
                        6.625
                    ],
                    "texture": "#0"
                },
                "south": {
                    "uv": [
                        14.25,
                        6.625,
                        14.25,
                        6.625
                    ],
                    "texture": "#0"
                },
                "west": {
                    "uv": [
                        14.25,
                        6.625,
                        14.25,
                        6.625
                    ],
                    "texture": "#0"
                },
                "up": {
                    "uv": [
                        14.25,
                        6.625,
                        14.25,
                        6.625
                    ],
                    "texture": "#0"
                },
                "down": {
                    "uv": [
                        14.25,
                        6.625,
                        14.25,
                        6.625
                    ],
                    "texture": "#0"
                }
            }
        },
        {
            "from": [
                8.21633,
                6.85489,
                11.228
            ],
            "to": [
                8.45633,
                6.90289,
                11.512
            ],
            "rotation": {
                "angle": 22.5,
                "axis": "z",
                "origin": [
                    8.55337,
                    7.18458,
                    11.37
                ]
            },
            "faces": {
                "north": {
                    "uv": [
                        2.875,
                        3,
                        2.875,
                        3.25
                    ],
                    "rotation": 90,
                    "texture": "#0"
                },
                "east": {
                    "uv": [
                        2.875,
                        3,
                        2.875,
                        3.25
                    ],
                    "rotation": 90,
                    "texture": "#0"
                },
                "south": {
                    "uv": [
                        2.875,
                        3,
                        2.875,
                        3.25
                    ],
                    "rotation": 90,
                    "texture": "#0"
                },
                "west": {
                    "uv": [
                        2.875,
                        3,
                        2.875,
                        3.25
                    ],
                    "rotation": 90,
                    "texture": "#0"
                },
                "up": {
                    "uv": [
                        2.875,
                        3,
                        2.875,
                        3.25
                    ],
                    "rotation": 90,
                    "texture": "#0"
                },
                "down": {
                    "uv": [
                        2.875,
                        3,
                        2.875,
                        3.25
                    ],
                    "rotation": 90,
                    "texture": "#0"
                }
            }
        },
        {
            "from": [
                7.90642,
                7.51032,
                11.228
            ],
            "to": [
                8.59442,
                7.55832,
                11.512
            ],
            "rotation": {
                "angle": 0,
                "axis": "y",
                "origin": [
                    8.23742,
                    7.14899,
                    12.698
                ]
            },
            "faces": {
                "north": {
                    "uv": [
                        2.875,
                        3,
                        2.875,
                        3.25
                    ],
                    "rotation": 270,
                    "texture": "#0"
                },
                "east": {
                    "uv": [
                        2.875,
                        3,
                        2.875,
                        3.25
                    ],
                    "rotation": 270,
                    "texture": "#0"
                },
                "south": {
                    "uv": [
                        2.875,
                        3,
                        2.875,
                        3.25
                    ],
                    "rotation": 270,
                    "texture": "#0"
                },
                "west": {
                    "uv": [
                        2.875,
                        3,
                        2.875,
                        3.25
                    ],
                    "rotation": 270,
                    "texture": "#0"
                },
                "up": {
                    "uv": [
                        2.875,
                        3,
                        2.875,
                        3.25
                    ],
                    "rotation": 270,
                    "texture": "#0"
                },
                "down": {
                    "uv": [
                        2.875,
                        3,
                        2.875,
                        3.25
                    ],
                    "rotation": 270,
                    "texture": "#0"
                }
            }
        },
        {
            "from": [
                8.20847,
                7.15832,
                11.356
            ],
            "to": [
                8.28847,
                7.23832,
                11.356
            ],
            "rotation": {
                "angle": 0,
                "axis": "y",
                "origin": [
                    8.58942,
                    7.43699,
                    12.698
                ]
            },
            "faces": {
                "north": {
                    "uv": [
                        8.75,
                        7,
                        8.75,
                        7.125
                    ],
                    "texture": "#0"
                },
                "east": {
                    "uv": [
                        8.75,
                        7,
                        8.75,
                        7.125
                    ],
                    "texture": "#0"
                },
                "south": {
                    "uv": [
                        8.75,
                        7,
                        8.75,
                        7.125
                    ],
                    "texture": "#0"
                },
                "west": {
                    "uv": [
                        8.75,
                        7,
                        8.75,
                        7.125
                    ],
                    "texture": "#0"
                },
                "up": {
                    "uv": [
                        8.75,
                        7,
                        8.75,
                        7.125
                    ],
                    "texture": "#0"
                },
                "down": {
                    "uv": [
                        8.75,
                        7,
                        8.75,
                        7.125
                    ],
                    "texture": "#0"
                }
            }
        },
        {
            "from": [
                7.7552,
                6.74125,
                11.228
            ],
            "to": [
                7.9952,
                6.78925,
                11.512
            ],
            "rotation": {
                "angle": -22.5,
                "axis": "z",
                "origin": [
                    8.0862,
                    6.41192,
                    12.698
                ]
            },
            "faces": {
                "north": {
                    "uv": [
                        2.875,
                        3,
                        2.875,
                        3.25
                    ],
                    "rotation": 270,
                    "texture": "#0"
                },
                "east": {
                    "uv": [
                        2.875,
                        3,
                        2.875,
                        3.25
                    ],
                    "rotation": 270,
                    "texture": "#0"
                },
                "south": {
                    "uv": [
                        2.875,
                        3,
                        2.875,
                        3.25
                    ],
                    "rotation": 270,
                    "texture": "#0"
                },
                "west": {
                    "uv": [
                        2.875,
                        3,
                        2.875,
                        3.25
                    ],
                    "rotation": 270,
                    "texture": "#0"
                },
                "up": {
                    "uv": [
                        2.875,
                        3,
                        2.875,
                        3.25
                    ],
                    "rotation": 270,
                    "texture": "#0"
                },
                "down": {
                    "uv": [
                        2.875,
                        3,
                        2.875,
                        3.25
                    ],
                    "rotation": 270,
                    "texture": "#0"
                }
            }
        },
        {
            "from": [
                7.81458,
                7.09658,
                11.228
            ],
            "to": [
                7.86258,
                7.33658,
                11.512
            ],
            "rotation": {
                "angle": 0,
                "axis": "y",
                "origin": [
                    7.89115,
                    7.1283,
                    11.37
                ]
            },
            "faces": {
                "north": {
                    "uv": [
                        2.875,
                        3,
                        2.875,
                        3.25
                    ],
                    "texture": "#0"
                },
                "east": {
                    "uv": [
                        2.875,
                        3,
                        2.875,
                        3.25
                    ],
                    "rotation": 180,
                    "texture": "#0"
                },
                "south": {
                    "uv": [
                        2.875,
                        3,
                        2.875,
                        3.25
                    ],
                    "rotation": 180,
                    "texture": "#0"
                },
                "west": {
                    "uv": [
                        2.875,
                        3,
                        2.875,
                        3.25
                    ],
                    "rotation": 180,
                    "texture": "#0"
                },
                "up": {
                    "uv": [
                        2.875,
                        3,
                        2.875,
                        3.25
                    ],
                    "rotation": 180,
                    "texture": "#0"
                },
                "down": {
                    "uv": [
                        2.875,
                        3,
                        2.875,
                        3.25
                    ],
                    "rotation": 180,
                    "texture": "#0"
                }
            }
        },
        {
            "from": [
                8.63373,
                7.09658,
                11.228
            ],
            "to": [
                8.68173,
                7.33658,
                11.512
            ],
            "rotation": {
                "angle": 0,
                "axis": "y",
                "origin": [
                    8.55337,
                    7.21658,
                    11.37
                ]
            },
            "faces": {
                "north": {
                    "uv": [
                        2.875,
                        3,
                        2.875,
                        3.25
                    ],
                    "rotation": 180,
                    "texture": "#0"
                },
                "east": {
                    "uv": [
                        2.875,
                        3,
                        2.875,
                        3.25
                    ],
                    "texture": "#0"
                },
                "south": {
                    "uv": [
                        2.875,
                        3,
                        2.875,
                        3.25
                    ],
                    "texture": "#0"
                },
                "west": {
                    "uv": [
                        2.875,
                        3,
                        2.875,
                        3.25
                    ],
                    "texture": "#0"
                },
                "up": {
                    "uv": [
                        2.875,
                        3,
                        2.875,
                        3.25
                    ],
                    "texture": "#0"
                },
                "down": {
                    "uv": [
                        2.875,
                        3,
                        2.875,
                        3.25
                    ],
                    "texture": "#0"
                }
            }
        },
        {
            "from": [
                7.90277,
                6.77692,
                11.228
            ],
            "to": [
                8.59077,
                6.88892,
                11.512
            ],
            "rotation": {
                "angle": 0,
                "axis": "y",
                "origin": [
                    8.23377,
                    6.44759,
                    12.698
                ]
            },
            "faces": {
                "north": {
                    "uv": [
                        2.875,
                        3,
                        2.875,
                        3.25
                    ],
                    "rotation": 270,
                    "texture": "#0"
                },
                "east": {
                    "uv": [
                        2.875,
                        3,
                        2.875,
                        3.25
                    ],
                    "rotation": 270,
                    "texture": "#0"
                },
                "south": {
                    "uv": [
                        2.875,
                        3,
                        2.875,
                        3.25
                    ],
                    "rotation": 270,
                    "texture": "#0"
                },
                "west": {
                    "uv": [
                        2.875,
                        3,
                        2.875,
                        3.25
                    ],
                    "rotation": 270,
                    "texture": "#0"
                },
                "up": {
                    "uv": [
                        2.875,
                        3,
                        2.875,
                        3.25
                    ],
                    "rotation": 270,
                    "texture": "#0"
                },
                "down": {
                    "uv": [
                        2.875,
                        3,
                        2.875,
                        3.25
                    ],
                    "rotation": 270,
                    "texture": "#0"
                }
            }
        },
        {
            "from": [
                7.90277,
                6.84092,
                12.764
            ],
            "to": [
                8.59077,
                6.98492,
                13.208
            ],
            "rotation": {
                "angle": 0,
                "axis": "y",
                "origin": [
                    8.23377,
                    6.51159,
                    14.394
                ]
            },
            "faces": {
                "north": {
                    "uv": [
                        2.875,
                        3,
                        2.875,
                        3.25
                    ],
                    "rotation": 270,
                    "texture": "#0"
                },
                "east": {
                    "uv": [
                        2.875,
                        3,
                        2.875,
                        3.25
                    ],
                    "rotation": 270,
                    "texture": "#0"
                },
                "south": {
                    "uv": [
                        2.875,
                        3,
                        2.875,
                        3.25
                    ],
                    "rotation": 270,
                    "texture": "#0"
                },
                "west": {
                    "uv": [
                        2.875,
                        3,
                        2.875,
                        3.25
                    ],
                    "rotation": 270,
                    "texture": "#0"
                },
                "up": {
                    "uv": [
                        2.875,
                        3,
                        2.875,
                        3.25
                    ],
                    "rotation": 270,
                    "texture": "#0"
                },
                "down": {
                    "uv": [
                        2.875,
                        3,
                        2.875,
                        3.25
                    ],
                    "rotation": 270,
                    "texture": "#0"
                }
            }
        },
        {
            "from": [
                7.90277,
                6.74448,
                12.31118
            ],
            "to": [
                8.59077,
                6.88848,
                12.88318
            ],
            "rotation": {
                "angle": 0,
                "axis": "y",
                "origin": [
                    8.23377,
                    6.41515,
                    13.71718
                ]
            },
            "faces": {
                "north": {
                    "uv": [
                        2.875,
                        3,
                        2.875,
                        3.25
                    ],
                    "rotation": 270,
                    "texture": "#0"
                },
                "east": {
                    "uv": [
                        2.875,
                        3,
                        2.875,
                        3.25
                    ],
                    "rotation": 270,
                    "texture": "#0"
                },
                "south": {
                    "uv": [
                        2.875,
                        3,
                        2.875,
                        3.25
                    ],
                    "rotation": 270,
                    "texture": "#0"
                },
                "west": {
                    "uv": [
                        2.875,
                        3,
                        2.875,
                        3.25
                    ],
                    "rotation": 270,
                    "texture": "#0"
                },
                "up": {
                    "uv": [
                        2.875,
                        3,
                        2.875,
                        3.25
                    ],
                    "rotation": 270,
                    "texture": "#0"
                },
                "down": {
                    "uv": [
                        2.875,
                        3,
                        2.875,
                        3.25
                    ],
                    "rotation": 270,
                    "texture": "#0"
                }
            }
        },
        {
            "from": [
                7.90277,
                7.33081,
                12.60286
            ],
            "to": [
                8.59077,
                7.47481,
                12.85486
            ],
            "rotation": {
                "angle": -22.5,
                "axis": "x",
                "origin": [
                    8.23377,
                    7.00148,
                    14.04086
                ]
            },
            "faces": {
                "north": {
                    "uv": [
                        2.875,
                        3,
                        2.875,
                        3.25
                    ],
                    "rotation": 270,
                    "texture": "#0"
                },
                "east": {
                    "uv": [
                        2.875,
                        3,
                        2.875,
                        3.25
                    ],
                    "rotation": 270,
                    "texture": "#0"
                },
                "south": {
                    "uv": [
                        2.875,
                        3,
                        2.875,
                        3.25
                    ],
                    "rotation": 270,
                    "texture": "#0"
                },
                "west": {
                    "uv": [
                        2.875,
                        3,
                        2.875,
                        3.25
                    ],
                    "rotation": 270,
                    "texture": "#0"
                },
                "up": {
                    "uv": [
                        2.875,
                        3,
                        2.875,
                        3.25
                    ],
                    "rotation": 270,
                    "texture": "#0"
                },
                "down": {
                    "uv": [
                        2.875,
                        3,
                        2.875,
                        3.25
                    ],
                    "rotation": 270,
                    "texture": "#0"
                }
            }
        },
        {
            "from": [
                7.96767,
                7.29022,
                11.228
            ],
            "to": [
                8.01567,
                7.53022,
                11.512
            ],
            "rotation": {
                "angle": -22.5,
                "axis": "z",
                "origin": [
                    8.00767,
                    7.69822,
                    11.37
                ]
            },
            "faces": {
                "north": {
                    "uv": [
                        2.875,
                        3,
                        2.875,
                        3.25
                    ],
                    "rotation": 180,
                    "texture": "#0"
                },
                "east": {
                    "uv": [
                        2.875,
                        3,
                        2.875,
                        3.25
                    ],
                    "texture": "#0"
                },
                "south": {
                    "uv": [
                        2.875,
                        3,
                        2.875,
                        3.25
                    ],
                    "texture": "#0"
                },
                "west": {
                    "uv": [
                        2.875,
                        3,
                        2.875,
                        3.25
                    ],
                    "texture": "#0"
                },
                "up": {
                    "uv": [
                        2.875,
                        3,
                        2.875,
                        3.25
                    ],
                    "texture": "#0"
                },
                "down": {
                    "uv": [
                        2.875,
                        3,
                        2.875,
                        3.25
                    ],
                    "texture": "#0"
                }
            }
        },
        {
            "from": [
                8.66988,
                6.91484,
                11.228
            ],
            "to": [
                8.71788,
                7.15484,
                11.512
            ],
            "rotation": {
                "angle": -22.5,
                "axis": "z",
                "origin": [
                    8.55337,
                    7.21658,
                    11.37
                ]
            },
            "faces": {
                "north": {
                    "uv": [
                        2.875,
                        3,
                        2.875,
                        3.25
                    ],
                    "texture": "#0"
                },
                "east": {
                    "uv": [
                        2.875,
                        3,
                        2.875,
                        3.25
                    ],
                    "rotation": 180,
                    "texture": "#0"
                },
                "south": {
                    "uv": [
                        2.875,
                        3,
                        2.875,
                        3.25
                    ],
                    "rotation": 180,
                    "texture": "#0"
                },
                "west": {
                    "uv": [
                        2.875,
                        3,
                        2.875,
                        3.25
                    ],
                    "rotation": 180,
                    "texture": "#0"
                },
                "up": {
                    "uv": [
                        2.875,
                        3,
                        2.875,
                        3.25
                    ],
                    "rotation": 180,
                    "texture": "#0"
                },
                "down": {
                    "uv": [
                        2.875,
                        3,
                        2.875,
                        3.25
                    ],
                    "rotation": 180,
                    "texture": "#0"
                }
            }
        },
        {
            "from": [
                7.82089,
                6.8883,
                11.228
            ],
            "to": [
                7.86889,
                7.1283,
                11.512
            ],
            "rotation": {
                "angle": 22.5,
                "axis": "z",
                "origin": [
                    7.89746,
                    7.09658,
                    11.37
                ]
            },
            "faces": {
                "north": {
                    "uv": [
                        2.875,
                        3,
                        2.875,
                        3.25
                    ],
                    "rotation": 180,
                    "texture": "#0"
                },
                "east": {
                    "uv": [
                        2.875,
                        3,
                        2.875,
                        3.25
                    ],
                    "texture": "#0"
                },
                "south": {
                    "uv": [
                        2.875,
                        3,
                        2.875,
                        3.25
                    ],
                    "texture": "#0"
                },
                "west": {
                    "uv": [
                        2.875,
                        3,
                        2.875,
                        3.25
                    ],
                    "texture": "#0"
                },
                "up": {
                    "uv": [
                        2.875,
                        3,
                        2.875,
                        3.25
                    ],
                    "texture": "#0"
                },
                "down": {
                    "uv": [
                        2.875,
                        3,
                        2.875,
                        3.25
                    ],
                    "texture": "#0"
                }
            }
        },
        {
            "from": [
                8.66988,
                7.27833,
                11.228
            ],
            "to": [
                8.71788,
                7.51833,
                11.512
            ],
            "rotation": {
                "angle": 22.5,
                "axis": "z",
                "origin": [
                    8.55337,
                    7.21658,
                    11.37
                ]
            },
            "faces": {
                "north": {
                    "uv": [
                        2.875,
                        3,
                        2.875,
                        3.25
                    ],
                    "texture": "#0"
                },
                "east": {
                    "uv": [
                        2.875,
                        3,
                        2.875,
                        3.25
                    ],
                    "rotation": 180,
                    "texture": "#0"
                },
                "south": {
                    "uv": [
                        2.875,
                        3,
                        2.875,
                        3.25
                    ],
                    "rotation": 180,
                    "texture": "#0"
                },
                "west": {
                    "uv": [
                        2.875,
                        3,
                        2.875,
                        3.25
                    ],
                    "rotation": 180,
                    "texture": "#0"
                },
                "up": {
                    "uv": [
                        2.875,
                        3,
                        2.875,
                        3.25
                    ],
                    "rotation": 180,
                    "texture": "#0"
                },
                "down": {
                    "uv": [
                        2.875,
                        3,
                        2.875,
                        3.25
                    ],
                    "rotation": 180,
                    "texture": "#0"
                }
            }
        },
        {
            "from": [
                7.93477,
                6.58492,
                11.164
            ],
            "to": [
                8.55877,
                6.77692,
                13.176
            ],
            "rotation": {
                "angle": 0,
                "axis": "y",
                "origin": [
                    8.23377,
                    6.92759,
                    12.634
                ]
            },
            "faces": {
                "north": {
                    "uv": [
                        1.625,
                        0.875,
                        1.625,
                        0.875
                    ],
                    "rotation": 270,
                    "texture": "#0"
                },
                "east": {
                    "uv": [
                        1.625,
                        0.875,
                        1.625,
                        0.875
                    ],
                    "rotation": 270,
                    "texture": "#0"
                },
                "south": {
                    "uv": [
                        1.625,
                        0.875,
                        1.625,
                        0.875
                    ],
                    "rotation": 270,
                    "texture": "#0"
                },
                "west": {
                    "uv": [
                        1.625,
                        0.875,
                        1.625,
                        0.875
                    ],
                    "rotation": 270,
                    "texture": "#0"
                },
                "up": {
                    "uv": [
                        1.625,
                        0.875,
                        1.625,
                        0.875
                    ],
                    "rotation": 270,
                    "texture": "#0"
                },
                "down": {
                    "uv": [
                        1.625,
                        0.875,
                        1.625,
                        0.875
                    ],
                    "rotation": 270,
                    "texture": "#0"
                }
            }
        }
    ],
    "display": {
        "thirdperson_righthand": {
            "translation": [
                -1.5,
                3.5,
                -3.5
            ],
            "scale": [
                0.8,
                0.8,
                0.8
            ]
        },
        "thirdperson_lefthand": {
            "translation": [
                -0.75,
                3.5,
                -3.5
            ],
            "scale": [
                0.8,
                0.8,
                0.8
            ]
        },
        "firstperson_righthand": {
            "translation": [
                -5.75,
                6,
                0
            ],
            "scale": [
                1,
                1,
                0.9
            ]
        },
        "firstperson_lefthand": {
            "translation": [
                -5.5,
                4.75,
                0
            ],
            "scale": [
                1,
                1,
                0.9
            ]
        },
        "ground": {
            "rotation": [
                0,
                0,
                45
            ],
            "scale": [
                0.88,
                0.88,
                0.88
            ]
        },
        "gui": {
            "rotation": [
                20,
                27,
                -14
            ],
            "translation": [
                -1,
                2,
                0
            ]
        },
        "head": {
            "rotation": [
                0,
                122,
                90
            ],
            "translation": [
                -3.25,
                7.25,
                1.75
            ]
        },
        "fixed": {
            "rotation": [
                90,
                45,
                -90
            ],
            "translation": [
                2,
                3.25,
                -1.25
            ]
        }
    }
}