{
    "textures": {
        "0": "gci:items/common/all_in_one",
        "1": "gci:items/common/mpz",
        "particle": "gci:items/common/all_in_one"
    },
    "elements": [
        {
            "from": [
                8.19563,
                3.82178,
                -5.69356
            ],
            "to": [
                8.31663,
                4.06378,
                -3.956
            ],
            "rotation": {
                "angle": 45,
                "axis": "z",
                "origin": [
                    8.02451,
                    3.94278,
                    -2.8307
                ]
            },
            "faces": {
                "north": {
                    "uv": [
                        7.625,
                        12.375,
                        7.625,
                        12.5
                    ],
                    "rotation": 270,
                    "texture": "#0"
                },
                "east": {
                    "uv": [
                        7.625,
                        12.375,
                        7.625,
                        12.5
                    ],
                    "rotation": 270,
                    "texture": "#0"
                },
                "south": {
                    "uv": [
                        7.625,
                        12.375,
                        7.625,
                        12.5
                    ],
                    "rotation": 270,
                    "texture": "#0"
                },
                "west": {
                    "uv": [
                        7.625,
                        12.375,
                        7.625,
                        12.5
                    ],
                    "rotation": 270,
                    "texture": "#0"
                },
                "up": {
                    "uv": [
                        7.625,
                        12.375,
                        7.625,
                        12.5
                    ],
                    "rotation": 270,
                    "texture": "#0"
                },
                "down": {
                    "uv": [
                        7.625,
                        12.375,
                        7.625,
                        12.5
                    ],
                    "rotation": 270,
                    "texture": "#0"
                }
            }
        },
        {
            "from": [
                7.73238,
                3.82178,
                -5.69356
            ],
            "to": [
                7.85338,
                4.06378,
                -3.956
            ],
            "rotation": {
                "angle": 45,
                "axis": "z",
                "origin": [
                    8.02451,
                    3.94278,
                    -2.8307
                ]
            },
            "faces": {
                "north": {
                    "uv": [
                        7.625,
                        12.375,
                        7.625,
                        12.5
                    ],
                    "rotation": 270,
                    "texture": "#0"
                },
                "east": {
                    "uv": [
                        7.625,
                        12.375,
                        7.625,
                        12.5
                    ],
                    "rotation": 270,
                    "texture": "#0"
                },
                "south": {
                    "uv": [
                        7.625,
                        12.375,
                        7.625,
                        12.5
                    ],
                    "rotation": 270,
                    "texture": "#0"
                },
                "west": {
                    "uv": [
                        7.625,
                        12.375,
                        7.625,
                        12.5
                    ],
                    "rotation": 270,
                    "texture": "#0"
                },
                "up": {
                    "uv": [
                        7.625,
                        12.375,
                        7.625,
                        12.5
                    ],
                    "rotation": 270,
                    "texture": "#0"
                },
                "down": {
                    "uv": [
                        7.625,
                        12.375,
                        7.625,
                        12.5
                    ],
                    "rotation": 270,
                    "texture": "#0"
                }
            }
        },
        {
            "from": [
                7.90351,
                3.65066,
                -5.69356
            ],
            "to": [
                8.14551,
                3.77166,
                -3.956
            ],
            "rotation": {
                "angle": 0,
                "axis": "y",
                "origin": [
                    7.71163,
                    3.60055,
                    -19.4682
                ]
            },
            "faces": {
                "north": {
                    "uv": [
                        7.625,
                        12.375,
                        7.625,
                        12.5
                    ],
                    "rotation": 270,
                    "texture": "#0"
                },
                "east": {
                    "uv": [
                        7.625,
                        12.375,
                        7.625,
                        12.5
                    ],
                    "rotation": 270,
                    "texture": "#0"
                },
                "south": {
                    "uv": [
                        7.625,
                        12.375,
                        7.625,
                        12.5
                    ],
                    "rotation": 270,
                    "texture": "#0"
                },
                "west": {
                    "uv": [
                        7.625,
                        12.375,
                        7.625,
                        12.5
                    ],
                    "rotation": 270,
                    "texture": "#0"
                },
                "up": {
                    "uv": [
                        7.625,
                        12.375,
                        7.625,
                        12.5
                    ],
                    "rotation": 270,
                    "texture": "#0"
                },
                "down": {
                    "uv": [
                        7.625,
                        12.375,
                        7.625,
                        12.5
                    ],
                    "rotation": 270,
                    "texture": "#0"
                }
            }
        },
        {
            "from": [
                7.9035,
                4.11391,
                -5.69356
            ],
            "to": [
                8.1455,
                4.23491,
                -3.956
            ],
            "rotation": {
                "angle": 0,
                "axis": "y",
                "origin": [
                    7.72162,
                    4.06378,
                    -19.4682
                ]
            },
            "faces": {
                "north": {
                    "uv": [
                        7.625,
                        12.375,
                        7.625,
                        12.5
                    ],
                    "rotation": 270,
                    "texture": "#0"
                },
                "east": {
                    "uv": [
                        7.625,
                        12.375,
                        7.625,
                        12.5
                    ],
                    "rotation": 270,
                    "texture": "#0"
                },
                "south": {
                    "uv": [
                        7.625,
                        12.375,
                        7.625,
                        12.5
                    ],
                    "rotation": 270,
                    "texture": "#0"
                },
                "west": {
                    "uv": [
                        7.625,
                        12.375,
                        7.625,
                        12.5
                    ],
                    "rotation": 270,
                    "texture": "#0"
                },
                "up": {
                    "uv": [
                        7.625,
                        12.375,
                        7.625,
                        12.5
                    ],
                    "rotation": 270,
                    "texture": "#0"
                },
                "down": {
                    "uv": [
                        7.625,
                        12.375,
                        7.625,
                        12.5
                    ],
                    "rotation": 270,
                    "texture": "#0"
                }
            }
        },
        {
            "from": [
                8.21167,
                3.78156,
                -5.73228
            ],
            "to": [
                8.41011,
                4.101,
                -4.26576
            ],
            "rotation": {
                "angle": 0,
                "axis": "y",
                "origin": [
                    8.28612,
                    3.94128,
                    -4.59246
                ]
            },
            "faces": {
                "north": {
                    "uv": [
                        3,
                        2.75,
                        3,
                        2.875
                    ],
                    "texture": "#0"
                },
                "east": {
                    "uv": [
                        3,
                        2.75,
                        3,
                        2.875
                    ],
                    "texture": "#0"
                },
                "south": {
                    "uv": [
                        3,
                        2.75,
                        3,
                        2.875
                    ],
                    "texture": "#0"
                },
                "west": {
                    "uv": [
                        3,
                        2.75,
                        3,
                        2.875
                    ],
                    "texture": "#0"
                },
                "up": {
                    "uv": [
                        3,
                        2.75,
                        3,
                        2.875
                    ],
                    "texture": "#0"
                },
                "down": {
                    "uv": [
                        3,
                        2.75,
                        3,
                        2.875
                    ],
                    "texture": "#0"
                }
            }
        },
        {
            "from": [
                7.6389,
                3.78156,
                -5.73228
            ],
            "to": [
                7.83734,
                4.101,
                -4.26576
            ],
            "rotation": {
                "angle": 0,
                "axis": "y",
                "origin": [
                    7.82829,
                    3.86001,
                    -4.59246
                ]
            },
            "faces": {
                "north": {
                    "uv": [
                        3,
                        2.75,
                        3,
                        2.875
                    ],
                    "rotation": 180,
                    "texture": "#0"
                },
                "east": {
                    "uv": [
                        3,
                        2.75,
                        3,
                        2.875
                    ],
                    "rotation": 180,
                    "texture": "#0"
                },
                "south": {
                    "uv": [
                        3,
                        2.75,
                        3,
                        2.875
                    ],
                    "rotation": 180,
                    "texture": "#0"
                },
                "west": {
                    "uv": [
                        3,
                        2.75,
                        3,
                        2.875
                    ],
                    "rotation": 180,
                    "texture": "#0"
                },
                "up": {
                    "uv": [
                        3,
                        2.75,
                        3,
                        2.875
                    ],
                    "rotation": 180,
                    "texture": "#0"
                },
                "down": {
                    "uv": [
                        3,
                        2.75,
                        3,
                        2.875
                    ],
                    "rotation": 180,
                    "texture": "#0"
                }
            }
        },
        {
            "from": [
                7.6389,
                4.01388,
                -5.92104
            ],
            "to": [
                7.7599,
                4.101,
                -5.73228
            ],
            "rotation": {
                "angle": 0,
                "axis": "y",
                "origin": [
                    7.82829,
                    3.86001,
                    -4.78122
                ]
            },
            "faces": {
                "north": {
                    "uv": [
                        3,
                        2.75,
                        3,
                        2.875
                    ],
                    "rotation": 180,
                    "texture": "#0"
                },
                "east": {
                    "uv": [
                        3,
                        2.75,
                        3,
                        2.875
                    ],
                    "rotation": 180,
                    "texture": "#0"
                },
                "south": {
                    "uv": [
                        3,
                        2.75,
                        3,
                        2.875
                    ],
                    "rotation": 180,
                    "texture": "#0"
                },
                "west": {
                    "uv": [
                        3,
                        2.75,
                        3,
                        2.875
                    ],
                    "rotation": 180,
                    "texture": "#0"
                },
                "up": {
                    "uv": [
                        3,
                        2.75,
                        3,
                        2.875
                    ],
                    "rotation": 180,
                    "texture": "#0"
                },
                "down": {
                    "uv": [
                        3,
                        2.75,
                        3,
                        2.875
                    ],
                    "rotation": 180,
                    "texture": "#0"
                }
            }
        },
        {
            "from": [
                8.29714,
                4.01388,
                -5.92104
            ],
            "to": [
                8.41814,
                4.101,
                -5.73228
            ],
            "rotation": {
                "angle": 0,
                "axis": "y",
                "origin": [
                    8.48653,
                    3.86001,
                    -4.78122
                ]
            },
            "faces": {
                "north": {
                    "uv": [
                        3,
                        2.75,
                        3,
                        2.875
                    ],
                    "rotation": 180,
                    "texture": "#0"
                },
                "east": {
                    "uv": [
                        3,
                        2.75,
                        3,
                        2.875
                    ],
                    "rotation": 180,
                    "texture": "#0"
                },
                "south": {
                    "uv": [
                        3,
                        2.75,
                        3,
                        2.875
                    ],
                    "rotation": 180,
                    "texture": "#0"
                },
                "west": {
                    "uv": [
                        3,
                        2.75,
                        3,
                        2.875
                    ],
                    "rotation": 180,
                    "texture": "#0"
                },
                "up": {
                    "uv": [
                        3,
                        2.75,
                        3,
                        2.875
                    ],
                    "rotation": 180,
                    "texture": "#0"
                },
                "down": {
                    "uv": [
                        3,
                        2.75,
                        3,
                        2.875
                    ],
                    "rotation": 180,
                    "texture": "#0"
                }
            }
        },
        {
            "from": [
                7.6389,
                3.78156,
                -5.92104
            ],
            "to": [
                7.7599,
                3.86868,
                -5.73228
            ],
            "rotation": {
                "angle": 0,
                "axis": "y",
                "origin": [
                    7.82829,
                    3.66641,
                    -4.78122
                ]
            },
            "faces": {
                "north": {
                    "uv": [
                        3,
                        2.75,
                        3,
                        2.875
                    ],
                    "rotation": 180,
                    "texture": "#0"
                },
                "east": {
                    "uv": [
                        3,
                        2.75,
                        3,
                        2.875
                    ],
                    "rotation": 180,
                    "texture": "#0"
                },
                "south": {
                    "uv": [
                        3,
                        2.75,
                        3,
                        2.875
                    ],
                    "rotation": 180,
                    "texture": "#0"
                },
                "west": {
                    "uv": [
                        3,
                        2.75,
                        3,
                        2.875
                    ],
                    "rotation": 180,
                    "texture": "#0"
                },
                "up": {
                    "uv": [
                        3,
                        2.75,
                        3,
                        2.875
                    ],
                    "rotation": 180,
                    "texture": "#0"
                },
                "down": {
                    "uv": [
                        3,
                        2.75,
                        3,
                        2.875
                    ],
                    "rotation": 180,
                    "texture": "#0"
                }
            }
        },
        {
            "from": [
                8.29714,
                3.78156,
                -5.92104
            ],
            "to": [
                8.41814,
                3.86868,
                -5.73228
            ],
            "rotation": {
                "angle": 0,
                "axis": "y",
                "origin": [
                    8.48653,
                    3.66641,
                    -4.78122
                ]
            },
            "faces": {
                "north": {
                    "uv": [
                        3,
                        2.75,
                        3,
                        2.875
                    ],
                    "rotation": 180,
                    "texture": "#0"
                },
                "east": {
                    "uv": [
                        3,
                        2.75,
                        3,
                        2.875
                    ],
                    "rotation": 180,
                    "texture": "#0"
                },
                "south": {
                    "uv": [
                        3,
                        2.75,
                        3,
                        2.875
                    ],
                    "rotation": 180,
                    "texture": "#0"
                },
                "west": {
                    "uv": [
                        3,
                        2.75,
                        3,
                        2.875
                    ],
                    "rotation": 180,
                    "texture": "#0"
                },
                "up": {
                    "uv": [
                        3,
                        2.75,
                        3,
                        2.875
                    ],
                    "rotation": 180,
                    "texture": "#0"
                },
                "down": {
                    "uv": [
                        3,
                        2.75,
                        3,
                        2.875
                    ],
                    "rotation": 180,
                    "texture": "#0"
                }
            }
        },
        {
            "from": [
                7.94142,
                3.94345,
                -5.73228
            ],
            "to": [
                8.26086,
                4.14189,
                -4.26576
            ],
            "rotation": {
                "angle": -45,
                "axis": "z",
                "origin": [
                    8.28612,
                    3.94128,
                    -4.59246
                ]
            },
            "faces": {
                "north": {
                    "uv": [
                        3,
                        2.75,
                        3,
                        2.875
                    ],
                    "rotation": 270,
                    "texture": "#0"
                },
                "east": {
                    "uv": [
                        3,
                        2.75,
                        3,
                        2.875
                    ],
                    "rotation": 270,
                    "texture": "#0"
                },
                "south": {
                    "uv": [
                        3,
                        2.75,
                        3,
                        2.875
                    ],
                    "rotation": 270,
                    "texture": "#0"
                },
                "west": {
                    "uv": [
                        3,
                        2.75,
                        3,
                        2.875
                    ],
                    "rotation": 270,
                    "texture": "#0"
                },
                "up": {
                    "uv": [
                        3,
                        2.75,
                        3,
                        2.875
                    ],
                    "rotation": 270,
                    "texture": "#0"
                },
                "down": {
                    "uv": [
                        3,
                        2.75,
                        3,
                        2.875
                    ],
                    "rotation": 270,
                    "texture": "#0"
                }
            }
        },
        {
            "from": [
                7.94142,
                4.02089,
                -5.92104
            ],
            "to": [
                8.26086,
                4.14189,
                -5.73228
            ],
            "rotation": {
                "angle": -45,
                "axis": "z",
                "origin": [
                    8.28612,
                    3.94128,
                    -4.78122
                ]
            },
            "faces": {
                "north": {
                    "uv": [
                        3,
                        2.75,
                        3,
                        2.875
                    ],
                    "rotation": 270,
                    "texture": "#0"
                },
                "east": {
                    "uv": [
                        3,
                        2.75,
                        3,
                        2.875
                    ],
                    "rotation": 270,
                    "texture": "#0"
                },
                "south": {
                    "uv": [
                        3,
                        2.75,
                        3,
                        2.875
                    ],
                    "rotation": 270,
                    "texture": "#0"
                },
                "west": {
                    "uv": [
                        3,
                        2.75,
                        3,
                        2.875
                    ],
                    "rotation": 270,
                    "texture": "#0"
                },
                "up": {
                    "uv": [
                        3,
                        2.75,
                        3,
                        2.875
                    ],
                    "rotation": 270,
                    "texture": "#0"
                },
                "down": {
                    "uv": [
                        3,
                        2.75,
                        3,
                        2.875
                    ],
                    "rotation": 270,
                    "texture": "#0"
                }
            }
        },
        {
            "from": [
                7.6389,
                3.61902,
                -5.73228
            ],
            "to": [
                7.83734,
                3.93846,
                -4.26576
            ],
            "rotation": {
                "angle": 45,
                "axis": "z",
                "origin": [
                    7.82829,
                    3.86001,
                    -4.59246
                ]
            },
            "faces": {
                "north": {
                    "uv": [
                        3,
                        2.75,
                        3,
                        2.875
                    ],
                    "texture": "#0"
                },
                "east": {
                    "uv": [
                        3,
                        2.75,
                        3,
                        2.875
                    ],
                    "texture": "#0"
                },
                "south": {
                    "uv": [
                        3,
                        2.75,
                        3,
                        2.875
                    ],
                    "texture": "#0"
                },
                "west": {
                    "uv": [
                        3,
                        2.75,
                        3,
                        2.875
                    ],
                    "texture": "#0"
                },
                "up": {
                    "uv": [
                        3,
                        2.75,
                        3,
                        2.875
                    ],
                    "texture": "#0"
                },
                "down": {
                    "uv": [
                        3,
                        2.75,
                        3,
                        2.875
                    ],
                    "texture": "#0"
                }
            }
        },
        {
            "from": [
                7.6389,
                3.61902,
                -5.92104
            ],
            "to": [
                7.7599,
                3.93846,
                -5.73228
            ],
            "rotation": {
                "angle": 45,
                "axis": "z",
                "origin": [
                    7.82829,
                    3.86001,
                    -4.78122
                ]
            },
            "faces": {
                "north": {
                    "uv": [
                        3,
                        2.75,
                        3,
                        2.875
                    ],
                    "texture": "#0"
                },
                "east": {
                    "uv": [
                        3,
                        2.75,
                        3,
                        2.875
                    ],
                    "texture": "#0"
                },
                "south": {
                    "uv": [
                        3,
                        2.75,
                        3,
                        2.875
                    ],
                    "texture": "#0"
                },
                "west": {
                    "uv": [
                        3,
                        2.75,
                        3,
                        2.875
                    ],
                    "texture": "#0"
                },
                "up": {
                    "uv": [
                        3,
                        2.75,
                        3,
                        2.875
                    ],
                    "texture": "#0"
                },
                "down": {
                    "uv": [
                        3,
                        2.75,
                        3,
                        2.875
                    ],
                    "texture": "#0"
                }
            }
        },
        {
            "from": [
                7.86479,
                4.12845,
                -5.73228
            ],
            "to": [
                8.18423,
                4.32689,
                -4.26576
            ],
            "rotation": {
                "angle": 0,
                "axis": "y",
                "origin": [
                    8.02451,
                    4.29057,
                    -4.59246
                ]
            },
            "faces": {
                "north": {
                    "uv": [
                        3,
                        2.75,
                        3,
                        2.875
                    ],
                    "rotation": 270,
                    "texture": "#0"
                },
                "east": {
                    "uv": [
                        3,
                        2.75,
                        3,
                        2.875
                    ],
                    "rotation": 270,
                    "texture": "#0"
                },
                "south": {
                    "uv": [
                        3,
                        2.75,
                        3,
                        2.875
                    ],
                    "rotation": 270,
                    "texture": "#0"
                },
                "west": {
                    "uv": [
                        3,
                        2.75,
                        3,
                        2.875
                    ],
                    "rotation": 270,
                    "texture": "#0"
                },
                "up": {
                    "uv": [
                        3,
                        2.75,
                        3,
                        2.875
                    ],
                    "rotation": 270,
                    "texture": "#0"
                },
                "down": {
                    "uv": [
                        3,
                        2.75,
                        3,
                        2.875
                    ],
                    "rotation": 270,
                    "texture": "#0"
                }
            }
        },
        {
            "from": [
                7.86479,
                4.20589,
                -5.92104
            ],
            "to": [
                8.18423,
                4.32689,
                -5.73228
            ],
            "rotation": {
                "angle": 0,
                "axis": "y",
                "origin": [
                    8.02451,
                    4.29057,
                    -4.78122
                ]
            },
            "faces": {
                "north": {
                    "uv": [
                        3,
                        2.75,
                        3,
                        2.875
                    ],
                    "rotation": 270,
                    "texture": "#0"
                },
                "east": {
                    "uv": [
                        3,
                        2.75,
                        3,
                        2.875
                    ],
                    "rotation": 270,
                    "texture": "#0"
                },
                "south": {
                    "uv": [
                        3,
                        2.75,
                        3,
                        2.875
                    ],
                    "rotation": 270,
                    "texture": "#0"
                },
                "west": {
                    "uv": [
                        3,
                        2.75,
                        3,
                        2.875
                    ],
                    "rotation": 270,
                    "texture": "#0"
                },
                "up": {
                    "uv": [
                        3,
                        2.75,
                        3,
                        2.875
                    ],
                    "rotation": 270,
                    "texture": "#0"
                },
                "down": {
                    "uv": [
                        3,
                        2.75,
                        3,
                        2.875
                    ],
                    "rotation": 270,
                    "texture": "#0"
                }
            }
        },
        {
            "from": [
                7.86479,
                3.55569,
                -5.73228
            ],
            "to": [
                8.18423,
                3.75413,
                -4.26576
            ],
            "rotation": {
                "angle": 0,
                "axis": "y",
                "origin": [
                    7.82829,
                    3.86001,
                    -4.59246
                ]
            },
            "faces": {
                "north": {
                    "uv": [
                        3,
                        2.75,
                        3,
                        2.875
                    ],
                    "rotation": 90,
                    "texture": "#0"
                },
                "east": {
                    "uv": [
                        3,
                        2.75,
                        3,
                        2.875
                    ],
                    "rotation": 90,
                    "texture": "#0"
                },
                "south": {
                    "uv": [
                        3,
                        2.75,
                        3,
                        2.875
                    ],
                    "rotation": 90,
                    "texture": "#0"
                },
                "west": {
                    "uv": [
                        3,
                        2.75,
                        3,
                        2.875
                    ],
                    "rotation": 90,
                    "texture": "#0"
                },
                "up": {
                    "uv": [
                        3,
                        2.75,
                        3,
                        2.875
                    ],
                    "rotation": 90,
                    "texture": "#0"
                },
                "down": {
                    "uv": [
                        3,
                        2.75,
                        3,
                        2.875
                    ],
                    "rotation": 90,
                    "texture": "#0"
                }
            }
        },
        {
            "from": [
                7.86479,
                3.55569,
                -5.92104
            ],
            "to": [
                8.18423,
                3.67669,
                -5.73228
            ],
            "rotation": {
                "angle": 0,
                "axis": "y",
                "origin": [
                    7.82829,
                    3.86001,
                    -4.78122
                ]
            },
            "faces": {
                "north": {
                    "uv": [
                        3,
                        2.75,
                        3,
                        2.875
                    ],
                    "rotation": 90,
                    "texture": "#0"
                },
                "east": {
                    "uv": [
                        3,
                        2.75,
                        3,
                        2.875
                    ],
                    "rotation": 90,
                    "texture": "#0"
                },
                "south": {
                    "uv": [
                        3,
                        2.75,
                        3,
                        2.875
                    ],
                    "rotation": 90,
                    "texture": "#0"
                },
                "west": {
                    "uv": [
                        3,
                        2.75,
                        3,
                        2.875
                    ],
                    "rotation": 90,
                    "texture": "#0"
                },
                "up": {
                    "uv": [
                        3,
                        2.75,
                        3,
                        2.875
                    ],
                    "rotation": 90,
                    "texture": "#0"
                },
                "down": {
                    "uv": [
                        3,
                        2.75,
                        3,
                        2.875
                    ],
                    "rotation": 90,
                    "texture": "#0"
                }
            }
        },
        {
            "from": [
                8.28829,
                3.59658,
                -5.73228
            ],
            "to": [
                8.48673,
                3.91602,
                -4.26576
            ],
            "rotation": {
                "angle": -45,
                "axis": "z",
                "origin": [
                    8.28612,
                    3.94128,
                    -4.59246
                ]
            },
            "faces": {
                "north": {
                    "uv": [
                        3,
                        2.75,
                        3,
                        2.875
                    ],
                    "rotation": 180,
                    "texture": "#0"
                },
                "east": {
                    "uv": [
                        3,
                        2.75,
                        3,
                        2.875
                    ],
                    "rotation": 180,
                    "texture": "#0"
                },
                "south": {
                    "uv": [
                        3,
                        2.75,
                        3,
                        2.875
                    ],
                    "rotation": 180,
                    "texture": "#0"
                },
                "west": {
                    "uv": [
                        3,
                        2.75,
                        3,
                        2.875
                    ],
                    "rotation": 180,
                    "texture": "#0"
                },
                "up": {
                    "uv": [
                        3,
                        2.75,
                        3,
                        2.875
                    ],
                    "rotation": 180,
                    "texture": "#0"
                },
                "down": {
                    "uv": [
                        3,
                        2.75,
                        3,
                        2.875
                    ],
                    "rotation": 180,
                    "texture": "#0"
                }
            }
        },
        {
            "from": [
                8.36573,
                3.59658,
                -5.92104
            ],
            "to": [
                8.48673,
                3.91602,
                -5.73228
            ],
            "rotation": {
                "angle": -45,
                "axis": "z",
                "origin": [
                    8.28612,
                    3.94128,
                    -4.78122
                ]
            },
            "faces": {
                "north": {
                    "uv": [
                        3,
                        2.75,
                        3,
                        2.875
                    ],
                    "rotation": 180,
                    "texture": "#0"
                },
                "east": {
                    "uv": [
                        3,
                        2.75,
                        3,
                        2.875
                    ],
                    "rotation": 180,
                    "texture": "#0"
                },
                "south": {
                    "uv": [
                        3,
                        2.75,
                        3,
                        2.875
                    ],
                    "rotation": 180,
                    "texture": "#0"
                },
                "west": {
                    "uv": [
                        3,
                        2.75,
                        3,
                        2.875
                    ],
                    "rotation": 180,
                    "texture": "#0"
                },
                "up": {
                    "uv": [
                        3,
                        2.75,
                        3,
                        2.875
                    ],
                    "rotation": 180,
                    "texture": "#0"
                },
                "down": {
                    "uv": [
                        3,
                        2.75,
                        3,
                        2.875
                    ],
                    "rotation": 180,
                    "texture": "#0"
                }
            }
        },
        {
            "from": [
                7.86479,
                3.96589,
                -5.73228
            ],
            "to": [
                8.18423,
                4.16433,
                -4.26576
            ],
            "rotation": {
                "angle": 45,
                "axis": "z",
                "origin": [
                    7.82829,
                    3.86001,
                    -4.59246
                ]
            },
            "faces": {
                "north": {
                    "uv": [
                        3,
                        2.75,
                        3,
                        2.875
                    ],
                    "rotation": 270,
                    "texture": "#0"
                },
                "east": {
                    "uv": [
                        3,
                        2.75,
                        3,
                        2.875
                    ],
                    "rotation": 270,
                    "texture": "#0"
                },
                "south": {
                    "uv": [
                        3,
                        2.75,
                        3,
                        2.875
                    ],
                    "rotation": 270,
                    "texture": "#0"
                },
                "west": {
                    "uv": [
                        3,
                        2.75,
                        3,
                        2.875
                    ],
                    "rotation": 270,
                    "texture": "#0"
                },
                "up": {
                    "uv": [
                        3,
                        2.75,
                        3,
                        2.875
                    ],
                    "rotation": 270,
                    "texture": "#0"
                },
                "down": {
                    "uv": [
                        3,
                        2.75,
                        3,
                        2.875
                    ],
                    "rotation": 270,
                    "texture": "#0"
                }
            }
        },
        {
            "from": [
                7.86479,
                4.04333,
                -5.92104
            ],
            "to": [
                8.18423,
                4.16433,
                -5.73228
            ],
            "rotation": {
                "angle": 45,
                "axis": "z",
                "origin": [
                    7.82829,
                    3.86001,
                    -4.78122
                ]
            },
            "faces": {
                "north": {
                    "uv": [
                        3,
                        2.75,
                        3,
                        2.875
                    ],
                    "rotation": 270,
                    "texture": "#0"
                },
                "east": {
                    "uv": [
                        3,
                        2.75,
                        3,
                        2.875
                    ],
                    "rotation": 270,
                    "texture": "#0"
                },
                "south": {
                    "uv": [
                        3,
                        2.75,
                        3,
                        2.875
                    ],
                    "rotation": 270,
                    "texture": "#0"
                },
                "west": {
                    "uv": [
                        3,
                        2.75,
                        3,
                        2.875
                    ],
                    "rotation": 270,
                    "texture": "#0"
                },
                "up": {
                    "uv": [
                        3,
                        2.75,
                        3,
                        2.875
                    ],
                    "rotation": 270,
                    "texture": "#0"
                },
                "down": {
                    "uv": [
                        3,
                        2.75,
                        3,
                        2.875
                    ],
                    "rotation": 270,
                    "texture": "#0"
                }
            }
        },
        {
            "from": [
                7.73238,
                3.82178,
                -5.69356
            ],
            "to": [
                7.85338,
                4.06378,
                -3.956
            ],
            "rotation": {
                "angle": 0,
                "axis": "y",
                "origin": [
                    7.79288,
                    3.94278,
                    -4.0407
                ]
            },
            "faces": {
                "north": {
                    "uv": [
                        7.625,
                        12.375,
                        7.625,
                        12.5
                    ],
                    "rotation": 270,
                    "texture": "#0"
                },
                "east": {
                    "uv": [
                        7.625,
                        12.375,
                        7.625,
                        12.5
                    ],
                    "rotation": 270,
                    "texture": "#0"
                },
                "south": {
                    "uv": [
                        7.625,
                        12.375,
                        7.625,
                        12.5
                    ],
                    "rotation": 270,
                    "texture": "#0"
                },
                "west": {
                    "uv": [
                        7.625,
                        12.375,
                        7.625,
                        12.5
                    ],
                    "rotation": 270,
                    "texture": "#0"
                },
                "up": {
                    "uv": [
                        7.625,
                        12.375,
                        7.625,
                        12.5
                    ],
                    "rotation": 270,
                    "texture": "#0"
                },
                "down": {
                    "uv": [
                        7.625,
                        12.375,
                        7.625,
                        12.5
                    ],
                    "rotation": 270,
                    "texture": "#0"
                }
            }
        },
        {
            "from": [
                8.19563,
                3.82178,
                -5.69356
            ],
            "to": [
                8.31663,
                4.06378,
                -3.956
            ],
            "rotation": {
                "angle": 0,
                "axis": "y",
                "origin": [
                    8.25613,
                    3.94278,
                    -4.0407
                ]
            },
            "faces": {
                "north": {
                    "uv": [
                        7.625,
                        12.375,
                        7.625,
                        12.5
                    ],
                    "rotation": 270,
                    "texture": "#0"
                },
                "east": {
                    "uv": [
                        7.625,
                        12.375,
                        7.625,
                        12.5
                    ],
                    "rotation": 270,
                    "texture": "#0"
                },
                "south": {
                    "uv": [
                        7.625,
                        12.375,
                        7.625,
                        12.5
                    ],
                    "rotation": 270,
                    "texture": "#0"
                },
                "west": {
                    "uv": [
                        7.625,
                        12.375,
                        7.625,
                        12.5
                    ],
                    "rotation": 270,
                    "texture": "#0"
                },
                "up": {
                    "uv": [
                        7.625,
                        12.375,
                        7.625,
                        12.5
                    ],
                    "rotation": 270,
                    "texture": "#0"
                },
                "down": {
                    "uv": [
                        7.625,
                        12.375,
                        7.625,
                        12.5
                    ],
                    "rotation": 270,
                    "texture": "#0"
                }
            }
        },
        {
            "from": [
                7.90351,
                3.65066,
                -5.69356
            ],
            "to": [
                8.14551,
                3.77166,
                -3.956
            ],
            "rotation": {
                "angle": 45,
                "axis": "z",
                "origin": [
                    8.02451,
                    3.94278,
                    -2.8307
                ]
            },
            "faces": {
                "north": {
                    "uv": [
                        7.625,
                        12.375,
                        7.625,
                        12.5
                    ],
                    "rotation": 270,
                    "texture": "#0"
                },
                "east": {
                    "uv": [
                        7.625,
                        12.375,
                        7.625,
                        12.5
                    ],
                    "rotation": 270,
                    "texture": "#0"
                },
                "south": {
                    "uv": [
                        7.625,
                        12.375,
                        7.625,
                        12.5
                    ],
                    "rotation": 270,
                    "texture": "#0"
                },
                "west": {
                    "uv": [
                        7.625,
                        12.375,
                        7.625,
                        12.5
                    ],
                    "rotation": 270,
                    "texture": "#0"
                },
                "up": {
                    "uv": [
                        7.625,
                        12.375,
                        7.625,
                        12.5
                    ],
                    "rotation": 270,
                    "texture": "#0"
                },
                "down": {
                    "uv": [
                        7.625,
                        12.375,
                        7.625,
                        12.5
                    ],
                    "rotation": 270,
                    "texture": "#0"
                }
            }
        },
        {
            "from": [
                7.90351,
                4.11391,
                -5.69356
            ],
            "to": [
                8.14551,
                4.23491,
                -3.956
            ],
            "rotation": {
                "angle": 45,
                "axis": "z",
                "origin": [
                    8.02451,
                    3.94278,
                    -2.8307
                ]
            },
            "faces": {
                "north": {
                    "uv": [
                        7.625,
                        12.375,
                        7.625,
                        12.5
                    ],
                    "rotation": 270,
                    "texture": "#0"
                },
                "east": {
                    "uv": [
                        7.625,
                        12.375,
                        7.625,
                        12.5
                    ],
                    "rotation": 270,
                    "texture": "#0"
                },
                "south": {
                    "uv": [
                        7.625,
                        12.375,
                        7.625,
                        12.5
                    ],
                    "rotation": 270,
                    "texture": "#0"
                },
                "west": {
                    "uv": [
                        7.625,
                        12.375,
                        7.625,
                        12.5
                    ],
                    "rotation": 270,
                    "texture": "#0"
                },
                "up": {
                    "uv": [
                        7.625,
                        12.375,
                        7.625,
                        12.5
                    ],
                    "rotation": 270,
                    "texture": "#0"
                },
                "down": {
                    "uv": [
                        7.625,
                        12.375,
                        7.625,
                        12.5
                    ],
                    "rotation": 270,
                    "texture": "#0"
                }
            }
        }
    ],
    "display": {
        "thirdperson_righthand": {
            "translation": [
                0,
                4.5,
                -2.5
            ]
        },
        "thirdperson_lefthand": {
            "translation": [
                0,
                4.5,
                -2.5
            ]
        },
        "firstperson_righthand": {
            "translation": [
                -5,
                9,
                3.75
            ]
        },
        "firstperson_lefthand": {
            "translation": [
                -4,
                8.5,
                2
            ]
        },
        "ground": {
            "translation": [
                0,
                5.75,
                0
            ]
        },
        "gui": {
            "rotation": [
                35,
                35,
                -35
            ],
            "translation": [
                3.75,
                3.5,
                0
            ]
        },
        "head": {
            "translation": [
                0,
                -22,
                0
            ]
        },
        "fixed": {
            "rotation": [
                90,
                45,
                -90
            ],
            "translation": [
                3.5,
                2.5,
                0
            ]
        }
    }
}