{
    "textures": {
        "0": "gci:items/common/all_in_one",
        "1": "gci:items/common/mpz",
        "particle": "gci:items/common/all_in_one"
    },
    "elements": [
        {
            "from": [
                7.65533,
                4.51492,
                6.44
            ],
            "to": [
                8.34333,
                4.89892,
                8.1
            ],
            "rotation": {
                "angle": 0,
                "axis": "y",
                "origin": [
                    7.98633,
                    4.82559,
                    7.942
                ]
            },
            "faces": {
                "north": {
                    "uv": [
                        2.875,
                        3,
                        2.875,
                        3.25
                    ],
                    "rotation": 270,
                    "texture": "#0"
                },
                "east": {
                    "uv": [
                        2.875,
                        3,
                        2.875,
                        3.25
                    ],
                    "rotation": 270,
                    "texture": "#0"
                },
                "south": {
                    "uv": [
                        2.875,
                        3,
                        2.875,
                        3.25
                    ],
                    "rotation": 270,
                    "texture": "#0"
                },
                "west": {
                    "uv": [
                        2.875,
                        3,
                        2.875,
                        3.25
                    ],
                    "rotation": 270,
                    "texture": "#0"
                },
                "up": {
                    "uv": [
                        2.875,
                        3,
                        2.875,
                        3.25
                    ],
                    "rotation": 270,
                    "texture": "#0"
                },
                "down": {
                    "uv": [
                        2.875,
                        3,
                        2.875,
                        3.25
                    ],
                    "rotation": 270,
                    "texture": "#0"
                }
            }
        },
        {
            "from": [
                7.62333,
                4.58092,
                6.566
            ],
            "to": [
                8.37533,
                4.70492,
                6.694
            ],
            "rotation": {
                "angle": -45,
                "axis": "x",
                "origin": [
                    7.99933,
                    4.64292,
                    6.63
                ]
            },
            "faces": {
                "north": {
                    "uv": [
                        14.25,
                        6.625,
                        14.25,
                        6.625
                    ],
                    "texture": "#0"
                },
                "east": {
                    "uv": [
                        14.25,
                        6.625,
                        14.25,
                        6.625
                    ],
                    "texture": "#0"
                },
                "south": {
                    "uv": [
                        14.25,
                        6.625,
                        14.25,
                        6.625
                    ],
                    "texture": "#0"
                },
                "west": {
                    "uv": [
                        14.25,
                        6.625,
                        14.25,
                        6.625
                    ],
                    "texture": "#0"
                },
                "up": {
                    "uv": [
                        14.25,
                        6.625,
                        14.25,
                        6.625
                    ],
                    "texture": "#0"
                },
                "down": {
                    "uv": [
                        14.25,
                        6.625,
                        14.25,
                        6.625
                    ],
                    "texture": "#0"
                }
            }
        },
        {
            "from": [
                7.62333,
                4.58092,
                7.878
            ],
            "to": [
                8.37533,
                4.70492,
                8.006
            ],
            "rotation": {
                "angle": -45,
                "axis": "x",
                "origin": [
                    7.99933,
                    4.64292,
                    7.942
                ]
            },
            "faces": {
                "north": {
                    "uv": [
                        14.25,
                        6.625,
                        14.25,
                        6.625
                    ],
                    "texture": "#0"
                },
                "east": {
                    "uv": [
                        14.25,
                        6.625,
                        14.25,
                        6.625
                    ],
                    "texture": "#0"
                },
                "south": {
                    "uv": [
                        14.25,
                        6.625,
                        14.25,
                        6.625
                    ],
                    "texture": "#0"
                },
                "west": {
                    "uv": [
                        14.25,
                        6.625,
                        14.25,
                        6.625
                    ],
                    "texture": "#0"
                },
                "up": {
                    "uv": [
                        14.25,
                        6.625,
                        14.25,
                        6.625
                    ],
                    "texture": "#0"
                },
                "down": {
                    "uv": [
                        14.25,
                        6.625,
                        14.25,
                        6.625
                    ],
                    "texture": "#0"
                }
            }
        },
        {
            "from": [
                7.62333,
                5.02892,
                7.974
            ],
            "to": [
                8.37533,
                5.15292,
                8.102
            ],
            "rotation": {
                "angle": -45,
                "axis": "x",
                "origin": [
                    7.99933,
                    5.09092,
                    8.038
                ]
            },
            "faces": {
                "north": {
                    "uv": [
                        2.875,
                        1,
                        2.875,
                        1.25
                    ],
                    "texture": "#0"
                },
                "east": {
                    "uv": [
                        2.875,
                        1,
                        2.875,
                        1.25
                    ],
                    "texture": "#0"
                },
                "south": {
                    "uv": [
                        2.875,
                        1,
                        2.875,
                        1.25
                    ],
                    "texture": "#0"
                },
                "west": {
                    "uv": [
                        2.875,
                        1,
                        2.875,
                        1.25
                    ],
                    "texture": "#0"
                },
                "up": {
                    "uv": [
                        2.875,
                        1,
                        2.875,
                        1.25
                    ],
                    "texture": "#0"
                },
                "down": {
                    "uv": [
                        2.875,
                        1,
                        2.875,
                        1.25
                    ],
                    "texture": "#0"
                }
            }
        },
        {
            "from": [
                7.65533,
                4.96292,
                6.44
            ],
            "to": [
                8.34333,
                5.12292,
                8.516
            ],
            "rotation": {
                "angle": 0,
                "axis": "y",
                "origin": [
                    7.98633,
                    5.27359,
                    7.942
                ]
            },
            "faces": {
                "north": {
                    "uv": [
                        2.875,
                        3,
                        2.875,
                        3.25
                    ],
                    "rotation": 270,
                    "texture": "#0"
                },
                "east": {
                    "uv": [
                        2.875,
                        3,
                        2.875,
                        3.25
                    ],
                    "rotation": 270,
                    "texture": "#0"
                },
                "south": {
                    "uv": [
                        2.875,
                        3,
                        2.875,
                        3.25
                    ],
                    "rotation": 270,
                    "texture": "#0"
                },
                "west": {
                    "uv": [
                        2.875,
                        3,
                        2.875,
                        3.25
                    ],
                    "rotation": 270,
                    "texture": "#0"
                },
                "up": {
                    "uv": [
                        2.875,
                        3,
                        2.875,
                        3.25
                    ],
                    "rotation": 270,
                    "texture": "#0"
                },
                "down": {
                    "uv": [
                        2.875,
                        3,
                        2.875,
                        3.25
                    ],
                    "rotation": 270,
                    "texture": "#0"
                }
            }
        },
        {
            "from": [
                7.94333,
                5.12292,
                7.176
            ],
            "to": [
                8.05533,
                5.22292,
                7.288
            ],
            "rotation": {
                "angle": -45,
                "axis": "y",
                "origin": [
                    7.99933,
                    5.18692,
                    7.232
                ]
            },
            "faces": {
                "north": {
                    "uv": [
                        4.25,
                        3.125,
                        4.25,
                        3.375
                    ],
                    "rotation": 270,
                    "texture": "#0"
                },
                "east": {
                    "uv": [
                        4.25,
                        3.125,
                        4.25,
                        3.375
                    ],
                    "rotation": 270,
                    "texture": "#0"
                },
                "south": {
                    "uv": [
                        4.25,
                        3.125,
                        4.25,
                        3.375
                    ],
                    "rotation": 270,
                    "texture": "#0"
                },
                "west": {
                    "uv": [
                        4.25,
                        3.125,
                        4.25,
                        3.375
                    ],
                    "rotation": 270,
                    "texture": "#0"
                },
                "up": {
                    "uv": [
                        4.25,
                        3.125,
                        4.25,
                        3.375
                    ],
                    "rotation": 270,
                    "texture": "#0"
                },
                "down": {
                    "uv": [
                        4.25,
                        3.125,
                        4.25,
                        3.375
                    ],
                    "rotation": 270,
                    "texture": "#0"
                }
            }
        },
        {
            "from": [
                7.74947,
                5.12292,
                7.10353
            ],
            "to": [
                8.48147,
                5.21892,
                7.40753
            ],
            "rotation": {
                "angle": 45,
                "axis": "y",
                "origin": [
                    8.02947,
                    5.15492,
                    7.38353
                ]
            },
            "faces": {
                "north": {
                    "uv": [
                        14.25,
                        6.625,
                        14.25,
                        6.625
                    ],
                    "rotation": 270,
                    "texture": "#0"
                },
                "east": {
                    "uv": [
                        14.25,
                        6.625,
                        14.25,
                        6.625
                    ],
                    "rotation": 270,
                    "texture": "#0"
                },
                "south": {
                    "uv": [
                        14.25,
                        6.625,
                        14.25,
                        6.625
                    ],
                    "rotation": 270,
                    "texture": "#0"
                },
                "west": {
                    "uv": [
                        14.25,
                        6.625,
                        14.25,
                        6.625
                    ],
                    "rotation": 270,
                    "texture": "#0"
                },
                "up": {
                    "uv": [
                        14.25,
                        6.625,
                        14.25,
                        6.625
                    ],
                    "rotation": 270,
                    "texture": "#0"
                },
                "down": {
                    "uv": [
                        14.25,
                        6.625,
                        14.25,
                        6.625
                    ],
                    "rotation": 270,
                    "texture": "#0"
                }
            }
        },
        {
            "from": [
                7.63377,
                5.12292,
                7.08021
            ],
            "to": [
                8.36577,
                5.21892,
                7.38421
            ],
            "rotation": {
                "angle": 0,
                "axis": "y",
                "origin": [
                    7.99977,
                    5.17092,
                    7.23221
                ]
            },
            "faces": {
                "north": {
                    "uv": [
                        14.25,
                        6.625,
                        14.25,
                        6.625
                    ],
                    "rotation": 270,
                    "texture": "#0"
                },
                "east": {
                    "uv": [
                        14.25,
                        6.625,
                        14.25,
                        6.625
                    ],
                    "rotation": 270,
                    "texture": "#0"
                },
                "south": {
                    "uv": [
                        14.25,
                        6.625,
                        14.25,
                        6.625
                    ],
                    "rotation": 270,
                    "texture": "#0"
                },
                "west": {
                    "uv": [
                        14.25,
                        6.625,
                        14.25,
                        6.625
                    ],
                    "rotation": 270,
                    "texture": "#0"
                },
                "up": {
                    "uv": [
                        14.25,
                        6.625,
                        14.25,
                        6.625
                    ],
                    "rotation": 270,
                    "texture": "#0"
                },
                "down": {
                    "uv": [
                        14.25,
                        6.625,
                        14.25,
                        6.625
                    ],
                    "rotation": 270,
                    "texture": "#0"
                }
            }
        },
        {
            "from": [
                7.84777,
                5.12292,
                6.86621
            ],
            "to": [
                8.15177,
                5.21892,
                7.59821
            ],
            "rotation": {
                "angle": 45,
                "axis": "y",
                "origin": [
                    7.99977,
                    5.17092,
                    7.23221
                ]
            },
            "faces": {
                "north": {
                    "uv": [
                        14.25,
                        6.625,
                        14.25,
                        6.625
                    ],
                    "texture": "#0"
                },
                "east": {
                    "uv": [
                        14.25,
                        6.625,
                        14.25,
                        6.625
                    ],
                    "texture": "#0"
                },
                "south": {
                    "uv": [
                        14.25,
                        6.625,
                        14.25,
                        6.625
                    ],
                    "texture": "#0"
                },
                "west": {
                    "uv": [
                        14.25,
                        6.625,
                        14.25,
                        6.625
                    ],
                    "texture": "#0"
                },
                "up": {
                    "uv": [
                        14.25,
                        6.625,
                        14.25,
                        6.625
                    ],
                    "texture": "#0"
                },
                "down": {
                    "uv": [
                        14.25,
                        6.625,
                        14.25,
                        6.625
                    ],
                    "texture": "#0"
                }
            }
        },
        {
            "from": [
                7.84777,
                5.12292,
                6.86621
            ],
            "to": [
                8.15177,
                5.21892,
                7.59821
            ],
            "rotation": {
                "angle": 0,
                "axis": "y",
                "origin": [
                    7.99977,
                    5.17092,
                    7.23221
                ]
            },
            "faces": {
                "north": {
                    "uv": [
                        14.25,
                        6.625,
                        14.25,
                        6.625
                    ],
                    "texture": "#0"
                },
                "east": {
                    "uv": [
                        14.25,
                        6.625,
                        14.25,
                        6.625
                    ],
                    "texture": "#0"
                },
                "south": {
                    "uv": [
                        14.25,
                        6.625,
                        14.25,
                        6.625
                    ],
                    "texture": "#0"
                },
                "west": {
                    "uv": [
                        14.25,
                        6.625,
                        14.25,
                        6.625
                    ],
                    "texture": "#0"
                },
                "up": {
                    "uv": [
                        14.25,
                        6.625,
                        14.25,
                        6.625
                    ],
                    "texture": "#0"
                },
                "down": {
                    "uv": [
                        14.25,
                        6.625,
                        14.25,
                        6.625
                    ],
                    "texture": "#0"
                }
            }
        },
        {
            "from": [
                7.96889,
                5.13689,
                6.536
            ],
            "to": [
                8.20889,
                5.18489,
                6.82
            ],
            "rotation": {
                "angle": 22.5,
                "axis": "z",
                "origin": [
                    8.30593,
                    5.46658,
                    6.678
                ]
            },
            "faces": {
                "north": {
                    "uv": [
                        2.875,
                        3,
                        2.875,
                        3.25
                    ],
                    "rotation": 90,
                    "texture": "#0"
                },
                "east": {
                    "uv": [
                        2.875,
                        3,
                        2.875,
                        3.25
                    ],
                    "rotation": 90,
                    "texture": "#0"
                },
                "south": {
                    "uv": [
                        2.875,
                        3,
                        2.875,
                        3.25
                    ],
                    "rotation": 90,
                    "texture": "#0"
                },
                "west": {
                    "uv": [
                        2.875,
                        3,
                        2.875,
                        3.25
                    ],
                    "rotation": 90,
                    "texture": "#0"
                },
                "up": {
                    "uv": [
                        2.875,
                        3,
                        2.875,
                        3.25
                    ],
                    "rotation": 90,
                    "texture": "#0"
                },
                "down": {
                    "uv": [
                        2.875,
                        3,
                        2.875,
                        3.25
                    ],
                    "rotation": 90,
                    "texture": "#0"
                }
            }
        },
        {
            "from": [
                7.65898,
                5.79232,
                6.536
            ],
            "to": [
                8.34698,
                5.84032,
                6.82
            ],
            "rotation": {
                "angle": 0,
                "axis": "y",
                "origin": [
                    7.98998,
                    5.43099,
                    8.006
                ]
            },
            "faces": {
                "north": {
                    "uv": [
                        2.875,
                        3,
                        2.875,
                        3.25
                    ],
                    "rotation": 270,
                    "texture": "#0"
                },
                "east": {
                    "uv": [
                        2.875,
                        3,
                        2.875,
                        3.25
                    ],
                    "rotation": 270,
                    "texture": "#0"
                },
                "south": {
                    "uv": [
                        2.875,
                        3,
                        2.875,
                        3.25
                    ],
                    "rotation": 270,
                    "texture": "#0"
                },
                "west": {
                    "uv": [
                        2.875,
                        3,
                        2.875,
                        3.25
                    ],
                    "rotation": 270,
                    "texture": "#0"
                },
                "up": {
                    "uv": [
                        2.875,
                        3,
                        2.875,
                        3.25
                    ],
                    "rotation": 270,
                    "texture": "#0"
                },
                "down": {
                    "uv": [
                        2.875,
                        3,
                        2.875,
                        3.25
                    ],
                    "rotation": 270,
                    "texture": "#0"
                }
            }
        },
        {
            "from": [
                7.96103,
                5.44032,
                6.664
            ],
            "to": [
                8.04103,
                5.52032,
                6.664
            ],
            "rotation": {
                "angle": 0,
                "axis": "y",
                "origin": [
                    8.34198,
                    5.71899,
                    8.006
                ]
            },
            "faces": {
                "north": {
                    "uv": [
                        8.75,
                        7,
                        8.75,
                        7.125
                    ],
                    "texture": "#0"
                },
                "east": {
                    "uv": [
                        8.75,
                        7,
                        8.75,
                        7.125
                    ],
                    "texture": "#0"
                },
                "south": {
                    "uv": [
                        8.75,
                        7,
                        8.75,
                        7.125
                    ],
                    "texture": "#0"
                },
                "west": {
                    "uv": [
                        8.75,
                        7,
                        8.75,
                        7.125
                    ],
                    "texture": "#0"
                },
                "up": {
                    "uv": [
                        8.75,
                        7,
                        8.75,
                        7.125
                    ],
                    "texture": "#0"
                },
                "down": {
                    "uv": [
                        8.75,
                        7,
                        8.75,
                        7.125
                    ],
                    "texture": "#0"
                }
            }
        },
        {
            "from": [
                7.50776,
                5.02325,
                6.536
            ],
            "to": [
                7.74776,
                5.07125,
                6.82
            ],
            "rotation": {
                "angle": -22.5,
                "axis": "z",
                "origin": [
                    7.83876,
                    4.69392,
                    8.006
                ]
            },
            "faces": {
                "north": {
                    "uv": [
                        2.875,
                        3,
                        2.875,
                        3.25
                    ],
                    "rotation": 270,
                    "texture": "#0"
                },
                "east": {
                    "uv": [
                        2.875,
                        3,
                        2.875,
                        3.25
                    ],
                    "rotation": 270,
                    "texture": "#0"
                },
                "south": {
                    "uv": [
                        2.875,
                        3,
                        2.875,
                        3.25
                    ],
                    "rotation": 270,
                    "texture": "#0"
                },
                "west": {
                    "uv": [
                        2.875,
                        3,
                        2.875,
                        3.25
                    ],
                    "rotation": 270,
                    "texture": "#0"
                },
                "up": {
                    "uv": [
                        2.875,
                        3,
                        2.875,
                        3.25
                    ],
                    "rotation": 270,
                    "texture": "#0"
                },
                "down": {
                    "uv": [
                        2.875,
                        3,
                        2.875,
                        3.25
                    ],
                    "rotation": 270,
                    "texture": "#0"
                }
            }
        },
        {
            "from": [
                7.56714,
                5.37858,
                6.536
            ],
            "to": [
                7.61514,
                5.61858,
                6.82
            ],
            "rotation": {
                "angle": 0,
                "axis": "y",
                "origin": [
                    7.64371,
                    5.4103,
                    6.678
                ]
            },
            "faces": {
                "north": {
                    "uv": [
                        2.875,
                        3,
                        2.875,
                        3.25
                    ],
                    "rotation": 180,
                    "texture": "#0"
                },
                "east": {
                    "uv": [
                        2.875,
                        3,
                        2.875,
                        3.25
                    ],
                    "rotation": 180,
                    "texture": "#0"
                },
                "south": {
                    "uv": [
                        2.875,
                        3,
                        2.875,
                        3.25
                    ],
                    "rotation": 180,
                    "texture": "#0"
                },
                "west": {
                    "uv": [
                        2.875,
                        3,
                        2.875,
                        3.25
                    ],
                    "rotation": 180,
                    "texture": "#0"
                },
                "up": {
                    "uv": [
                        2.875,
                        3,
                        2.875,
                        3.25
                    ],
                    "rotation": 180,
                    "texture": "#0"
                },
                "down": {
                    "uv": [
                        2.875,
                        3,
                        2.875,
                        3.25
                    ],
                    "rotation": 180,
                    "texture": "#0"
                }
            }
        },
        {
            "from": [
                8.38629,
                5.37858,
                6.536
            ],
            "to": [
                8.43429,
                5.61858,
                6.82
            ],
            "rotation": {
                "angle": 0,
                "axis": "y",
                "origin": [
                    8.30593,
                    5.49858,
                    6.678
                ]
            },
            "faces": {
                "north": {
                    "uv": [
                        2.875,
                        3,
                        2.875,
                        3.25
                    ],
                    "texture": "#0"
                },
                "east": {
                    "uv": [
                        2.875,
                        3,
                        2.875,
                        3.25
                    ],
                    "texture": "#0"
                },
                "south": {
                    "uv": [
                        2.875,
                        3,
                        2.875,
                        3.25
                    ],
                    "texture": "#0"
                },
                "west": {
                    "uv": [
                        2.875,
                        3,
                        2.875,
                        3.25
                    ],
                    "texture": "#0"
                },
                "up": {
                    "uv": [
                        2.875,
                        3,
                        2.875,
                        3.25
                    ],
                    "texture": "#0"
                },
                "down": {
                    "uv": [
                        2.875,
                        3,
                        2.875,
                        3.25
                    ],
                    "texture": "#0"
                }
            }
        },
        {
            "from": [
                7.65533,
                5.05892,
                6.536
            ],
            "to": [
                8.34333,
                5.17092,
                6.82
            ],
            "rotation": {
                "angle": 0,
                "axis": "y",
                "origin": [
                    7.98633,
                    4.72959,
                    8.006
                ]
            },
            "faces": {
                "north": {
                    "uv": [
                        2.875,
                        3,
                        2.875,
                        3.25
                    ],
                    "rotation": 270,
                    "texture": "#0"
                },
                "east": {
                    "uv": [
                        2.875,
                        3,
                        2.875,
                        3.25
                    ],
                    "rotation": 270,
                    "texture": "#0"
                },
                "south": {
                    "uv": [
                        2.875,
                        3,
                        2.875,
                        3.25
                    ],
                    "rotation": 270,
                    "texture": "#0"
                },
                "west": {
                    "uv": [
                        2.875,
                        3,
                        2.875,
                        3.25
                    ],
                    "rotation": 270,
                    "texture": "#0"
                },
                "up": {
                    "uv": [
                        2.875,
                        3,
                        2.875,
                        3.25
                    ],
                    "rotation": 270,
                    "texture": "#0"
                },
                "down": {
                    "uv": [
                        2.875,
                        3,
                        2.875,
                        3.25
                    ],
                    "rotation": 270,
                    "texture": "#0"
                }
            }
        },
        {
            "from": [
                7.65533,
                5.12292,
                8.072
            ],
            "to": [
                8.34333,
                5.26692,
                8.516
            ],
            "rotation": {
                "angle": 0,
                "axis": "y",
                "origin": [
                    7.98633,
                    4.79359,
                    9.702
                ]
            },
            "faces": {
                "north": {
                    "uv": [
                        2.875,
                        3,
                        2.875,
                        3.25
                    ],
                    "rotation": 270,
                    "texture": "#0"
                },
                "east": {
                    "uv": [
                        2.875,
                        3,
                        2.875,
                        3.25
                    ],
                    "rotation": 270,
                    "texture": "#0"
                },
                "south": {
                    "uv": [
                        2.875,
                        3,
                        2.875,
                        3.25
                    ],
                    "rotation": 270,
                    "texture": "#0"
                },
                "west": {
                    "uv": [
                        2.875,
                        3,
                        2.875,
                        3.25
                    ],
                    "rotation": 270,
                    "texture": "#0"
                },
                "up": {
                    "uv": [
                        2.875,
                        3,
                        2.875,
                        3.25
                    ],
                    "rotation": 270,
                    "texture": "#0"
                },
                "down": {
                    "uv": [
                        2.875,
                        3,
                        2.875,
                        3.25
                    ],
                    "rotation": 270,
                    "texture": "#0"
                }
            }
        },
        {
            "from": [
                7.65533,
                5.02648,
                7.61918
            ],
            "to": [
                8.34333,
                5.17048,
                8.19118
            ],
            "rotation": {
                "angle": 0,
                "axis": "y",
                "origin": [
                    7.98633,
                    4.69715,
                    9.02518
                ]
            },
            "faces": {
                "north": {
                    "uv": [
                        2.875,
                        3,
                        2.875,
                        3.25
                    ],
                    "rotation": 270,
                    "texture": "#0"
                },
                "east": {
                    "uv": [
                        2.875,
                        3,
                        2.875,
                        3.25
                    ],
                    "rotation": 270,
                    "texture": "#0"
                },
                "south": {
                    "uv": [
                        2.875,
                        3,
                        2.875,
                        3.25
                    ],
                    "rotation": 270,
                    "texture": "#0"
                },
                "west": {
                    "uv": [
                        2.875,
                        3,
                        2.875,
                        3.25
                    ],
                    "rotation": 270,
                    "texture": "#0"
                },
                "up": {
                    "uv": [
                        2.875,
                        3,
                        2.875,
                        3.25
                    ],
                    "rotation": 270,
                    "texture": "#0"
                },
                "down": {
                    "uv": [
                        2.875,
                        3,
                        2.875,
                        3.25
                    ],
                    "rotation": 270,
                    "texture": "#0"
                }
            }
        },
        {
            "from": [
                7.65533,
                5.61281,
                7.91086
            ],
            "to": [
                8.34333,
                5.75681,
                8.16286
            ],
            "rotation": {
                "angle": -22.5,
                "axis": "x",
                "origin": [
                    7.98633,
                    5.28348,
                    9.34886
                ]
            },
            "faces": {
                "north": {
                    "uv": [
                        2.875,
                        3,
                        2.875,
                        3.25
                    ],
                    "rotation": 270,
                    "texture": "#0"
                },
                "east": {
                    "uv": [
                        2.875,
                        3,
                        2.875,
                        3.25
                    ],
                    "rotation": 270,
                    "texture": "#0"
                },
                "south": {
                    "uv": [
                        2.875,
                        3,
                        2.875,
                        3.25
                    ],
                    "rotation": 270,
                    "texture": "#0"
                },
                "west": {
                    "uv": [
                        2.875,
                        3,
                        2.875,
                        3.25
                    ],
                    "rotation": 270,
                    "texture": "#0"
                },
                "up": {
                    "uv": [
                        2.875,
                        3,
                        2.875,
                        3.25
                    ],
                    "rotation": 270,
                    "texture": "#0"
                },
                "down": {
                    "uv": [
                        2.875,
                        3,
                        2.875,
                        3.25
                    ],
                    "rotation": 270,
                    "texture": "#0"
                }
            }
        },
        {
            "from": [
                7.72023,
                5.57222,
                6.536
            ],
            "to": [
                7.76823,
                5.81222,
                6.82
            ],
            "rotation": {
                "angle": -22.5,
                "axis": "z",
                "origin": [
                    7.76023,
                    5.98022,
                    6.678
                ]
            },
            "faces": {
                "north": {
                    "uv": [
                        2.875,
                        3,
                        2.875,
                        3.25
                    ],
                    "texture": "#0"
                },
                "east": {
                    "uv": [
                        2.875,
                        3,
                        2.875,
                        3.25
                    ],
                    "texture": "#0"
                },
                "south": {
                    "uv": [
                        2.875,
                        3,
                        2.875,
                        3.25
                    ],
                    "texture": "#0"
                },
                "west": {
                    "uv": [
                        2.875,
                        3,
                        2.875,
                        3.25
                    ],
                    "texture": "#0"
                },
                "up": {
                    "uv": [
                        2.875,
                        3,
                        2.875,
                        3.25
                    ],
                    "texture": "#0"
                },
                "down": {
                    "uv": [
                        2.875,
                        3,
                        2.875,
                        3.25
                    ],
                    "texture": "#0"
                }
            }
        },
        {
            "from": [
                8.42244,
                5.19684,
                6.536
            ],
            "to": [
                8.47044,
                5.43684,
                6.82
            ],
            "rotation": {
                "angle": -22.5,
                "axis": "z",
                "origin": [
                    8.30593,
                    5.49858,
                    6.678
                ]
            },
            "faces": {
                "north": {
                    "uv": [
                        2.875,
                        3,
                        2.875,
                        3.25
                    ],
                    "rotation": 180,
                    "texture": "#0"
                },
                "east": {
                    "uv": [
                        2.875,
                        3,
                        2.875,
                        3.25
                    ],
                    "rotation": 180,
                    "texture": "#0"
                },
                "south": {
                    "uv": [
                        2.875,
                        3,
                        2.875,
                        3.25
                    ],
                    "rotation": 180,
                    "texture": "#0"
                },
                "west": {
                    "uv": [
                        2.875,
                        3,
                        2.875,
                        3.25
                    ],
                    "rotation": 180,
                    "texture": "#0"
                },
                "up": {
                    "uv": [
                        2.875,
                        3,
                        2.875,
                        3.25
                    ],
                    "rotation": 180,
                    "texture": "#0"
                },
                "down": {
                    "uv": [
                        2.875,
                        3,
                        2.875,
                        3.25
                    ],
                    "rotation": 180,
                    "texture": "#0"
                }
            }
        },
        {
            "from": [
                7.57345,
                5.1703,
                6.536
            ],
            "to": [
                7.62145,
                5.4103,
                6.82
            ],
            "rotation": {
                "angle": 22.5,
                "axis": "z",
                "origin": [
                    7.65002,
                    5.37858,
                    6.678
                ]
            },
            "faces": {
                "north": {
                    "uv": [
                        2.875,
                        3,
                        2.875,
                        3.25
                    ],
                    "texture": "#0"
                },
                "east": {
                    "uv": [
                        2.875,
                        3,
                        2.875,
                        3.25
                    ],
                    "texture": "#0"
                },
                "south": {
                    "uv": [
                        2.875,
                        3,
                        2.875,
                        3.25
                    ],
                    "texture": "#0"
                },
                "west": {
                    "uv": [
                        2.875,
                        3,
                        2.875,
                        3.25
                    ],
                    "texture": "#0"
                },
                "up": {
                    "uv": [
                        2.875,
                        3,
                        2.875,
                        3.25
                    ],
                    "texture": "#0"
                },
                "down": {
                    "uv": [
                        2.875,
                        3,
                        2.875,
                        3.25
                    ],
                    "texture": "#0"
                }
            }
        },
        {
            "from": [
                8.42244,
                5.56033,
                6.536
            ],
            "to": [
                8.47044,
                5.80033,
                6.82
            ],
            "rotation": {
                "angle": 22.5,
                "axis": "z",
                "origin": [
                    8.30593,
                    5.49858,
                    6.678
                ]
            },
            "faces": {
                "north": {
                    "uv": [
                        2.875,
                        3,
                        2.875,
                        3.25
                    ],
                    "rotation": 180,
                    "texture": "#0"
                },
                "east": {
                    "uv": [
                        2.875,
                        3,
                        2.875,
                        3.25
                    ],
                    "rotation": 180,
                    "texture": "#0"
                },
                "south": {
                    "uv": [
                        2.875,
                        3,
                        2.875,
                        3.25
                    ],
                    "rotation": 180,
                    "texture": "#0"
                },
                "west": {
                    "uv": [
                        2.875,
                        3,
                        2.875,
                        3.25
                    ],
                    "rotation": 180,
                    "texture": "#0"
                },
                "up": {
                    "uv": [
                        2.875,
                        3,
                        2.875,
                        3.25
                    ],
                    "rotation": 180,
                    "texture": "#0"
                },
                "down": {
                    "uv": [
                        2.875,
                        3,
                        2.875,
                        3.25
                    ],
                    "rotation": 180,
                    "texture": "#0"
                }
            }
        },
        {
            "from": [
                7.68733,
                4.86692,
                6.472
            ],
            "to": [
                8.31133,
                5.05892,
                8.484
            ],
            "rotation": {
                "angle": 0,
                "axis": "y",
                "origin": [
                    7.98633,
                    5.20959,
                    7.942
                ]
            },
            "faces": {
                "north": {
                    "uv": [
                        1.5,
                        0.75,
                        1.625,
                        0.875
                    ],
                    "rotation": 270,
                    "texture": "#0"
                },
                "east": {
                    "uv": [
                        1.5,
                        0.75,
                        1.625,
                        0.875
                    ],
                    "rotation": 270,
                    "texture": "#0"
                },
                "south": {
                    "uv": [
                        1.5,
                        0.75,
                        1.625,
                        0.875
                    ],
                    "rotation": 270,
                    "texture": "#0"
                },
                "west": {
                    "uv": [
                        1.5,
                        0.75,
                        1.625,
                        0.875
                    ],
                    "rotation": 270,
                    "texture": "#0"
                },
                "up": {
                    "uv": [
                        1.5,
                        0.75,
                        1.625,
                        0.875
                    ],
                    "rotation": 270,
                    "texture": "#0"
                },
                "down": {
                    "uv": [
                        1.5,
                        0.75,
                        1.625,
                        0.875
                    ],
                    "rotation": 270,
                    "texture": "#0"
                }
            }
        }
    ],
    "display": {
        "thirdperson_righthand": {
            "translation": [
                0,
                4.5,
                -2.5
            ]
        },
        "thirdperson_lefthand": {
            "translation": [
                0,
                4.5,
                -2.5
            ]
        },
        "firstperson_righthand": {
            "translation": [
                -5,
                9,
                3.75
            ]
        },
        "firstperson_lefthand": {
            "translation": [
                -4,
                8.5,
                2
            ]
        },
        "ground": {
            "translation": [
                0,
                5.75,
                0
            ]
        },
        "gui": {
            "rotation": [
                35,
                35,
                -35
            ],
            "translation": [
                3.75,
                3.5,
                0
            ]
        },
        "head": {
            "translation": [
                0,
                -22,
                0
            ]
        },
        "fixed": {
            "rotation": [
                90,
                45,
                -90
            ],
            "translation": [
                3.5,
                2.5,
                0
            ]
        }
    }
}