{
	"credit": "Made with Blockbench",
	"textures": {
		"0": "gci:items/common/all_in_one",
		"particle": "gci:items/common/all_in_one"
	},
	"elements": [
		{
			"from": [7.67427, 8.92178, 17.94662],
			"to": [8.34883, 10.25234, 18.77158],
			"rotation": {"angle": 0, "axis": "y", "origin": [7.73986, 9.98643, -11.71482]},
			"faces": {
				"north": {"uv": [1.25, 1.125, 1.375, 1.125], "rotation": 270, "texture": "#0"},
				"east": {"uv": [1.25, 1.125, 1.375, 1.125], "rotation": 270, "texture": "#0"},
				"south": {"uv": [1.25, 1.125, 1.375, 1.125], "rotation": 270, "texture": "#0"},
				"west": {"uv": [1.25, 1.125, 1.375, 1.125], "rotation": 270, "texture": "#0"},
				"up": {"uv": [1.25, 1.125, 1.375, 1.125], "rotation": 270, "texture": "#0"},
				"down": {"uv": [1.25, 1.125, 1.375, 1.125], "rotation": 270, "texture": "#0"}
			}
		},
		{
			"from": [7.70243, 8.8501, 18.70438],
			"to": [8.32067, 10.32402, 19.20166],
			"rotation": {"angle": 0, "axis": "y", "origin": [7.70402, 9.98643, -11.71482]},
			"faces": {
				"north": {"uv": [4.375, 3.625, 4.375, 3.625], "rotation": 270, "texture": "#0"},
				"east": {"uv": [4.375, 3.625, 4.375, 3.625], "rotation": 270, "texture": "#0"},
				"south": {"uv": [4.375, 3.625, 4.375, 3.625], "rotation": 270, "texture": "#0"},
				"west": {"uv": [4.375, 3.625, 4.375, 3.625], "rotation": 270, "texture": "#0"},
				"up": {"uv": [4.375, 3.625, 4.375, 3.625], "rotation": 270, "texture": "#0"},
				"down": {"uv": [4.375, 3.625, 4.375, 3.625], "rotation": 270, "texture": "#0"}
			}
		},
		{
			"from": [7.88163, 8.77842, 18.70438],
			"to": [8.14147, 10.3957, 19.20166],
			"rotation": {"angle": 0, "axis": "y", "origin": [7.70402, 9.98643, -11.71482]},
			"faces": {
				"north": {"uv": [4.375, 3.625, 4.375, 3.625], "rotation": 270, "texture": "#0"},
				"east": {"uv": [4.375, 3.625, 4.375, 3.625], "rotation": 270, "texture": "#0"},
				"south": {"uv": [4.375, 3.625, 4.375, 3.625], "rotation": 270, "texture": "#0"},
				"west": {"uv": [4.375, 3.625, 4.375, 3.625], "rotation": 270, "texture": "#0"},
				"up": {"uv": [4.375, 3.625, 4.375, 3.625], "rotation": 270, "texture": "#0"},
				"down": {"uv": [4.375, 3.625, 4.375, 3.625], "rotation": 270, "texture": "#0"}
			}
		},
		{
			"from": [7.9121, 9.00801, 24.38872],
			"to": [8.11146, 10.62529, 25.02936],
			"rotation": {"angle": 0, "axis": "y", "origin": [7.7345, 10.21602, -6.03048]},
			"faces": {
				"north": {"uv": [4.25, 2.125, 4.25, 2.125], "rotation": 270, "texture": "#0"},
				"east": {"uv": [4.25, 2.125, 4.25, 2.125], "rotation": 270, "texture": "#0"},
				"south": {"uv": [4.25, 2.125, 4.25, 2.125], "rotation": 270, "texture": "#0"},
				"west": {"uv": [4.25, 2.125, 4.25, 2.125], "rotation": 270, "texture": "#0"},
				"up": {"uv": [4.25, 2.125, 4.25, 2.125], "rotation": 270, "texture": "#0"},
				"down": {"uv": [4.25, 2.125, 4.25, 2.125], "rotation": 270, "texture": "#0"}
			}
		},
		{
			"from": [7.9121, 10.15489, 24.6396],
			"to": [8.11146, 10.35425, 25.2444],
			"rotation": {"angle": -45, "axis": "z", "origin": [8.01178, 10.25457, 24.95992]},
			"faces": {
				"north": {"uv": [13.875, 4.75, 13.875, 5], "rotation": 270, "texture": "#0"},
				"east": {"uv": [13.875, 4.75, 13.875, 5], "rotation": 270, "texture": "#0"},
				"south": {"uv": [13.875, 4.75, 13.875, 5], "rotation": 270, "texture": "#0"},
				"west": {"uv": [13.875, 4.75, 13.875, 5], "rotation": 270, "texture": "#0"},
				"up": {"uv": [13.875, 4.75, 13.875, 5], "rotation": 270, "texture": "#0"},
				"down": {"uv": [13.875, 4.75, 13.875, 5], "rotation": 270, "texture": "#0"}
			}
		},
		{
			"from": [7.9121, 7.50273, 24.74712],
			"to": [8.11146, 7.70209, 25.2444],
			"rotation": {"angle": -45, "axis": "z", "origin": [8.01178, 7.60241, 24.95992]},
			"faces": {
				"north": {"uv": [13.875, 4.75, 13.875, 5], "rotation": 270, "texture": "#0"},
				"east": {"uv": [13.875, 4.75, 13.875, 5], "rotation": 270, "texture": "#0"},
				"south": {"uv": [13.875, 4.75, 13.875, 5], "rotation": 270, "texture": "#0"},
				"west": {"uv": [13.875, 4.75, 13.875, 5], "rotation": 270, "texture": "#0"},
				"up": {"uv": [13.875, 4.75, 13.875, 5], "rotation": 270, "texture": "#0"},
				"down": {"uv": [13.875, 4.75, 13.875, 5], "rotation": 270, "texture": "#0"}
			}
		},
		{
			"from": [7.82213, 9.39954, 18.70438],
			"to": [8.01029, 10.40754, 19.20166],
			"rotation": {"angle": -22.5, "axis": "z", "origin": [7.95205, 9.5989, 18.95302]},
			"faces": {
				"north": {"uv": [4.375, 3.625, 4.375, 3.625], "rotation": 270, "texture": "#0"},
				"east": {"uv": [4.375, 3.625, 4.375, 3.625], "rotation": 270, "texture": "#0"},
				"south": {"uv": [4.375, 3.625, 4.375, 3.625], "rotation": 270, "texture": "#0"},
				"west": {"uv": [4.375, 3.625, 4.375, 3.625], "rotation": 270, "texture": "#0"},
				"up": {"uv": [4.375, 3.625, 4.375, 3.625], "rotation": 270, "texture": "#0"},
				"down": {"uv": [4.375, 3.625, 4.375, 3.625], "rotation": 270, "texture": "#0"}
			}
		},
		{
			"from": [7.79165, 9.77249, 24.38872],
			"to": [7.97981, 10.63713, 25.02936],
			"rotation": {"angle": -22.5, "axis": "z", "origin": [7.92157, 9.82849, 24.63736]},
			"faces": {
				"north": {"uv": [4.25, 2.125, 4.25, 2.125], "rotation": 270, "texture": "#0"},
				"east": {"uv": [4.25, 2.125, 4.25, 2.125], "rotation": 270, "texture": "#0"},
				"south": {"uv": [4.25, 2.125, 4.25, 2.125], "rotation": 270, "texture": "#0"},
				"west": {"uv": [4.25, 2.125, 4.25, 2.125], "rotation": 270, "texture": "#0"},
				"up": {"uv": [4.25, 2.125, 4.25, 2.125], "rotation": 270, "texture": "#0"},
				"down": {"uv": [4.25, 2.125, 4.25, 2.125], "rotation": 270, "texture": "#0"}
			}
		},
		{
			"from": [7.88997, 8.76656, 18.70438],
			"to": [8.07813, 9.77456, 19.20166],
			"rotation": {"angle": -22.5, "axis": "z", "origin": [8.00619, 9.27973, 18.95302]},
			"faces": {
				"north": {"uv": [4.375, 3.625, 4.375, 3.625], "rotation": 90, "texture": "#0"},
				"east": {"uv": [4.375, 3.625, 4.375, 3.625], "rotation": 90, "texture": "#0"},
				"south": {"uv": [4.375, 3.625, 4.375, 3.625], "rotation": 90, "texture": "#0"},
				"west": {"uv": [4.375, 3.625, 4.375, 3.625], "rotation": 90, "texture": "#0"},
				"up": {"uv": [4.375, 3.625, 4.375, 3.625], "rotation": 90, "texture": "#0"},
				"down": {"uv": [4.375, 3.625, 4.375, 3.625], "rotation": 90, "texture": "#0"}
			}
		},
		{
			"from": [8.00737, 9.42697, 18.70438],
			"to": [8.19553, 10.43497, 19.20166],
			"rotation": {"angle": 22.5, "axis": "z", "origin": [8.13729, 9.62633, 18.95302]},
			"faces": {
				"north": {"uv": [4.375, 3.625, 4.375, 3.625], "rotation": 270, "texture": "#0"},
				"east": {"uv": [4.375, 3.625, 4.375, 3.625], "rotation": 270, "texture": "#0"},
				"south": {"uv": [4.375, 3.625, 4.375, 3.625], "rotation": 270, "texture": "#0"},
				"west": {"uv": [4.375, 3.625, 4.375, 3.625], "rotation": 270, "texture": "#0"},
				"up": {"uv": [4.375, 3.625, 4.375, 3.625], "rotation": 270, "texture": "#0"},
				"down": {"uv": [4.375, 3.625, 4.375, 3.625], "rotation": 270, "texture": "#0"}
			}
		},
		{
			"from": [8.03784, 9.76408, 24.38872],
			"to": [8.226, 10.66456, 25.02936],
			"rotation": {"angle": 22.5, "axis": "z", "origin": [8.16776, 9.85592, 24.63736]},
			"faces": {
				"north": {"uv": [4.25, 2.125, 4.25, 2.125], "rotation": 270, "texture": "#0"},
				"east": {"uv": [4.25, 2.125, 4.25, 2.125], "rotation": 270, "texture": "#0"},
				"south": {"uv": [4.25, 2.125, 4.25, 2.125], "rotation": 270, "texture": "#0"},
				"west": {"uv": [4.25, 2.125, 4.25, 2.125], "rotation": 270, "texture": "#0"},
				"up": {"uv": [4.25, 2.125, 4.25, 2.125], "rotation": 270, "texture": "#0"},
				"down": {"uv": [4.25, 2.125, 4.25, 2.125], "rotation": 270, "texture": "#0"}
			}
		},
		{
			"from": [7.93425, 8.76656, 18.70438],
			"to": [8.12241, 9.77456, 19.20166],
			"rotation": {"angle": 22.5, "axis": "z", "origin": [8.00619, 9.27973, 18.95302]},
			"faces": {
				"north": {"uv": [4.375, 3.625, 4.375, 3.625], "rotation": 90, "texture": "#0"},
				"east": {"uv": [4.375, 3.625, 4.375, 3.625], "rotation": 90, "texture": "#0"},
				"south": {"uv": [4.375, 3.625, 4.375, 3.625], "rotation": 90, "texture": "#0"},
				"west": {"uv": [4.375, 3.625, 4.375, 3.625], "rotation": 90, "texture": "#0"},
				"up": {"uv": [4.375, 3.625, 4.375, 3.625], "rotation": 90, "texture": "#0"},
				"down": {"uv": [4.375, 3.625, 4.375, 3.625], "rotation": 90, "texture": "#0"}
			}
		},
		{
			"from": [7.80995, 9.9253, 19.20614],
			"to": [8.21315, 10.25234, 24.9719],
			"rotation": {"angle": 0, "axis": "y", "origin": [7.70402, 9.98643, -10.63962]},
			"faces": {
				"north": {"uv": [4.25, 3.5, 4.25, 3.5], "rotation": 270, "texture": "#0"},
				"east": {"uv": [4.25, 3.5, 4.25, 3.5], "rotation": 270, "texture": "#0"},
				"south": {"uv": [4.25, 3.5, 4.25, 3.5], "rotation": 270, "texture": "#0"},
				"west": {"uv": [4.25, 3.5, 4.25, 3.5], "rotation": 270, "texture": "#0"},
				"up": {"uv": [4.25, 3.5, 4.25, 3.5], "rotation": 270, "texture": "#0"},
				"down": {"uv": [4.25, 3.5, 4.25, 3.5], "rotation": 270, "texture": "#0"}
			}
		},
		{
			"from": [7.73827, 7.89664, 24.38872],
			"to": [8.28483, 10.55328, 25.0652],
			"rotation": {"angle": 0, "axis": "y", "origin": [7.70402, 10.00065, -10.65384]},
			"faces": {
				"north": {"uv": [4.25, 2.125, 4.25, 2.125], "rotation": 270, "texture": "#0"},
				"east": {"uv": [4.25, 2.125, 4.25, 2.125], "rotation": 270, "texture": "#0"},
				"south": {"uv": [4.25, 2.125, 4.25, 2.125], "rotation": 270, "texture": "#0"},
				"west": {"uv": [4.25, 2.125, 4.25, 2.125], "rotation": 270, "texture": "#0"},
				"up": {"uv": [4.25, 2.125, 4.25, 2.125], "rotation": 270, "texture": "#0"},
				"down": {"uv": [4.25, 2.125, 4.25, 2.125], "rotation": 270, "texture": "#0"}
			}
		},
		{
			"from": [7.91747, 7.8608, 24.13784],
			"to": [8.14147, 10.26656, 25.0652],
			"rotation": {"angle": 0, "axis": "y", "origin": [7.70402, 10.00065, -10.65384]},
			"faces": {
				"north": {"uv": [4.25, 2.125, 4.25, 2.125], "rotation": 270, "texture": "#0"},
				"east": {"uv": [4.25, 2.125, 4.25, 2.125], "rotation": 270, "texture": "#0"},
				"south": {"uv": [4.25, 2.125, 4.25, 2.125], "rotation": 270, "texture": "#0"},
				"west": {"uv": [4.25, 2.125, 4.25, 2.125], "rotation": 270, "texture": "#0"},
				"up": {"uv": [4.25, 2.125, 4.25, 2.125], "rotation": 270, "texture": "#0"},
				"down": {"uv": [4.25, 2.125, 4.25, 2.125], "rotation": 270, "texture": "#0"}
			}
		},
		{
			"from": [7.91747, 10.32558, 24.11339],
			"to": [8.14147, 11.25294, 24.47627],
			"rotation": {"angle": -45, "axis": "x", "origin": [8.02947, 10.78926, 25.31627]},
			"faces": {
				"north": {"uv": [4.25, 2.125, 4.25, 2.125], "texture": "#0"},
				"east": {"uv": [4.25, 2.125, 4.25, 2.125], "texture": "#0"},
				"south": {"uv": [4.25, 2.125, 4.25, 2.125], "texture": "#0"},
				"west": {"uv": [4.25, 2.125, 4.25, 2.125], "texture": "#0"},
				"up": {"uv": [4.25, 2.125, 4.25, 2.125], "texture": "#0"},
				"down": {"uv": [4.25, 2.125, 4.25, 2.125], "texture": "#0"}
			}
		},
		{
			"from": [7.73827, 7.30898, 24.68966],
			"to": [8.28483, 10.50322, 25.07942],
			"rotation": {"angle": 0, "axis": "y", "origin": [7.70402, 9.98643, -10.63962]},
			"faces": {
				"north": {"uv": [4.25, 2.125, 4.25, 2.125], "rotation": 270, "texture": "#0"},
				"east": {"uv": [4.25, 2.125, 4.25, 2.125], "rotation": 270, "texture": "#0"},
				"south": {"uv": [4.25, 2.125, 4.25, 2.125], "rotation": 270, "texture": "#0"},
				"west": {"uv": [4.25, 2.125, 4.25, 2.125], "rotation": 270, "texture": "#0"},
				"up": {"uv": [4.25, 2.125, 4.25, 2.125], "rotation": 270, "texture": "#0"},
				"down": {"uv": [4.25, 2.125, 4.25, 2.125], "rotation": 270, "texture": "#0"}
			}
		},
		{
			"from": [7.70243, 7.2373, 24.97638],
			"to": [8.32067, 10.64658, 25.22278],
			"rotation": {"angle": 0, "axis": "y", "origin": [7.70402, 9.98643, -10.49626]},
			"faces": {
				"north": {"uv": [3, 2.875, 3, 3.125], "rotation": 270, "texture": "#0"},
				"east": {"uv": [3, 2.875, 3, 3.125], "rotation": 270, "texture": "#0"},
				"south": {"uv": [3, 2.875, 3, 3.125], "rotation": 270, "texture": "#0"},
				"west": {"uv": [3, 2.875, 3, 3.125], "rotation": 270, "texture": "#0"},
				"up": {"uv": [3, 2.875, 3, 3.125], "rotation": 270, "texture": "#0"},
				"down": {"uv": [3, 2.875, 3, 3.125], "rotation": 270, "texture": "#0"}
			}
		},
		{
			"from": [7.73827, 7.6856, 24.43677],
			"to": [8.28483, 8.01264, 24.86237],
			"rotation": {"angle": 45, "axis": "x", "origin": [8.01155, 7.84912, 24.66749]},
			"faces": {
				"north": {"uv": [4.25, 2.125, 4.25, 2.125], "rotation": 270, "texture": "#0"},
				"east": {"uv": [4.25, 2.125, 4.25, 2.125], "rotation": 270, "texture": "#0"},
				"south": {"uv": [4.25, 2.125, 4.25, 2.125], "rotation": 270, "texture": "#0"},
				"west": {"uv": [4.25, 2.125, 4.25, 2.125], "rotation": 270, "texture": "#0"},
				"up": {"uv": [4.25, 2.125, 4.25, 2.125], "rotation": 270, "texture": "#0"},
				"down": {"uv": [4.25, 2.125, 4.25, 2.125], "rotation": 270, "texture": "#0"}
			}
		},
		{
			"from": [7.91747, 7.64976, 24.18589],
			"to": [8.14147, 7.9768, 24.96989],
			"rotation": {"angle": 45, "axis": "x", "origin": [8.19075, 7.81328, 24.41661]},
			"faces": {
				"north": {"uv": [4.25, 2.125, 4.25, 2.125], "rotation": 270, "texture": "#0"},
				"east": {"uv": [4.25, 2.125, 4.25, 2.125], "rotation": 270, "texture": "#0"},
				"south": {"uv": [4.25, 2.125, 4.25, 2.125], "rotation": 270, "texture": "#0"},
				"west": {"uv": [4.25, 2.125, 4.25, 2.125], "rotation": 270, "texture": "#0"},
				"up": {"uv": [4.25, 2.125, 4.25, 2.125], "rotation": 270, "texture": "#0"},
				"down": {"uv": [4.25, 2.125, 4.25, 2.125], "rotation": 270, "texture": "#0"}
			}
		},
		{
			"from": [7.80995, 8.95983, 19.04877],
			"to": [8.21315, 9.28687, 21.83981],
			"rotation": {"angle": 0, "axis": "y", "origin": [7.70402, 9.02096, -11.97971]},
			"faces": {
				"north": {"uv": [4.25, 3.5, 4.25, 3.5], "rotation": 270, "texture": "#0"},
				"east": {"uv": [4.25, 3.5, 4.25, 3.5], "rotation": 270, "texture": "#0"},
				"south": {"uv": [4.25, 3.5, 4.25, 3.5], "rotation": 270, "texture": "#0"},
				"west": {"uv": [4.25, 3.5, 4.25, 3.5], "rotation": 270, "texture": "#0"},
				"up": {"uv": [4.25, 3.5, 4.25, 3.5], "rotation": 270, "texture": "#0"},
				"down": {"uv": [4.25, 3.5, 4.25, 3.5], "rotation": 270, "texture": "#0"}
			}
		},
		{
			"from": [7.80995, 8.69337, 21.75027],
			"to": [8.21315, 9.02041, 25.04307],
			"rotation": {"angle": 22.5, "axis": "x", "origin": [7.99363, 8.92857, 22.46483]},
			"faces": {
				"north": {"uv": [4.25, 3.5, 4.25, 3.5], "rotation": 270, "texture": "#0"},
				"east": {"uv": [4.25, 3.5, 4.25, 3.5], "rotation": 270, "texture": "#0"},
				"south": {"uv": [4.25, 3.5, 4.25, 3.5], "rotation": 270, "texture": "#0"},
				"west": {"uv": [4.25, 3.5, 4.25, 3.5], "rotation": 270, "texture": "#0"},
				"up": {"uv": [4.25, 3.5, 4.25, 3.5], "rotation": 270, "texture": "#0"},
				"down": {"uv": [4.25, 3.5, 4.25, 3.5], "rotation": 270, "texture": "#0"}
			}
		}
	],
	"display": {
		"thirdperson_righthand": {
			"rotation": [0.5, 0, 1.25],
			"translation": [-1.25, -0.75, -6],
			"scale": [1, 1, 0.83]
		},
		"thirdperson_lefthand": {
			"rotation": [3, 0, 0],
			"translation": [-0.75, -0.75, -5.75],
			"scale": [1, 1, 0.83]
		},
		"firstperson_righthand": {
			"rotation": [1, 1, 0],
			"translation": [-5.25, 3.5, -0.75],
			"scale": [1.19, 1.14, 0.87]
		},
		"firstperson_lefthand": {
			"rotation": [1, 1, 0],
			"translation": [-3.5, 3.25, -4.5],
			"scale": [1.19, 1.14, 0.87]
		},
		"ground": {
			"translation": [0, 0, -3.25]
		},
		"gui": {
			"rotation": [11, 16, -16],
			"translation": [-0.75, -0.25, 0],
			"scale": [1.25, 1.28, 1.60945]
		},
		"head": {
			"rotation": [0, -139, 90],
			"translation": [2.5, 6.5, 4.5],
			"scale": [1.36, 1.36, 1.36]
		},
		"fixed": {
			"rotation": [0, -90, 0],
			"translation": [4, 0, -1.75],
			"scale": [1.58, 1.39, 1.28]
		}
	}
}