{
	"credit": "Made with Blockbench",
	"textures": {
		"1": "gci:items/common/mpz2",
		"particle": "gci:items/common/all_in_one"
	},
	"elements": [
		{
			"from": [7.9668, 8.7789, -10.1159],
			"to": [8.0993, 8.9789, -5.8159],
			"rotation": {"angle": 0, "axis": "y", "origin": [8.0668, 9.0914, -6.8659]},
			"faces": {
				"north": {"uv": [5.5, 5.5, 6.57, 7.188], "rotation": 180, "texture": "#1"},
				"east": {"uv": [5.5, 5.5, 6.57, 7.188], "rotation": 180, "texture": "#1"},
				"south": {"uv": [5.5, 5.5, 6.57, 7.188], "rotation": 180, "texture": "#1"},
				"west": {"uv": [5.5, 5.5, 6.57, 7.188], "rotation": 180, "texture": "#1"},
				"up": {"uv": [5.5, 5.5, 6.57, 7.188], "rotation": 180, "texture": "#1"},
				"down": {"uv": [5.5, 5.5, 6.57, 7.188], "rotation": 180, "texture": "#1"}
			}
		},
		{
			"from": [7.9668, 8.5789, -7.9159],
			"to": [8.0993, 8.7789, -5.8159],
			"rotation": {"angle": 0, "axis": "y", "origin": [8.0668, 8.8914, -6.8659]},
			"faces": {
				"north": {"uv": [8.5, 5, 11.076, 7.188], "rotation": 180, "texture": "#1"},
				"east": {"uv": [8.5, 5, 11.076, 7.188], "rotation": 180, "texture": "#1"},
				"south": {"uv": [8.5, 5, 11.076, 7.188], "rotation": 180, "texture": "#1"},
				"west": {"uv": [8.5, 5, 11.076, 7.188], "rotation": 180, "texture": "#1"},
				"up": {"uv": [8.5, 5, 11.076, 7.188], "rotation": 180, "texture": "#1"},
				"down": {"uv": [8.5, 5, 11.076, 7.188], "rotation": 180, "texture": "#1"}
			}
		},
		{
			"from": [7.9668, 8.3789, -10.1159],
			"to": [8.0993, 8.5789, -5.8159],
			"rotation": {"angle": 0, "axis": "y", "origin": [8.0668, 8.6914, -6.8659]},
			"faces": {
				"north": {"uv": [5.5, 5.5, 6.57, 7.188], "rotation": 180, "texture": "#1"},
				"east": {"uv": [5.5, 5.5, 6.57, 7.188], "rotation": 180, "texture": "#1"},
				"south": {"uv": [5.5, 5.5, 6.57, 7.188], "rotation": 180, "texture": "#1"},
				"west": {"uv": [5.5, 5.5, 6.57, 7.188], "rotation": 180, "texture": "#1"},
				"up": {"uv": [5.5, 5.5, 6.57, 7.188], "rotation": 180, "texture": "#1"},
				"down": {"uv": [5.5, 5.5, 6.57, 7.188], "rotation": 180, "texture": "#1"}
			}
		},
		{
			"from": [7.9818, 8.5789, -10.3159],
			"to": [8.0818, 8.7789, -7.9159],
			"rotation": {"angle": 0, "axis": "y", "origin": [8.0668, 8.8914, -6.8659]},
			"faces": {
				"north": {"uv": [0.5, 4.5, 3.076, 6.688], "rotation": 180, "texture": "#1"},
				"east": {"uv": [0.5, 4.5, 3.076, 6.688], "rotation": 180, "texture": "#1"},
				"south": {"uv": [0.5, 4.5, 3.076, 6.688], "rotation": 180, "texture": "#1"},
				"west": {"uv": [0.5, 4.5, 3.076, 6.688], "rotation": 180, "texture": "#1"},
				"up": {"uv": [0.5, 4.5, 3.076, 6.688], "rotation": 180, "texture": "#1"},
				"down": {"uv": [0.5, 4.5, 3.076, 6.688], "rotation": 180, "texture": "#1"}
			}
		},
		{
			"from": [7.9668, 8.67171, -10.5548],
			"to": [8.0993, 8.87171, -10.0548],
			"rotation": {"angle": -22.5, "axis": "x", "origin": [8.03305, 8.77171, -10.3548]},
			"faces": {
				"north": {"uv": [5.5, 5.5, 6.57, 7.188], "rotation": 180, "texture": "#1"},
				"east": {"uv": [5.5, 5.5, 6.57, 7.188], "rotation": 180, "texture": "#1"},
				"south": {"uv": [5.5, 5.5, 6.57, 7.188], "rotation": 180, "texture": "#1"},
				"west": {"uv": [5.5, 5.5, 6.57, 7.188], "rotation": 180, "texture": "#1"},
				"up": {"uv": [5.5, 5.5, 6.57, 7.188], "rotation": 180, "texture": "#1"},
				"down": {"uv": [5.5, 5.5, 6.57, 7.188], "rotation": 180, "texture": "#1"}
			}
		},
		{
			"from": [7.9668, 8.48609, -10.5548],
			"to": [8.0993, 8.68609, -10.0548],
			"rotation": {"angle": 22.5, "axis": "x", "origin": [8.03305, 8.58609, -10.3548]},
			"faces": {
				"north": {"uv": [5.5, 5.5, 6.57, 7.188], "rotation": 180, "texture": "#1"},
				"east": {"uv": [5.5, 5.5, 6.57, 7.188], "rotation": 180, "texture": "#1"},
				"south": {"uv": [5.5, 5.5, 6.57, 7.188], "rotation": 180, "texture": "#1"},
				"west": {"uv": [5.5, 5.5, 6.57, 7.188], "rotation": 180, "texture": "#1"},
				"up": {"uv": [5.5, 5.5, 6.57, 7.188], "rotation": 180, "texture": "#1"},
				"down": {"uv": [5.5, 5.5, 6.57, 7.188], "rotation": 180, "texture": "#1"}
			}
		},
		{
			"from": [7.9668, 8.4726, -10.62043],
			"to": [8.0993, 8.6266, -10.46643],
			"rotation": {"angle": -45, "axis": "x", "origin": [8.03305, 8.5726, -10.71643]},
			"faces": {
				"north": {"uv": [5.5, 5.5, 6.57, 7.188], "rotation": 180, "texture": "#1"},
				"east": {"uv": [5.5, 5.5, 6.57, 7.188], "rotation": 180, "texture": "#1"},
				"south": {"uv": [5.5, 5.5, 6.57, 7.188], "rotation": 180, "texture": "#1"},
				"west": {"uv": [5.5, 5.5, 6.57, 7.188], "rotation": 180, "texture": "#1"},
				"up": {"uv": [5.5, 5.5, 6.57, 7.188], "rotation": 180, "texture": "#1"},
				"down": {"uv": [5.5, 5.5, 6.57, 7.188], "rotation": 180, "texture": "#1"}
			}
		},
		{
			"from": [7.8668, 8.3789, -5.7159],
			"to": [8.1993, 8.9039, -3.4159],
			"rotation": {"angle": 0, "axis": "y", "origin": [8.0668, 8.9914, -4.4659]},
			"faces": {
				"north": {"uv": [4.5, 1, 7.076, 3.188], "rotation": 180, "texture": "#1"},
				"east": {"uv": [4.5, 1, 7.076, 3.188], "rotation": 180, "texture": "#1"},
				"south": {"uv": [4.5, 1, 7.076, 3.188], "rotation": 180, "texture": "#1"},
				"west": {"uv": [4.5, 1, 7.076, 3.188], "rotation": 180, "texture": "#1"},
				"up": {"uv": [4.5, 1, 7.076, 3.188], "rotation": 180, "texture": "#1"},
				"down": {"uv": [4.5, 1, 7.076, 3.188], "rotation": 180, "texture": "#1"}
			}
		},
		{
			"from": [8.07859, 8.3789, -3.4659],
			"to": [8.17859, 8.9039, -3.3659],
			"rotation": {"angle": 45, "axis": "y", "origin": [8.12859, 8.6414, -3.4159]},
			"faces": {
				"north": {"uv": [4.5, 1, 7.076, 3.188], "rotation": 180, "texture": "#1"},
				"east": {"uv": [4.5, 1, 7.076, 3.188], "rotation": 180, "texture": "#1"},
				"south": {"uv": [4.5, 1, 7.076, 3.188], "rotation": 180, "texture": "#1"},
				"west": {"uv": [4.5, 1, 7.076, 3.188], "rotation": 180, "texture": "#1"},
				"up": {"uv": [4.5, 1, 7.076, 3.188], "rotation": 180, "texture": "#1"},
				"down": {"uv": [4.5, 1, 7.076, 3.188], "rotation": 180, "texture": "#1"}
			}
		},
		{
			"from": [7.88751, 8.3789, -3.4659],
			"to": [7.98751, 8.9039, -3.3659],
			"rotation": {"angle": 45, "axis": "y", "origin": [7.93751, 8.6414, -3.4159]},
			"faces": {
				"north": {"uv": [4.5, 1, 7.076, 3.188], "rotation": 180, "texture": "#1"},
				"east": {"uv": [4.5, 1, 7.076, 3.188], "rotation": 180, "texture": "#1"},
				"south": {"uv": [4.5, 1, 7.076, 3.188], "rotation": 180, "texture": "#1"},
				"west": {"uv": [4.5, 1, 7.076, 3.188], "rotation": 180, "texture": "#1"},
				"up": {"uv": [4.5, 1, 7.076, 3.188], "rotation": 180, "texture": "#1"},
				"down": {"uv": [4.5, 1, 7.076, 3.188], "rotation": 180, "texture": "#1"}
			}
		},
		{
			"from": [7.89787, 8.8289, -5.7159],
			"to": [7.99787, 8.9289, -3.4159],
			"rotation": {"angle": -45, "axis": "z", "origin": [7.97287, 8.9039, -4.5659]},
			"faces": {
				"north": {"uv": [4.5, 1, 7.076, 3.188], "rotation": 180, "texture": "#1"},
				"east": {"uv": [4.5, 1, 7.076, 3.188], "rotation": 180, "texture": "#1"},
				"south": {"uv": [4.5, 1, 7.076, 3.188], "rotation": 180, "texture": "#1"},
				"west": {"uv": [4.5, 1, 7.076, 3.188], "rotation": 180, "texture": "#1"},
				"up": {"uv": [4.5, 1, 7.076, 3.188], "rotation": 180, "texture": "#1"},
				"down": {"uv": [4.5, 1, 7.076, 3.188], "rotation": 180, "texture": "#1"}
			}
		},
		{
			"from": [7.93751, 8.87461, -5.7159],
			"to": [8.12751, 8.97461, -3.4159],
			"rotation": {"angle": 0, "axis": "y", "origin": [7.98751, 8.92461, -4.5659]},
			"faces": {
				"north": {"uv": [4.5, 1, 7.076, 3.188], "texture": "#1"},
				"east": {"uv": [4.5, 1, 7.076, 3.188], "texture": "#1"},
				"south": {"uv": [4.5, 1, 7.076, 3.188], "texture": "#1"},
				"west": {"uv": [4.5, 1, 7.076, 3.188], "texture": "#1"},
				"up": {"uv": [4.5, 1, 7.076, 3.188], "texture": "#1"},
				"down": {"uv": [4.5, 1, 7.076, 3.188], "texture": "#1"}
			}
		},
		{
			"from": [7.93859, 8.3789, -3.44519],
			"to": [8.12859, 8.9039, -3.34519],
			"rotation": {"angle": 0, "axis": "y", "origin": [7.98859, 8.8289, -4.49519]},
			"faces": {
				"north": {"uv": [4.5, 1, 7.076, 3.188], "texture": "#1"},
				"east": {"uv": [4.5, 1, 7.076, 3.188], "texture": "#1"},
				"south": {"uv": [4.5, 1, 7.076, 3.188], "texture": "#1"},
				"west": {"uv": [4.5, 1, 7.076, 3.188], "texture": "#1"},
				"up": {"uv": [4.5, 1, 7.076, 3.188], "texture": "#1"},
				"down": {"uv": [4.5, 1, 7.076, 3.188], "texture": "#1"}
			}
		},
		{
			"from": [7.93751, 8.8539, -3.4659],
			"to": [8.12751, 8.9539, -3.3659],
			"rotation": {"angle": -45, "axis": "x", "origin": [8.03251, 8.9039, -3.4159]},
			"faces": {
				"north": {"uv": [4.5, 1, 7.076, 3.188], "texture": "#1"},
				"east": {"uv": [4.5, 1, 7.076, 3.188], "texture": "#1"},
				"south": {"uv": [4.5, 1, 7.076, 3.188], "texture": "#1"},
				"west": {"uv": [4.5, 1, 7.076, 3.188], "texture": "#1"},
				"up": {"uv": [4.5, 1, 7.076, 3.188], "texture": "#1"},
				"down": {"uv": [4.5, 1, 7.076, 3.188], "texture": "#1"}
			}
		},
		{
			"from": [7.74551, 8.23861, -5.0199],
			"to": [8.35151, 9.49461, -4.0879],
			"rotation": {"angle": 0, "axis": "y", "origin": [8.03251, 9.02461, -4.2339]},
			"faces": {
				"north": {"uv": [8.5, 1.5, 11.076, 3.688], "rotation": 270, "texture": "#1"},
				"east": {"uv": [8.5, 1.5, 11.076, 3.688], "rotation": 270, "texture": "#1"},
				"south": {"uv": [8.5, 1.5, 11.076, 3.688], "rotation": 270, "texture": "#1"},
				"west": {"uv": [8.5, 1.5, 11.076, 3.688], "rotation": 270, "texture": "#1"},
				"up": {"uv": [8.5, 1.5, 11.076, 3.688], "rotation": 270, "texture": "#1"},
				"down": {"uv": [8.5, 1.5, 11.076, 3.688], "rotation": 270, "texture": "#1"}
			}
		},
		{
			"from": [7.71351, 9.13461, -4.9559],
			"to": [8.38351, 9.23861, -4.8559],
			"rotation": {"angle": 45, "axis": "x", "origin": [8.04851, 9.13861, -4.8579]},
			"faces": {
				"north": {"uv": [8.5, 4.5, 11.076, 6.688], "rotation": 270, "texture": "#1"},
				"east": {"uv": [8.5, 4.5, 11.076, 6.688], "rotation": 270, "texture": "#1"},
				"south": {"uv": [8.5, 4.5, 11.076, 6.688], "rotation": 270, "texture": "#1"},
				"west": {"uv": [8.5, 4.5, 11.076, 6.688], "rotation": 270, "texture": "#1"},
				"up": {"uv": [8.5, 4.5, 11.076, 6.688], "rotation": 270, "texture": "#1"},
				"down": {"uv": [8.5, 4.5, 11.076, 6.688], "rotation": 270, "texture": "#1"}
			}
		},
		{
			"from": [7.71351, 9.13461, -4.3159],
			"to": [8.38351, 9.23861, -4.2159],
			"rotation": {"angle": 45, "axis": "x", "origin": [8.04851, 9.13861, -4.2179]},
			"faces": {
				"north": {"uv": [8.5, 4.5, 11.076, 6.688], "rotation": 270, "texture": "#1"},
				"east": {"uv": [8.5, 4.5, 11.076, 6.688], "rotation": 270, "texture": "#1"},
				"south": {"uv": [8.5, 4.5, 11.076, 6.688], "rotation": 270, "texture": "#1"},
				"west": {"uv": [8.5, 4.5, 11.076, 6.688], "rotation": 270, "texture": "#1"},
				"up": {"uv": [8.5, 4.5, 11.076, 6.688], "rotation": 270, "texture": "#1"},
				"down": {"uv": [8.5, 4.5, 11.076, 6.688], "rotation": 270, "texture": "#1"}
			}
		},
		{
			"from": [7.93859, 8.3289, -3.4659],
			"to": [8.12859, 8.4289, -3.3659],
			"rotation": {"angle": -45, "axis": "x", "origin": [8.03359, 8.3789, -3.4159]},
			"faces": {
				"north": {"uv": [4.5, 1, 7.076, 3.188], "texture": "#1"},
				"east": {"uv": [4.5, 1, 7.076, 3.188], "texture": "#1"},
				"south": {"uv": [4.5, 1, 7.076, 3.188], "texture": "#1"},
				"west": {"uv": [4.5, 1, 7.076, 3.188], "texture": "#1"},
				"up": {"uv": [4.5, 1, 7.076, 3.188], "texture": "#1"},
				"down": {"uv": [4.5, 1, 7.076, 3.188], "texture": "#1"}
			}
		},
		{
			"from": [7.93751, 8.30819, -5.7159],
			"to": [8.12751, 8.40819, -3.4159],
			"rotation": {"angle": 0, "axis": "y", "origin": [7.98751, 8.35819, -4.5659]},
			"faces": {
				"north": {"uv": [4.5, 1, 7.076, 3.188], "texture": "#1"},
				"east": {"uv": [4.5, 1, 7.076, 3.188], "texture": "#1"},
				"south": {"uv": [4.5, 1, 7.076, 3.188], "texture": "#1"},
				"west": {"uv": [4.5, 1, 7.076, 3.188], "texture": "#1"},
				"up": {"uv": [4.5, 1, 7.076, 3.188], "texture": "#1"},
				"down": {"uv": [4.5, 1, 7.076, 3.188], "texture": "#1"}
			}
		},
		{
			"from": [8.08894, 8.8289, -5.7159],
			"to": [8.18894, 8.9289, -3.4159],
			"rotation": {"angle": -45, "axis": "z", "origin": [8.16394, 8.9039, -4.5659]},
			"faces": {
				"north": {"uv": [4.5, 1, 7.076, 3.188], "rotation": 180, "texture": "#1"},
				"east": {"uv": [4.5, 1, 7.076, 3.188], "rotation": 180, "texture": "#1"},
				"south": {"uv": [4.5, 1, 7.076, 3.188], "rotation": 180, "texture": "#1"},
				"west": {"uv": [4.5, 1, 7.076, 3.188], "rotation": 180, "texture": "#1"},
				"up": {"uv": [4.5, 1, 7.076, 3.188], "rotation": 180, "texture": "#1"},
				"down": {"uv": [4.5, 1, 7.076, 3.188], "rotation": 180, "texture": "#1"}
			}
		},
		{
			"from": [8.08894, 8.3039, -5.7159],
			"to": [8.18894, 8.4039, -3.4159],
			"rotation": {"angle": -45, "axis": "z", "origin": [8.16394, 8.3789, -4.5659]},
			"faces": {
				"north": {"uv": [4.5, 1, 7.076, 3.188], "rotation": 180, "texture": "#1"},
				"east": {"uv": [4.5, 1, 7.076, 3.188], "rotation": 180, "texture": "#1"},
				"south": {"uv": [4.5, 1, 7.076, 3.188], "rotation": 180, "texture": "#1"},
				"west": {"uv": [4.5, 1, 7.076, 3.188], "rotation": 180, "texture": "#1"},
				"up": {"uv": [4.5, 1, 7.076, 3.188], "rotation": 180, "texture": "#1"},
				"down": {"uv": [4.5, 1, 7.076, 3.188], "rotation": 180, "texture": "#1"}
			}
		},
		{
			"from": [7.89787, 8.3039, -5.7159],
			"to": [7.99787, 8.4039, -3.4159],
			"rotation": {"angle": -45, "axis": "z", "origin": [7.97287, 8.3789, -4.5659]},
			"faces": {
				"north": {"uv": [4.5, 1, 7.076, 3.188], "rotation": 180, "texture": "#1"},
				"east": {"uv": [4.5, 1, 7.076, 3.188], "rotation": 180, "texture": "#1"},
				"south": {"uv": [4.5, 1, 7.076, 3.188], "rotation": 180, "texture": "#1"},
				"west": {"uv": [4.5, 1, 7.076, 3.188], "rotation": 180, "texture": "#1"},
				"up": {"uv": [4.5, 1, 7.076, 3.188], "rotation": 180, "texture": "#1"},
				"down": {"uv": [4.5, 1, 7.076, 3.188], "rotation": 180, "texture": "#1"}
			}
		},
		{
			"from": [7.7668, 8.128, -5.8159],
			"to": [8.2993, 9.053, -5.7159],
			"rotation": {"angle": 0, "axis": "y", "origin": [8.0668, 9.0914, -6.7659]},
			"faces": {
				"north": {"uv": [4.5, 1, 7.076, 3.188], "rotation": 180, "texture": "#1"},
				"east": {"uv": [4.5, 1, 7.076, 3.188], "rotation": 180, "texture": "#1"},
				"south": {"uv": [4.5, 1, 7.076, 3.188], "rotation": 180, "texture": "#1"},
				"west": {"uv": [4.5, 1, 7.076, 3.188], "rotation": 180, "texture": "#1"},
				"up": {"uv": [4.5, 1, 7.076, 3.188], "rotation": 180, "texture": "#1"},
				"down": {"uv": [4.5, 1, 7.076, 3.188], "rotation": 180, "texture": "#1"}
			}
		},
		{
			"from": [7.7668, 7.524, -5.8159],
			"to": [8.2993, 8.16, -5.7159],
			"rotation": {"angle": 0, "axis": "y", "origin": [8.0668, 8.4874, -6.7659]},
			"faces": {
				"north": {"uv": [4.5, 1, 7.076, 3.188], "rotation": 180, "texture": "#1"},
				"east": {"uv": [4.5, 1, 7.076, 3.188], "rotation": 180, "texture": "#1"},
				"south": {"uv": [4.5, 1, 7.076, 3.188], "rotation": 180, "texture": "#1"},
				"west": {"uv": [4.5, 1, 7.076, 3.188], "rotation": 180, "texture": "#1"},
				"up": {"uv": [4.5, 1, 7.076, 3.188], "rotation": 180, "texture": "#1"},
				"down": {"uv": [4.5, 1, 7.076, 3.188], "rotation": 180, "texture": "#1"}
			}
		}
	],
	"display": {
		"thirdperson_righthand": {
			"rotation": [0.5, 0, 1.25],
			"translation": [-1.25, -0.75, -6],
			"scale": [1, 1, 0.83]
		},
		"thirdperson_lefthand": {
			"rotation": [3, 0, 0],
			"translation": [-0.75, -0.75, -5.75],
			"scale": [1, 1, 0.83]
		},
		"firstperson_righthand": {
			"rotation": [1, 1, 0],
			"translation": [-5.25, 3.5, -0.75],
			"scale": [1.19, 1.14, 0.87]
		},
		"firstperson_lefthand": {
			"rotation": [1, 1, 0],
			"translation": [-3.5, 3.25, -4.5],
			"scale": [1.19, 1.14, 0.87]
		},
		"ground": {
			"translation": [0, 0, -3.25]
		},
		"gui": {
			"rotation": [11, 16, -16],
			"translation": [-0.75, -0.25, 0],
			"scale": [1.25, 1.28, 1.60945]
		},
		"head": {
			"rotation": [0, -139, 90],
			"translation": [2.5, 6.5, 4.5],
			"scale": [1.36, 1.36, 1.36]
		},
		"fixed": {
			"rotation": [0, -90, 0],
			"translation": [4, 0, -1.75],
			"scale": [1.58, 1.39, 1.28]
		}
	}
}