{
	"credit": "Made with Blockbench",
	"textures": {
		"0": "gci:items/common/all_in_one",
		"particle": "gci:items/common/all_in_one"
	},
	"elements": [
		{
			"from": [7.60095, 7.99226, 8.34874],
			"to": [7.96895, 8.53626, 8.50474],
			"rotation": {"angle": -45, "axis": "y", "origin": [7.78495, 7.54426, 8.42674]},
			"faces": {
				"north": {"uv": [3, 3, 3, 3], "rotation": 90, "texture": "#0"},
				"east": {"uv": [3, 3, 3, 3], "rotation": 90, "texture": "#0"},
				"south": {"uv": [3, 3, 3, 3], "rotation": 90, "texture": "#0"},
				"west": {"uv": [3, 3, 3, 3], "rotation": 90, "texture": "#0"},
				"up": {"uv": [3, 3, 3, 3], "rotation": 90, "texture": "#0"},
				"down": {"uv": [3, 3, 3, 3], "rotation": 90, "texture": "#0"}
			}
		},
		{
			"from": [7.60095, 5.78426, 8.34874],
			"to": [7.96895, 7.86426, 8.50474],
			"rotation": {"angle": -45, "axis": "y", "origin": [7.78495, 6.87226, 8.42674]},
			"faces": {
				"north": {"uv": [3, 3, 3, 3], "rotation": 90, "texture": "#0"},
				"east": {"uv": [3, 3, 3, 3], "rotation": 90, "texture": "#0"},
				"south": {"uv": [3, 3, 3, 3], "rotation": 90, "texture": "#0"},
				"west": {"uv": [3, 3, 3, 3], "rotation": 90, "texture": "#0"},
				"up": {"uv": [3, 3, 3, 3], "rotation": 90, "texture": "#0"},
				"down": {"uv": [3, 3, 3, 3], "rotation": 90, "texture": "#0"}
			}
		},
		{
			"from": [8.33212, 7.99226, 7.80068],
			"to": [8.48812, 8.53626, 8.16868],
			"rotation": {"angle": 45, "axis": "y", "origin": [8.26493, 7.54426, 8.07623]},
			"faces": {
				"north": {"uv": [3, 3, 3, 3], "rotation": 90, "texture": "#0"},
				"east": {"uv": [3, 3, 3, 3], "rotation": 90, "texture": "#0"},
				"south": {"uv": [3, 3, 3, 3], "rotation": 90, "texture": "#0"},
				"west": {"uv": [3, 3, 3, 3], "rotation": 90, "texture": "#0"},
				"up": {"uv": [3, 3, 3, 3], "texture": "#0"},
				"down": {"uv": [3, 3, 3, 3], "rotation": 180, "texture": "#0"}
			}
		},
		{
			"from": [8.33212, 5.78426, 7.80068],
			"to": [8.48812, 7.86426, 8.16868],
			"rotation": {"angle": 45, "axis": "y", "origin": [8.26493, 6.87226, 8.07623]},
			"faces": {
				"north": {"uv": [3, 3, 3, 3], "rotation": 90, "texture": "#0"},
				"east": {"uv": [3, 3, 3, 3], "rotation": 90, "texture": "#0"},
				"south": {"uv": [3, 3, 3, 3], "rotation": 90, "texture": "#0"},
				"west": {"uv": [3, 3, 3, 3], "rotation": 90, "texture": "#0"},
				"up": {"uv": [3, 3, 3, 3], "texture": "#0"},
				"down": {"uv": [3, 3, 3, 3], "rotation": 180, "texture": "#0"}
			}
		},
		{
			"from": [7.70695, 7.99226, 7.72483],
			"to": [7.86295, 8.53626, 8.09283],
			"rotation": {"angle": -45, "axis": "y", "origin": [7.78495, 7.54426, 7.90883]},
			"faces": {
				"north": {"uv": [3, 3, 3, 3], "rotation": 90, "texture": "#0"},
				"east": {"uv": [3, 3, 3, 3], "rotation": 90, "texture": "#0"},
				"south": {"uv": [3, 3, 3, 3], "rotation": 90, "texture": "#0"},
				"west": {"uv": [3, 3, 3, 3], "rotation": 90, "texture": "#0"},
				"up": {"uv": [3, 3, 3, 3], "texture": "#0"},
				"down": {"uv": [3, 3, 3, 3], "rotation": 180, "texture": "#0"}
			}
		},
		{
			"from": [7.70695, 5.78426, 7.72483],
			"to": [7.86295, 7.86426, 8.09283],
			"rotation": {"angle": -45, "axis": "y", "origin": [7.78495, 6.87226, 7.90883]},
			"faces": {
				"north": {"uv": [3, 3, 3, 3], "rotation": 90, "texture": "#0"},
				"east": {"uv": [3, 3, 3, 3], "rotation": 90, "texture": "#0"},
				"south": {"uv": [3, 3, 3, 3], "rotation": 90, "texture": "#0"},
				"west": {"uv": [3, 3, 3, 3], "rotation": 90, "texture": "#0"},
				"up": {"uv": [3, 3, 3, 3], "texture": "#0"},
				"down": {"uv": [3, 3, 3, 3], "rotation": 180, "texture": "#0"}
			}
		},
		{
			"from": [7.8599, 7.99226, 8.27289],
			"to": [8.2279, 8.53626, 8.42889],
			"rotation": {"angle": 45, "axis": "y", "origin": [8.26493, 7.54426, 8.07623]},
			"faces": {
				"north": {"uv": [3, 3, 3, 3], "rotation": 90, "texture": "#0"},
				"east": {"uv": [3, 3, 3, 3], "rotation": 90, "texture": "#0"},
				"south": {"uv": [3, 3, 3, 3], "rotation": 90, "texture": "#0"},
				"west": {"uv": [3, 3, 3, 3], "rotation": 90, "texture": "#0"},
				"up": {"uv": [3, 3, 3, 3], "rotation": 270, "texture": "#0"},
				"down": {"uv": [3, 3, 3, 3], "rotation": 270, "texture": "#0"}
			}
		},
		{
			"from": [7.8599, 5.78426, 8.27289],
			"to": [8.2279, 7.86426, 8.42889],
			"rotation": {"angle": 45, "axis": "y", "origin": [8.26493, 6.87226, 8.07623]},
			"faces": {
				"north": {"uv": [3, 3, 3, 3], "rotation": 90, "texture": "#0"},
				"east": {"uv": [3, 3, 3, 3], "rotation": 90, "texture": "#0"},
				"south": {"uv": [3, 3, 3, 3], "rotation": 90, "texture": "#0"},
				"west": {"uv": [3, 3, 3, 3], "rotation": 90, "texture": "#0"},
				"up": {"uv": [3, 3, 3, 3], "rotation": 270, "texture": "#0"},
				"down": {"uv": [3, 3, 3, 3], "rotation": 270, "texture": "#0"}
			}
		},
		{
			"from": [7.59968, 7.99226, 7.98378],
			"to": [7.75568, 8.98426, 8.35178],
			"rotation": {"angle": 0, "axis": "y", "origin": [7.67768, 7.54426, 8.16778]},
			"faces": {
				"north": {"uv": [3, 3, 3, 3], "rotation": 90, "texture": "#0"},
				"east": {"uv": [3, 3, 3, 3], "rotation": 90, "texture": "#0"},
				"south": {"uv": [3, 3, 3, 3], "rotation": 90, "texture": "#0"},
				"west": {"uv": [3, 3, 3, 3], "rotation": 90, "texture": "#0"},
				"up": {"uv": [3, 3, 3, 3], "rotation": 180, "texture": "#0"},
				"down": {"uv": [3, 3, 3, 3], "texture": "#0"}
			}
		},
		{
			"from": [7.56768, 8.69626, 8.07978],
			"to": [8.52368, 8.87226, 8.25578],
			"rotation": {"angle": 45, "axis": "x", "origin": [7.66168, 8.76826, 8.15178]},
			"faces": {
				"north": {"uv": [4.375, 3.375, 4.375, 3.375], "rotation": 90, "texture": "#0"},
				"east": {"uv": [4.375, 3.375, 4.375, 3.375], "rotation": 90, "texture": "#0"},
				"south": {"uv": [4.375, 3.375, 4.375, 3.375], "rotation": 90, "texture": "#0"},
				"west": {"uv": [4.375, 3.375, 4.375, 3.375], "rotation": 90, "texture": "#0"},
				"up": {"uv": [4.375, 3.375, 4.375, 3.375], "rotation": 90, "texture": "#0"},
				"down": {"uv": [4.375, 3.375, 4.375, 3.375], "rotation": 90, "texture": "#0"}
			}
		},
		{
			"from": [7.59968, 5.78426, 7.98378],
			"to": [7.75568, 7.86426, 8.35178],
			"rotation": {"angle": 0, "axis": "y", "origin": [7.67768, 6.87226, 8.16778]},
			"faces": {
				"north": {"uv": [3, 3, 3, 3], "rotation": 90, "texture": "#0"},
				"east": {"uv": [3, 3, 3, 3], "rotation": 90, "texture": "#0"},
				"south": {"uv": [3, 3, 3, 3], "rotation": 90, "texture": "#0"},
				"west": {"uv": [3, 3, 3, 3], "rotation": 90, "texture": "#0"},
				"up": {"uv": [3, 3, 3, 3], "rotation": 180, "texture": "#0"},
				"down": {"uv": [3, 3, 3, 3], "texture": "#0"}
			}
		},
		{
			"from": [8.33212, 7.99226, 7.98378],
			"to": [8.48812, 8.98426, 8.35178],
			"rotation": {"angle": 0, "axis": "y", "origin": [8.26493, 7.54426, 8.07623]},
			"faces": {
				"north": {"uv": [3, 3, 3, 3], "rotation": 90, "texture": "#0"},
				"east": {"uv": [3, 3, 3, 3], "rotation": 90, "texture": "#0"},
				"south": {"uv": [3, 3, 3, 3], "rotation": 90, "texture": "#0"},
				"west": {"uv": [3, 3, 3, 3], "rotation": 90, "texture": "#0"},
				"up": {"uv": [3, 3, 3, 3], "texture": "#0"},
				"down": {"uv": [3, 3, 3, 3], "rotation": 180, "texture": "#0"}
			}
		},
		{
			"from": [8.33212, 5.78426, 7.98378],
			"to": [8.48812, 7.86426, 8.35178],
			"rotation": {"angle": 0, "axis": "y", "origin": [8.26493, 6.87226, 8.07623]},
			"faces": {
				"north": {"uv": [3, 3, 3, 3], "rotation": 90, "texture": "#0"},
				"east": {"uv": [3, 3, 3, 3], "rotation": 90, "texture": "#0"},
				"south": {"uv": [3, 3, 3, 3], "rotation": 90, "texture": "#0"},
				"west": {"uv": [3, 3, 3, 3], "rotation": 90, "texture": "#0"},
				"up": {"uv": [3, 3, 3, 3], "texture": "#0"},
				"down": {"uv": [3, 3, 3, 3], "rotation": 180, "texture": "#0"}
			}
		},
		{
			"from": [7.8599, 7.99226, 8.456],
			"to": [8.2279, 8.53626, 8.612],
			"rotation": {"angle": 0, "axis": "y", "origin": [8.0439, 7.54426, 8.534]},
			"faces": {
				"north": {"uv": [3, 3, 3, 3], "rotation": 90, "texture": "#0"},
				"east": {"uv": [3, 3, 3, 3], "rotation": 90, "texture": "#0"},
				"south": {"uv": [3, 3, 3, 3], "rotation": 90, "texture": "#0"},
				"west": {"uv": [3, 3, 3, 3], "rotation": 90, "texture": "#0"},
				"up": {"uv": [3, 3, 3, 3], "rotation": 90, "texture": "#0"},
				"down": {"uv": [3, 3, 3, 3], "rotation": 90, "texture": "#0"}
			}
		},
		{
			"from": [7.8599, 5.78426, 8.456],
			"to": [8.2279, 7.86426, 8.612],
			"rotation": {"angle": 0, "axis": "y", "origin": [8.0439, 6.87226, 8.534]},
			"faces": {
				"north": {"uv": [3, 3, 3, 3], "rotation": 90, "texture": "#0"},
				"east": {"uv": [3, 3, 3, 3], "rotation": 90, "texture": "#0"},
				"south": {"uv": [3, 3, 3, 3], "rotation": 90, "texture": "#0"},
				"west": {"uv": [3, 3, 3, 3], "rotation": 90, "texture": "#0"},
				"up": {"uv": [3, 3, 3, 3], "rotation": 90, "texture": "#0"},
				"down": {"uv": [3, 3, 3, 3], "rotation": 90, "texture": "#0"}
			}
		},
		{
			"from": [7.67694, 5.59226, 8.02904],
			"to": [7.83294, 8.53626, 8.33304],
			"rotation": {"angle": 0, "axis": "y", "origin": [7.75494, 8.31226, 8.18104]},
			"faces": {
				"north": {"uv": [7.625, 11.875, 7.625, 11.875], "rotation": 90, "texture": "#0"},
				"east": {"uv": [7.625, 11.875, 7.625, 11.875], "rotation": 90, "texture": "#0"},
				"south": {"uv": [7.625, 11.875, 7.625, 11.875], "rotation": 90, "texture": "#0"},
				"west": {"uv": [7.625, 11.875, 7.625, 11.875], "rotation": 90, "texture": "#0"},
				"up": {"uv": [7.625, 11.875, 7.625, 11.875], "rotation": 90, "texture": "#0"},
				"down": {"uv": [7.625, 11.875, 7.625, 11.875], "rotation": 90, "texture": "#0"}
			}
		},
		{
			"from": [7.80686, 5.59226, 8.02904],
			"to": [8.41086, 8.53626, 8.33304],
			"rotation": {"angle": 0, "axis": "y", "origin": [8.2183, 8.31226, 8.1088]},
			"faces": {
				"north": {"uv": [7.625, 11.875, 7.625, 11.875], "rotation": 90, "texture": "#0"},
				"east": {"uv": [7.625, 11.875, 7.625, 11.875], "rotation": 90, "texture": "#0"},
				"south": {"uv": [7.625, 11.875, 7.625, 11.875], "rotation": 90, "texture": "#0"},
				"west": {"uv": [7.625, 11.875, 7.625, 11.875], "rotation": 90, "texture": "#0"},
				"up": {"uv": [7.625, 11.875, 7.625, 11.875], "rotation": 90, "texture": "#0"},
				"down": {"uv": [7.625, 11.875, 7.625, 11.875], "rotation": 90, "texture": "#0"}
			}
		},
		{
			"from": [7.68757, 5.59226, 8.30737],
			"to": [7.99157, 8.53626, 8.46337],
			"rotation": {"angle": -45, "axis": "y", "origin": [7.83957, 8.31226, 8.38537]},
			"faces": {
				"north": {"uv": [7.625, 11.875, 7.625, 11.875], "rotation": 90, "texture": "#0"},
				"east": {"uv": [7.625, 11.875, 7.625, 11.875], "rotation": 90, "texture": "#0"},
				"south": {"uv": [7.625, 11.875, 7.625, 11.875], "rotation": 90, "texture": "#0"},
				"west": {"uv": [7.625, 11.875, 7.625, 11.875], "rotation": 90, "texture": "#0"},
				"up": {"uv": [7.625, 11.875, 7.625, 11.875], "rotation": 90, "texture": "#0"},
				"down": {"uv": [7.625, 11.875, 7.625, 11.875], "rotation": 90, "texture": "#0"}
			}
		},
		{
			"from": [7.99406, 5.59226, 7.91624],
			"to": [8.29806, 8.53626, 8.07224],
			"rotation": {"angle": -45, "axis": "y", "origin": [8.2183, 8.31226, 8.1088]},
			"faces": {
				"north": {"uv": [7.625, 11.875, 7.625, 11.875], "rotation": 90, "texture": "#0"},
				"east": {"uv": [7.625, 11.875, 7.625, 11.875], "rotation": 90, "texture": "#0"},
				"south": {"uv": [7.625, 11.875, 7.625, 11.875], "rotation": 90, "texture": "#0"},
				"west": {"uv": [7.625, 11.875, 7.625, 11.875], "rotation": 90, "texture": "#0"},
				"up": {"uv": [7.625, 11.875, 7.625, 11.875], "rotation": 90, "texture": "#0"},
				"down": {"uv": [7.625, 11.875, 7.625, 11.875], "rotation": 90, "texture": "#0"}
			}
		},
		{
			"from": [7.8919, 5.59226, 8.392],
			"to": [8.1959, 8.53626, 8.548],
			"rotation": {"angle": 0, "axis": "y", "origin": [8.0439, 8.31226, 8.47]},
			"faces": {
				"north": {"uv": [7.625, 11.875, 7.625, 11.875], "rotation": 90, "texture": "#0"},
				"east": {"uv": [7.625, 11.875, 7.625, 11.875], "rotation": 90, "texture": "#0"},
				"south": {"uv": [7.625, 11.875, 7.625, 11.875], "rotation": 90, "texture": "#0"},
				"west": {"uv": [7.625, 11.875, 7.625, 11.875], "rotation": 90, "texture": "#0"},
				"up": {"uv": [7.625, 11.875, 7.625, 11.875], "rotation": 90, "texture": "#0"},
				"down": {"uv": [7.625, 11.875, 7.625, 11.875], "rotation": 90, "texture": "#0"}
			}
		},
		{
			"from": [7.8919, 5.59226, 7.81408],
			"to": [8.1959, 8.53626, 8.51408],
			"rotation": {"angle": 0, "axis": "y", "origin": [8.2183, 8.31226, 8.1088]},
			"faces": {
				"north": {"uv": [7.625, 11.875, 7.625, 11.875], "rotation": 90, "texture": "#0"},
				"east": {"uv": [7.625, 11.875, 7.625, 11.875], "rotation": 90, "texture": "#0"},
				"south": {"uv": [7.625, 11.875, 7.625, 11.875], "rotation": 90, "texture": "#0"},
				"west": {"uv": [7.625, 11.875, 7.625, 11.875], "rotation": 90, "texture": "#0"},
				"up": {"uv": [7.625, 11.875, 7.625, 11.875], "rotation": 90, "texture": "#0"},
				"down": {"uv": [7.625, 11.875, 7.625, 11.875], "rotation": 90, "texture": "#0"}
			}
		},
		{
			"from": [7.6679, 8.47226, 7.62208],
			"to": [8.4199, 9.01626, 8.67408],
			"rotation": {"angle": 0, "axis": "y", "origin": [8.2183, 8.31226, 8.1088]},
			"faces": {
				"north": {"uv": [7.625, 11.875, 7.625, 11.875], "rotation": 90, "texture": "#0"},
				"east": {"uv": [7.625, 11.875, 7.625, 11.875], "rotation": 90, "texture": "#0"},
				"south": {"uv": [7.625, 11.875, 7.625, 11.875], "rotation": 90, "texture": "#0"},
				"west": {"uv": [7.625, 11.875, 7.625, 11.875], "rotation": 90, "texture": "#0"},
				"up": {"uv": [7.625, 11.875, 7.625, 11.875], "rotation": 90, "texture": "#0"},
				"down": {"uv": [7.625, 11.875, 7.625, 11.875], "rotation": 90, "texture": "#0"}
			}
		},
		{
			"from": [7.68757, 5.59226, 7.89871],
			"to": [7.99157, 8.53626, 8.05471],
			"rotation": {"angle": 45, "axis": "y", "origin": [7.83957, 8.31226, 7.97671]},
			"faces": {
				"north": {"uv": [7.625, 11.875, 7.625, 11.875], "rotation": 90, "texture": "#0"},
				"east": {"uv": [7.625, 11.875, 7.625, 11.875], "rotation": 90, "texture": "#0"},
				"south": {"uv": [7.625, 11.875, 7.625, 11.875], "rotation": 90, "texture": "#0"},
				"west": {"uv": [7.625, 11.875, 7.625, 11.875], "rotation": 90, "texture": "#0"},
				"up": {"uv": [7.625, 11.875, 7.625, 11.875], "rotation": 90, "texture": "#0"},
				"down": {"uv": [7.625, 11.875, 7.625, 11.875], "rotation": 90, "texture": "#0"}
			}
		},
		{
			"from": [8.35702, 5.59226, 8.1312],
			"to": [8.51302, 8.53626, 8.4352],
			"rotation": {"angle": -45, "axis": "y", "origin": [8.2183, 8.31226, 8.1088]},
			"faces": {
				"north": {"uv": [7.625, 11.875, 7.625, 11.875], "rotation": 90, "texture": "#0"},
				"east": {"uv": [7.625, 11.875, 7.625, 11.875], "rotation": 90, "texture": "#0"},
				"south": {"uv": [7.625, 11.875, 7.625, 11.875], "rotation": 90, "texture": "#0"},
				"west": {"uv": [7.625, 11.875, 7.625, 11.875], "rotation": 90, "texture": "#0"},
				"up": {"uv": [7.625, 11.875, 7.625, 11.875], "rotation": 90, "texture": "#0"},
				"down": {"uv": [7.625, 11.875, 7.625, 11.875], "rotation": 90, "texture": "#0"}
			}
		},
		{
			"from": [7.8599, 7.99226, 7.72357],
			"to": [8.2279, 8.53626, 7.87957],
			"rotation": {"angle": 0, "axis": "y", "origin": [8.26493, 7.54426, 8.07623]},
			"faces": {
				"north": {"uv": [3, 3, 3, 3], "rotation": 90, "texture": "#0"},
				"east": {"uv": [3, 3, 3, 3], "rotation": 90, "texture": "#0"},
				"south": {"uv": [3, 3, 3, 3], "rotation": 90, "texture": "#0"},
				"west": {"uv": [3, 3, 3, 3], "rotation": 90, "texture": "#0"},
				"up": {"uv": [3, 3, 3, 3], "rotation": 270, "texture": "#0"},
				"down": {"uv": [3, 3, 3, 3], "rotation": 270, "texture": "#0"}
			}
		},
		{
			"from": [7.8599, 5.78426, 7.72357],
			"to": [8.2279, 7.86426, 7.87957],
			"rotation": {"angle": 0, "axis": "y", "origin": [8.26493, 6.87226, 8.07623]},
			"faces": {
				"north": {"uv": [3, 3, 3, 3], "rotation": 90, "texture": "#0"},
				"east": {"uv": [3, 3, 3, 3], "rotation": 90, "texture": "#0"},
				"south": {"uv": [3, 3, 3, 3], "rotation": 90, "texture": "#0"},
				"west": {"uv": [3, 3, 3, 3], "rotation": 90, "texture": "#0"},
				"up": {"uv": [3, 3, 3, 3], "rotation": 270, "texture": "#0"},
				"down": {"uv": [3, 3, 3, 3], "rotation": 270, "texture": "#0"}
			}
		}
	],
	"display": {
		"thirdperson_righthand": {
			"rotation": [0.5, 0, 1.25],
			"translation": [-1.25, -0.75, -6],
			"scale": [1, 1, 0.83]
		},
		"thirdperson_lefthand": {
			"rotation": [3, 0, 0],
			"translation": [-0.75, -0.75, -5.75],
			"scale": [1, 1, 0.83]
		},
		"firstperson_righthand": {
			"rotation": [1, 1, 0],
			"translation": [-5.25, 3.5, -0.75],
			"scale": [1.19, 1.14, 0.87]
		},
		"firstperson_lefthand": {
			"rotation": [1, 1, 0],
			"translation": [-3.5, 3.25, -4.5],
			"scale": [1.19, 1.14, 0.87]
		},
		"ground": {
			"translation": [0, 0, -3.25]
		},
		"gui": {
			"rotation": [11, 16, -16],
			"translation": [-0.75, -0.25, 0],
			"scale": [1.25, 1.28, 1.60945]
		},
		"head": {
			"rotation": [0, -139, 90],
			"translation": [2.5, 6.5, 4.5],
			"scale": [1.36, 1.36, 1.36]
		},
		"fixed": {
			"rotation": [0, -90, 0],
			"translation": [4, 0, -1.75],
			"scale": [1.58, 1.39, 1.28]
		}
	}
}