{
    "textures": {
        "0": "gci:items/common/mpz",
        "particle": "gci:items/common/mpz"
    },
    "elements": [
        {
            "from": [
                4.7718,
                1.74493,
                7.10997
            ],
            "to": [
                5.3282,
                2.89193,
                8.66265
            ],
            "rotation": {
                "angle": 0,
                "axis": "y",
                "origin": [
                    5,
                    2.42843,
                    7.88631
                ]
            },
            "faces": {
                "north": {
                    "uv": [
                        5.83333,
                        3.6,
                        7,
                        4.68333
                    ],
                    "rotation": 90,
                    "texture": "#0"
                },
                "east": {
                    "uv": [
                        5.83333,
                        3.6,
                        7,
                        4.68333
                    ],
                    "rotation": 90,
                    "texture": "#0"
                },
                "south": {
                    "uv": [
                        5.83333,
                        3.6,
                        7,
                        4.68333
                    ],
                    "rotation": 90,
                    "texture": "#0"
                },
                "west": {
                    "uv": [
                        5.83333,
                        3.6,
                        7,
                        4.68333
                    ],
                    "rotation": 90,
                    "texture": "#0"
                },
                "up": {
                    "uv": [
                        5.83333,
                        3.6,
                        7,
                        4.68333
                    ],
                    "rotation": 90,
                    "texture": "#0"
                },
                "down": {
                    "uv": [
                        5.83333,
                        3.6,
                        7,
                        4.68333
                    ],
                    "rotation": 90,
                    "texture": "#0"
                }
            }
        },
        {
            "from": [
                4.7718,
                2.56641,
                7.02613
            ],
            "to": [
                5.2282,
                3.31341,
                8.57881
            ],
            "rotation": {
                "angle": -22.5,
                "axis": "x",
                "origin": [
                    5,
                    2.93991,
                    7.80247
                ]
            },
            "faces": {
                "north": {
                    "uv": [
                        5.83333,
                        3.6,
                        7,
                        4.68333
                    ],
                    "rotation": 90,
                    "texture": "#0"
                },
                "east": {
                    "uv": [
                        5.83333,
                        3.6,
                        7,
                        4.68333
                    ],
                    "rotation": 90,
                    "texture": "#0"
                },
                "south": {
                    "uv": [
                        5.83333,
                        3.6,
                        7,
                        4.68333
                    ],
                    "rotation": 90,
                    "texture": "#0"
                },
                "west": {
                    "uv": [
                        5.83333,
                        3.6,
                        7,
                        4.68333
                    ],
                    "rotation": 90,
                    "texture": "#0"
                },
                "up": {
                    "uv": [
                        5.83333,
                        3.6,
                        7,
                        4.68333
                    ],
                    "rotation": 90,
                    "texture": "#0"
                },
                "down": {
                    "uv": [
                        5.83333,
                        3.6,
                        7,
                        4.68333
                    ],
                    "rotation": 90,
                    "texture": "#0"
                }
            }
        },
        {
            "from": [
                4.7718,
                2.98788,
                6.94229
            ],
            "to": [
                5.2282,
                3.73488,
                8.49497
            ],
            "rotation": {
                "angle": 0,
                "axis": "y",
                "origin": [
                    5,
                    3.27138,
                    7.71863
                ]
            },
            "faces": {
                "north": {
                    "uv": [
                        5.83333,
                        3.6,
                        7,
                        4.68333
                    ],
                    "rotation": 90,
                    "texture": "#0"
                },
                "east": {
                    "uv": [
                        5.83333,
                        3.6,
                        7,
                        4.68333
                    ],
                    "rotation": 90,
                    "texture": "#0"
                },
                "south": {
                    "uv": [
                        5.83333,
                        3.6,
                        7,
                        4.68333
                    ],
                    "rotation": 90,
                    "texture": "#0"
                },
                "west": {
                    "uv": [
                        5.83333,
                        3.6,
                        7,
                        4.68333
                    ],
                    "rotation": 90,
                    "texture": "#0"
                },
                "up": {
                    "uv": [
                        5.83333,
                        3.6,
                        7,
                        4.68333
                    ],
                    "rotation": 90,
                    "texture": "#0"
                },
                "down": {
                    "uv": [
                        5.83333,
                        3.6,
                        7,
                        4.68333
                    ],
                    "rotation": 90,
                    "texture": "#0"
                }
            }
        },
        {
            "from": [
                4.7718,
                3.32715,
                6.44516
            ],
            "to": [
                5.2282,
                4.07415,
                7.99784
            ],
            "rotation": {
                "angle": -22.5,
                "axis": "x",
                "origin": [
                    5,
                    4.78065,
                    7.2215
                ]
            },
            "faces": {
                "north": {
                    "uv": [
                        5.83333,
                        3.6,
                        7,
                        4.68333
                    ],
                    "rotation": 90,
                    "texture": "#0"
                },
                "east": {
                    "uv": [
                        5.83333,
                        3.6,
                        7,
                        4.68333
                    ],
                    "rotation": 90,
                    "texture": "#0"
                },
                "south": {
                    "uv": [
                        5.83333,
                        3.6,
                        7,
                        4.68333
                    ],
                    "rotation": 90,
                    "texture": "#0"
                },
                "west": {
                    "uv": [
                        5.83333,
                        3.6,
                        7,
                        4.68333
                    ],
                    "rotation": 90,
                    "texture": "#0"
                },
                "up": {
                    "uv": [
                        5.83333,
                        3.6,
                        7,
                        4.68333
                    ],
                    "rotation": 90,
                    "texture": "#0"
                },
                "down": {
                    "uv": [
                        5.83333,
                        3.6,
                        7,
                        4.68333
                    ],
                    "rotation": 90,
                    "texture": "#0"
                }
            }
        },
        {
            "from": [
                4.7718,
                3.83084,
                6.77462
            ],
            "to": [
                5.2282,
                4.57784,
                8.3273
            ],
            "rotation": {
                "angle": 0,
                "axis": "y",
                "origin": [
                    5,
                    5.62961,
                    5.90846
                ]
            },
            "faces": {
                "north": {
                    "uv": [
                        5.83333,
                        3.6,
                        7,
                        4.68333
                    ],
                    "rotation": 90,
                    "texture": "#0"
                },
                "east": {
                    "uv": [
                        5.83333,
                        3.6,
                        7,
                        4.68333
                    ],
                    "rotation": 90,
                    "texture": "#0"
                },
                "south": {
                    "uv": [
                        5.83333,
                        3.6,
                        7,
                        4.68333
                    ],
                    "rotation": 90,
                    "texture": "#0"
                },
                "west": {
                    "uv": [
                        5.83333,
                        3.6,
                        7,
                        4.68333
                    ],
                    "rotation": 90,
                    "texture": "#0"
                },
                "up": {
                    "uv": [
                        5.83333,
                        3.6,
                        7,
                        4.68333
                    ],
                    "rotation": 90,
                    "texture": "#0"
                },
                "down": {
                    "uv": [
                        5.83333,
                        3.6,
                        7,
                        4.68333
                    ],
                    "rotation": 90,
                    "texture": "#0"
                }
            }
        }
    ],
    "display": {
        "thirdperson_righthand": {
            "translation": [
                3,
                3.5,
                2.25
            ]
        },
        "thirdperson_lefthand": {
            "translation": [
                -2.75,
                3.75,
                2.5
            ]
        },
        "firstperson_righthand": {
            "translation": [
                -1.25,
                6.75,
                4.75
            ]
        },
        "firstperson_lefthand": {
            "translation": [
                -6.5,
                6,
                3.75
            ]
        },
        "ground": {
            "translation": [
                4.25,
                7.25,
                1.75
            ]
        },
        "gui": {
            "rotation": [
                90,
                45,
                -90
            ],
            "translation": [
                4,
                0.5,
                0
            ],
            "scale": [
                0.85,
                0.85,
                0.85
            ]
        },
        "fixed": {
            "rotation": [
                90,
                45,
                -90
            ],
            "translation": [
                4.75,
                0.75,
                -3.75
            ]
        }
    }
}