{
    "textures": {
        "0": "gci:items/common/mpz",
        "particle": "gci:items/common/mpz"
    },
    "elements": [
        {
            "from": [
                5.53624,
                5.16046,
                10.0122
            ],
            "to": [
                5.65244,
                6.42606,
                10.2188
            ],
            "rotation": {
                "angle": 0,
                "axis": "y",
                "origin": [
                    5.48604,
                    5.65966,
                    18.3305
                ]
            },
            "faces": {
                "north": {
                    "uv": [
                        5.83333,
                        3.26667,
                        7,
                        4.35
                    ],
                    "rotation": 270,
                    "texture": "#0"
                },
                "east": {
                    "uv": [
                        5.83333,
                        3.26667,
                        7,
                        4.35
                    ],
                    "rotation": 270,
                    "texture": "#0"
                },
                "south": {
                    "uv": [
                        5.83333,
                        3.26667,
                        7,
                        4.35
                    ],
                    "rotation": 270,
                    "texture": "#0"
                },
                "west": {
                    "uv": [
                        5.83333,
                        3.26667,
                        7,
                        4.35
                    ],
                    "rotation": 270,
                    "texture": "#0"
                },
                "up": {
                    "uv": [
                        5.83333,
                        3.26667,
                        7,
                        4.35
                    ],
                    "rotation": 270,
                    "texture": "#0"
                },
                "down": {
                    "uv": [
                        5.83333,
                        3.26667,
                        7,
                        4.35
                    ],
                    "rotation": 270,
                    "texture": "#0"
                }
            }
        },
        {
            "from": [
                4.44756,
                5.16046,
                10.0122
            ],
            "to": [
                4.56376,
                6.42606,
                10.2188
            ],
            "rotation": {
                "angle": 0,
                "axis": "y",
                "origin": [
                    4.35707,
                    5.65966,
                    18.3305
                ]
            },
            "faces": {
                "north": {
                    "uv": [
                        5.83333,
                        3.26667,
                        7,
                        4.35
                    ],
                    "rotation": 270,
                    "texture": "#0"
                },
                "east": {
                    "uv": [
                        5.83333,
                        3.26667,
                        7,
                        4.35
                    ],
                    "rotation": 270,
                    "texture": "#0"
                },
                "south": {
                    "uv": [
                        5.83333,
                        3.26667,
                        7,
                        4.35
                    ],
                    "rotation": 270,
                    "texture": "#0"
                },
                "west": {
                    "uv": [
                        5.83333,
                        3.26667,
                        7,
                        4.35
                    ],
                    "rotation": 270,
                    "texture": "#0"
                },
                "up": {
                    "uv": [
                        5.83333,
                        3.26667,
                        7,
                        4.35
                    ],
                    "rotation": 270,
                    "texture": "#0"
                },
                "down": {
                    "uv": [
                        5.83333,
                        3.26667,
                        7,
                        4.35
                    ],
                    "rotation": 270,
                    "texture": "#0"
                }
            }
        },
        {
            "from": [
                5.53624,
                6.25555,
                9.80713
            ],
            "to": [
                5.65244,
                6.52115,
                10.01373
            ],
            "rotation": {
                "angle": -45,
                "axis": "x",
                "origin": [
                    5.05,
                    6.58835,
                    9.91043
                ]
            },
            "faces": {
                "north": {
                    "uv": [
                        5.83333,
                        3.26667,
                        7,
                        4.35
                    ],
                    "rotation": 270,
                    "texture": "#0"
                },
                "east": {
                    "uv": [
                        5.83333,
                        3.26667,
                        7,
                        4.35
                    ],
                    "rotation": 270,
                    "texture": "#0"
                },
                "south": {
                    "uv": [
                        5.83333,
                        3.26667,
                        7,
                        4.35
                    ],
                    "rotation": 270,
                    "texture": "#0"
                },
                "west": {
                    "uv": [
                        5.83333,
                        3.26667,
                        7,
                        4.35
                    ],
                    "rotation": 270,
                    "texture": "#0"
                },
                "up": {
                    "uv": [
                        5.83333,
                        3.26667,
                        7,
                        4.35
                    ],
                    "rotation": 270,
                    "texture": "#0"
                },
                "down": {
                    "uv": [
                        5.83333,
                        3.26667,
                        7,
                        4.35
                    ],
                    "rotation": 270,
                    "texture": "#0"
                }
            }
        },
        {
            "from": [
                4.44756,
                6.25555,
                9.80713
            ],
            "to": [
                4.56376,
                6.52115,
                10.01373
            ],
            "rotation": {
                "angle": -45,
                "axis": "x",
                "origin": [
                    5.05,
                    6.58835,
                    9.91043
                ]
            },
            "faces": {
                "north": {
                    "uv": [
                        5.83333,
                        3.26667,
                        7,
                        4.35
                    ],
                    "rotation": 270,
                    "texture": "#0"
                },
                "east": {
                    "uv": [
                        5.83333,
                        3.26667,
                        7,
                        4.35
                    ],
                    "rotation": 270,
                    "texture": "#0"
                },
                "south": {
                    "uv": [
                        5.83333,
                        3.26667,
                        7,
                        4.35
                    ],
                    "rotation": 270,
                    "texture": "#0"
                },
                "west": {
                    "uv": [
                        5.83333,
                        3.26667,
                        7,
                        4.35
                    ],
                    "rotation": 270,
                    "texture": "#0"
                },
                "up": {
                    "uv": [
                        5.83333,
                        3.26667,
                        7,
                        4.35
                    ],
                    "rotation": 270,
                    "texture": "#0"
                },
                "down": {
                    "uv": [
                        5.83333,
                        3.26667,
                        7,
                        4.35
                    ],
                    "rotation": 270,
                    "texture": "#0"
                }
            }
        },
        {
            "from": [
                4.44756,
                6.31413,
                5.14123
            ],
            "to": [
                4.56376,
                6.57973,
                5.34782
            ],
            "rotation": {
                "angle": 45,
                "axis": "x",
                "origin": [
                    5.05,
                    6.44693,
                    5.24453
                ]
            },
            "faces": {
                "north": {
                    "uv": [
                        5.83333,
                        3.26667,
                        7,
                        4.35
                    ],
                    "rotation": 270,
                    "texture": "#0"
                },
                "east": {
                    "uv": [
                        5.83333,
                        3.26667,
                        7,
                        4.35
                    ],
                    "rotation": 270,
                    "texture": "#0"
                },
                "south": {
                    "uv": [
                        5.83333,
                        3.26667,
                        7,
                        4.35
                    ],
                    "rotation": 270,
                    "texture": "#0"
                },
                "west": {
                    "uv": [
                        5.83333,
                        3.26667,
                        7,
                        4.35
                    ],
                    "rotation": 270,
                    "texture": "#0"
                },
                "up": {
                    "uv": [
                        5.83333,
                        3.26667,
                        7,
                        4.35
                    ],
                    "rotation": 270,
                    "texture": "#0"
                },
                "down": {
                    "uv": [
                        5.83333,
                        3.26667,
                        7,
                        4.35
                    ],
                    "rotation": 270,
                    "texture": "#0"
                }
            }
        },
        {
            "from": [
                5.53624,
                6.31413,
                5.14123
            ],
            "to": [
                5.65244,
                6.57973,
                5.34782
            ],
            "rotation": {
                "angle": 45,
                "axis": "x",
                "origin": [
                    5.05,
                    6.44693,
                    5.24453
                ]
            },
            "faces": {
                "north": {
                    "uv": [
                        5.83333,
                        3.26667,
                        7,
                        4.35
                    ],
                    "rotation": 270,
                    "texture": "#0"
                },
                "east": {
                    "uv": [
                        5.83333,
                        3.26667,
                        7,
                        4.35
                    ],
                    "rotation": 270,
                    "texture": "#0"
                },
                "south": {
                    "uv": [
                        5.83333,
                        3.26667,
                        7,
                        4.35
                    ],
                    "rotation": 270,
                    "texture": "#0"
                },
                "west": {
                    "uv": [
                        5.83333,
                        3.26667,
                        7,
                        4.35
                    ],
                    "rotation": 270,
                    "texture": "#0"
                },
                "up": {
                    "uv": [
                        5.83333,
                        3.26667,
                        7,
                        4.35
                    ],
                    "rotation": 270,
                    "texture": "#0"
                },
                "down": {
                    "uv": [
                        5.83333,
                        3.26667,
                        7,
                        4.35
                    ],
                    "rotation": 270,
                    "texture": "#0"
                }
            }
        },
        {
            "from": [
                5.53624,
                3.12812,
                7.13525
            ],
            "to": [
                5.65244,
                3.39372,
                7.34184
            ],
            "rotation": {
                "angle": 45,
                "axis": "x",
                "origin": [
                    5.05,
                    6.26092,
                    7.23855
                ]
            },
            "faces": {
                "north": {
                    "uv": [
                        5.83333,
                        3.26667,
                        7,
                        4.35
                    ],
                    "rotation": 270,
                    "texture": "#0"
                },
                "east": {
                    "uv": [
                        5.83333,
                        3.26667,
                        7,
                        4.35
                    ],
                    "rotation": 270,
                    "texture": "#0"
                },
                "south": {
                    "uv": [
                        5.83333,
                        3.26667,
                        7,
                        4.35
                    ],
                    "rotation": 270,
                    "texture": "#0"
                },
                "west": {
                    "uv": [
                        5.83333,
                        3.26667,
                        7,
                        4.35
                    ],
                    "rotation": 270,
                    "texture": "#0"
                },
                "up": {
                    "uv": [
                        5.83333,
                        3.26667,
                        7,
                        4.35
                    ],
                    "rotation": 270,
                    "texture": "#0"
                },
                "down": {
                    "uv": [
                        5.83333,
                        3.26667,
                        7,
                        4.35
                    ],
                    "rotation": 270,
                    "texture": "#0"
                }
            }
        },
        {
            "from": [
                4.44756,
                3.12812,
                7.13525
            ],
            "to": [
                4.56376,
                3.39372,
                7.34184
            ],
            "rotation": {
                "angle": 45,
                "axis": "x",
                "origin": [
                    5.05,
                    6.26092,
                    7.23855
                ]
            },
            "faces": {
                "north": {
                    "uv": [
                        5.83333,
                        3.26667,
                        7,
                        4.35
                    ],
                    "rotation": 270,
                    "texture": "#0"
                },
                "east": {
                    "uv": [
                        5.83333,
                        3.26667,
                        7,
                        4.35
                    ],
                    "rotation": 270,
                    "texture": "#0"
                },
                "south": {
                    "uv": [
                        5.83333,
                        3.26667,
                        7,
                        4.35
                    ],
                    "rotation": 270,
                    "texture": "#0"
                },
                "west": {
                    "uv": [
                        5.83333,
                        3.26667,
                        7,
                        4.35
                    ],
                    "rotation": 270,
                    "texture": "#0"
                },
                "up": {
                    "uv": [
                        5.83333,
                        3.26667,
                        7,
                        4.35
                    ],
                    "rotation": 270,
                    "texture": "#0"
                },
                "down": {
                    "uv": [
                        5.83333,
                        3.26667,
                        7,
                        4.35
                    ],
                    "rotation": 270,
                    "texture": "#0"
                }
            }
        },
        {
            "from": [
                4.44756,
                3.97266,
                4.83077
            ],
            "to": [
                4.56376,
                4.17925,
                5.09637
            ],
            "rotation": {
                "angle": 0,
                "axis": "y",
                "origin": [
                    5.05,
                    4.07595,
                    4.96357
                ]
            },
            "faces": {
                "north": {
                    "uv": [
                        5.83333,
                        3.26667,
                        7,
                        4.35
                    ],
                    "rotation": 180,
                    "texture": "#0"
                },
                "east": {
                    "uv": [
                        5.83333,
                        3.26667,
                        7,
                        4.35
                    ],
                    "rotation": 180,
                    "texture": "#0"
                },
                "south": {
                    "uv": [
                        5.83333,
                        3.26667,
                        7,
                        4.35
                    ],
                    "rotation": 180,
                    "texture": "#0"
                },
                "west": {
                    "uv": [
                        5.83333,
                        3.26667,
                        7,
                        4.35
                    ],
                    "rotation": 180,
                    "texture": "#0"
                },
                "up": {
                    "uv": [
                        5.83333,
                        3.26667,
                        7,
                        4.35
                    ],
                    "rotation": 180,
                    "texture": "#0"
                },
                "down": {
                    "uv": [
                        5.83333,
                        3.26667,
                        7,
                        4.35
                    ],
                    "rotation": 180,
                    "texture": "#0"
                }
            }
        },
        {
            "from": [
                5.53624,
                3.97266,
                4.83077
            ],
            "to": [
                5.65244,
                4.17925,
                5.09637
            ],
            "rotation": {
                "angle": 0,
                "axis": "y",
                "origin": [
                    5.05,
                    4.07595,
                    4.96357
                ]
            },
            "faces": {
                "north": {
                    "uv": [
                        5.83333,
                        3.26667,
                        7,
                        4.35
                    ],
                    "rotation": 180,
                    "texture": "#0"
                },
                "east": {
                    "uv": [
                        5.83333,
                        3.26667,
                        7,
                        4.35
                    ],
                    "rotation": 180,
                    "texture": "#0"
                },
                "south": {
                    "uv": [
                        5.83333,
                        3.26667,
                        7,
                        4.35
                    ],
                    "rotation": 180,
                    "texture": "#0"
                },
                "west": {
                    "uv": [
                        5.83333,
                        3.26667,
                        7,
                        4.35
                    ],
                    "rotation": 180,
                    "texture": "#0"
                },
                "up": {
                    "uv": [
                        5.83333,
                        3.26667,
                        7,
                        4.35
                    ],
                    "rotation": 180,
                    "texture": "#0"
                },
                "down": {
                    "uv": [
                        5.83333,
                        3.26667,
                        7,
                        4.35
                    ],
                    "rotation": 180,
                    "texture": "#0"
                }
            }
        },
        {
            "from": [
                5.45935,
                6.44608,
                4.64296
            ],
            "to": [
                5.57555,
                6.71168,
                4.84955
            ],
            "rotation": {
                "angle": 45,
                "axis": "z",
                "origin": [
                    5.51745,
                    6.57888,
                    4.74625
                ]
            },
            "faces": {
                "north": {
                    "uv": [
                        5.83333,
                        3.26667,
                        7,
                        4.35
                    ],
                    "rotation": 270,
                    "texture": "#0"
                },
                "east": {
                    "uv": [
                        5.83333,
                        3.26667,
                        7,
                        4.35
                    ],
                    "rotation": 270,
                    "texture": "#0"
                },
                "south": {
                    "uv": [
                        5.83333,
                        3.26667,
                        7,
                        4.35
                    ],
                    "rotation": 270,
                    "texture": "#0"
                },
                "west": {
                    "uv": [
                        5.83333,
                        3.26667,
                        7,
                        4.35
                    ],
                    "rotation": 270,
                    "texture": "#0"
                },
                "up": {
                    "uv": [
                        5.83333,
                        3.26667,
                        7,
                        4.35
                    ],
                    "rotation": 270,
                    "texture": "#0"
                },
                "down": {
                    "uv": [
                        5.83333,
                        3.26667,
                        7,
                        4.35
                    ],
                    "rotation": 270,
                    "texture": "#0"
                }
            }
        },
        {
            "from": [
                4.63537,
                6.59767,
                4.64296
            ],
            "to": [
                5.46437,
                6.71387,
                4.84955
            ],
            "rotation": {
                "angle": 0,
                "axis": "y",
                "origin": [
                    4.76817,
                    6.65577,
                    4.74625
                ]
            },
            "faces": {
                "north": {
                    "uv": [
                        5.83333,
                        3.26667,
                        7,
                        4.35
                    ],
                    "rotation": 180,
                    "texture": "#0"
                },
                "east": {
                    "uv": [
                        5.83333,
                        3.26667,
                        7,
                        4.35
                    ],
                    "rotation": 180,
                    "texture": "#0"
                },
                "south": {
                    "uv": [
                        5.83333,
                        3.26667,
                        7,
                        4.35
                    ],
                    "rotation": 180,
                    "texture": "#0"
                },
                "west": {
                    "uv": [
                        5.83333,
                        3.26667,
                        7,
                        4.35
                    ],
                    "rotation": 180,
                    "texture": "#0"
                },
                "up": {
                    "uv": [
                        5.83333,
                        3.26667,
                        7,
                        4.35
                    ],
                    "rotation": 180,
                    "texture": "#0"
                },
                "down": {
                    "uv": [
                        5.83333,
                        3.26667,
                        7,
                        4.35
                    ],
                    "rotation": 180,
                    "texture": "#0"
                }
            }
        },
        {
            "from": [
                4.52445,
                6.44608,
                4.64296
            ],
            "to": [
                4.64065,
                6.71168,
                4.84955
            ],
            "rotation": {
                "angle": -45,
                "axis": "z",
                "origin": [
                    4.58255,
                    6.57888,
                    4.74625
                ]
            },
            "faces": {
                "north": {
                    "uv": [
                        5.83333,
                        3.26667,
                        7,
                        4.35
                    ],
                    "rotation": 270,
                    "texture": "#0"
                },
                "east": {
                    "uv": [
                        5.83333,
                        3.26667,
                        7,
                        4.35
                    ],
                    "rotation": 270,
                    "texture": "#0"
                },
                "south": {
                    "uv": [
                        5.83333,
                        3.26667,
                        7,
                        4.35
                    ],
                    "rotation": 270,
                    "texture": "#0"
                },
                "west": {
                    "uv": [
                        5.83333,
                        3.26667,
                        7,
                        4.35
                    ],
                    "rotation": 270,
                    "texture": "#0"
                },
                "up": {
                    "uv": [
                        5.83333,
                        3.26667,
                        7,
                        4.35
                    ],
                    "rotation": 270,
                    "texture": "#0"
                },
                "down": {
                    "uv": [
                        5.83333,
                        3.26667,
                        7,
                        4.35
                    ],
                    "rotation": 270,
                    "texture": "#0"
                }
            }
        },
        {
            "from": [
                4.44756,
                4.03631,
                4.6771
            ],
            "to": [
                4.56376,
                4.2429,
                4.9427
            ],
            "rotation": {
                "angle": 45,
                "axis": "x",
                "origin": [
                    5.05,
                    4.1396,
                    4.8099
                ]
            },
            "faces": {
                "north": {
                    "uv": [
                        5.83333,
                        3.26667,
                        7,
                        4.35
                    ],
                    "rotation": 180,
                    "texture": "#0"
                },
                "east": {
                    "uv": [
                        5.83333,
                        3.26667,
                        7,
                        4.35
                    ],
                    "rotation": 180,
                    "texture": "#0"
                },
                "south": {
                    "uv": [
                        5.83333,
                        3.26667,
                        7,
                        4.35
                    ],
                    "rotation": 180,
                    "texture": "#0"
                },
                "west": {
                    "uv": [
                        5.83333,
                        3.26667,
                        7,
                        4.35
                    ],
                    "rotation": 180,
                    "texture": "#0"
                },
                "up": {
                    "uv": [
                        5.83333,
                        3.26667,
                        7,
                        4.35
                    ],
                    "rotation": 180,
                    "texture": "#0"
                },
                "down": {
                    "uv": [
                        5.83333,
                        3.26667,
                        7,
                        4.35
                    ],
                    "rotation": 180,
                    "texture": "#0"
                }
            }
        },
        {
            "from": [
                5.53624,
                4.03631,
                4.6771
            ],
            "to": [
                5.65244,
                4.2429,
                4.9427
            ],
            "rotation": {
                "angle": 45,
                "axis": "x",
                "origin": [
                    5.05,
                    4.1396,
                    4.8099
                ]
            },
            "faces": {
                "north": {
                    "uv": [
                        5.83333,
                        3.26667,
                        7,
                        4.35
                    ],
                    "rotation": 180,
                    "texture": "#0"
                },
                "east": {
                    "uv": [
                        5.83333,
                        3.26667,
                        7,
                        4.35
                    ],
                    "rotation": 180,
                    "texture": "#0"
                },
                "south": {
                    "uv": [
                        5.83333,
                        3.26667,
                        7,
                        4.35
                    ],
                    "rotation": 180,
                    "texture": "#0"
                },
                "west": {
                    "uv": [
                        5.83333,
                        3.26667,
                        7,
                        4.35
                    ],
                    "rotation": 180,
                    "texture": "#0"
                },
                "up": {
                    "uv": [
                        5.83333,
                        3.26667,
                        7,
                        4.35
                    ],
                    "rotation": 180,
                    "texture": "#0"
                },
                "down": {
                    "uv": [
                        5.83333,
                        3.26667,
                        7,
                        4.35
                    ],
                    "rotation": 180,
                    "texture": "#0"
                }
            }
        },
        {
            "from": [
                5.53624,
                4.16046,
                4.64296
            ],
            "to": [
                5.65244,
                6.52606,
                4.84955
            ],
            "rotation": {
                "angle": 0,
                "axis": "y",
                "origin": [
                    5.05,
                    4.29326,
                    4.74625
                ]
            },
            "faces": {
                "north": {
                    "uv": [
                        5.83333,
                        3.26667,
                        7,
                        4.35
                    ],
                    "rotation": 90,
                    "texture": "#0"
                },
                "east": {
                    "uv": [
                        5.83333,
                        3.26667,
                        7,
                        4.35
                    ],
                    "rotation": 90,
                    "texture": "#0"
                },
                "south": {
                    "uv": [
                        5.83333,
                        3.26667,
                        7,
                        4.35
                    ],
                    "rotation": 90,
                    "texture": "#0"
                },
                "west": {
                    "uv": [
                        5.83333,
                        3.26667,
                        7,
                        4.35
                    ],
                    "rotation": 90,
                    "texture": "#0"
                },
                "up": {
                    "uv": [
                        5.83333,
                        3.26667,
                        7,
                        4.35
                    ],
                    "rotation": 90,
                    "texture": "#0"
                },
                "down": {
                    "uv": [
                        5.83333,
                        3.26667,
                        7,
                        4.35
                    ],
                    "rotation": 90,
                    "texture": "#0"
                }
            }
        },
        {
            "from": [
                4.44756,
                4.16046,
                4.64296
            ],
            "to": [
                4.56376,
                6.52606,
                4.84955
            ],
            "rotation": {
                "angle": 0,
                "axis": "y",
                "origin": [
                    5.05,
                    4.29326,
                    4.74625
                ]
            },
            "faces": {
                "north": {
                    "uv": [
                        5.83333,
                        3.26667,
                        7,
                        4.35
                    ],
                    "rotation": 90,
                    "texture": "#0"
                },
                "east": {
                    "uv": [
                        5.83333,
                        3.26667,
                        7,
                        4.35
                    ],
                    "rotation": 90,
                    "texture": "#0"
                },
                "south": {
                    "uv": [
                        5.83333,
                        3.26667,
                        7,
                        4.35
                    ],
                    "rotation": 90,
                    "texture": "#0"
                },
                "west": {
                    "uv": [
                        5.83333,
                        3.26667,
                        7,
                        4.35
                    ],
                    "rotation": 90,
                    "texture": "#0"
                },
                "up": {
                    "uv": [
                        5.83333,
                        3.26667,
                        7,
                        4.35
                    ],
                    "rotation": 90,
                    "texture": "#0"
                },
                "down": {
                    "uv": [
                        5.83333,
                        3.26667,
                        7,
                        4.35
                    ],
                    "rotation": 90,
                    "texture": "#0"
                }
            }
        },
        {
            "from": [
                4.44756,
                4.16046,
                5.07758
            ],
            "to": [
                4.56376,
                6.42606,
                5.28417
            ],
            "rotation": {
                "angle": 0,
                "axis": "y",
                "origin": [
                    5.05,
                    4.69326,
                    5.18088
                ]
            },
            "faces": {
                "north": {
                    "uv": [
                        5.83333,
                        3.26667,
                        7,
                        4.35
                    ],
                    "rotation": 270,
                    "texture": "#0"
                },
                "east": {
                    "uv": [
                        5.83333,
                        3.26667,
                        7,
                        4.35
                    ],
                    "rotation": 270,
                    "texture": "#0"
                },
                "south": {
                    "uv": [
                        5.83333,
                        3.26667,
                        7,
                        4.35
                    ],
                    "rotation": 270,
                    "texture": "#0"
                },
                "west": {
                    "uv": [
                        5.83333,
                        3.26667,
                        7,
                        4.35
                    ],
                    "rotation": 270,
                    "texture": "#0"
                },
                "up": {
                    "uv": [
                        5.83333,
                        3.26667,
                        7,
                        4.35
                    ],
                    "rotation": 270,
                    "texture": "#0"
                },
                "down": {
                    "uv": [
                        5.83333,
                        3.26667,
                        7,
                        4.35
                    ],
                    "rotation": 270,
                    "texture": "#0"
                }
            }
        },
        {
            "from": [
                5.53624,
                4.16046,
                5.07758
            ],
            "to": [
                5.65244,
                6.42606,
                5.28417
            ],
            "rotation": {
                "angle": 0,
                "axis": "y",
                "origin": [
                    5.05,
                    4.69326,
                    5.18088
                ]
            },
            "faces": {
                "north": {
                    "uv": [
                        5.83333,
                        3.26667,
                        7,
                        4.35
                    ],
                    "rotation": 270,
                    "texture": "#0"
                },
                "east": {
                    "uv": [
                        5.83333,
                        3.26667,
                        7,
                        4.35
                    ],
                    "rotation": 270,
                    "texture": "#0"
                },
                "south": {
                    "uv": [
                        5.83333,
                        3.26667,
                        7,
                        4.35
                    ],
                    "rotation": 270,
                    "texture": "#0"
                },
                "west": {
                    "uv": [
                        5.83333,
                        3.26667,
                        7,
                        4.35
                    ],
                    "rotation": 270,
                    "texture": "#0"
                },
                "up": {
                    "uv": [
                        5.83333,
                        3.26667,
                        7,
                        4.35
                    ],
                    "rotation": 270,
                    "texture": "#0"
                },
                "down": {
                    "uv": [
                        5.83333,
                        3.26667,
                        7,
                        4.35
                    ],
                    "rotation": 270,
                    "texture": "#0"
                }
            }
        },
        {
            "from": [
                5.53624,
                6.40728,
                5.26539
            ],
            "to": [
                5.65244,
                6.61387,
                10.03099
            ],
            "rotation": {
                "angle": 0,
                "axis": "y",
                "origin": [
                    5.05,
                    6.51058,
                    9.89819
                ]
            },
            "faces": {
                "north": {
                    "uv": [
                        5.83333,
                        3.26667,
                        7,
                        4.35
                    ],
                    "texture": "#0"
                },
                "east": {
                    "uv": [
                        5.83333,
                        3.26667,
                        7,
                        4.35
                    ],
                    "texture": "#0"
                },
                "south": {
                    "uv": [
                        5.83333,
                        3.26667,
                        7,
                        4.35
                    ],
                    "texture": "#0"
                },
                "west": {
                    "uv": [
                        5.83333,
                        3.26667,
                        7,
                        4.35
                    ],
                    "texture": "#0"
                },
                "up": {
                    "uv": [
                        5.83333,
                        3.26667,
                        7,
                        4.35
                    ],
                    "texture": "#0"
                },
                "down": {
                    "uv": [
                        5.83333,
                        3.26667,
                        7,
                        4.35
                    ],
                    "texture": "#0"
                }
            }
        },
        {
            "from": [
                4.44756,
                6.40728,
                5.26539
            ],
            "to": [
                4.56376,
                6.61387,
                10.03099
            ],
            "rotation": {
                "angle": 0,
                "axis": "y",
                "origin": [
                    5.05,
                    6.51058,
                    9.89819
                ]
            },
            "faces": {
                "north": {
                    "uv": [
                        5.83333,
                        3.26667,
                        7,
                        4.35
                    ],
                    "texture": "#0"
                },
                "east": {
                    "uv": [
                        5.83333,
                        3.26667,
                        7,
                        4.35
                    ],
                    "texture": "#0"
                },
                "south": {
                    "uv": [
                        5.83333,
                        3.26667,
                        7,
                        4.35
                    ],
                    "texture": "#0"
                },
                "west": {
                    "uv": [
                        5.83333,
                        3.26667,
                        7,
                        4.35
                    ],
                    "texture": "#0"
                },
                "up": {
                    "uv": [
                        5.83333,
                        3.26667,
                        7,
                        4.35
                    ],
                    "texture": "#0"
                },
                "down": {
                    "uv": [
                        5.83333,
                        3.26667,
                        7,
                        4.35
                    ],
                    "texture": "#0"
                }
            }
        }
    ],
    "display": {
        "thirdperson_righthand": {
            "translation": [
                3,
                3.5,
                2.25
            ]
        },
        "thirdperson_lefthand": {
            "translation": [
                -2.75,
                3.75,
                2.5
            ]
        },
        "firstperson_righthand": {
            "translation": [
                -1.25,
                6.75,
                4.75
            ]
        },
        "firstperson_lefthand": {
            "translation": [
                -6.5,
                6,
                3.75
            ]
        },
        "ground": {
            "translation": [
                4.25,
                7.25,
                1.75
            ]
        },
        "gui": {
            "rotation": [
                90,
                45,
                -90
            ],
            "translation": [
                4,
                0.5,
                0
            ],
            "scale": [
                0.85,
                0.85,
                0.85
            ]
        },
        "fixed": {
            "rotation": [
                90,
                45,
                -90
            ],
            "translation": [
                4.75,
                0.75,
                -3.75
            ]
        }
    }
}