{
    "textures": {
        "1": "gci:items/common/all_in_one",
        "2": "gci:items/common/mpz"
    },
    "elements": [
        {
            "from": [
                8.01094,
                8.2988,
                -1.89468
            ],
            "to": [
                8.18194,
                8.3558,
                -1.09668
            ],
            "rotation": {
                "angle": 0,
                "axis": "y",
                "origin": [
                    8.04595,
                    8.3273,
                    -1.19636
                ]
            },
            "faces": {
                "north": {
                    "uv": [
                        6,
                        3.33333,
                        7,
                        4.66667
                    ],
                    "rotation": 90,
                    "texture": "#2"
                },
                "east": {
                    "uv": [
                        6,
                        3.33333,
                        7,
                        4.66667
                    ],
                    "rotation": 90,
                    "texture": "#2"
                },
                "south": {
                    "uv": [
                        6,
                        3.33333,
                        7,
                        4.66667
                    ],
                    "rotation": 90,
                    "texture": "#2"
                },
                "west": {
                    "uv": [
                        6,
                        3.33333,
                        7,
                        4.66667
                    ],
                    "rotation": 90,
                    "texture": "#2"
                },
                "up": {
                    "uv": [
                        6,
                        3.33333,
                        7,
                        4.66667
                    ],
                    "rotation": 90,
                    "texture": "#2"
                },
                "down": {
                    "uv": [
                        6,
                        3.33333,
                        7,
                        4.66667
                    ],
                    "rotation": 90,
                    "texture": "#2"
                }
            }
        },
        {
            "from": [
                7.98814,
                8.35578,
                -1.55268
            ],
            "to": [
                8.20474,
                8.41278,
                -1.43868
            ],
            "rotation": {
                "angle": 0,
                "axis": "y",
                "origin": [
                    8.04595,
                    8.3273,
                    -1.42436
                ]
            },
            "faces": {
                "north": {
                    "uv": [
                        6,
                        3.33333,
                        7,
                        4.66667
                    ],
                    "rotation": 90,
                    "texture": "#2"
                },
                "east": {
                    "uv": [
                        6,
                        3.33333,
                        7,
                        4.66667
                    ],
                    "rotation": 90,
                    "texture": "#2"
                },
                "south": {
                    "uv": [
                        6,
                        3.33333,
                        7,
                        4.66667
                    ],
                    "rotation": 90,
                    "texture": "#2"
                },
                "west": {
                    "uv": [
                        6,
                        3.33333,
                        7,
                        4.66667
                    ],
                    "rotation": 90,
                    "texture": "#2"
                },
                "up": {
                    "uv": [
                        6,
                        3.33333,
                        7,
                        4.66667
                    ],
                    "rotation": 90,
                    "texture": "#2"
                },
                "down": {
                    "uv": [
                        6,
                        3.33333,
                        7,
                        4.66667
                    ],
                    "rotation": 90,
                    "texture": "#2"
                }
            }
        },
        {
            "from": [
                7.98814,
                7.88986,
                -1.55268
            ],
            "to": [
                8.20474,
                7.94686,
                -1.43868
            ],
            "rotation": {
                "angle": 0,
                "axis": "y",
                "origin": [
                    8.04595,
                    7.86138,
                    -1.42436
                ]
            },
            "faces": {
                "north": {
                    "uv": [
                        6,
                        3.33333,
                        7,
                        4.66667
                    ],
                    "rotation": 90,
                    "texture": "#2"
                },
                "east": {
                    "uv": [
                        6,
                        3.33333,
                        7,
                        4.66667
                    ],
                    "rotation": 90,
                    "texture": "#2"
                },
                "south": {
                    "uv": [
                        6,
                        3.33333,
                        7,
                        4.66667
                    ],
                    "rotation": 90,
                    "texture": "#2"
                },
                "west": {
                    "uv": [
                        6,
                        3.33333,
                        7,
                        4.66667
                    ],
                    "rotation": 90,
                    "texture": "#2"
                },
                "up": {
                    "uv": [
                        6,
                        3.33333,
                        7,
                        4.66667
                    ],
                    "rotation": 90,
                    "texture": "#2"
                },
                "down": {
                    "uv": [
                        6,
                        3.33333,
                        7,
                        4.66667
                    ],
                    "rotation": 90,
                    "texture": "#2"
                }
            }
        },
        {
            "from": [
                8.3009,
                8.04302,
                -1.55268
            ],
            "to": [
                8.3579,
                8.25962,
                -1.43868
            ],
            "rotation": {
                "angle": 0,
                "axis": "y",
                "origin": [
                    8.38638,
                    8.09513,
                    -1.42436
                ]
            },
            "faces": {
                "north": {
                    "uv": [
                        6,
                        3.33333,
                        7,
                        4.66667
                    ],
                    "rotation": 180,
                    "texture": "#2"
                },
                "east": {
                    "uv": [
                        6,
                        3.33333,
                        7,
                        4.66667
                    ],
                    "rotation": 180,
                    "texture": "#2"
                },
                "south": {
                    "uv": [
                        6,
                        3.33333,
                        7,
                        4.66667
                    ],
                    "rotation": 180,
                    "texture": "#2"
                },
                "west": {
                    "uv": [
                        6,
                        3.33333,
                        7,
                        4.66667
                    ],
                    "rotation": 180,
                    "texture": "#2"
                },
                "up": {
                    "uv": [
                        6,
                        3.33333,
                        7,
                        4.66667
                    ],
                    "rotation": 180,
                    "texture": "#2"
                },
                "down": {
                    "uv": [
                        6,
                        3.33333,
                        7,
                        4.66667
                    ],
                    "rotation": 180,
                    "texture": "#2"
                }
            }
        },
        {
            "from": [
                7.83498,
                8.04302,
                -1.55268
            ],
            "to": [
                7.89198,
                8.25962,
                -1.43868
            ],
            "rotation": {
                "angle": 0,
                "axis": "y",
                "origin": [
                    7.92046,
                    8.09513,
                    -1.42436
                ]
            },
            "faces": {
                "north": {
                    "uv": [
                        6,
                        3.33333,
                        7,
                        4.66667
                    ],
                    "rotation": 180,
                    "texture": "#2"
                },
                "east": {
                    "uv": [
                        6,
                        3.33333,
                        7,
                        4.66667
                    ],
                    "rotation": 180,
                    "texture": "#2"
                },
                "south": {
                    "uv": [
                        6,
                        3.33333,
                        7,
                        4.66667
                    ],
                    "rotation": 180,
                    "texture": "#2"
                },
                "west": {
                    "uv": [
                        6,
                        3.33333,
                        7,
                        4.66667
                    ],
                    "rotation": 180,
                    "texture": "#2"
                },
                "up": {
                    "uv": [
                        6,
                        3.33333,
                        7,
                        4.66667
                    ],
                    "rotation": 180,
                    "texture": "#2"
                },
                "down": {
                    "uv": [
                        6,
                        3.33333,
                        7,
                        4.66667
                    ],
                    "rotation": 180,
                    "texture": "#2"
                }
            }
        },
        {
            "from": [
                7.88016,
                8.2645,
                -1.55268
            ],
            "to": [
                8.09676,
                8.3215,
                -1.43868
            ],
            "rotation": {
                "angle": 45,
                "axis": "z",
                "origin": [
                    7.93227,
                    8.23602,
                    -1.42436
                ]
            },
            "faces": {
                "north": {
                    "uv": [
                        6,
                        3.33333,
                        7,
                        4.66667
                    ],
                    "rotation": 90,
                    "texture": "#2"
                },
                "east": {
                    "uv": [
                        6,
                        3.33333,
                        7,
                        4.66667
                    ],
                    "rotation": 90,
                    "texture": "#2"
                },
                "south": {
                    "uv": [
                        6,
                        3.33333,
                        7,
                        4.66667
                    ],
                    "rotation": 90,
                    "texture": "#2"
                },
                "west": {
                    "uv": [
                        6,
                        3.33333,
                        7,
                        4.66667
                    ],
                    "rotation": 90,
                    "texture": "#2"
                },
                "up": {
                    "uv": [
                        6,
                        3.33333,
                        7,
                        4.66667
                    ],
                    "rotation": 90,
                    "texture": "#2"
                },
                "down": {
                    "uv": [
                        6,
                        3.33333,
                        7,
                        4.66667
                    ],
                    "rotation": 90,
                    "texture": "#2"
                }
            }
        },
        {
            "from": [
                8.20961,
                7.93505,
                -1.55268
            ],
            "to": [
                8.42621,
                7.99205,
                -1.43868
            ],
            "rotation": {
                "angle": 45,
                "axis": "z",
                "origin": [
                    8.26172,
                    7.90657,
                    -1.42436
                ]
            },
            "faces": {
                "north": {
                    "uv": [
                        6,
                        3.33333,
                        7,
                        4.66667
                    ],
                    "rotation": 90,
                    "texture": "#2"
                },
                "east": {
                    "uv": [
                        6,
                        3.33333,
                        7,
                        4.66667
                    ],
                    "rotation": 90,
                    "texture": "#2"
                },
                "south": {
                    "uv": [
                        6,
                        3.33333,
                        7,
                        4.66667
                    ],
                    "rotation": 90,
                    "texture": "#2"
                },
                "west": {
                    "uv": [
                        6,
                        3.33333,
                        7,
                        4.66667
                    ],
                    "rotation": 90,
                    "texture": "#2"
                },
                "up": {
                    "uv": [
                        6,
                        3.33333,
                        7,
                        4.66667
                    ],
                    "rotation": 90,
                    "texture": "#2"
                },
                "down": {
                    "uv": [
                        6,
                        3.33333,
                        7,
                        4.66667
                    ],
                    "rotation": 90,
                    "texture": "#2"
                }
            }
        },
        {
            "from": [
                8.12903,
                8.34397,
                -1.55268
            ],
            "to": [
                8.34563,
                8.40097,
                -1.43868
            ],
            "rotation": {
                "angle": -45,
                "axis": "z",
                "origin": [
                    8.18114,
                    8.31549,
                    -1.42436
                ]
            },
            "faces": {
                "north": {
                    "uv": [
                        6,
                        3.33333,
                        7,
                        4.66667
                    ],
                    "rotation": 90,
                    "texture": "#2"
                },
                "east": {
                    "uv": [
                        6,
                        3.33333,
                        7,
                        4.66667
                    ],
                    "rotation": 90,
                    "texture": "#2"
                },
                "south": {
                    "uv": [
                        6,
                        3.33333,
                        7,
                        4.66667
                    ],
                    "rotation": 90,
                    "texture": "#2"
                },
                "west": {
                    "uv": [
                        6,
                        3.33333,
                        7,
                        4.66667
                    ],
                    "rotation": 90,
                    "texture": "#2"
                },
                "up": {
                    "uv": [
                        6,
                        3.33333,
                        7,
                        4.66667
                    ],
                    "rotation": 90,
                    "texture": "#2"
                },
                "down": {
                    "uv": [
                        6,
                        3.33333,
                        7,
                        4.66667
                    ],
                    "rotation": 90,
                    "texture": "#2"
                }
            }
        },
        {
            "from": [
                7.79959,
                8.01451,
                -1.55268
            ],
            "to": [
                8.01619,
                8.07151,
                -1.43868
            ],
            "rotation": {
                "angle": -45,
                "axis": "z",
                "origin": [
                    7.8517,
                    7.98603,
                    -1.42436
                ]
            },
            "faces": {
                "north": {
                    "uv": [
                        6,
                        3.33333,
                        7,
                        4.66667
                    ],
                    "rotation": 90,
                    "texture": "#2"
                },
                "east": {
                    "uv": [
                        6,
                        3.33333,
                        7,
                        4.66667
                    ],
                    "rotation": 90,
                    "texture": "#2"
                },
                "south": {
                    "uv": [
                        6,
                        3.33333,
                        7,
                        4.66667
                    ],
                    "rotation": 90,
                    "texture": "#2"
                },
                "west": {
                    "uv": [
                        6,
                        3.33333,
                        7,
                        4.66667
                    ],
                    "rotation": 90,
                    "texture": "#2"
                },
                "up": {
                    "uv": [
                        6,
                        3.33333,
                        7,
                        4.66667
                    ],
                    "rotation": 90,
                    "texture": "#2"
                },
                "down": {
                    "uv": [
                        6,
                        3.33333,
                        7,
                        4.66667
                    ],
                    "rotation": 90,
                    "texture": "#2"
                }
            }
        },
        {
            "from": [
                7.89349,
                8.22654,
                -1.89468
            ],
            "to": [
                8.06449,
                8.28354,
                -1.09668
            ],
            "rotation": {
                "angle": 45,
                "axis": "z",
                "origin": [
                    7.95049,
                    8.25504,
                    -1.15368
                ]
            },
            "faces": {
                "north": {
                    "uv": [
                        6,
                        3.33333,
                        7,
                        4.66667
                    ],
                    "rotation": 90,
                    "texture": "#2"
                },
                "east": {
                    "uv": [
                        6,
                        3.33333,
                        7,
                        4.66667
                    ],
                    "rotation": 90,
                    "texture": "#2"
                },
                "south": {
                    "uv": [
                        6,
                        3.33333,
                        7,
                        4.66667
                    ],
                    "rotation": 90,
                    "texture": "#2"
                },
                "west": {
                    "uv": [
                        6,
                        3.33333,
                        7,
                        4.66667
                    ],
                    "rotation": 90,
                    "texture": "#2"
                },
                "up": {
                    "uv": [
                        6,
                        3.33333,
                        7,
                        4.66667
                    ],
                    "rotation": 90,
                    "texture": "#2"
                },
                "down": {
                    "uv": [
                        6,
                        3.33333,
                        7,
                        4.66667
                    ],
                    "rotation": 90,
                    "texture": "#2"
                }
            }
        },
        {
            "from": [
                7.89002,
                8.06389,
                -1.89468
            ],
            "to": [
                7.94702,
                8.23489,
                -1.09668
            ],
            "rotation": {
                "angle": 0,
                "axis": "y",
                "origin": [
                    8.27762,
                    8.49529,
                    -1.45008
                ]
            },
            "faces": {
                "north": {
                    "uv": [
                        6,
                        3.33333,
                        7,
                        4.66667
                    ],
                    "rotation": 270,
                    "texture": "#2"
                },
                "east": {
                    "uv": [
                        6,
                        3.33333,
                        7,
                        4.66667
                    ],
                    "rotation": 270,
                    "texture": "#2"
                },
                "south": {
                    "uv": [
                        6,
                        3.33333,
                        7,
                        4.66667
                    ],
                    "rotation": 270,
                    "texture": "#2"
                },
                "west": {
                    "uv": [
                        6,
                        3.33333,
                        7,
                        4.66667
                    ],
                    "rotation": 270,
                    "texture": "#2"
                },
                "up": {
                    "uv": [
                        6,
                        3.33333,
                        7,
                        4.66667
                    ],
                    "rotation": 270,
                    "texture": "#2"
                },
                "down": {
                    "uv": [
                        6,
                        3.33333,
                        7,
                        4.66667
                    ],
                    "rotation": 270,
                    "texture": "#2"
                }
            }
        },
        {
            "from": [
                7.96229,
                7.94643,
                -1.89468
            ],
            "to": [
                8.01929,
                8.11743,
                -1.09668
            ],
            "rotation": {
                "angle": 45,
                "axis": "z",
                "origin": [
                    7.99079,
                    8.00343,
                    -1.15368
                ]
            },
            "faces": {
                "north": {
                    "uv": [
                        6,
                        3.33333,
                        7,
                        4.66667
                    ],
                    "rotation": 270,
                    "texture": "#2"
                },
                "east": {
                    "uv": [
                        6,
                        3.33333,
                        7,
                        4.66667
                    ],
                    "rotation": 270,
                    "texture": "#2"
                },
                "south": {
                    "uv": [
                        6,
                        3.33333,
                        7,
                        4.66667
                    ],
                    "rotation": 270,
                    "texture": "#2"
                },
                "west": {
                    "uv": [
                        6,
                        3.33333,
                        7,
                        4.66667
                    ],
                    "rotation": 270,
                    "texture": "#2"
                },
                "up": {
                    "uv": [
                        6,
                        3.33333,
                        7,
                        4.66667
                    ],
                    "rotation": 270,
                    "texture": "#2"
                },
                "down": {
                    "uv": [
                        6,
                        3.33333,
                        7,
                        4.66667
                    ],
                    "rotation": 270,
                    "texture": "#2"
                }
            }
        },
        {
            "from": [
                8.2139,
                8.19804,
                -1.89468
            ],
            "to": [
                8.2709,
                8.36904,
                -1.09668
            ],
            "rotation": {
                "angle": 45,
                "axis": "z",
                "origin": [
                    8.2424,
                    8.25504,
                    -1.15368
                ]
            },
            "faces": {
                "north": {
                    "uv": [
                        6,
                        3.33333,
                        7,
                        4.66667
                    ],
                    "rotation": 270,
                    "texture": "#2"
                },
                "east": {
                    "uv": [
                        6,
                        3.33333,
                        7,
                        4.66667
                    ],
                    "rotation": 270,
                    "texture": "#2"
                },
                "south": {
                    "uv": [
                        6,
                        3.33333,
                        7,
                        4.66667
                    ],
                    "rotation": 270,
                    "texture": "#2"
                },
                "west": {
                    "uv": [
                        6,
                        3.33333,
                        7,
                        4.66667
                    ],
                    "rotation": 270,
                    "texture": "#2"
                },
                "up": {
                    "uv": [
                        6,
                        3.33333,
                        7,
                        4.66667
                    ],
                    "rotation": 270,
                    "texture": "#2"
                },
                "down": {
                    "uv": [
                        6,
                        3.33333,
                        7,
                        4.66667
                    ],
                    "rotation": 270,
                    "texture": "#2"
                }
            }
        },
        {
            "from": [
                8.24586,
                8.06389,
                -1.89468
            ],
            "to": [
                8.30286,
                8.23489,
                -1.09668
            ],
            "rotation": {
                "angle": 0,
                "axis": "y",
                "origin": [
                    8.56507,
                    8.26729,
                    -1.45008
                ]
            },
            "faces": {
                "north": {
                    "uv": [
                        6,
                        3.33333,
                        7,
                        4.66667
                    ],
                    "rotation": 270,
                    "texture": "#2"
                },
                "east": {
                    "uv": [
                        6,
                        3.33333,
                        7,
                        4.66667
                    ],
                    "rotation": 270,
                    "texture": "#2"
                },
                "south": {
                    "uv": [
                        6,
                        3.33333,
                        7,
                        4.66667
                    ],
                    "rotation": 270,
                    "texture": "#2"
                },
                "west": {
                    "uv": [
                        6,
                        3.33333,
                        7,
                        4.66667
                    ],
                    "rotation": 270,
                    "texture": "#2"
                },
                "up": {
                    "uv": [
                        6,
                        3.33333,
                        7,
                        4.66667
                    ],
                    "rotation": 270,
                    "texture": "#2"
                },
                "down": {
                    "uv": [
                        6,
                        3.33333,
                        7,
                        4.66667
                    ],
                    "rotation": 270,
                    "texture": "#2"
                }
            }
        },
        {
            "from": [
                8.1451,
                7.97493,
                -1.89468
            ],
            "to": [
                8.3161,
                8.03193,
                -1.09668
            ],
            "rotation": {
                "angle": 45,
                "axis": "z",
                "origin": [
                    8.2021,
                    8.00343,
                    -1.15368
                ]
            },
            "faces": {
                "north": {
                    "uv": [
                        6,
                        3.33333,
                        7,
                        4.66667
                    ],
                    "rotation": 90,
                    "texture": "#2"
                },
                "east": {
                    "uv": [
                        6,
                        3.33333,
                        7,
                        4.66667
                    ],
                    "rotation": 90,
                    "texture": "#2"
                },
                "south": {
                    "uv": [
                        6,
                        3.33333,
                        7,
                        4.66667
                    ],
                    "rotation": 90,
                    "texture": "#2"
                },
                "west": {
                    "uv": [
                        6,
                        3.33333,
                        7,
                        4.66667
                    ],
                    "rotation": 90,
                    "texture": "#2"
                },
                "up": {
                    "uv": [
                        6,
                        3.33333,
                        7,
                        4.66667
                    ],
                    "rotation": 90,
                    "texture": "#2"
                },
                "down": {
                    "uv": [
                        6,
                        3.33333,
                        7,
                        4.66667
                    ],
                    "rotation": 90,
                    "texture": "#2"
                }
            }
        },
        {
            "from": [
                8.01094,
                7.94297,
                -1.89468
            ],
            "to": [
                8.18194,
                7.99997,
                -1.09668
            ],
            "rotation": {
                "angle": 0,
                "axis": "y",
                "origin": [
                    8.07444,
                    7.97147,
                    -1.19636
                ]
            },
            "faces": {
                "north": {
                    "uv": [
                        6,
                        3.33333,
                        7,
                        4.66667
                    ],
                    "rotation": 90,
                    "texture": "#2"
                },
                "east": {
                    "uv": [
                        6,
                        3.33333,
                        7,
                        4.66667
                    ],
                    "rotation": 90,
                    "texture": "#2"
                },
                "south": {
                    "uv": [
                        6,
                        3.33333,
                        7,
                        4.66667
                    ],
                    "rotation": 90,
                    "texture": "#2"
                },
                "west": {
                    "uv": [
                        6,
                        3.33333,
                        7,
                        4.66667
                    ],
                    "rotation": 90,
                    "texture": "#2"
                },
                "up": {
                    "uv": [
                        6,
                        3.33333,
                        7,
                        4.66667
                    ],
                    "rotation": 90,
                    "texture": "#2"
                },
                "down": {
                    "uv": [
                        6,
                        3.33333,
                        7,
                        4.66667
                    ],
                    "rotation": 90,
                    "texture": "#2"
                }
            }
        },
        {
            "from": [
                7.75444,
                7.76708,
                -1.07388
            ],
            "to": [
                8.43844,
                7.99508,
                1.54812
            ],
            "rotation": {
                "angle": 0,
                "axis": "y",
                "origin": [
                    8.09644,
                    8.71912,
                    5.40932
                ]
            },
            "faces": {
                "north": {
                    "uv": [
                        0,
                        0,
                        2.33333,
                        2.33333
                    ],
                    "texture": "#2"
                },
                "east": {
                    "uv": [
                        0,
                        0,
                        2.33333,
                        2.33333
                    ],
                    "texture": "#2"
                },
                "south": {
                    "uv": [
                        0,
                        0,
                        2.33333,
                        2.33333
                    ],
                    "texture": "#2"
                },
                "west": {
                    "uv": [
                        0,
                        0,
                        2.33333,
                        2.33333
                    ],
                    "texture": "#2"
                },
                "up": {
                    "uv": [
                        0,
                        0,
                        2.33333,
                        2.33333
                    ],
                    "texture": "#2"
                },
                "down": {
                    "uv": [
                        0,
                        0,
                        2.33333,
                        2.33333
                    ],
                    "texture": "#2"
                }
            }
        },
        {
            "from": [
                7.86844,
                7.99508,
                -1.07388
            ],
            "to": [
                8.43844,
                8.33708,
                1.66212
            ],
            "rotation": {
                "angle": 0,
                "axis": "y",
                "origin": [
                    8.21044,
                    8.94712,
                    5.40932
                ]
            },
            "faces": {
                "north": {
                    "uv": [
                        0,
                        0,
                        2.33333,
                        2.33333
                    ],
                    "texture": "#2"
                },
                "east": {
                    "uv": [
                        0,
                        0,
                        2.33333,
                        2.33333
                    ],
                    "texture": "#2"
                },
                "south": {
                    "uv": [
                        0,
                        0,
                        2.33333,
                        2.33333
                    ],
                    "texture": "#2"
                },
                "west": {
                    "uv": [
                        0,
                        0,
                        2.33333,
                        2.33333
                    ],
                    "texture": "#2"
                },
                "up": {
                    "uv": [
                        0,
                        0,
                        2.33333,
                        2.33333
                    ],
                    "texture": "#2"
                },
                "down": {
                    "uv": [
                        0,
                        0,
                        2.33333,
                        2.33333
                    ],
                    "texture": "#2"
                }
            }
        },
        {
            "from": [
                7.75444,
                7.99508,
                -1.07388
            ],
            "to": [
                7.86844,
                8.33708,
                -0.84588
            ],
            "rotation": {
                "angle": 0,
                "axis": "y",
                "origin": [
                    8.09644,
                    8.94712,
                    5.40932
                ]
            },
            "faces": {
                "north": {
                    "uv": [
                        0,
                        0,
                        3.032,
                        2.394
                    ],
                    "texture": "#2"
                },
                "east": {
                    "uv": [
                        0,
                        0,
                        3.032,
                        2.394
                    ],
                    "texture": "#2"
                },
                "south": {
                    "uv": [
                        0,
                        0,
                        3.032,
                        2.394
                    ],
                    "texture": "#2"
                },
                "west": {
                    "uv": [
                        0,
                        0,
                        3.032,
                        2.394
                    ],
                    "texture": "#2"
                },
                "up": {
                    "uv": [
                        0,
                        0,
                        3.032,
                        2.394
                    ],
                    "rotation": 270,
                    "texture": "#2"
                },
                "down": {
                    "uv": [
                        0,
                        0,
                        3.032,
                        2.394
                    ],
                    "rotation": 90,
                    "texture": "#2"
                }
            }
        },
        {
            "from": [
                7.72024,
                8.45108,
                1.77612
            ],
            "to": [
                7.83644,
                8.79708,
                2.00412
            ],
            "rotation": {
                "angle": 0,
                "axis": "y",
                "origin": [
                    8.09644,
                    9.40312,
                    8.25932
                ]
            },
            "faces": {
                "north": {
                    "uv": [
                        0,
                        0,
                        2.33333,
                        2.33333
                    ],
                    "texture": "#2"
                },
                "east": {
                    "uv": [
                        0,
                        0,
                        2.33333,
                        2.33333
                    ],
                    "texture": "#2"
                },
                "south": {
                    "uv": [
                        0,
                        0,
                        2.33333,
                        2.33333
                    ],
                    "texture": "#2"
                },
                "west": {
                    "uv": [
                        0,
                        0,
                        2.33333,
                        2.33333
                    ],
                    "texture": "#2"
                },
                "up": {
                    "uv": [
                        0,
                        0,
                        2.33333,
                        2.33333
                    ],
                    "texture": "#2"
                },
                "down": {
                    "uv": [
                        0,
                        0,
                        2.33333,
                        2.33333
                    ],
                    "texture": "#2"
                }
            }
        },
        {
            "from": [
                7.72024,
                8.45108,
                -0.61788
            ],
            "to": [
                7.83644,
                8.79708,
                -0.38988
            ],
            "rotation": {
                "angle": 0,
                "axis": "y",
                "origin": [
                    8.09644,
                    9.40312,
                    5.86532
                ]
            },
            "faces": {
                "north": {
                    "uv": [
                        0,
                        0,
                        2.33333,
                        2.33333
                    ],
                    "texture": "#2"
                },
                "east": {
                    "uv": [
                        0,
                        0,
                        2.33333,
                        2.33333
                    ],
                    "texture": "#2"
                },
                "south": {
                    "uv": [
                        0,
                        0,
                        2.33333,
                        2.33333
                    ],
                    "texture": "#2"
                },
                "west": {
                    "uv": [
                        0,
                        0,
                        2.33333,
                        2.33333
                    ],
                    "texture": "#2"
                },
                "up": {
                    "uv": [
                        0,
                        0,
                        2.33333,
                        2.33333
                    ],
                    "texture": "#2"
                },
                "down": {
                    "uv": [
                        0,
                        0,
                        2.33333,
                        2.33333
                    ],
                    "texture": "#2"
                }
            }
        },
        {
            "from": [
                8.35644,
                8.45108,
                1.77612
            ],
            "to": [
                8.47264,
                8.79708,
                2.00412
            ],
            "rotation": {
                "angle": 0,
                "axis": "y",
                "origin": [
                    8.66644,
                    9.40312,
                    8.25932
                ]
            },
            "faces": {
                "north": {
                    "uv": [
                        0,
                        0,
                        3.032,
                        2.394
                    ],
                    "texture": "#2"
                },
                "east": {
                    "uv": [
                        0,
                        0,
                        3.032,
                        2.394
                    ],
                    "texture": "#2"
                },
                "south": {
                    "uv": [
                        0,
                        0,
                        3.032,
                        2.394
                    ],
                    "texture": "#2"
                },
                "west": {
                    "uv": [
                        0,
                        0,
                        3.032,
                        2.394
                    ],
                    "texture": "#2"
                },
                "up": {
                    "uv": [
                        0,
                        0,
                        3.032,
                        2.394
                    ],
                    "rotation": 270,
                    "texture": "#2"
                },
                "down": {
                    "uv": [
                        0,
                        0,
                        3.032,
                        2.394
                    ],
                    "rotation": 90,
                    "texture": "#2"
                }
            }
        },
        {
            "from": [
                8.35644,
                8.45108,
                -0.61788
            ],
            "to": [
                8.47264,
                8.79708,
                -0.38988
            ],
            "rotation": {
                "angle": 0,
                "axis": "y",
                "origin": [
                    8.66644,
                    9.40312,
                    5.86532
                ]
            },
            "faces": {
                "north": {
                    "uv": [
                        0,
                        0,
                        3.032,
                        2.394
                    ],
                    "texture": "#2"
                },
                "east": {
                    "uv": [
                        0,
                        0,
                        3.032,
                        2.394
                    ],
                    "texture": "#2"
                },
                "south": {
                    "uv": [
                        0,
                        0,
                        3.032,
                        2.394
                    ],
                    "texture": "#2"
                },
                "west": {
                    "uv": [
                        0,
                        0,
                        3.032,
                        2.394
                    ],
                    "texture": "#2"
                },
                "up": {
                    "uv": [
                        0,
                        0,
                        3.032,
                        2.394
                    ],
                    "rotation": 270,
                    "texture": "#2"
                },
                "down": {
                    "uv": [
                        0,
                        0,
                        3.032,
                        2.394
                    ],
                    "rotation": 90,
                    "texture": "#2"
                }
            }
        },
        {
            "from": [
                7.75444,
                8.31428,
                -1.07388
            ],
            "to": [
                8.43844,
                8.76628,
                2.11812
            ],
            "rotation": {
                "angle": 0,
                "axis": "y",
                "origin": [
                    8.09644,
                    9.17512,
                    5.40932
                ]
            },
            "faces": {
                "north": {
                    "uv": [
                        0,
                        0,
                        2.33333,
                        2.33333
                    ],
                    "texture": "#2"
                },
                "east": {
                    "uv": [
                        0,
                        0,
                        2.33333,
                        2.33333
                    ],
                    "texture": "#2"
                },
                "south": {
                    "uv": [
                        0,
                        0,
                        2.33333,
                        2.33333
                    ],
                    "texture": "#2"
                },
                "west": {
                    "uv": [
                        0,
                        0,
                        2.33333,
                        2.33333
                    ],
                    "texture": "#2"
                },
                "up": {
                    "uv": [
                        0,
                        0,
                        2.33333,
                        2.33333
                    ],
                    "texture": "#2"
                },
                "down": {
                    "uv": [
                        0,
                        0,
                        2.33333,
                        2.33333
                    ],
                    "texture": "#2"
                }
            }
        },
        {
            "from": [
                7.75444,
                7.34089,
                0.06612
            ],
            "to": [
                8.43844,
                8.02489,
                0.86412
            ],
            "rotation": {
                "angle": -22.5,
                "axis": "x",
                "origin": [
                    8.09644,
                    7.68289,
                    0.35112
                ]
            },
            "faces": {
                "north": {
                    "uv": [
                        0,
                        0,
                        2.33333,
                        2.33333
                    ],
                    "texture": "#2"
                },
                "east": {
                    "uv": [
                        0,
                        0,
                        2.33333,
                        2.33333
                    ],
                    "texture": "#2"
                },
                "south": {
                    "uv": [
                        0,
                        0,
                        2.33333,
                        2.33333
                    ],
                    "texture": "#2"
                },
                "west": {
                    "uv": [
                        0,
                        0,
                        2.33333,
                        2.33333
                    ],
                    "texture": "#2"
                },
                "up": {
                    "uv": [
                        0,
                        0,
                        2.33333,
                        2.33333
                    ],
                    "texture": "#2"
                },
                "down": {
                    "uv": [
                        0,
                        0,
                        2.33333,
                        2.33333
                    ],
                    "texture": "#2"
                }
            }
        },
        {
            "from": [
                7.75444,
                7.51628,
                0.40812
            ],
            "to": [
                8.43844,
                8.31428,
                1.66212
            ],
            "rotation": {
                "angle": 0,
                "axis": "y",
                "origin": [
                    8.09644,
                    7.74428,
                    1.03512
                ]
            },
            "faces": {
                "north": {
                    "uv": [
                        0,
                        0,
                        2.33333,
                        2.33333
                    ],
                    "texture": "#2"
                },
                "east": {
                    "uv": [
                        0,
                        0,
                        2.33333,
                        2.33333
                    ],
                    "texture": "#2"
                },
                "south": {
                    "uv": [
                        0,
                        0,
                        2.33333,
                        2.33333
                    ],
                    "texture": "#2"
                },
                "west": {
                    "uv": [
                        0,
                        0,
                        2.33333,
                        2.33333
                    ],
                    "texture": "#2"
                },
                "up": {
                    "uv": [
                        0,
                        0,
                        2.33333,
                        2.33333
                    ],
                    "texture": "#2"
                },
                "down": {
                    "uv": [
                        0,
                        0,
                        2.33333,
                        2.33333
                    ],
                    "texture": "#2"
                }
            }
        },
        {
            "from": [
                7.75444,
                7.43206,
                1.39531
            ],
            "to": [
                8.43844,
                8.45806,
                1.96531
            ],
            "rotation": {
                "angle": 22.5,
                "axis": "x",
                "origin": [
                    8.09644,
                    8.00206,
                    1.68031
                ]
            },
            "faces": {
                "north": {
                    "uv": [
                        0,
                        0,
                        2.33333,
                        2.33333
                    ],
                    "texture": "#2"
                },
                "east": {
                    "uv": [
                        0,
                        0,
                        2.33333,
                        2.33333
                    ],
                    "texture": "#2"
                },
                "south": {
                    "uv": [
                        0,
                        0,
                        2.33333,
                        2.33333
                    ],
                    "texture": "#2"
                },
                "west": {
                    "uv": [
                        0,
                        0,
                        2.33333,
                        2.33333
                    ],
                    "texture": "#2"
                },
                "up": {
                    "uv": [
                        0,
                        0,
                        2.33333,
                        2.33333
                    ],
                    "texture": "#2"
                },
                "down": {
                    "uv": [
                        0,
                        0,
                        2.33333,
                        2.33333
                    ],
                    "texture": "#2"
                }
            }
        },
        {
            "from": [
                7.98244,
                7.35001,
                -0.95197
            ],
            "to": [
                8.21044,
                7.40701,
                -0.60997
            ],
            "rotation": {
                "angle": 45,
                "axis": "x",
                "origin": [
                    8.09644,
                    7.37851,
                    -0.89497
                ]
            },
            "faces": {
                "north": {
                    "uv": [
                        5.66667,
                        3.33333,
                        7,
                        4.66667
                    ],
                    "texture": "#2"
                },
                "east": {
                    "uv": [
                        5.66667,
                        3.33333,
                        7,
                        4.66667
                    ],
                    "texture": "#2"
                },
                "south": {
                    "uv": [
                        5.66667,
                        3.33333,
                        7,
                        4.66667
                    ],
                    "texture": "#2"
                },
                "west": {
                    "uv": [
                        5.66667,
                        3.33333,
                        7,
                        4.66667
                    ],
                    "texture": "#2"
                },
                "up": {
                    "uv": [
                        5.66667,
                        3.33333,
                        7,
                        4.66667
                    ],
                    "texture": "#2"
                },
                "down": {
                    "uv": [
                        5.66667,
                        3.33333,
                        7,
                        4.66667
                    ],
                    "texture": "#2"
                }
            }
        },
        {
            "from": [
                7.98244,
                7.39656,
                -1.02304
            ],
            "to": [
                8.21044,
                7.62456,
                -0.96604
            ],
            "rotation": {
                "angle": -22.5,
                "axis": "x",
                "origin": [
                    8.09644,
                    7.56756,
                    -0.99454
                ]
            },
            "faces": {
                "north": {
                    "uv": [
                        5.66667,
                        3.33333,
                        7,
                        4.66667
                    ],
                    "rotation": 90,
                    "texture": "#2"
                },
                "east": {
                    "uv": [
                        5.66667,
                        3.33333,
                        7,
                        4.66667
                    ],
                    "rotation": 90,
                    "texture": "#2"
                },
                "south": {
                    "uv": [
                        5.66667,
                        3.33333,
                        7,
                        4.66667
                    ],
                    "rotation": 90,
                    "texture": "#2"
                },
                "west": {
                    "uv": [
                        5.66667,
                        3.33333,
                        7,
                        4.66667
                    ],
                    "rotation": 90,
                    "texture": "#2"
                },
                "up": {
                    "uv": [
                        5.66667,
                        3.33333,
                        7,
                        4.66667
                    ],
                    "rotation": 90,
                    "texture": "#2"
                },
                "down": {
                    "uv": [
                        5.66667,
                        3.33333,
                        7,
                        4.66667
                    ],
                    "rotation": 90,
                    "texture": "#2"
                }
            }
        },
        {
            "from": [
                7.98244,
                7.60932,
                -1.04268
            ],
            "to": [
                8.21044,
                7.83732,
                -0.98568
            ],
            "rotation": {
                "angle": 0,
                "axis": "y",
                "origin": [
                    8.09644,
                    7.78032,
                    -1.01418
                ]
            },
            "faces": {
                "north": {
                    "uv": [
                        5.66667,
                        3.33333,
                        7,
                        4.66667
                    ],
                    "rotation": 90,
                    "texture": "#2"
                },
                "east": {
                    "uv": [
                        5.66667,
                        3.33333,
                        7,
                        4.66667
                    ],
                    "rotation": 90,
                    "texture": "#2"
                },
                "south": {
                    "uv": [
                        5.66667,
                        3.33333,
                        7,
                        4.66667
                    ],
                    "rotation": 90,
                    "texture": "#2"
                },
                "west": {
                    "uv": [
                        5.66667,
                        3.33333,
                        7,
                        4.66667
                    ],
                    "rotation": 90,
                    "texture": "#2"
                },
                "up": {
                    "uv": [
                        5.66667,
                        3.33333,
                        7,
                        4.66667
                    ],
                    "rotation": 90,
                    "texture": "#2"
                },
                "down": {
                    "uv": [
                        5.66667,
                        3.33333,
                        7,
                        4.66667
                    ],
                    "rotation": 90,
                    "texture": "#2"
                }
            }
        },
        {
            "from": [
                7.98244,
                7.15684,
                -0.71359
            ],
            "to": [
                8.21044,
                7.21384,
                -0.14359
            ],
            "rotation": {
                "angle": 0,
                "axis": "y",
                "origin": [
                    8.09644,
                    7.18534,
                    -0.22909
                ]
            },
            "faces": {
                "north": {
                    "uv": [
                        5.66667,
                        3.33333,
                        7,
                        4.66667
                    ],
                    "texture": "#2"
                },
                "east": {
                    "uv": [
                        5.66667,
                        3.33333,
                        7,
                        4.66667
                    ],
                    "texture": "#2"
                },
                "south": {
                    "uv": [
                        5.66667,
                        3.33333,
                        7,
                        4.66667
                    ],
                    "texture": "#2"
                },
                "west": {
                    "uv": [
                        5.66667,
                        3.33333,
                        7,
                        4.66667
                    ],
                    "texture": "#2"
                },
                "up": {
                    "uv": [
                        5.66667,
                        3.33333,
                        7,
                        4.66667
                    ],
                    "texture": "#2"
                },
                "down": {
                    "uv": [
                        5.66667,
                        3.33333,
                        7,
                        4.66667
                    ],
                    "texture": "#2"
                }
            }
        },
        {
            "from": [
                7.98244,
                7.19613,
                -0.17409
            ],
            "to": [
                8.21044,
                7.25313,
                0.33891
            ],
            "rotation": {
                "angle": -22.5,
                "axis": "x",
                "origin": [
                    8.09644,
                    7.25313,
                    -0.06009
                ]
            },
            "faces": {
                "north": {
                    "uv": [
                        5.66667,
                        3.33333,
                        7,
                        4.66667
                    ],
                    "texture": "#2"
                },
                "east": {
                    "uv": [
                        5.66667,
                        3.33333,
                        7,
                        4.66667
                    ],
                    "texture": "#2"
                },
                "south": {
                    "uv": [
                        5.66667,
                        3.33333,
                        7,
                        4.66667
                    ],
                    "texture": "#2"
                },
                "west": {
                    "uv": [
                        5.66667,
                        3.33333,
                        7,
                        4.66667
                    ],
                    "texture": "#2"
                },
                "up": {
                    "uv": [
                        5.66667,
                        3.33333,
                        7,
                        4.66667
                    ],
                    "texture": "#2"
                },
                "down": {
                    "uv": [
                        5.66667,
                        3.33333,
                        7,
                        4.66667
                    ],
                    "texture": "#2"
                }
            }
        },
        {
            "from": [
                8.03944,
                7.47547,
                -0.13487
            ],
            "to": [
                8.15344,
                7.58947,
                -0.07787
            ],
            "rotation": {
                "angle": 22.5,
                "axis": "x",
                "origin": [
                    8.09644,
                    7.64647,
                    -0.10637
                ]
            },
            "faces": {
                "north": {
                    "uv": [
                        3,
                        3.33333,
                        4.33333,
                        4.66667
                    ],
                    "rotation": 270,
                    "texture": "#2"
                },
                "east": {
                    "uv": [
                        3,
                        3.33333,
                        4.33333,
                        4.66667
                    ],
                    "rotation": 270,
                    "texture": "#2"
                },
                "south": {
                    "uv": [
                        3,
                        3.33333,
                        4.33333,
                        4.66667
                    ],
                    "rotation": 270,
                    "texture": "#2"
                },
                "west": {
                    "uv": [
                        3,
                        3.33333,
                        4.33333,
                        4.66667
                    ],
                    "rotation": 270,
                    "texture": "#2"
                },
                "up": {
                    "uv": [
                        3,
                        3.33333,
                        4.33333,
                        4.66667
                    ],
                    "rotation": 270,
                    "texture": "#2"
                },
                "down": {
                    "uv": [
                        3,
                        3.33333,
                        4.33333,
                        4.66667
                    ],
                    "rotation": 270,
                    "texture": "#2"
                }
            }
        },
        {
            "from": [
                8.03944,
                7.40044,
                -0.23444
            ],
            "to": [
                8.15344,
                7.51444,
                -0.17744
            ],
            "rotation": {
                "angle": 45,
                "axis": "x",
                "origin": [
                    8.09644,
                    7.45744,
                    -0.20594
                ]
            },
            "faces": {
                "north": {
                    "uv": [
                        3,
                        3.33333,
                        4.33333,
                        4.66667
                    ],
                    "rotation": 270,
                    "texture": "#2"
                },
                "east": {
                    "uv": [
                        3,
                        3.33333,
                        4.33333,
                        4.66667
                    ],
                    "rotation": 270,
                    "texture": "#2"
                },
                "south": {
                    "uv": [
                        3,
                        3.33333,
                        4.33333,
                        4.66667
                    ],
                    "rotation": 270,
                    "texture": "#2"
                },
                "west": {
                    "uv": [
                        3,
                        3.33333,
                        4.33333,
                        4.66667
                    ],
                    "rotation": 270,
                    "texture": "#2"
                },
                "up": {
                    "uv": [
                        3,
                        3.33333,
                        4.33333,
                        4.66667
                    ],
                    "rotation": 270,
                    "texture": "#2"
                },
                "down": {
                    "uv": [
                        3,
                        3.33333,
                        4.33333,
                        4.66667
                    ],
                    "rotation": 270,
                    "texture": "#2"
                }
            }
        },
        {
            "from": [
                8.03944,
                7.5808,
                -0.09125
            ],
            "to": [
                8.15344,
                7.9228,
                -0.03425
            ],
            "rotation": {
                "angle": 22.5,
                "axis": "x",
                "origin": [
                    8.09644,
                    7.7518,
                    -0.06275
                ]
            },
            "faces": {
                "north": {
                    "uv": [
                        3,
                        3.33333,
                        4.33333,
                        4.66667
                    ],
                    "rotation": 270,
                    "texture": "#2"
                },
                "east": {
                    "uv": [
                        3,
                        3.33333,
                        4.33333,
                        4.66667
                    ],
                    "rotation": 270,
                    "texture": "#2"
                },
                "south": {
                    "uv": [
                        3,
                        3.33333,
                        4.33333,
                        4.66667
                    ],
                    "rotation": 270,
                    "texture": "#2"
                },
                "west": {
                    "uv": [
                        3,
                        3.33333,
                        4.33333,
                        4.66667
                    ],
                    "rotation": 270,
                    "texture": "#2"
                },
                "up": {
                    "uv": [
                        3,
                        3.33333,
                        4.33333,
                        4.66667
                    ],
                    "rotation": 270,
                    "texture": "#2"
                },
                "down": {
                    "uv": [
                        3,
                        3.33333,
                        4.33333,
                        4.66667
                    ],
                    "rotation": 270,
                    "texture": "#2"
                }
            }
        },
        {
            "from": [
                8.03944,
                7.67299,
                -0.09559
            ],
            "to": [
                8.15344,
                8.01499,
                -0.03859
            ],
            "rotation": {
                "angle": 22.5,
                "axis": "x",
                "origin": [
                    8.09644,
                    7.84399,
                    -0.06709
                ]
            },
            "faces": {
                "north": {
                    "uv": [
                        3,
                        3.33333,
                        4.33333,
                        4.66667
                    ],
                    "rotation": 270,
                    "texture": "#2"
                },
                "east": {
                    "uv": [
                        3,
                        3.33333,
                        4.33333,
                        4.66667
                    ],
                    "rotation": 270,
                    "texture": "#2"
                },
                "south": {
                    "uv": [
                        3,
                        3.33333,
                        4.33333,
                        4.66667
                    ],
                    "rotation": 270,
                    "texture": "#2"
                },
                "west": {
                    "uv": [
                        3,
                        3.33333,
                        4.33333,
                        4.66667
                    ],
                    "rotation": 270,
                    "texture": "#2"
                },
                "up": {
                    "uv": [
                        3,
                        3.33333,
                        4.33333,
                        4.66667
                    ],
                    "rotation": 270,
                    "texture": "#2"
                },
                "down": {
                    "uv": [
                        3,
                        3.33333,
                        4.33333,
                        4.66667
                    ],
                    "rotation": 270,
                    "texture": "#2"
                }
            }
        },
        {
            "from": [
                8.03944,
                7.6969,
                -0.15886
            ],
            "to": [
                8.15344,
                8.0389,
                -0.10186
            ],
            "rotation": {
                "angle": 0,
                "axis": "y",
                "origin": [
                    8.09644,
                    7.8679,
                    -0.13036
                ]
            },
            "faces": {
                "north": {
                    "uv": [
                        3,
                        3.33333,
                        4.33333,
                        4.66667
                    ],
                    "rotation": 270,
                    "texture": "#2"
                },
                "east": {
                    "uv": [
                        3,
                        3.33333,
                        4.33333,
                        4.66667
                    ],
                    "rotation": 270,
                    "texture": "#2"
                },
                "south": {
                    "uv": [
                        3,
                        3.33333,
                        4.33333,
                        4.66667
                    ],
                    "rotation": 270,
                    "texture": "#2"
                },
                "west": {
                    "uv": [
                        3,
                        3.33333,
                        4.33333,
                        4.66667
                    ],
                    "rotation": 270,
                    "texture": "#2"
                },
                "up": {
                    "uv": [
                        3,
                        3.33333,
                        4.33333,
                        4.66667
                    ],
                    "rotation": 270,
                    "texture": "#2"
                },
                "down": {
                    "uv": [
                        3,
                        3.33333,
                        4.33333,
                        4.66667
                    ],
                    "rotation": 270,
                    "texture": "#2"
                }
            }
        },
        {
            "from": [
                8.03944,
                7.5829,
                -0.15886
            ],
            "to": [
                8.15344,
                7.6969,
                -0.10186
            ],
            "rotation": {
                "angle": 0,
                "axis": "y",
                "origin": [
                    8.09644,
                    7.7539,
                    -0.13036
                ]
            },
            "faces": {
                "north": {
                    "uv": [
                        3,
                        3.33333,
                        4.33333,
                        4.66667
                    ],
                    "rotation": 270,
                    "texture": "#2"
                },
                "east": {
                    "uv": [
                        3,
                        3.33333,
                        4.33333,
                        4.66667
                    ],
                    "rotation": 270,
                    "texture": "#2"
                },
                "south": {
                    "uv": [
                        3,
                        3.33333,
                        4.33333,
                        4.66667
                    ],
                    "rotation": 270,
                    "texture": "#2"
                },
                "west": {
                    "uv": [
                        3,
                        3.33333,
                        4.33333,
                        4.66667
                    ],
                    "rotation": 270,
                    "texture": "#2"
                },
                "up": {
                    "uv": [
                        3,
                        3.33333,
                        4.33333,
                        4.66667
                    ],
                    "rotation": 270,
                    "texture": "#2"
                },
                "down": {
                    "uv": [
                        3,
                        3.33333,
                        4.33333,
                        4.66667
                    ],
                    "rotation": 270,
                    "texture": "#2"
                }
            }
        },
        {
            "from": [
                7.7761,
                7.99508,
                -0.84588
            ],
            "to": [
                7.8901,
                8.33708,
                0.52212
            ],
            "rotation": {
                "angle": 0,
                "axis": "y",
                "origin": [
                    8.09644,
                    8.94712,
                    5.63732
                ]
            },
            "faces": {
                "north": {
                    "uv": [
                        0,
                        3,
                        1.66667,
                        4.33333
                    ],
                    "rotation": 270,
                    "texture": "#2"
                },
                "east": {
                    "uv": [
                        0,
                        3,
                        1.66667,
                        4.33333
                    ],
                    "rotation": 270,
                    "texture": "#2"
                },
                "south": {
                    "uv": [
                        0,
                        3,
                        1.66667,
                        4.33333
                    ],
                    "rotation": 270,
                    "texture": "#2"
                },
                "west": {
                    "uv": [
                        0,
                        3,
                        1.66667,
                        4.33333
                    ],
                    "rotation": 270,
                    "texture": "#2"
                },
                "up": {
                    "uv": [
                        0,
                        3,
                        1.66667,
                        4.33333
                    ],
                    "rotation": 270,
                    "texture": "#2"
                },
                "down": {
                    "uv": [
                        0,
                        3,
                        1.66667,
                        4.33333
                    ],
                    "rotation": 270,
                    "texture": "#2"
                }
            }
        },
        {
            "from": [
                7.41359,
                8.12744,
                -0.66886
            ],
            "to": [
                7.63019,
                8.26424,
                -0.57766
            ],
            "rotation": {
                "angle": 45,
                "axis": "y",
                "origin": [
                    7.52759,
                    8.19584,
                    -0.63466
                ]
            },
            "faces": {
                "north": {
                    "uv": [
                        0,
                        3,
                        1.66667,
                        4.33333
                    ],
                    "rotation": 270,
                    "texture": "#2"
                },
                "east": {
                    "uv": [
                        0,
                        3,
                        1.66667,
                        4.33333
                    ],
                    "rotation": 270,
                    "texture": "#2"
                },
                "south": {
                    "uv": [
                        0,
                        3,
                        1.66667,
                        4.33333
                    ],
                    "rotation": 270,
                    "texture": "#2"
                },
                "west": {
                    "uv": [
                        0,
                        3,
                        1.66667,
                        4.33333
                    ],
                    "rotation": 270,
                    "texture": "#2"
                },
                "up": {
                    "uv": [
                        0,
                        3,
                        1.66667,
                        4.33333
                    ],
                    "rotation": 270,
                    "texture": "#2"
                },
                "down": {
                    "uv": [
                        0,
                        3,
                        1.66667,
                        4.33333
                    ],
                    "rotation": 270,
                    "texture": "#2"
                }
            }
        },
        {
            "from": [
                7.48654,
                8.12744,
                -0.7296
            ],
            "to": [
                7.57774,
                8.26424,
                -0.513
            ],
            "rotation": {
                "angle": 0,
                "axis": "y",
                "origin": [
                    7.53214,
                    8.19584,
                    -0.6213
                ]
            },
            "faces": {
                "north": {
                    "uv": [
                        0,
                        3,
                        1.66667,
                        4.33333
                    ],
                    "rotation": 270,
                    "texture": "#2"
                },
                "east": {
                    "uv": [
                        0,
                        3,
                        1.66667,
                        4.33333
                    ],
                    "rotation": 270,
                    "texture": "#2"
                },
                "south": {
                    "uv": [
                        0,
                        3,
                        1.66667,
                        4.33333
                    ],
                    "rotation": 270,
                    "texture": "#2"
                },
                "west": {
                    "uv": [
                        0,
                        3,
                        1.66667,
                        4.33333
                    ],
                    "rotation": 270,
                    "texture": "#2"
                },
                "up": {
                    "uv": [
                        0,
                        3,
                        1.66667,
                        4.33333
                    ],
                    "rotation": 270,
                    "texture": "#2"
                },
                "down": {
                    "uv": [
                        0,
                        3,
                        1.66667,
                        4.33333
                    ],
                    "rotation": 270,
                    "texture": "#2"
                }
            }
        },
        {
            "from": [
                7.42384,
                8.12744,
                -0.6669
            ],
            "to": [
                7.64044,
                8.26424,
                -0.5757
            ],
            "rotation": {
                "angle": 0,
                "axis": "y",
                "origin": [
                    7.76584,
                    9.06112,
                    6.2073
                ]
            },
            "faces": {
                "north": {
                    "uv": [
                        0,
                        3,
                        1.66667,
                        4.33333
                    ],
                    "rotation": 270,
                    "texture": "#2"
                },
                "east": {
                    "uv": [
                        0,
                        3,
                        1.66667,
                        4.33333
                    ],
                    "rotation": 270,
                    "texture": "#2"
                },
                "south": {
                    "uv": [
                        0,
                        3,
                        1.66667,
                        4.33333
                    ],
                    "rotation": 270,
                    "texture": "#2"
                },
                "west": {
                    "uv": [
                        0,
                        3,
                        1.66667,
                        4.33333
                    ],
                    "rotation": 270,
                    "texture": "#2"
                },
                "up": {
                    "uv": [
                        0,
                        3,
                        1.66667,
                        4.33333
                    ],
                    "rotation": 270,
                    "texture": "#2"
                },
                "down": {
                    "uv": [
                        0,
                        3,
                        1.66667,
                        4.33333
                    ],
                    "rotation": 270,
                    "texture": "#2"
                }
            }
        },
        {
            "from": [
                7.42384,
                8.12744,
                -0.6669
            ],
            "to": [
                7.64044,
                8.26424,
                -0.5757
            ],
            "rotation": {
                "angle": -45,
                "axis": "y",
                "origin": [
                    7.53214,
                    8.19584,
                    -0.6213
                ]
            },
            "faces": {
                "north": {
                    "uv": [
                        0,
                        3,
                        1.66667,
                        4.33333
                    ],
                    "rotation": 270,
                    "texture": "#2"
                },
                "east": {
                    "uv": [
                        0,
                        3,
                        1.66667,
                        4.33333
                    ],
                    "rotation": 270,
                    "texture": "#2"
                },
                "south": {
                    "uv": [
                        0,
                        3,
                        1.66667,
                        4.33333
                    ],
                    "rotation": 270,
                    "texture": "#2"
                },
                "west": {
                    "uv": [
                        0,
                        3,
                        1.66667,
                        4.33333
                    ],
                    "rotation": 270,
                    "texture": "#2"
                },
                "up": {
                    "uv": [
                        0,
                        3,
                        1.66667,
                        4.33333
                    ],
                    "rotation": 270,
                    "texture": "#2"
                },
                "down": {
                    "uv": [
                        0,
                        3,
                        1.66667,
                        4.33333
                    ],
                    "rotation": 270,
                    "texture": "#2"
                }
            }
        },
        {
            "from": [
                7.64044,
                8.15024,
                -0.6669
            ],
            "to": [
                8.15344,
                8.24144,
                -0.5757
            ],
            "rotation": {
                "angle": 0,
                "axis": "y",
                "origin": [
                    7.98244,
                    9.06112,
                    6.2073
                ]
            },
            "faces": {
                "north": {
                    "uv": [
                        0,
                        3,
                        1.66667,
                        4.33333
                    ],
                    "rotation": 270,
                    "texture": "#2"
                },
                "east": {
                    "uv": [
                        0,
                        3,
                        1.66667,
                        4.33333
                    ],
                    "rotation": 270,
                    "texture": "#2"
                },
                "south": {
                    "uv": [
                        0,
                        3,
                        1.66667,
                        4.33333
                    ],
                    "rotation": 270,
                    "texture": "#2"
                },
                "west": {
                    "uv": [
                        0,
                        3,
                        1.66667,
                        4.33333
                    ],
                    "rotation": 270,
                    "texture": "#2"
                },
                "up": {
                    "uv": [
                        0,
                        3,
                        1.66667,
                        4.33333
                    ],
                    "rotation": 270,
                    "texture": "#2"
                },
                "down": {
                    "uv": [
                        0,
                        3,
                        1.66667,
                        4.33333
                    ],
                    "rotation": 270,
                    "texture": "#2"
                }
            }
        }
    ],
    "display": {
        "thirdperson_righthand": {
            "translation": [
                -0.75,
                -1,
                -0.75
            ],
            "scale": [
                1,
                1.2,
                1
            ]
        },
        "thirdperson_lefthand": {
            "translation": [
                -0.75,
                -1,
                -1.25
            ],
            "scale": [
                1.2,
                1.2,
                1.1
            ]
        },
        "firstperson_righthand": {
            "rotation": [
                -5.25,
                0,
                0
            ],
            "translation": [
                -2.75,
                1,
                -1.25
            ],
            "scale": [
                1.2,
                1.2,
                1.1
            ]
        },
        "firstperson_lefthand": {
            "rotation": [
                -5.25,
                0,
                0
            ],
            "translation": [
                -2.75,
                1,
                -1.25
            ],
            "scale": [
                1.2,
                1.2,
                1.1
            ]
        },
        "gui": {
            "rotation": [
                21.75,
                19.25,
                31.75
            ],
            "translation": [
                2.5,
                -1.75,
                0
            ],
            "scale": [
                0.9,
                0.9,
                0.9
            ]
        },
        "fixed": {
            "rotation": [
                -90,
                -180,
                -180
            ],
            "translation": [
                0,
                -1.25,
                -5.25
            ],
            "scale": [
                1.4,
                1.4,
                1.4
            ]
        }
    }
}