{
	"credit": "Made with Blockbench",
	"textures": {
		"0": "gci:items/common/all_in_one",
		"2": "gci:items/common/mpz",
		"particle": "gci:items/common/all_in_one"
	},
	"elements": [
		{
			"name": "octagon",
			"from": [7.8602, 5.8125, -5.43125],
			"to": [8.1398, 5.9625, 9.59375],
			"rotation": {"angle": 45, "axis": "z", "origin": [8, 6.15, 1.08125]},
			"faces": {
				"north": {"uv": [2.375, 9.25, 3.375, 10.25], "texture": "#0"},
				"east": {"uv": [2.375, 9.25, 3.375, 10.25], "texture": "#0"},
				"south": {"uv": [2.375, 9.25, 3.375, 10.25], "texture": "#0"},
				"west": {"uv": [2.375, 9.25, 3.375, 10.25], "texture": "#0"},
				"up": {"uv": [2.375, 9.25, 3.375, 10.25], "texture": "#0"},
				"down": {"uv": [2.375, 9.25, 3.375, 10.25], "texture": "#0"}
			}
		},
		{
			"name": "octagon",
			"from": [7.8602, 5.8125, -5.43125],
			"to": [8.1398, 5.9625, 9.59375],
			"rotation": {"angle": 0, "axis": "y", "origin": [8, 6.15, 1.08125]},
			"faces": {
				"north": {"uv": [2.375, 9.25, 3.375, 10.25], "texture": "#0"},
				"east": {"uv": [2.375, 9.25, 3.375, 10.25], "texture": "#0"},
				"south": {"uv": [2.375, 9.25, 3.375, 10.25], "texture": "#0"},
				"west": {"uv": [2.375, 9.25, 3.375, 10.25], "texture": "#0"},
				"up": {"uv": [2.375, 9.25, 3.375, 10.25], "texture": "#0"},
				"down": {"uv": [2.375, 9.25, 3.375, 10.25], "texture": "#0"}
			}
		},
		{
			"name": "octagon",
			"from": [7.8602, 6.3375, -5.43125],
			"to": [8.1398, 6.4875, 9.59375],
			"rotation": {"angle": 45, "axis": "z", "origin": [8, 6.15, 1.08125]},
			"faces": {
				"north": {"uv": [2.375, 9.25, 3.375, 10.25], "texture": "#0"},
				"east": {"uv": [2.375, 9.25, 3.375, 10.25], "texture": "#0"},
				"south": {"uv": [2.375, 9.25, 3.375, 10.25], "texture": "#0"},
				"west": {"uv": [2.375, 9.25, 3.375, 10.25], "texture": "#0"},
				"up": {"uv": [2.375, 9.25, 3.375, 10.25], "texture": "#0"},
				"down": {"uv": [2.375, 9.25, 3.375, 10.25], "texture": "#0"}
			}
		},
		{
			"name": "octagon",
			"from": [7.8602, 6.3375, -5.43125],
			"to": [8.1398, 6.4875, 9.59375],
			"rotation": {"angle": 0, "axis": "y", "origin": [8, 6.15, 1.08125]},
			"faces": {
				"north": {"uv": [2.375, 9.25, 3.375, 10.25], "texture": "#0"},
				"east": {"uv": [2.375, 9.25, 3.375, 10.25], "texture": "#0"},
				"south": {"uv": [2.375, 9.25, 3.375, 10.25], "texture": "#0"},
				"west": {"uv": [2.375, 9.25, 3.375, 10.25], "texture": "#0"},
				"up": {"uv": [2.375, 9.25, 3.375, 10.25], "texture": "#0"},
				"down": {"uv": [2.375, 9.25, 3.375, 10.25], "texture": "#0"}
			}
		},
		{
			"name": "octagon",
			"from": [7.6625, 6.0102, -5.43125],
			"to": [7.8125, 6.2898, 9.59375],
			"rotation": {"angle": 45, "axis": "z", "origin": [8, 6.15, 1.08125]},
			"faces": {
				"north": {"uv": [2.375, 9.25, 3.375, 10.25], "texture": "#0"},
				"east": {"uv": [2.375, 9.25, 3.375, 10.25], "texture": "#0"},
				"south": {"uv": [2.375, 9.25, 3.375, 10.25], "texture": "#0"},
				"west": {"uv": [2.375, 9.25, 3.375, 10.25], "texture": "#0"},
				"up": {"uv": [2.375, 9.25, 3.375, 10.25], "texture": "#0"},
				"down": {"uv": [2.375, 9.25, 3.375, 10.25], "texture": "#0"}
			}
		},
		{
			"name": "octagon",
			"from": [7.6625, 6.0102, -5.43125],
			"to": [7.8125, 6.2898, 9.59375],
			"rotation": {"angle": 0, "axis": "y", "origin": [8, 6.15, 1.08125]},
			"faces": {
				"north": {"uv": [2.375, 9.25, 3.375, 10.25], "texture": "#0"},
				"east": {"uv": [2.375, 9.25, 3.375, 10.25], "texture": "#0"},
				"south": {"uv": [2.375, 9.25, 3.375, 10.25], "texture": "#0"},
				"west": {"uv": [2.375, 9.25, 3.375, 10.25], "texture": "#0"},
				"up": {"uv": [2.375, 9.25, 3.375, 10.25], "texture": "#0"},
				"down": {"uv": [2.375, 9.25, 3.375, 10.25], "texture": "#0"}
			}
		},
		{
			"name": "octagon",
			"from": [8.1875, 6.0102, -5.43125],
			"to": [8.3375, 6.2898, 9.59375],
			"rotation": {"angle": 45, "axis": "z", "origin": [8, 6.15, 1.08125]},
			"faces": {
				"north": {"uv": [2.375, 9.25, 3.375, 10.25], "texture": "#0"},
				"east": {"uv": [2.375, 9.25, 3.375, 10.25], "texture": "#0"},
				"south": {"uv": [2.375, 9.25, 3.375, 10.25], "texture": "#0"},
				"west": {"uv": [2.375, 9.25, 3.375, 10.25], "texture": "#0"},
				"up": {"uv": [2.375, 9.25, 3.375, 10.25], "texture": "#0"},
				"down": {"uv": [2.375, 9.25, 3.375, 10.25], "texture": "#0"}
			}
		},
		{
			"name": "octagon",
			"from": [8.1875, 6.0102, -5.43125],
			"to": [8.3375, 6.2898, 9.59375],
			"rotation": {"angle": 0, "axis": "y", "origin": [8, 6.15, 1.08125]},
			"faces": {
				"north": {"uv": [2.375, 9.25, 3.375, 10.25], "texture": "#0"},
				"east": {"uv": [2.375, 9.25, 3.375, 10.25], "texture": "#0"},
				"south": {"uv": [2.375, 9.25, 3.375, 10.25], "texture": "#0"},
				"west": {"uv": [2.375, 9.25, 3.375, 10.25], "texture": "#0"},
				"up": {"uv": [2.375, 9.25, 3.375, 10.25], "texture": "#0"},
				"down": {"uv": [2.375, 9.25, 3.375, 10.25], "texture": "#0"}
			}
		},
		{
			"name": "octagon",
			"from": [7.45, 5.62612, 2.18699],
			"to": [8.52279, 6.37612, 3.88699],
			"rotation": {"angle": -22.5, "axis": "x", "origin": [7.9864, 6.60112, 1.66199]},
			"faces": {
				"north": {"uv": [11.33333, 1, 12.08333, 1.75], "texture": "#2"},
				"east": {"uv": [11.33333, 1, 12.08333, 1.75], "texture": "#2"},
				"south": {"uv": [11.33333, 1, 12.08333, 1.75], "texture": "#2"},
				"west": {"uv": [11.33333, 1, 12.08333, 1.75], "texture": "#2"},
				"up": {"uv": [11.33333, 1, 12.08333, 1.75], "texture": "#2"},
				"down": {"uv": [11.33333, 1, 12.08333, 1.75], "texture": "#2"}
			}
		},
		{
			"name": "octagon",
			"from": [7.45, 5.15471, 3.80373],
			"to": [8.52279, 5.94471, 6.25373],
			"rotation": {"angle": 0, "axis": "y", "origin": [7.9864, 6.47971, 4.52873]},
			"faces": {
				"north": {"uv": [11.33333, 1, 12.08333, 1.75], "texture": "#2"},
				"east": {"uv": [11.33333, 1, 12.08333, 1.75], "texture": "#2"},
				"south": {"uv": [11.33333, 1, 12.08333, 1.75], "texture": "#2"},
				"west": {"uv": [11.33333, 1, 12.08333, 1.75], "texture": "#2"},
				"up": {"uv": [11.33333, 1, 12.08333, 1.75], "texture": "#2"},
				"down": {"uv": [11.33333, 1, 12.08333, 1.75], "texture": "#2"}
			}
		},
		{
			"name": "octagon",
			"from": [7.45, 5.94471, 3.80373],
			"to": [8.52279, 6.53471, 4.00373],
			"rotation": {"angle": 0, "axis": "y", "origin": [7.9864, 6.96971, 3.02873]},
			"faces": {
				"north": {"uv": [11.33333, 1, 12.08333, 1.75], "texture": "#2"},
				"east": {"uv": [11.33333, 1, 12.08333, 1.75], "texture": "#2"},
				"south": {"uv": [11.33333, 1, 12.08333, 1.75], "texture": "#2"},
				"west": {"uv": [11.33333, 1, 12.08333, 1.75], "texture": "#2"},
				"up": {"uv": [11.33333, 1, 12.08333, 1.75], "texture": "#2"},
				"down": {"uv": [11.33333, 1, 12.08333, 1.75], "texture": "#2"}
			}
		},
		{
			"name": "octagon",
			"from": [7.45, 5.94471, 4.80373],
			"to": [8.52279, 6.53471, 5.00373],
			"rotation": {"angle": 0, "axis": "y", "origin": [7.9864, 6.96971, 4.02873]},
			"faces": {
				"north": {"uv": [11.33333, 1, 12.08333, 1.75], "texture": "#2"},
				"east": {"uv": [11.33333, 1, 12.08333, 1.75], "texture": "#2"},
				"south": {"uv": [11.33333, 1, 12.08333, 1.75], "texture": "#2"},
				"west": {"uv": [11.33333, 1, 12.08333, 1.75], "texture": "#2"},
				"up": {"uv": [11.33333, 1, 12.08333, 1.75], "texture": "#2"},
				"down": {"uv": [11.33333, 1, 12.08333, 1.75], "texture": "#2"}
			}
		},
		{
			"name": "octagon",
			"from": [7.45, 5.94471, 5.80373],
			"to": [8.52279, 6.53471, 6.00373],
			"rotation": {"angle": 0, "axis": "y", "origin": [7.9864, 6.96971, 5.02873]},
			"faces": {
				"north": {"uv": [11.33333, 1, 12.08333, 1.75], "texture": "#2"},
				"east": {"uv": [11.33333, 1, 12.08333, 1.75], "texture": "#2"},
				"south": {"uv": [11.33333, 1, 12.08333, 1.75], "texture": "#2"},
				"west": {"uv": [11.33333, 1, 12.08333, 1.75], "texture": "#2"},
				"up": {"uv": [11.33333, 1, 12.08333, 1.75], "texture": "#2"},
				"down": {"uv": [11.33333, 1, 12.08333, 1.75], "texture": "#2"}
			}
		},
		{
			"name": "octagon",
			"from": [7.45, 6.45471, 3.80373],
			"to": [8.52279, 7.24471, 4.15373],
			"rotation": {"angle": 0, "axis": "y", "origin": [7.9864, 7.77971, 4.52873]},
			"faces": {
				"north": {"uv": [11.33333, 1, 12.08333, 1.75], "texture": "#2"},
				"east": {"uv": [11.33333, 1, 12.08333, 1.75], "texture": "#2"},
				"south": {"uv": [11.33333, 1, 12.08333, 1.75], "texture": "#2"},
				"west": {"uv": [11.33333, 1, 12.08333, 1.75], "texture": "#2"},
				"up": {"uv": [11.33333, 1, 12.08333, 1.75], "texture": "#2"},
				"down": {"uv": [11.33333, 1, 12.08333, 1.75], "texture": "#2"}
			}
		},
		{
			"name": "octagon",
			"from": [7.45, 5.15471, 6.25373],
			"to": [8.52279, 6.49471, 7.25373],
			"rotation": {"angle": 0, "axis": "y", "origin": [7.9864, 6.47971, 4.87873]},
			"faces": {
				"north": {"uv": [11.33333, 1, 12.08333, 1.75], "texture": "#2"},
				"east": {"uv": [11.33333, 1, 12.08333, 1.75], "texture": "#2"},
				"south": {"uv": [11.33333, 1, 12.08333, 1.75], "texture": "#2"},
				"west": {"uv": [11.33333, 1, 12.08333, 1.75], "texture": "#2"},
				"up": {"uv": [11.33333, 1, 12.08333, 1.75], "texture": "#2"},
				"down": {"uv": [11.33333, 1, 12.08333, 1.75], "texture": "#2"}
			}
		},
		{
			"name": "octagon",
			"from": [7.45, 5.29506, 6.95927],
			"to": [8.52279, 5.88506, 8.45927],
			"rotation": {"angle": -22.5, "axis": "x", "origin": [7.9864, 5.96506, 7.45927]},
			"faces": {
				"north": {"uv": [11.33333, 1, 12.08333, 1.75], "texture": "#2"},
				"east": {"uv": [11.33333, 1, 12.08333, 1.75], "texture": "#2"},
				"south": {"uv": [11.33333, 1, 12.08333, 1.75], "texture": "#2"},
				"west": {"uv": [11.33333, 1, 12.08333, 1.75], "texture": "#2"},
				"up": {"uv": [11.33333, 1, 12.08333, 1.75], "texture": "#2"},
				"down": {"uv": [11.33333, 1, 12.08333, 1.75], "texture": "#2"}
			}
		},
		{
			"name": "octagon",
			"from": [7.45, 5.29506, 10.95927],
			"to": [8.52279, 5.88506, 12.45927],
			"rotation": {"angle": -22.5, "axis": "x", "origin": [7.9864, 5.96506, 11.45927]},
			"faces": {
				"north": {"uv": [11.33333, 1, 12.08333, 1.75], "texture": "#2"},
				"east": {"uv": [11.33333, 1, 12.08333, 1.75], "texture": "#2"},
				"south": {"uv": [11.33333, 1, 12.08333, 1.75], "texture": "#2"},
				"west": {"uv": [11.33333, 1, 12.08333, 1.75], "texture": "#2"},
				"up": {"uv": [11.33333, 1, 12.08333, 1.75], "texture": "#2"},
				"down": {"uv": [11.33333, 1, 12.08333, 1.75], "texture": "#2"}
			}
		},
		{
			"name": "octagon",
			"from": [7.45, 6.45471, 4.15373],
			"to": [8.52279, 7.24471, 6.25373],
			"rotation": {"angle": 0, "axis": "y", "origin": [7.9864, 6.99971, 5.20373]},
			"faces": {
				"north": {"uv": [11.33333, 1, 12.08333, 1.75], "texture": "#2"},
				"east": {"uv": [11.33333, 1, 12.08333, 1.75], "texture": "#2"},
				"south": {"uv": [11.33333, 1, 12.08333, 1.75], "texture": "#2"},
				"west": {"uv": [11.33333, 1, 12.08333, 1.75], "texture": "#2"},
				"up": {"uv": [11.33333, 1, 12.08333, 1.75], "texture": "#2"},
				"down": {"uv": [11.33333, 1, 12.08333, 1.75], "texture": "#2"}
			}
		},
		{
			"name": "octagon",
			"from": [7.45, 6.18296, 6.02264],
			"to": [8.52279, 6.87296, 8.12264],
			"rotation": {"angle": 22.5, "axis": "x", "origin": [7.9864, 6.47796, 7.07264]},
			"faces": {
				"north": {"uv": [11.33333, 1, 12.08333, 1.75], "texture": "#2"},
				"east": {"uv": [11.33333, 1, 12.08333, 1.75], "texture": "#2"},
				"south": {"uv": [11.33333, 1, 12.08333, 1.75], "texture": "#2"},
				"west": {"uv": [11.33333, 1, 12.08333, 1.75], "texture": "#2"},
				"up": {"uv": [11.33333, 1, 12.08333, 1.75], "texture": "#2"},
				"down": {"uv": [11.33333, 1, 12.08333, 1.75], "texture": "#2"}
			}
		},
		{
			"name": "octagon",
			"from": [7.45, 6.67916, 11.84597],
			"to": [8.52279, 6.86916, 12.34597],
			"rotation": {"angle": -22.5, "axis": "x", "origin": [7.9864, 6.52416, 11.29597]},
			"faces": {
				"north": {"uv": [11.33333, 1, 12.08333, 1.75], "texture": "#2"},
				"east": {"uv": [11.33333, 1, 12.08333, 1.75], "texture": "#2"},
				"south": {"uv": [11.33333, 1, 12.08333, 1.75], "texture": "#2"},
				"west": {"uv": [11.33333, 1, 12.08333, 1.75], "texture": "#2"},
				"up": {"uv": [11.33333, 1, 12.08333, 1.75], "texture": "#2"},
				"down": {"uv": [11.33333, 1, 12.08333, 1.75], "texture": "#2"}
			}
		},
		{
			"name": "octagon",
			"from": [7.55, 5.65471, 6.65373],
			"to": [8.52279, 7.04471, 16.25373],
			"rotation": {"angle": 0, "axis": "y", "origin": [7.9864, 6.47971, 7.87873]},
			"faces": {
				"north": {"uv": [11.33333, 1, 12.08333, 1.75], "texture": "#2"},
				"east": {"uv": [11.33333, 1, 12.08333, 1.75], "texture": "#2"},
				"south": {"uv": [11.33333, 1, 12.08333, 1.75], "texture": "#2"},
				"west": {"uv": [11.33333, 1, 12.08333, 1.75], "texture": "#2"},
				"up": {"uv": [11.33333, 1, 12.08333, 1.75], "texture": "#2"},
				"down": {"uv": [11.33333, 1, 12.08333, 1.75], "texture": "#2"}
			}
		},
		{
			"name": "octagon",
			"from": [7.05, 6.55471, 13.45373],
			"to": [7.52279, 6.84471, 13.75373],
			"rotation": {"angle": 0, "axis": "y", "origin": [7.9864, 6.47971, 12.37873]},
			"faces": {
				"north": {"uv": [6.33333, 3.33333, 7.08333, 4.08333], "texture": "#2"},
				"east": {"uv": [6.33333, 3.33333, 7.08333, 4.08333], "texture": "#2"},
				"south": {"uv": [6.33333, 3.33333, 7.08333, 4.08333], "texture": "#2"},
				"west": {"uv": [6.33333, 3.33333, 7.08333, 4.08333], "texture": "#2"},
				"up": {"uv": [6.33333, 3.33333, 7.08333, 4.08333], "texture": "#2"},
				"down": {"uv": [6.33333, 3.33333, 7.08333, 4.08333], "texture": "#2"}
			}
		},
		{
			"name": "octagon",
			"from": [6.80261, 6.45471, 13.37468],
			"to": [7.1254, 6.94471, 13.67468],
			"rotation": {"angle": -22.5, "axis": "y", "origin": [6.889, 6.69971, 13.52468]},
			"faces": {
				"north": {"uv": [6.33333, 3.33333, 7.08333, 4.08333], "texture": "#2"},
				"east": {"uv": [6.33333, 3.33333, 7.08333, 4.08333], "texture": "#2"},
				"south": {"uv": [6.33333, 3.33333, 7.08333, 4.08333], "texture": "#2"},
				"west": {"uv": [6.33333, 3.33333, 7.08333, 4.08333], "texture": "#2"},
				"up": {"uv": [6.33333, 3.33333, 7.08333, 4.08333], "texture": "#2"},
				"down": {"uv": [6.33333, 3.33333, 7.08333, 4.08333], "texture": "#2"}
			}
		},
		{
			"name": "octagon",
			"from": [7.45, 5.65471, 6.65373],
			"to": [7.62279, 7.04471, 8.75373],
			"rotation": {"angle": 0, "axis": "y", "origin": [7.9864, 6.47971, 7.87873]},
			"faces": {
				"north": {"uv": [11.33333, 1, 12.08333, 1.75], "texture": "#2"},
				"east": {"uv": [11.33333, 1, 12.08333, 1.75], "texture": "#2"},
				"south": {"uv": [11.33333, 1, 12.08333, 1.75], "texture": "#2"},
				"west": {"uv": [11.33333, 1, 12.08333, 1.75], "texture": "#2"},
				"up": {"uv": [11.33333, 1, 12.08333, 1.75], "texture": "#2"},
				"down": {"uv": [11.33333, 1, 12.08333, 1.75], "texture": "#2"}
			}
		},
		{
			"name": "octagon",
			"from": [7.45, 6.90471, 8.65373],
			"to": [7.62279, 7.04471, 13.75373],
			"rotation": {"angle": 0, "axis": "y", "origin": [7.9864, 6.47971, 7.87873]},
			"faces": {
				"north": {"uv": [11.33333, 1, 12.08333, 1.75], "texture": "#2"},
				"east": {"uv": [11.33333, 1, 12.08333, 1.75], "texture": "#2"},
				"south": {"uv": [11.33333, 1, 12.08333, 1.75], "texture": "#2"},
				"west": {"uv": [11.33333, 1, 12.08333, 1.75], "texture": "#2"},
				"up": {"uv": [11.33333, 1, 12.08333, 1.75], "texture": "#2"},
				"down": {"uv": [11.33333, 1, 12.08333, 1.75], "texture": "#2"}
			}
		},
		{
			"name": "octagon",
			"from": [7.45, 5.65471, 8.65373],
			"to": [7.62279, 6.49471, 13.75373],
			"rotation": {"angle": 0, "axis": "y", "origin": [7.9864, 6.47971, 7.87873]},
			"faces": {
				"north": {"uv": [11.33333, 1, 12.08333, 1.75], "texture": "#2"},
				"east": {"uv": [11.33333, 1, 12.08333, 1.75], "texture": "#2"},
				"south": {"uv": [11.33333, 1, 12.08333, 1.75], "texture": "#2"},
				"west": {"uv": [11.33333, 1, 12.08333, 1.75], "texture": "#2"},
				"up": {"uv": [11.33333, 1, 12.08333, 1.75], "texture": "#2"},
				"down": {"uv": [11.33333, 1, 12.08333, 1.75], "texture": "#2"}
			}
		},
		{
			"name": "octagon",
			"from": [7.45, 5.65471, 13.65373],
			"to": [7.62279, 7.04471, 16.25373],
			"rotation": {"angle": 0, "axis": "y", "origin": [7.9864, 6.47971, 7.87873]},
			"faces": {
				"north": {"uv": [11.33333, 1, 12.08333, 1.75], "texture": "#2"},
				"east": {"uv": [11.33333, 1, 12.08333, 1.75], "texture": "#2"},
				"south": {"uv": [11.33333, 1, 12.08333, 1.75], "texture": "#2"},
				"west": {"uv": [11.33333, 1, 12.08333, 1.75], "texture": "#2"},
				"up": {"uv": [11.33333, 1, 12.08333, 1.75], "texture": "#2"},
				"down": {"uv": [11.33333, 1, 12.08333, 1.75], "texture": "#2"}
			}
		},
		{
			"name": "octagon",
			"from": [7.45, 7.00471, 12.13402],
			"to": [8.52279, 7.24471, 16.25402],
			"rotation": {"angle": 0, "axis": "y", "origin": [7.9864, 6.57971, 7.85902]},
			"faces": {
				"north": {"uv": [11.33333, 1, 12.08333, 1.75], "texture": "#2"},
				"east": {"uv": [11.33333, 1, 12.08333, 1.75], "texture": "#2"},
				"south": {"uv": [11.33333, 1, 12.08333, 1.75], "texture": "#2"},
				"west": {"uv": [11.33333, 1, 12.08333, 1.75], "texture": "#2"},
				"up": {"uv": [11.33333, 1, 12.08333, 1.75], "texture": "#2"},
				"down": {"uv": [11.33333, 1, 12.08333, 1.75], "texture": "#2"}
			}
		},
		{
			"name": "octagon",
			"from": [7.7, 7.00471, 6.75373],
			"to": [8.27279, 7.14471, 11.45373],
			"rotation": {"angle": 0, "axis": "y", "origin": [7.9864, 6.57971, 7.87873]},
			"faces": {
				"north": {"uv": [11.33333, 1, 12.08333, 1.75], "texture": "#2"},
				"east": {"uv": [11.33333, 1, 12.08333, 1.75], "texture": "#2"},
				"south": {"uv": [11.33333, 1, 12.08333, 1.75], "texture": "#2"},
				"west": {"uv": [11.33333, 1, 12.08333, 1.75], "texture": "#2"},
				"up": {"uv": [11.33333, 1, 12.08333, 1.75], "texture": "#2"},
				"down": {"uv": [11.33333, 1, 12.08333, 1.75], "texture": "#2"}
			}
		},
		{
			"name": "octagon",
			"from": [7.7, 7.05471, 6.75373],
			"to": [8.27279, 7.29471, 6.95373],
			"rotation": {"angle": 0, "axis": "y", "origin": [7.9864, 7.87971, 7.87873]},
			"faces": {
				"north": {"uv": [11.33333, 1, 12.08333, 1.75], "texture": "#2"},
				"east": {"uv": [11.33333, 1, 12.08333, 1.75], "texture": "#2"},
				"south": {"uv": [11.33333, 1, 12.08333, 1.75], "texture": "#2"},
				"west": {"uv": [11.33333, 1, 12.08333, 1.75], "texture": "#2"},
				"up": {"uv": [11.33333, 1, 12.08333, 1.75], "texture": "#2"},
				"down": {"uv": [11.33333, 1, 12.08333, 1.75], "texture": "#2"}
			}
		},
		{
			"name": "octagon",
			"from": [7.7, 7.05471, 7.15373],
			"to": [8.27279, 7.19471, 7.35373],
			"rotation": {"angle": 0, "axis": "y", "origin": [7.9864, 7.87971, 8.27873]},
			"faces": {
				"north": {"uv": [11.33333, 1, 12.08333, 1.75], "texture": "#2"},
				"east": {"uv": [11.33333, 1, 12.08333, 1.75], "texture": "#2"},
				"south": {"uv": [11.33333, 1, 12.08333, 1.75], "texture": "#2"},
				"west": {"uv": [11.33333, 1, 12.08333, 1.75], "texture": "#2"},
				"up": {"uv": [11.33333, 1, 12.08333, 1.75], "texture": "#2"},
				"down": {"uv": [11.33333, 1, 12.08333, 1.75], "texture": "#2"}
			}
		},
		{
			"name": "octagon",
			"from": [7.7, 7.05471, 7.45373],
			"to": [8.27279, 7.19471, 7.65373],
			"rotation": {"angle": 0, "axis": "y", "origin": [7.9864, 7.87971, 8.57873]},
			"faces": {
				"north": {"uv": [11.33333, 1, 12.08333, 1.75], "texture": "#2"},
				"east": {"uv": [11.33333, 1, 12.08333, 1.75], "texture": "#2"},
				"south": {"uv": [11.33333, 1, 12.08333, 1.75], "texture": "#2"},
				"west": {"uv": [11.33333, 1, 12.08333, 1.75], "texture": "#2"},
				"up": {"uv": [11.33333, 1, 12.08333, 1.75], "texture": "#2"},
				"down": {"uv": [11.33333, 1, 12.08333, 1.75], "texture": "#2"}
			}
		},
		{
			"name": "octagon",
			"from": [7.7, 7.05471, 7.75373],
			"to": [8.27279, 7.19471, 7.95373],
			"rotation": {"angle": 0, "axis": "y", "origin": [7.9864, 7.87971, 8.87873]},
			"faces": {
				"north": {"uv": [11.33333, 1, 12.08333, 1.75], "texture": "#2"},
				"east": {"uv": [11.33333, 1, 12.08333, 1.75], "texture": "#2"},
				"south": {"uv": [11.33333, 1, 12.08333, 1.75], "texture": "#2"},
				"west": {"uv": [11.33333, 1, 12.08333, 1.75], "texture": "#2"},
				"up": {"uv": [11.33333, 1, 12.08333, 1.75], "texture": "#2"},
				"down": {"uv": [11.33333, 1, 12.08333, 1.75], "texture": "#2"}
			}
		},
		{
			"name": "octagon",
			"from": [7.7, 7.05471, 8.05373],
			"to": [8.27279, 7.19471, 8.25373],
			"rotation": {"angle": 0, "axis": "y", "origin": [7.9864, 7.87971, 9.17873]},
			"faces": {
				"north": {"uv": [11.33333, 1, 12.08333, 1.75], "texture": "#2"},
				"east": {"uv": [11.33333, 1, 12.08333, 1.75], "texture": "#2"},
				"south": {"uv": [11.33333, 1, 12.08333, 1.75], "texture": "#2"},
				"west": {"uv": [11.33333, 1, 12.08333, 1.75], "texture": "#2"},
				"up": {"uv": [11.33333, 1, 12.08333, 1.75], "texture": "#2"},
				"down": {"uv": [11.33333, 1, 12.08333, 1.75], "texture": "#2"}
			}
		},
		{
			"name": "octagon",
			"from": [7.7, 7.05471, 8.35373],
			"to": [8.27279, 7.19471, 8.55373],
			"rotation": {"angle": 0, "axis": "y", "origin": [7.9864, 7.87971, 9.47873]},
			"faces": {
				"north": {"uv": [11.33333, 1, 12.08333, 1.75], "texture": "#2"},
				"east": {"uv": [11.33333, 1, 12.08333, 1.75], "texture": "#2"},
				"south": {"uv": [11.33333, 1, 12.08333, 1.75], "texture": "#2"},
				"west": {"uv": [11.33333, 1, 12.08333, 1.75], "texture": "#2"},
				"up": {"uv": [11.33333, 1, 12.08333, 1.75], "texture": "#2"},
				"down": {"uv": [11.33333, 1, 12.08333, 1.75], "texture": "#2"}
			}
		},
		{
			"name": "octagon",
			"from": [7.7, 7.05471, 8.65373],
			"to": [8.27279, 7.19471, 8.85373],
			"rotation": {"angle": 0, "axis": "y", "origin": [7.9864, 7.87971, 9.77873]},
			"faces": {
				"north": {"uv": [11.33333, 1, 12.08333, 1.75], "texture": "#2"},
				"east": {"uv": [11.33333, 1, 12.08333, 1.75], "texture": "#2"},
				"south": {"uv": [11.33333, 1, 12.08333, 1.75], "texture": "#2"},
				"west": {"uv": [11.33333, 1, 12.08333, 1.75], "texture": "#2"},
				"up": {"uv": [11.33333, 1, 12.08333, 1.75], "texture": "#2"},
				"down": {"uv": [11.33333, 1, 12.08333, 1.75], "texture": "#2"}
			}
		},
		{
			"name": "octagon",
			"from": [7.7, 7.05471, 8.95373],
			"to": [8.27279, 7.19471, 9.15373],
			"rotation": {"angle": 0, "axis": "y", "origin": [7.9864, 7.87971, 10.07873]},
			"faces": {
				"north": {"uv": [11.33333, 1, 12.08333, 1.75], "texture": "#2"},
				"east": {"uv": [11.33333, 1, 12.08333, 1.75], "texture": "#2"},
				"south": {"uv": [11.33333, 1, 12.08333, 1.75], "texture": "#2"},
				"west": {"uv": [11.33333, 1, 12.08333, 1.75], "texture": "#2"},
				"up": {"uv": [11.33333, 1, 12.08333, 1.75], "texture": "#2"},
				"down": {"uv": [11.33333, 1, 12.08333, 1.75], "texture": "#2"}
			}
		},
		{
			"name": "octagon",
			"from": [7.7, 7.05471, 9.25373],
			"to": [8.27279, 7.19471, 9.45373],
			"rotation": {"angle": 0, "axis": "y", "origin": [7.9864, 7.87971, 10.37873]},
			"faces": {
				"north": {"uv": [11.33333, 1, 12.08333, 1.75], "texture": "#2"},
				"east": {"uv": [11.33333, 1, 12.08333, 1.75], "texture": "#2"},
				"south": {"uv": [11.33333, 1, 12.08333, 1.75], "texture": "#2"},
				"west": {"uv": [11.33333, 1, 12.08333, 1.75], "texture": "#2"},
				"up": {"uv": [11.33333, 1, 12.08333, 1.75], "texture": "#2"},
				"down": {"uv": [11.33333, 1, 12.08333, 1.75], "texture": "#2"}
			}
		},
		{
			"name": "octagon",
			"from": [7.7, 7.05471, 9.55373],
			"to": [8.27279, 7.19471, 9.75373],
			"rotation": {"angle": 0, "axis": "y", "origin": [7.9864, 7.87971, 10.67873]},
			"faces": {
				"north": {"uv": [11.33333, 1, 12.08333, 1.75], "texture": "#2"},
				"east": {"uv": [11.33333, 1, 12.08333, 1.75], "texture": "#2"},
				"south": {"uv": [11.33333, 1, 12.08333, 1.75], "texture": "#2"},
				"west": {"uv": [11.33333, 1, 12.08333, 1.75], "texture": "#2"},
				"up": {"uv": [11.33333, 1, 12.08333, 1.75], "texture": "#2"},
				"down": {"uv": [11.33333, 1, 12.08333, 1.75], "texture": "#2"}
			}
		},
		{
			"name": "octagon",
			"from": [7.7, 7.05471, 9.85373],
			"to": [8.27279, 7.19471, 10.05373],
			"rotation": {"angle": 0, "axis": "y", "origin": [7.9864, 7.87971, 10.97873]},
			"faces": {
				"north": {"uv": [11.33333, 1, 12.08333, 1.75], "texture": "#2"},
				"east": {"uv": [11.33333, 1, 12.08333, 1.75], "texture": "#2"},
				"south": {"uv": [11.33333, 1, 12.08333, 1.75], "texture": "#2"},
				"west": {"uv": [11.33333, 1, 12.08333, 1.75], "texture": "#2"},
				"up": {"uv": [11.33333, 1, 12.08333, 1.75], "texture": "#2"},
				"down": {"uv": [11.33333, 1, 12.08333, 1.75], "texture": "#2"}
			}
		},
		{
			"name": "octagon",
			"from": [7.7, 7.05471, 10.15373],
			"to": [8.27279, 7.19471, 10.35373],
			"rotation": {"angle": 0, "axis": "y", "origin": [7.9864, 7.87971, 11.27873]},
			"faces": {
				"north": {"uv": [11.33333, 1, 12.08333, 1.75], "texture": "#2"},
				"east": {"uv": [11.33333, 1, 12.08333, 1.75], "texture": "#2"},
				"south": {"uv": [11.33333, 1, 12.08333, 1.75], "texture": "#2"},
				"west": {"uv": [11.33333, 1, 12.08333, 1.75], "texture": "#2"},
				"up": {"uv": [11.33333, 1, 12.08333, 1.75], "texture": "#2"},
				"down": {"uv": [11.33333, 1, 12.08333, 1.75], "texture": "#2"}
			}
		},
		{
			"name": "octagon",
			"from": [7.7, 7.05471, 10.45373],
			"to": [8.27279, 7.19471, 10.65373],
			"rotation": {"angle": 0, "axis": "y", "origin": [7.9864, 7.87971, 11.57873]},
			"faces": {
				"north": {"uv": [11.33333, 1, 12.08333, 1.75], "texture": "#2"},
				"east": {"uv": [11.33333, 1, 12.08333, 1.75], "texture": "#2"},
				"south": {"uv": [11.33333, 1, 12.08333, 1.75], "texture": "#2"},
				"west": {"uv": [11.33333, 1, 12.08333, 1.75], "texture": "#2"},
				"up": {"uv": [11.33333, 1, 12.08333, 1.75], "texture": "#2"},
				"down": {"uv": [11.33333, 1, 12.08333, 1.75], "texture": "#2"}
			}
		},
		{
			"name": "octagon",
			"from": [7.7, 7.05471, 10.75373],
			"to": [8.27279, 7.19471, 10.95373],
			"rotation": {"angle": 0, "axis": "y", "origin": [7.9864, 7.87971, 11.87873]},
			"faces": {
				"north": {"uv": [11.33333, 1, 12.08333, 1.75], "texture": "#2"},
				"east": {"uv": [11.33333, 1, 12.08333, 1.75], "texture": "#2"},
				"south": {"uv": [11.33333, 1, 12.08333, 1.75], "texture": "#2"},
				"west": {"uv": [11.33333, 1, 12.08333, 1.75], "texture": "#2"},
				"up": {"uv": [11.33333, 1, 12.08333, 1.75], "texture": "#2"},
				"down": {"uv": [11.33333, 1, 12.08333, 1.75], "texture": "#2"}
			}
		},
		{
			"name": "octagon",
			"from": [7.7, 7.05471, 11.05373],
			"to": [8.27279, 7.19471, 11.25373],
			"rotation": {"angle": 0, "axis": "y", "origin": [7.9864, 7.87971, 12.17873]},
			"faces": {
				"north": {"uv": [11.33333, 1, 12.08333, 1.75], "texture": "#2"},
				"east": {"uv": [11.33333, 1, 12.08333, 1.75], "texture": "#2"},
				"south": {"uv": [11.33333, 1, 12.08333, 1.75], "texture": "#2"},
				"west": {"uv": [11.33333, 1, 12.08333, 1.75], "texture": "#2"},
				"up": {"uv": [11.33333, 1, 12.08333, 1.75], "texture": "#2"},
				"down": {"uv": [11.33333, 1, 12.08333, 1.75], "texture": "#2"}
			}
		},
		{
			"name": "octagon",
			"from": [7.7, 7.05471, 11.35373],
			"to": [8.27279, 7.19471, 11.55373],
			"rotation": {"angle": 0, "axis": "y", "origin": [7.9864, 7.87971, 12.47873]},
			"faces": {
				"north": {"uv": [11.33333, 1, 12.08333, 1.75], "texture": "#2"},
				"east": {"uv": [11.33333, 1, 12.08333, 1.75], "texture": "#2"},
				"south": {"uv": [11.33333, 1, 12.08333, 1.75], "texture": "#2"},
				"west": {"uv": [11.33333, 1, 12.08333, 1.75], "texture": "#2"},
				"up": {"uv": [11.33333, 1, 12.08333, 1.75], "texture": "#2"},
				"down": {"uv": [11.33333, 1, 12.08333, 1.75], "texture": "#2"}
			}
		},
		{
			"name": "octagon",
			"from": [7.45, 5.42298, 2.18761],
			"to": [8.52279, 6.17298, 3.88761],
			"rotation": {"angle": 22.5, "axis": "x", "origin": [7.9864, 5.49798, 3.16261]},
			"faces": {
				"north": {"uv": [11.33333, 1, 12.08333, 1.75], "texture": "#2"},
				"east": {"uv": [11.33333, 1, 12.08333, 1.75], "texture": "#2"},
				"south": {"uv": [11.33333, 1, 12.08333, 1.75], "texture": "#2"},
				"west": {"uv": [11.33333, 1, 12.08333, 1.75], "texture": "#2"},
				"up": {"uv": [11.33333, 1, 12.08333, 1.75], "texture": "#2"},
				"down": {"uv": [11.33333, 1, 12.08333, 1.75], "texture": "#2"}
			}
		},
		{
			"name": "octagon",
			"from": [7.45, 5.4018, 2.23313],
			"to": [8.52279, 5.8018, 3.93313],
			"rotation": {"angle": 0, "axis": "y", "origin": [7.9864, 5.4268, 3.08313]},
			"faces": {
				"north": {"uv": [11.33333, 1, 12.08333, 1.75], "texture": "#2"},
				"east": {"uv": [11.33333, 1, 12.08333, 1.75], "texture": "#2"},
				"south": {"uv": [11.33333, 1, 12.08333, 1.75], "texture": "#2"},
				"west": {"uv": [11.33333, 1, 12.08333, 1.75], "texture": "#2"},
				"up": {"uv": [11.33333, 1, 12.08333, 1.75], "texture": "#2"},
				"down": {"uv": [11.33333, 1, 12.08333, 1.75], "texture": "#2"}
			}
		},
		{
			"name": "octagon",
			"from": [7.45, 5.2018, 2.23313],
			"to": [8.52279, 5.2518, 3.93313],
			"rotation": {"angle": 0, "axis": "y", "origin": [7.9864, 5.5268, 3.08313]},
			"faces": {
				"north": {"uv": [11.33333, 1, 12.08333, 1.75], "texture": "#2"},
				"east": {"uv": [11.33333, 1, 12.08333, 1.75], "texture": "#2"},
				"south": {"uv": [11.33333, 1, 12.08333, 1.75], "texture": "#2"},
				"west": {"uv": [11.33333, 1, 12.08333, 1.75], "texture": "#2"},
				"up": {"uv": [11.33333, 1, 12.08333, 1.75], "texture": "#2"},
				"down": {"uv": [11.33333, 1, 12.08333, 1.75], "texture": "#2"}
			}
		},
		{
			"name": "octagon",
			"from": [8.2, 5.2518, 2.23313],
			"to": [8.52279, 5.5018, 3.93313],
			"rotation": {"angle": 0, "axis": "y", "origin": [7.9864, 5.1268, 2.88313]},
			"faces": {
				"north": {"uv": [11.33333, 1, 12.08333, 1.75], "texture": "#2"},
				"east": {"uv": [11.33333, 1, 12.08333, 1.75], "texture": "#2"},
				"south": {"uv": [11.33333, 1, 12.08333, 1.75], "texture": "#2"},
				"west": {"uv": [11.33333, 1, 12.08333, 1.75], "texture": "#2"},
				"up": {"uv": [11.33333, 1, 12.08333, 1.75], "texture": "#2"},
				"down": {"uv": [11.33333, 1, 12.08333, 1.75], "texture": "#2"}
			}
		},
		{
			"name": "octagon",
			"from": [7.45, 5.2518, 2.23313],
			"to": [7.77279, 5.5018, 3.93313],
			"rotation": {"angle": 0, "axis": "y", "origin": [7.9864, 5.1268, 2.88313]},
			"faces": {
				"north": {"uv": [11.33333, 1, 12.08333, 1.75], "texture": "#2"},
				"east": {"uv": [11.33333, 1, 12.08333, 1.75], "texture": "#2"},
				"south": {"uv": [11.33333, 1, 12.08333, 1.75], "texture": "#2"},
				"west": {"uv": [11.33333, 1, 12.08333, 1.75], "texture": "#2"},
				"up": {"uv": [11.33333, 1, 12.08333, 1.75], "texture": "#2"},
				"down": {"uv": [11.33333, 1, 12.08333, 1.75], "texture": "#2"}
			}
		},
		{
			"name": "octagon",
			"from": [7.85, 5.35471, 14.15373],
			"to": [8.02279, 5.79471, 14.25373],
			"rotation": {"angle": 0, "axis": "y", "origin": [8.3864, 5.22971, 7.87873]},
			"faces": {
				"north": {"uv": [8.66667, 3.66667, 9.66667, 4.66667], "texture": "#2"},
				"east": {"uv": [8.66667, 3.66667, 9.66667, 4.66667], "texture": "#2"},
				"south": {"uv": [8.66667, 3.66667, 9.66667, 4.66667], "texture": "#2"},
				"west": {"uv": [8.66667, 3.66667, 9.66667, 4.66667], "texture": "#2"},
				"up": {"uv": [8.66667, 3.66667, 9.66667, 4.66667], "texture": "#2"},
				"down": {"uv": [8.66667, 3.66667, 9.66667, 4.66667], "texture": "#2"}
			}
		},
		{
			"name": "octagon",
			"from": [7.85, 5.43643, 15.44821],
			"to": [8.02279, 5.87643, 15.54821],
			"rotation": {"angle": 0, "axis": "y", "origin": [8.3864, 5.31143, 9.17321]},
			"faces": {
				"north": {"uv": [8.66667, 3.66667, 9.66667, 4.66667], "texture": "#2"},
				"east": {"uv": [8.66667, 3.66667, 9.66667, 4.66667], "texture": "#2"},
				"south": {"uv": [8.66667, 3.66667, 9.66667, 4.66667], "texture": "#2"},
				"west": {"uv": [8.66667, 3.66667, 9.66667, 4.66667], "texture": "#2"},
				"up": {"uv": [8.66667, 3.66667, 9.66667, 4.66667], "texture": "#2"},
				"down": {"uv": [8.66667, 3.66667, 9.66667, 4.66667], "texture": "#2"}
			}
		},
		{
			"name": "octagon",
			"from": [7.85, 5.33643, 14.94821],
			"to": [8.02279, 5.67643, 15.04821],
			"rotation": {"angle": 0, "axis": "y", "origin": [8.3864, 5.11143, 8.67321]},
			"faces": {
				"north": {"uv": [8.66667, 3.66667, 9.66667, 4.66667], "texture": "#2"},
				"east": {"uv": [8.66667, 3.66667, 9.66667, 4.66667], "texture": "#2"},
				"south": {"uv": [8.66667, 3.66667, 9.66667, 4.66667], "texture": "#2"},
				"west": {"uv": [8.66667, 3.66667, 9.66667, 4.66667], "texture": "#2"},
				"up": {"uv": [8.66667, 3.66667, 9.66667, 4.66667], "texture": "#2"},
				"down": {"uv": [8.66667, 3.66667, 9.66667, 4.66667], "texture": "#2"}
			}
		},
		{
			"name": "octagon",
			"from": [7.85, 5.0082, 14.27238],
			"to": [8.02279, 5.3982, 14.37238],
			"rotation": {"angle": -22.5, "axis": "x", "origin": [7.9364, 5.0782, 14.32238]},
			"faces": {
				"north": {"uv": [8.66667, 3.66667, 9.66667, 4.66667], "texture": "#2"},
				"east": {"uv": [8.66667, 3.66667, 9.66667, 4.66667], "texture": "#2"},
				"south": {"uv": [8.66667, 3.66667, 9.66667, 4.66667], "texture": "#2"},
				"west": {"uv": [8.66667, 3.66667, 9.66667, 4.66667], "texture": "#2"},
				"up": {"uv": [8.66667, 3.66667, 9.66667, 4.66667], "texture": "#2"},
				"down": {"uv": [8.66667, 3.66667, 9.66667, 4.66667], "texture": "#2"}
			}
		},
		{
			"name": "octagon",
			"from": [7.85, 4.84944, 15.28172],
			"to": [8.02279, 5.48944, 15.38172],
			"rotation": {"angle": 22.5, "axis": "x", "origin": [7.9364, 5.04444, 15.33172]},
			"faces": {
				"north": {"uv": [8.66667, 3.66667, 9.66667, 4.66667], "texture": "#2"},
				"east": {"uv": [8.66667, 3.66667, 9.66667, 4.66667], "texture": "#2"},
				"south": {"uv": [8.66667, 3.66667, 9.66667, 4.66667], "texture": "#2"},
				"west": {"uv": [8.66667, 3.66667, 9.66667, 4.66667], "texture": "#2"},
				"up": {"uv": [8.66667, 3.66667, 9.66667, 4.66667], "texture": "#2"},
				"down": {"uv": [8.66667, 3.66667, 9.66667, 4.66667], "texture": "#2"}
			}
		},
		{
			"name": "octagon",
			"from": [7.85, 5.14944, 14.78172],
			"to": [8.02279, 5.38944, 14.88172],
			"rotation": {"angle": 22.5, "axis": "x", "origin": [7.9364, 4.94444, 14.83172]},
			"faces": {
				"north": {"uv": [8.66667, 3.66667, 9.66667, 4.66667], "texture": "#2"},
				"east": {"uv": [8.66667, 3.66667, 9.66667, 4.66667], "texture": "#2"},
				"south": {"uv": [8.66667, 3.66667, 9.66667, 4.66667], "texture": "#2"},
				"west": {"uv": [8.66667, 3.66667, 9.66667, 4.66667], "texture": "#2"},
				"up": {"uv": [8.66667, 3.66667, 9.66667, 4.66667], "texture": "#2"},
				"down": {"uv": [8.66667, 3.66667, 9.66667, 4.66667], "texture": "#2"}
			}
		},
		{
			"name": "octagon",
			"from": [7.85, 4.91597, 14.30727],
			"to": [8.02279, 5.01597, 14.69727],
			"rotation": {"angle": 22.5, "axis": "x", "origin": [7.9364, 4.96597, 14.50227]},
			"faces": {
				"north": {"uv": [8.66667, 3.66667, 9.66667, 4.66667], "rotation": 180, "texture": "#2"},
				"east": {"uv": [8.66667, 3.66667, 9.66667, 4.66667], "rotation": 180, "texture": "#2"},
				"south": {"uv": [8.66667, 3.66667, 9.66667, 4.66667], "rotation": 180, "texture": "#2"},
				"west": {"uv": [8.66667, 3.66667, 9.66667, 4.66667], "rotation": 180, "texture": "#2"},
				"up": {"uv": [8.66667, 3.66667, 9.66667, 4.66667], "rotation": 180, "texture": "#2"},
				"down": {"uv": [8.66667, 3.66667, 9.66667, 4.66667], "rotation": 180, "texture": "#2"}
			}
		},
		{
			"name": "octagon",
			"from": [7.85, 4.84515, 14.66329],
			"to": [8.02279, 4.94515, 15.30329],
			"rotation": {"angle": 0, "axis": "x", "origin": [7.9364, 4.89515, 14.85829]},
			"faces": {
				"north": {"uv": [8.66667, 3.66667, 9.66667, 4.66667], "rotation": 180, "texture": "#2"},
				"east": {"uv": [8.66667, 3.66667, 9.66667, 4.66667], "rotation": 180, "texture": "#2"},
				"south": {"uv": [8.66667, 3.66667, 9.66667, 4.66667], "rotation": 180, "texture": "#2"},
				"west": {"uv": [8.66667, 3.66667, 9.66667, 4.66667], "rotation": 180, "texture": "#2"},
				"up": {"uv": [8.66667, 3.66667, 9.66667, 4.66667], "rotation": 180, "texture": "#2"},
				"down": {"uv": [8.66667, 3.66667, 9.66667, 4.66667], "rotation": 180, "texture": "#2"}
			}
		}
	],
	"display": {
		"thirdperson_righthand": {
			"translation": [-0.25, 2, -4.75],
			"scale": [0.8, 0.8, 0.8]
		},
		"thirdperson_lefthand": {
			"translation": [-0.75, 1.75, -3.75],
			"scale": [0.8, 0.8, 0.8]
		},
		"firstperson_righthand": {
			"translation": [-5.5, 5.5, 0.75],
			"scale": [1, 1, 0.9]
		},
		"firstperson_lefthand": {
			"translation": [-5.5, 5.25, 0.75],
			"scale": [1, 1, 0.9]
		},
		"ground": {
			"rotation": [0, 0, 45],
			"scale": [0.88, 0.88, 0.88]
		},
		"gui": {
			"rotation": [20, 27, -14],
			"translation": [-1, 2, 0]
		},
		"head": {
			"rotation": [0, 122, 90],
			"translation": [-3.25, 7.25, 1.75]
		},
		"fixed": {
			"rotation": [90, 45, -90],
			"translation": [0.5, 3.5, -2.25]
		}
	},
	"groups": [
		{
			"name": "gun",
			"origin": [8, 8, 8],
			"children": [
				{
					"name": "octagon",
					"origin": [8, 8, 8],
					"children": [0, 1, 2, 3, 4, 5, 6, 7]
				},
				{
					"name": "group",
					"origin": [8, 6.23383, 1.85237],
					"children": [8, 9, 10, 11, 12, 13, 14, 15, 16, 17, 18, 19, 20, 21, 22, 23, 24, 25, 26, 27, 28, 29, 30, 31, 32, 33, 34, 35, 36, 37, 38, 39, 40, 41, 42, 43, 44, 45, 46, 47, 48, 49]
				},
				{
					"name": "trigger",
					"origin": [8, 8, 8],
					"children": [50, 51, 52, 53, 54, 55, 56, 57]
				}
			]
		}
	]
}
