{      

    "textures": 
    {
        "pole": "gci:blocks/bocha"
    },
   "elements":[  
      {  
         "__comment":"basically make it have no surface area so it is invisible", 
         "from":[ 0.5, 0.5, 0.5 ],
         "to":[ 0.5, 0.5, 0.5 ],
         "faces":{  
            "down":{ "uv": [ 0, 0, 15, 15 ], "texture":"#pole" },
            "up":{ "uv": [ 0, 0, 15, 15 ], "texture": "#pole" },
            "north":{ "uv": [ 0, 0, 15, 15 ], "texture":"#pole" },
            "south":{ "uv": [ 0, 0, 15, 15 ], "texture":"#pole" },
            "west":{ "uv": [ 0, 0, 15, 15 ], "texture":"#pole" },
            "east":{ "uv": [ 0, 0, 15, 15 ], "texture":"#pole" }
         }
      }
   ]
}
