{
    "textures": {
        "0": "gci:items/common/mpz",
        "particle": "Desktop/MPZ"
    },
    "elements": [
        {
            "from": [
                1.6,
                2.73453,
                10.43586
            ],
            "to": [
                2.25,
                4.23453,
                14.27686
            ],
            "rotation": {
                "angle": 0,
                "axis": "y",
                "origin": [
                    1.6,
                    3.03453,
                    13.33586
                ]
            },
            "faces": {
                "north": {
                    "uv": [
                        1.22222,
                        14.44444,
                        1.66667,
                        14.55556
                    ],
                    "texture": "#0"
                },
                "east": {
                    "uv": [
                        1.22222,
                        14.44444,
                        1.66667,
                        14.55556
                    ],
                    "texture": "#0"
                },
                "south": {
                    "uv": [
                        1.22222,
                        14.44444,
                        1.66667,
                        14.55556
                    ],
                    "texture": "#0"
                },
                "west": {
                    "uv": [
                        1.22222,
                        14.44444,
                        1.66667,
                        14.55556
                    ],
                    "texture": "#0"
                },
                "up": {
                    "uv": [
                        1.22222,
                        14.44444,
                        1.66667,
                        14.55556
                    ],
                    "texture": "#0"
                },
                "down": {
                    "uv": [
                        1.22222,
                        14.44444,
                        1.66667,
                        14.55556
                    ],
                    "texture": "#0"
                }
            }
        },
        {
            "from": [
                1.6,
                3.23453,
                9.77686
            ],
            "to": [
                2.25,
                4.23453,
                10.77686
            ],
            "rotation": {
                "angle": 0,
                "axis": "y",
                "origin": [
                    1.6,
                    3.03453,
                    11.37686
                ]
            },
            "faces": {
                "north": {
                    "uv": [
                        1.22222,
                        14.44444,
                        1.66667,
                        14.55556
                    ],
                    "texture": "#0"
                },
                "east": {
                    "uv": [
                        1.22222,
                        14.44444,
                        1.66667,
                        14.55556
                    ],
                    "texture": "#0"
                },
                "south": {
                    "uv": [
                        1.22222,
                        14.44444,
                        1.66667,
                        14.55556
                    ],
                    "texture": "#0"
                },
                "west": {
                    "uv": [
                        1.22222,
                        14.44444,
                        1.66667,
                        14.55556
                    ],
                    "texture": "#0"
                },
                "up": {
                    "uv": [
                        1.22222,
                        14.44444,
                        1.66667,
                        14.55556
                    ],
                    "texture": "#0"
                },
                "down": {
                    "uv": [
                        1.22222,
                        14.44444,
                        1.66667,
                        14.55556
                    ],
                    "texture": "#0"
                }
            }
        },
        {
            "from": [
                1.6,
                3.53453,
                8.77686
            ],
            "to": [
                2.25,
                4.23453,
                9.77686
            ],
            "rotation": {
                "angle": 0,
                "axis": "y",
                "origin": [
                    1.6,
                    3.03453,
                    10.37686
                ]
            },
            "faces": {
                "north": {
                    "uv": [
                        1.22222,
                        14.44444,
                        1.66667,
                        14.55556
                    ],
                    "texture": "#0"
                },
                "east": {
                    "uv": [
                        1.22222,
                        14.44444,
                        1.66667,
                        14.55556
                    ],
                    "texture": "#0"
                },
                "south": {
                    "uv": [
                        1.22222,
                        14.44444,
                        1.66667,
                        14.55556
                    ],
                    "texture": "#0"
                },
                "west": {
                    "uv": [
                        1.22222,
                        14.44444,
                        1.66667,
                        14.55556
                    ],
                    "texture": "#0"
                },
                "up": {
                    "uv": [
                        1.22222,
                        14.44444,
                        1.66667,
                        14.55556
                    ],
                    "texture": "#0"
                },
                "down": {
                    "uv": [
                        1.22222,
                        14.44444,
                        1.66667,
                        14.55556
                    ],
                    "texture": "#0"
                }
            }
        },
        {
            "from": [
                1.6,
                2.89412,
                7.9129
            ],
            "to": [
                2.25,
                3.39412,
                10.4659
            ],
            "rotation": {
                "angle": 22.5,
                "axis": "x",
                "origin": [
                    1.6,
                    2.89412,
                    10.06524
                ]
            },
            "faces": {
                "north": {
                    "uv": [
                        1.22222,
                        14.44444,
                        1.66667,
                        14.55556
                    ],
                    "texture": "#0"
                },
                "east": {
                    "uv": [
                        1.22222,
                        14.44444,
                        1.66667,
                        14.55556
                    ],
                    "texture": "#0"
                },
                "south": {
                    "uv": [
                        1.22222,
                        14.44444,
                        1.66667,
                        14.55556
                    ],
                    "texture": "#0"
                },
                "west": {
                    "uv": [
                        1.22222,
                        14.44444,
                        1.66667,
                        14.55556
                    ],
                    "texture": "#0"
                },
                "up": {
                    "uv": [
                        1.22222,
                        14.44444,
                        1.66667,
                        14.55556
                    ],
                    "texture": "#0"
                },
                "down": {
                    "uv": [
                        1.22222,
                        14.44444,
                        1.66667,
                        14.55556
                    ],
                    "texture": "#0"
                }
            }
        },
        {
            "from": [
                1.6,
                3.28302,
                7.91274
            ],
            "to": [
                2.25,
                3.88302,
                9.50074
            ],
            "rotation": {
                "angle": 22.5,
                "axis": "x",
                "origin": [
                    1.6,
                    3.38302,
                    10.00074
                ]
            },
            "faces": {
                "north": {
                    "uv": [
                        1.22222,
                        14.44444,
                        1.66667,
                        14.55556
                    ],
                    "texture": "#0"
                },
                "east": {
                    "uv": [
                        1.22222,
                        14.44444,
                        1.66667,
                        14.55556
                    ],
                    "texture": "#0"
                },
                "south": {
                    "uv": [
                        1.22222,
                        14.44444,
                        1.66667,
                        14.55556
                    ],
                    "texture": "#0"
                },
                "west": {
                    "uv": [
                        1.22222,
                        14.44444,
                        1.66667,
                        14.55556
                    ],
                    "texture": "#0"
                },
                "up": {
                    "uv": [
                        1.22222,
                        14.44444,
                        1.66667,
                        14.55556
                    ],
                    "texture": "#0"
                },
                "down": {
                    "uv": [
                        1.22222,
                        14.44444,
                        1.66667,
                        14.55556
                    ],
                    "texture": "#0"
                }
            }
        },
        {
            "from": [
                1.70606,
                4.1906,
                8.77686
            ],
            "to": [
                2.14206,
                4.3406,
                14.47686
            ],
            "rotation": {
                "angle": 0,
                "axis": "y",
                "origin": [
                    1.78106,
                    4.2656,
                    14.37686
                ]
            },
            "faces": {
                "north": {
                    "uv": [
                        1.11111,
                        1,
                        1.22222,
                        1.22222
                    ],
                    "rotation": 180,
                    "texture": "#0"
                },
                "east": {
                    "uv": [
                        1.11111,
                        1,
                        1.22222,
                        1.22222
                    ],
                    "rotation": 180,
                    "texture": "#0"
                },
                "south": {
                    "uv": [
                        1.11111,
                        1,
                        1.22222,
                        1.22222
                    ],
                    "rotation": 180,
                    "texture": "#0"
                },
                "west": {
                    "uv": [
                        1.11111,
                        1,
                        1.22222,
                        1.22222
                    ],
                    "rotation": 180,
                    "texture": "#0"
                },
                "up": {
                    "uv": [
                        1.11111,
                        1,
                        1.22222,
                        1.22222
                    ],
                    "rotation": 180,
                    "texture": "#0"
                },
                "down": {
                    "uv": [
                        1.11111,
                        1,
                        1.22222,
                        1.22222
                    ],
                    "rotation": 180,
                    "texture": "#0"
                }
            }
        },
        {
            "from": [
                1.63106,
                4.15953,
                8.77686
            ],
            "to": [
                1.78106,
                4.30953,
                14.47686
            ],
            "rotation": {
                "angle": 45,
                "axis": "z",
                "origin": [
                    1.70606,
                    4.23453,
                    14.37686
                ]
            },
            "faces": {
                "north": {
                    "uv": [
                        1.11111,
                        1,
                        1.22222,
                        1.22222
                    ],
                    "texture": "#0"
                },
                "east": {
                    "uv": [
                        1.11111,
                        1,
                        1.22222,
                        1.22222
                    ],
                    "texture": "#0"
                },
                "south": {
                    "uv": [
                        1.11111,
                        1,
                        1.22222,
                        1.22222
                    ],
                    "texture": "#0"
                },
                "west": {
                    "uv": [
                        1.11111,
                        1,
                        1.22222,
                        1.22222
                    ],
                    "texture": "#0"
                },
                "up": {
                    "uv": [
                        1.11111,
                        1,
                        1.22222,
                        1.22222
                    ],
                    "texture": "#0"
                },
                "down": {
                    "uv": [
                        1.11111,
                        1,
                        1.22222,
                        1.22222
                    ],
                    "texture": "#0"
                }
            }
        },
        {
            "from": [
                1.6,
                2.73453,
                14.27686
            ],
            "to": [
                2.25,
                4.23453,
                14.47686
            ],
            "rotation": {
                "angle": 0,
                "axis": "y",
                "origin": [
                    1.405,
                    3.03453,
                    16.87686
                ]
            },
            "faces": {
                "north": {
                    "uv": [
                        1.11111,
                        1,
                        1.22222,
                        1.22222
                    ],
                    "texture": "#0"
                },
                "east": {
                    "uv": [
                        1.11111,
                        1,
                        1.22222,
                        1.22222
                    ],
                    "texture": "#0"
                },
                "south": {
                    "uv": [
                        1.11111,
                        1,
                        1.22222,
                        1.22222
                    ],
                    "texture": "#0"
                },
                "west": {
                    "uv": [
                        1.11111,
                        1,
                        1.22222,
                        1.22222
                    ],
                    "texture": "#0"
                },
                "up": {
                    "uv": [
                        1.11111,
                        1,
                        1.22222,
                        1.22222
                    ],
                    "texture": "#0"
                },
                "down": {
                    "uv": [
                        1.11111,
                        1,
                        1.22222,
                        1.22222
                    ],
                    "texture": "#0"
                }
            }
        },
        {
            "from": [
                2.06893,
                4.15953,
                8.77686
            ],
            "to": [
                2.21893,
                4.30953,
                14.47686
            ],
            "rotation": {
                "angle": 45,
                "axis": "z",
                "origin": [
                    2.14393,
                    4.23453,
                    14.37686
                ]
            },
            "faces": {
                "north": {
                    "uv": [
                        1.11111,
                        1,
                        1.22222,
                        1.22222
                    ],
                    "rotation": 270,
                    "texture": "#0"
                },
                "east": {
                    "uv": [
                        1.11111,
                        1,
                        1.22222,
                        1.22222
                    ],
                    "rotation": 270,
                    "texture": "#0"
                },
                "south": {
                    "uv": [
                        1.11111,
                        1,
                        1.22222,
                        1.22222
                    ],
                    "rotation": 270,
                    "texture": "#0"
                },
                "west": {
                    "uv": [
                        1.11111,
                        1,
                        1.22222,
                        1.22222
                    ],
                    "rotation": 270,
                    "texture": "#0"
                },
                "up": {
                    "uv": [
                        1.11111,
                        1,
                        1.22222,
                        1.22222
                    ],
                    "rotation": 270,
                    "texture": "#0"
                },
                "down": {
                    "uv": [
                        1.11111,
                        1,
                        1.22222,
                        1.22222
                    ],
                    "rotation": 270,
                    "texture": "#0"
                }
            }
        }
    ],
    "display": {
        "thirdperson_righthand": {
            "translation": [
                6,
                4,
                1.5
            ]
        },
        "thirdperson_lefthand": {
            "translation": [
                -6.25,
                4,
                1.75
            ]
        },
        "firstperson_righthand": {
            "translation": [
                2.5,
                7.75,
                5.75
            ]
        },
        "firstperson_lefthand": {
            "translation": [
                -9,
                7.25,
                4.75
            ]
        },
        "ground": {
            "translation": [
                7,
                5,
                6.25
            ]
        },
        "gui": {
            "rotation": [
                29,
                35,
                -30
            ],
            "translation": [
                9.5,
                0.5,
                0
            ],
            "scale": [
                1.1,
                1.1,
                1.1
            ]
        },
        "head": {
            "translation": [
                6.25,
                0,
                0
            ]
        },
        "fixed": {
            "rotation": [
                90,
                45,
                -90
            ],
            "translation": [
                5.5,
                -0.5,
                -6.75
            ]
        }
    }
}