{
	"credit": "Made with Blockbench",
	"textures": {
		"0": "gci:items/gun_mdr/all_in_one",
		"particle": "gci:items/gun_mdr/all_in_one"
	},
	"elements": [
		{
			"from": [8.42355, 9.99581, -1.336],
			"to": [8.55155, 10.17181, 0.58],
			"rotation": {"angle": 0, "axis": "y", "origin": [8.51955, 10.08381, -0.026]},
			"faces": {
				"north": {"uv": [3, 3, 3, 3], "texture": "#0"},
				"east": {"uv": [3, 3, 3, 3], "rotation": 180, "texture": "#0"},
				"south": {"uv": [3, 3, 3, 3], "rotation": 180, "texture": "#0"},
				"west": {"uv": [3, 3, 3, 3], "rotation": 180, "texture": "#0"},
				"up": {"uv": [3, 3, 3, 3], "rotation": 180, "texture": "#0"},
				"down": {"uv": [3, 3, 3, 3], "rotation": 180, "texture": "#0"}
			}
		},
		{
			"from": [8.3787, 10.11541, -1.336],
			"to": [8.5547, 10.24341, 0.58],
			"rotation": {"angle": -45, "axis": "z", "origin": [8.4667, 10.21141, -0.026]},
			"faces": {
				"north": {"uv": [3, 3, 3, 3], "rotation": 90, "texture": "#0"},
				"east": {"uv": [3, 3, 3, 3], "rotation": 90, "texture": "#0"},
				"south": {"uv": [3, 3, 3, 3], "rotation": 90, "texture": "#0"},
				"west": {"uv": [3, 3, 3, 3], "rotation": 90, "texture": "#0"},
				"up": {"uv": [3, 3, 3, 3], "rotation": 90, "texture": "#0"},
				"down": {"uv": [3, 3, 3, 3], "rotation": 90, "texture": "#0"}
			}
		},
		{
			"from": [8.2511, 10.16826, -1.336],
			"to": [8.4271, 10.29626, 0.58],
			"rotation": {"angle": 0, "axis": "y", "origin": [8.323, 9.88535, -1.38382]},
			"faces": {
				"north": {"uv": [3, 3, 3, 3], "rotation": 90, "texture": "#0"},
				"east": {"uv": [3, 3, 3, 3], "rotation": 90, "texture": "#0"},
				"south": {"uv": [3, 3, 3, 3], "rotation": 90, "texture": "#0"},
				"west": {"uv": [3, 3, 3, 3], "rotation": 90, "texture": "#0"},
				"up": {"uv": [3, 3, 3, 3], "rotation": 90, "texture": "#0"},
				"down": {"uv": [3, 3, 3, 3], "rotation": 90, "texture": "#0"}
			}
		},
		{
			"from": [8.06285, 10.05961, -1.336],
			"to": [8.19085, 10.23561, 0.58],
			"rotation": {"angle": -45, "axis": "z", "origin": [8.23019, 10.0387, -0.026]},
			"faces": {
				"north": {"uv": [3, 3, 3, 3], "rotation": 180, "texture": "#0"},
				"east": {"uv": [3, 3, 3, 3], "texture": "#0"},
				"south": {"uv": [3, 3, 3, 3], "texture": "#0"},
				"west": {"uv": [3, 3, 3, 3], "texture": "#0"},
				"up": {"uv": [3, 3, 3, 3], "texture": "#0"},
				"down": {"uv": [3, 3, 3, 3], "texture": "#0"}
			}
		},
		{
			"from": [8.1873, 9.93516, -1.336],
			"to": [8.3633, 10.06316, 0.58],
			"rotation": {"angle": -45, "axis": "z", "origin": [8.23019, 10.0387, -0.026]},
			"faces": {
				"north": {"uv": [3, 3, 3, 3], "rotation": 270, "texture": "#0"},
				"east": {"uv": [3, 3, 3, 3], "rotation": 270, "texture": "#0"},
				"south": {"uv": [3, 3, 3, 3], "rotation": 270, "texture": "#0"},
				"west": {"uv": [3, 3, 3, 3], "rotation": 270, "texture": "#0"},
				"up": {"uv": [3, 3, 3, 3], "rotation": 270, "texture": "#0"},
				"down": {"uv": [3, 3, 3, 3], "rotation": 270, "texture": "#0"}
			}
		},
		{
			"from": [8.1873, 9.93516, 0.328],
			"to": [8.3633, 10.25516, 0.58],
			"rotation": {"angle": -45, "axis": "z", "origin": [8.23019, 10.0387, -0.026]},
			"faces": {
				"north": {"uv": [3, 3, 3, 3], "rotation": 270, "texture": "#0"},
				"east": {"uv": [3, 3, 3, 3], "rotation": 270, "texture": "#0"},
				"south": {"uv": [3, 3, 3, 3], "rotation": 270, "texture": "#0"},
				"west": {"uv": [3, 3, 3, 3], "rotation": 270, "texture": "#0"},
				"up": {"uv": [3, 3, 3, 3], "rotation": 270, "texture": "#0"},
				"down": {"uv": [3, 3, 3, 3], "rotation": 270, "texture": "#0"}
			}
		},
		{
			"from": [8.12665, 9.99581, -1.336],
			"to": [8.25465, 10.17181, 0.58],
			"rotation": {"angle": 0, "axis": "y", "origin": [8.23019, 10.0387, -0.026]},
			"faces": {
				"north": {"uv": [3, 3, 3, 3], "rotation": 180, "texture": "#0"},
				"east": {"uv": [3, 3, 3, 3], "texture": "#0"},
				"south": {"uv": [3, 3, 3, 3], "texture": "#0"},
				"west": {"uv": [3, 3, 3, 3], "texture": "#0"},
				"up": {"uv": [3, 3, 3, 3], "texture": "#0"},
				"down": {"uv": [3, 3, 3, 3], "texture": "#0"}
			}
		},
		{
			"from": [8.2511, 9.87136, -1.336],
			"to": [8.4271, 9.99936, 0.58],
			"rotation": {"angle": 0, "axis": "y", "origin": [8.23019, 10.0387, -0.026]},
			"faces": {
				"north": {"uv": [3, 3, 3, 3], "rotation": 270, "texture": "#0"},
				"east": {"uv": [3, 3, 3, 3], "rotation": 270, "texture": "#0"},
				"south": {"uv": [3, 3, 3, 3], "rotation": 270, "texture": "#0"},
				"west": {"uv": [3, 3, 3, 3], "rotation": 270, "texture": "#0"},
				"up": {"uv": [3, 3, 3, 3], "rotation": 270, "texture": "#0"},
				"down": {"uv": [3, 3, 3, 3], "rotation": 270, "texture": "#0"}
			}
		},
		{
			"from": [8.01739, 9.94506, -0.792],
			"to": [8.56139, 10.69706, -0.54],
			"rotation": {"angle": 0, "axis": "y", "origin": [8.08139, 10.06506, -1.05]},
			"faces": {
				"north": {"uv": [2.875, 3.5, 2.875, 3.5], "rotation": 180, "texture": "#0"},
				"east": {"uv": [2.875, 3.5, 2.875, 3.5], "rotation": 180, "texture": "#0"},
				"south": {"uv": [2.875, 3.5, 2.875, 3.5], "rotation": 180, "texture": "#0"},
				"west": {"uv": [2.875, 3.5, 2.875, 3.5], "rotation": 180, "texture": "#0"},
				"up": {"uv": [2.875, 3.5, 2.875, 3.5], "rotation": 180, "texture": "#0"},
				"down": {"uv": [2.875, 3.5, 2.875, 3.5], "rotation": 180, "texture": "#0"}
			}
		},
		{
			"from": [8.01739, 9.94506, -0.024],
			"to": [8.56139, 10.69706, 0.228],
			"rotation": {"angle": 0, "axis": "y", "origin": [8.08139, 10.06506, -0.282]},
			"faces": {
				"north": {"uv": [2.875, 3.5, 2.875, 3.5], "rotation": 180, "texture": "#0"},
				"east": {"uv": [2.875, 3.5, 2.875, 3.5], "rotation": 180, "texture": "#0"},
				"south": {"uv": [2.875, 3.5, 2.875, 3.5], "rotation": 180, "texture": "#0"},
				"west": {"uv": [2.875, 3.5, 2.875, 3.5], "rotation": 180, "texture": "#0"},
				"up": {"uv": [2.875, 3.5, 2.875, 3.5], "rotation": 180, "texture": "#0"},
				"down": {"uv": [2.875, 3.5, 2.875, 3.5], "rotation": 180, "texture": "#0"}
			}
		},
		{
			"from": [8.53281, 9.94506, -0.792],
			"to": [8.66081, 10.69706, -0.54],
			"rotation": {"angle": 0, "axis": "y", "origin": [8.59681, 10.06506, -1.05]},
			"faces": {
				"north": {"uv": [2.875, 3.5, 2.875, 3.5], "texture": "#0"},
				"east": {"uv": [2.875, 3.5, 2.875, 3.5], "texture": "#0"},
				"south": {"uv": [2.875, 3.5, 2.875, 3.5], "texture": "#0"},
				"west": {"uv": [2.875, 3.5, 2.875, 3.5], "texture": "#0"},
				"up": {"uv": [2.875, 3.5, 2.875, 3.5], "texture": "#0"},
				"down": {"uv": [2.875, 3.5, 2.875, 3.5], "texture": "#0"}
			}
		},
		{
			"from": [8.53281, 9.94506, -0.024],
			"to": [8.66081, 10.69706, 0.228],
			"rotation": {"angle": 0, "axis": "y", "origin": [8.59681, 10.06506, -0.282]},
			"faces": {
				"north": {"uv": [2.875, 3.5, 2.875, 3.5], "texture": "#0"},
				"east": {"uv": [2.875, 3.5, 2.875, 3.5], "texture": "#0"},
				"south": {"uv": [2.875, 3.5, 2.875, 3.5], "texture": "#0"},
				"west": {"uv": [2.875, 3.5, 2.875, 3.5], "texture": "#0"},
				"up": {"uv": [2.875, 3.5, 2.875, 3.5], "texture": "#0"},
				"down": {"uv": [2.875, 3.5, 2.875, 3.5], "texture": "#0"}
			}
		},
		{
			"from": [8.1871, 9.77536, -0.792],
			"to": [8.4911, 9.90336, -0.54],
			"rotation": {"angle": 0, "axis": "y", "origin": [8.3711, 9.83936, -1.05]},
			"faces": {
				"north": {"uv": [2.875, 3.5, 2.875, 3.5], "rotation": 270, "texture": "#0"},
				"east": {"uv": [2.875, 3.5, 2.875, 3.5], "rotation": 270, "texture": "#0"},
				"south": {"uv": [2.875, 3.5, 2.875, 3.5], "rotation": 270, "texture": "#0"},
				"west": {"uv": [2.875, 3.5, 2.875, 3.5], "rotation": 270, "texture": "#0"},
				"up": {"uv": [2.875, 3.5, 2.875, 3.5], "rotation": 270, "texture": "#0"},
				"down": {"uv": [2.875, 3.5, 2.875, 3.5], "rotation": 270, "texture": "#0"}
			}
		},
		{
			"from": [8.1871, 9.77536, -0.024],
			"to": [8.4911, 9.90336, 0.228],
			"rotation": {"angle": 0, "axis": "y", "origin": [8.3711, 9.83936, -0.282]},
			"faces": {
				"north": {"uv": [2.875, 3.5, 2.875, 3.5], "rotation": 270, "texture": "#0"},
				"east": {"uv": [2.875, 3.5, 2.875, 3.5], "rotation": 270, "texture": "#0"},
				"south": {"uv": [2.875, 3.5, 2.875, 3.5], "rotation": 270, "texture": "#0"},
				"west": {"uv": [2.875, 3.5, 2.875, 3.5], "rotation": 270, "texture": "#0"},
				"up": {"uv": [2.875, 3.5, 2.875, 3.5], "rotation": 270, "texture": "#0"},
				"down": {"uv": [2.875, 3.5, 2.875, 3.5], "rotation": 270, "texture": "#0"}
			}
		},
		{
			"from": [8.0275, 9.84147, -0.792],
			"to": [8.2675, 9.96947, -0.54],
			"rotation": {"angle": -45, "axis": "z", "origin": [8.1475, 9.90547, -1.05]},
			"faces": {
				"north": {"uv": [2.875, 3.5, 2.875, 3.5], "rotation": 270, "texture": "#0"},
				"east": {"uv": [2.875, 3.5, 2.875, 3.5], "rotation": 270, "texture": "#0"},
				"south": {"uv": [2.875, 3.5, 2.875, 3.5], "rotation": 270, "texture": "#0"},
				"west": {"uv": [2.875, 3.5, 2.875, 3.5], "rotation": 270, "texture": "#0"},
				"up": {"uv": [2.875, 3.5, 2.875, 3.5], "rotation": 270, "texture": "#0"},
				"down": {"uv": [2.875, 3.5, 2.875, 3.5], "rotation": 270, "texture": "#0"}
			}
		},
		{
			"from": [8.0275, 9.84147, -0.024],
			"to": [8.2675, 9.96947, 0.228],
			"rotation": {"angle": -45, "axis": "z", "origin": [8.1475, 9.90547, -0.282]},
			"faces": {
				"north": {"uv": [2.875, 3.5, 2.875, 3.5], "rotation": 270, "texture": "#0"},
				"east": {"uv": [2.875, 3.5, 2.875, 3.5], "rotation": 270, "texture": "#0"},
				"south": {"uv": [2.875, 3.5, 2.875, 3.5], "rotation": 270, "texture": "#0"},
				"west": {"uv": [2.875, 3.5, 2.875, 3.5], "rotation": 270, "texture": "#0"},
				"up": {"uv": [2.875, 3.5, 2.875, 3.5], "rotation": 270, "texture": "#0"},
				"down": {"uv": [2.875, 3.5, 2.875, 3.5], "rotation": 270, "texture": "#0"}
			}
		},
		{
			"from": [8.4107, 9.84147, -0.792],
			"to": [8.6507, 9.96947, -0.54],
			"rotation": {"angle": 45, "axis": "z", "origin": [8.5307, 9.90547, -1.05]},
			"faces": {
				"north": {"uv": [2.875, 3.5, 2.875, 3.5], "rotation": 270, "texture": "#0"},
				"east": {"uv": [2.875, 3.5, 2.875, 3.5], "rotation": 270, "texture": "#0"},
				"south": {"uv": [2.875, 3.5, 2.875, 3.5], "rotation": 270, "texture": "#0"},
				"west": {"uv": [2.875, 3.5, 2.875, 3.5], "rotation": 270, "texture": "#0"},
				"up": {"uv": [2.875, 3.5, 2.875, 3.5], "rotation": 270, "texture": "#0"},
				"down": {"uv": [2.875, 3.5, 2.875, 3.5], "rotation": 270, "texture": "#0"}
			}
		},
		{
			"from": [8.4107, 9.84147, -0.024],
			"to": [8.6507, 9.96947, 0.228],
			"rotation": {"angle": 45, "axis": "z", "origin": [8.5307, 9.90547, -0.282]},
			"faces": {
				"north": {"uv": [2.875, 3.5, 2.875, 3.5], "rotation": 270, "texture": "#0"},
				"east": {"uv": [2.875, 3.5, 2.875, 3.5], "rotation": 270, "texture": "#0"},
				"south": {"uv": [2.875, 3.5, 2.875, 3.5], "rotation": 270, "texture": "#0"},
				"west": {"uv": [2.875, 3.5, 2.875, 3.5], "rotation": 270, "texture": "#0"},
				"up": {"uv": [2.875, 3.5, 2.875, 3.5], "rotation": 270, "texture": "#0"},
				"down": {"uv": [2.875, 3.5, 2.875, 3.5], "rotation": 270, "texture": "#0"}
			}
		},
		{
			"from": [8.3707, 9.86821, -1.336],
			"to": [8.4987, 10.04421, 0.58],
			"rotation": {"angle": -45, "axis": "z", "origin": [8.4667, 9.95621, -0.026]},
			"faces": {
				"north": {"uv": [3, 3, 3, 3], "texture": "#0"},
				"east": {"uv": [3, 3, 3, 3], "rotation": 180, "texture": "#0"},
				"south": {"uv": [3, 3, 3, 3], "rotation": 180, "texture": "#0"},
				"west": {"uv": [3, 3, 3, 3], "rotation": 180, "texture": "#0"},
				"up": {"uv": [3, 3, 3, 3], "rotation": 180, "texture": "#0"},
				"down": {"uv": [3, 3, 3, 3], "rotation": 180, "texture": "#0"}
			}
		},
		{
			"from": [8.1787, 9.86821, -1.304],
			"to": [8.4347, 10.04421, -1.212],
			"rotation": {"angle": -45, "axis": "z", "origin": [8.4667, 9.95621, -0.058]},
			"faces": {
				"north": {"uv": [6.875, 11.5, 6.875, 11.5], "texture": "#0"},
				"east": {"uv": [6.875, 11.5, 6.875, 11.5], "texture": "#0"},
				"south": {"uv": [6.875, 11.5, 6.875, 11.5], "texture": "#0"},
				"west": {"uv": [6.875, 11.5, 6.875, 11.5], "texture": "#0"},
				"up": {"uv": [6.875, 11.5, 6.875, 11.5], "texture": "#0"},
				"down": {"uv": [6.875, 11.5, 6.875, 11.5], "texture": "#0"}
			}
		},
		{
			"from": [8.338, 10.04535, -15.68],
			"to": [8.338, 10.12535, -1.244],
			"rotation": {"angle": 0, "axis": "y", "origin": [8.44956, 10.06935, -1.722]},
			"faces": {
				"north": {"uv": [7.375, 7.625, 7.375, 7.625], "texture": "#0"},
				"east": {"uv": [8.875, 7.125, 8.875, 7.125], "texture": "#0"},
				"south": {"uv": [8.875, 7.125, 8.875, 7.125], "texture": "#0"},
				"west": {"uv": [8.875, 7.125, 8.875, 7.125], "texture": "#0"},
				"up": {"uv": [8.875, 7.125, 8.875, 7.125], "texture": "#0"},
				"down": {"uv": [8.875, 7.125, 8.875, 7.125], "texture": "#0"}
			}
		},
		{
			"from": [8.298, 10.08535, -15.68],
			"to": [8.378, 10.08535, -1.244],
			"rotation": {"angle": 0, "axis": "y", "origin": [8.338, 10.08535, -4.01]},
			"faces": {
				"north": {"uv": [7.375, 7.625, 7.375, 7.625], "rotation": 90, "texture": "#0"},
				"east": {"uv": [8.875, 7.125, 8.875, 7.125], "rotation": 270, "texture": "#0"},
				"south": {"uv": [8.875, 7.125, 8.875, 7.125], "rotation": 270, "texture": "#0"},
				"west": {"uv": [8.875, 7.125, 8.875, 7.125], "rotation": 270, "texture": "#0"},
				"up": {"uv": [8.875, 7.125, 8.875, 7.125], "rotation": 270, "texture": "#0"},
				"down": {"uv": [8.875, 7.125, 8.875, 7.125], "rotation": 270, "texture": "#0"}
			}
		},
		{
			"from": [7.99088, 10.48826, -0.68822],
			"to": [8.69088, 10.60026, -0.57622],
			"rotation": {"angle": 45, "axis": "x", "origin": [7.95688, 10.56026, -0.68022]},
			"faces": {
				"north": {"uv": [4.375, 3.375, 4.375, 3.375], "rotation": 90, "texture": "#0"},
				"east": {"uv": [4.375, 3.375, 4.375, 3.375], "rotation": 90, "texture": "#0"},
				"south": {"uv": [4.375, 3.375, 4.375, 3.375], "rotation": 90, "texture": "#0"},
				"west": {"uv": [4.375, 3.375, 4.375, 3.375], "rotation": 90, "texture": "#0"},
				"up": {"uv": [4.375, 3.375, 4.375, 3.375], "rotation": 90, "texture": "#0"},
				"down": {"uv": [4.375, 3.375, 4.375, 3.375], "rotation": 90, "texture": "#0"}
			}
		},
		{
			"from": [7.99088, 10.48826, 0.07978],
			"to": [8.69088, 10.60026, 0.19178],
			"rotation": {"angle": 45, "axis": "x", "origin": [7.95688, 10.56026, 0.08778]},
			"faces": {
				"north": {"uv": [4.375, 3.375, 4.375, 3.375], "rotation": 90, "texture": "#0"},
				"east": {"uv": [4.375, 3.375, 4.375, 3.375], "rotation": 90, "texture": "#0"},
				"south": {"uv": [4.375, 3.375, 4.375, 3.375], "rotation": 90, "texture": "#0"},
				"west": {"uv": [4.375, 3.375, 4.375, 3.375], "rotation": 90, "texture": "#0"},
				"up": {"uv": [4.375, 3.375, 4.375, 3.375], "rotation": 90, "texture": "#0"},
				"down": {"uv": [4.375, 3.375, 4.375, 3.375], "rotation": 90, "texture": "#0"}
			}
		}
	],
	"display": {
		"thirdperson_righthand": {
			"rotation": [0, 0, 7],
			"translation": [-0.75, -2.25, 2],
			"scale": [1.14, 1, 1]
		},
		"thirdperson_lefthand": {
			"rotation": [0, 0, 7],
			"translation": [-0.25, -1.75, 2.75],
			"scale": [1.14, 1, 1]
		},
		"firstperson_righthand": {
			"translation": [-5, 0.75, 2.75],
			"scale": [1.25, 1.19, 1.14]
		},
		"firstperson_lefthand": {
			"translation": [-5.25, 0.75, 2.75],
			"scale": [1.25, 1.19, 1.14]
		},
		"gui": {
			"rotation": [23, 38, -16],
			"translation": [-0.5, -2.75, 0],
			"scale": [1.64, 1.41461, 1.27094]
		},
		"head": {
			"rotation": [0, -139.5, 90],
			"translation": [-2.5, 6.5, 2.5],
			"scale": [1.89781, 1.89781, 1.89781]
		},
		"fixed": {
			"rotation": [0, 90, 0],
			"translation": [0, 0, -1.25],
			"scale": [1.22, 1.22, 1.22]
		}
	}
}