{
	"credit": "Made with Blockbench",
	"textures": {
		"0": "gci:items/common/mpz",
		"particle": "gci:items/common/mpz"
	},
	"elements": [
		{
			"name": "hexadecagon",
			"from": [6.74739, 12.97696, 6.98148],
			"to": [7.29536, 13.41571, 7.50948],
			"rotation": {"angle": 0, "axis": "y", "origin": [7.01107, 12.72635, 7.86386]},
			"faces": {
				"north": {"uv": [0.66667, 3.33333, 1.66667, 4.33333], "texture": "#0"},
				"east": {"uv": [0.66667, 3.33333, 1.66667, 4.33333], "texture": "#0"},
				"south": {"uv": [0.66667, 3.33333, 1.66667, 4.33333], "texture": "#0"},
				"west": {"uv": [0.66667, 3.33333, 1.66667, 4.33333], "texture": "#0"},
				"up": {"uv": [0.66667, 3.33333, 1.66667, 4.33333], "rotation": 270, "texture": "#0"},
				"down": {"uv": [0.66667, 3.33333, 1.66667, 4.33333], "rotation": 90, "texture": "#0"}
			}
		},
		{
			"name": "hexadecagon",
			"from": [6.86739, 12.30043, 6.89247],
			"to": [7.17536, 12.46843, 7.21122],
			"rotation": {"angle": 45, "axis": "x", "origin": [7.01107, 12.72635, 7.86386]},
			"faces": {
				"north": {"uv": [0.66667, 3.33333, 1.66667, 4.33333], "rotation": 90, "texture": "#0"},
				"east": {"uv": [0.66667, 3.33333, 1.66667, 4.33333], "rotation": 90, "texture": "#0"},
				"south": {"uv": [0.66667, 3.33333, 1.66667, 4.33333], "rotation": 90, "texture": "#0"},
				"west": {"uv": [0.66667, 3.33333, 1.66667, 4.33333], "rotation": 270, "texture": "#0"},
				"up": {"uv": [0.66667, 3.33333, 1.66667, 4.33333], "texture": "#0"},
				"down": {"uv": [0.66667, 3.33333, 1.66667, 4.33333], "rotation": 180, "texture": "#0"}
			}
		},
		{
			"name": "hexadecagon",
			"from": [6.86739, 12.88667, 7.1012],
			"to": [7.17536, 13.05467, 7.41995],
			"rotation": {"angle": 0, "axis": "y", "origin": [7.01107, 12.72635, 7.86386]},
			"faces": {
				"north": {"uv": [0.66667, 3.33333, 1.66667, 4.33333], "rotation": 90, "texture": "#0"},
				"east": {"uv": [0.66667, 3.33333, 1.66667, 4.33333], "rotation": 90, "texture": "#0"},
				"south": {"uv": [0.66667, 3.33333, 1.66667, 4.33333], "rotation": 90, "texture": "#0"},
				"west": {"uv": [0.66667, 3.33333, 1.66667, 4.33333], "rotation": 270, "texture": "#0"},
				"up": {"uv": [0.66667, 3.33333, 1.66667, 4.33333], "texture": "#0"},
				"down": {"uv": [0.66667, 3.33333, 1.66667, 4.33333], "rotation": 180, "texture": "#0"}
			}
		},
		{
			"name": "hexadecagon",
			"from": [6.74739, 12.85696, 7.40148],
			"to": [7.29536, 13.29571, 8.64948],
			"rotation": {"angle": 0, "axis": "y", "origin": [7.01107, 12.72635, 7.86386]},
			"faces": {
				"north": {"uv": [0.66667, 3.33333, 1.66667, 4.33333], "texture": "#0"},
				"east": {"uv": [0.66667, 3.33333, 1.66667, 4.33333], "texture": "#0"},
				"south": {"uv": [0.66667, 3.33333, 1.66667, 4.33333], "texture": "#0"},
				"west": {"uv": [0.66667, 3.33333, 1.66667, 4.33333], "texture": "#0"},
				"up": {"uv": [0.66667, 3.33333, 1.66667, 4.33333], "rotation": 270, "texture": "#0"},
				"down": {"uv": [0.66667, 3.33333, 1.66667, 4.33333], "rotation": 90, "texture": "#0"}
			}
		},
		{
			"name": "hexadecagon",
			"from": [6.86739, 12.85696, 7.76148],
			"to": [7.17536, 13.17571, 9.00948],
			"rotation": {"angle": 0, "axis": "y", "origin": [7.01107, 12.72635, 8.22386]},
			"faces": {
				"north": {"uv": [0.66667, 3.33333, 1.66667, 4.33333], "texture": "#0"},
				"east": {"uv": [0.66667, 3.33333, 1.66667, 4.33333], "texture": "#0"},
				"south": {"uv": [0.66667, 3.33333, 1.66667, 4.33333], "texture": "#0"},
				"west": {"uv": [0.66667, 3.33333, 1.66667, 4.33333], "texture": "#0"},
				"up": {"uv": [0.66667, 3.33333, 1.66667, 4.33333], "rotation": 270, "texture": "#0"},
				"down": {"uv": [0.66667, 3.33333, 1.66667, 4.33333], "rotation": 90, "texture": "#0"}
			}
		},
		{
			"name": "hexadecagon",
			"from": [7.37775, 12.85696, 8.50598],
			"to": [7.90575, 12.93571, 9.05396],
			"rotation": {"angle": -45, "axis": "y", "origin": [7.01107, 13.30631, 8.16386]},
			"faces": {
				"north": {"uv": [0.66667, 4.33333, 1.66667, 3.33333], "texture": "#0"},
				"east": {"uv": [0.66667, 4.33333, 1.66667, 3.33333], "texture": "#0"},
				"south": {"uv": [0.66667, 4.33333, 1.66667, 3.33333], "texture": "#0"},
				"west": {"uv": [0.66667, 4.33333, 1.66667, 3.33333], "texture": "#0"},
				"up": {"uv": [0.66667, 4.33333, 1.66667, 3.33333], "rotation": 180, "texture": "#0"},
				"down": {"uv": [0.66667, 4.33333, 1.66667, 3.33333], "rotation": 180, "texture": "#0"}
			}
		},
		{
			"name": "hexadecagon",
			"from": [7.37775, 12.93571, 8.50598],
			"to": [8.02575, 13.01446, 9.17396],
			"rotation": {"angle": -45, "axis": "y", "origin": [7.01107, 13.30631, 8.16386]},
			"faces": {
				"north": {"uv": [0.66667, 4.33333, 1.66667, 3.33333], "texture": "#0"},
				"east": {"uv": [0.66667, 4.33333, 1.66667, 3.33333], "texture": "#0"},
				"south": {"uv": [0.66667, 4.33333, 1.66667, 3.33333], "texture": "#0"},
				"west": {"uv": [0.66667, 4.33333, 1.66667, 3.33333], "texture": "#0"},
				"up": {"uv": [0.66667, 4.33333, 1.66667, 3.33333], "rotation": 180, "texture": "#0"},
				"down": {"uv": [0.66667, 4.33333, 1.66667, 3.33333], "rotation": 180, "texture": "#0"}
			}
		},
		{
			"name": "hexadecagon",
			"from": [7.37775, 13.05571, 8.50598],
			"to": [8.02575, 13.13446, 9.17396],
			"rotation": {"angle": -45, "axis": "y", "origin": [7.01107, 13.42631, 8.16386]},
			"faces": {
				"north": {"uv": [0.66667, 4.33333, 1.66667, 3.33333], "texture": "#0"},
				"east": {"uv": [0.66667, 4.33333, 1.66667, 3.33333], "texture": "#0"},
				"south": {"uv": [0.66667, 4.33333, 1.66667, 3.33333], "texture": "#0"},
				"west": {"uv": [0.66667, 4.33333, 1.66667, 3.33333], "texture": "#0"},
				"up": {"uv": [0.66667, 4.33333, 1.66667, 3.33333], "rotation": 180, "texture": "#0"},
				"down": {"uv": [0.66667, 4.33333, 1.66667, 3.33333], "rotation": 180, "texture": "#0"}
			}
		},
		{
			"name": "hexadecagon",
			"from": [7.25775, 13.01446, 8.38598],
			"to": [8.26575, 13.09321, 9.41396],
			"rotation": {"angle": -45, "axis": "y", "origin": [7.01107, 13.38506, 8.16386]},
			"faces": {
				"north": {"uv": [0.66667, 4.33333, 1.66667, 3.33333], "texture": "#0"},
				"east": {"uv": [0.66667, 4.33333, 1.66667, 3.33333], "texture": "#0"},
				"south": {"uv": [0.66667, 4.33333, 1.66667, 3.33333], "texture": "#0"},
				"west": {"uv": [0.66667, 4.33333, 1.66667, 3.33333], "texture": "#0"},
				"up": {"uv": [0.66667, 4.33333, 1.66667, 3.33333], "rotation": 180, "texture": "#0"},
				"down": {"uv": [0.66667, 4.33333, 1.66667, 3.33333], "rotation": 180, "texture": "#0"}
			}
		},
		{
			"name": "hexadecagon",
			"from": [6.74739, 12.85696, 7.52418],
			"to": [7.29536, 13.53571, 8.22918],
			"rotation": {"angle": 0, "axis": "y", "origin": [7.01107, 12.72635, 7.86386]},
			"faces": {
				"north": {"uv": [0.66667, 3.33333, 1.66667, 4.33333], "texture": "#0"},
				"east": {"uv": [0.66667, 3.33333, 1.66667, 4.33333], "texture": "#0"},
				"south": {"uv": [0.66667, 3.33333, 1.66667, 4.33333], "texture": "#0"},
				"west": {"uv": [0.66667, 3.33333, 1.66667, 4.33333], "texture": "#0"},
				"up": {"uv": [0.66667, 3.33333, 1.66667, 4.33333], "rotation": 270, "texture": "#0"},
				"down": {"uv": [0.66667, 3.33333, 1.66667, 4.33333], "rotation": 90, "texture": "#0"}
			}
		},
		{
			"name": "hexadecagon",
			"from": [6.61376, 12.7587, 7.52418],
			"to": [6.87251, 13.06667, 8.22918],
			"rotation": {"angle": 0, "axis": "y", "origin": [7.01107, 12.72635, 7.86386]},
			"faces": {
				"north": {"uv": [0.66667, 3.33333, 1.66667, 4.33333], "rotation": 270, "texture": "#0"},
				"east": {"uv": [0.66667, 3.33333, 1.66667, 4.33333], "texture": "#0"},
				"south": {"uv": [0.66667, 3.33333, 1.66667, 4.33333], "rotation": 90, "texture": "#0"},
				"west": {"uv": [0.66667, 3.33333, 1.66667, 4.33333], "rotation": 180, "texture": "#0"},
				"up": {"uv": [0.66667, 3.33333, 1.66667, 4.33333], "rotation": 90, "texture": "#0"},
				"down": {"uv": [0.66667, 3.33333, 1.66667, 4.33333], "rotation": 90, "texture": "#0"}
			}
		},
		{
			"name": "hexadecagon",
			"from": [7.3893, 12.53283, 7.52418],
			"to": [7.81727, 13.09158, 8.22918],
			"rotation": {"angle": 45, "axis": "z", "origin": [7.01107, 12.72635, 7.86386]},
			"faces": {
				"north": {"uv": [0.66667, 3.33333, 1.66667, 4.33333], "texture": "#0"},
				"east": {"uv": [0.66667, 3.33333, 1.66667, 4.33333], "texture": "#0"},
				"south": {"uv": [0.66667, 3.33333, 1.66667, 4.33333], "texture": "#0"},
				"west": {"uv": [0.66667, 3.33333, 1.66667, 4.33333], "texture": "#0"},
				"up": {"uv": [0.66667, 3.33333, 1.66667, 4.33333], "rotation": 270, "texture": "#0"},
				"down": {"uv": [0.66667, 3.33333, 1.66667, 4.33333], "rotation": 90, "texture": "#0"}
			}
		},
		{
			"name": "hexadecagon",
			"from": [7.61614, 12.81354, 7.64418],
			"to": [8.04411, 13.37229, 8.10918],
			"rotation": {"angle": 22.5, "axis": "z", "origin": [7.01107, 12.72635, 7.86386]},
			"faces": {
				"north": {"uv": [0.66667, 3.33333, 1.66667, 4.33333], "texture": "#0"},
				"east": {"uv": [0.66667, 3.33333, 1.66667, 4.33333], "texture": "#0"},
				"south": {"uv": [0.66667, 3.33333, 1.66667, 4.33333], "texture": "#0"},
				"west": {"uv": [0.66667, 3.33333, 1.66667, 4.33333], "texture": "#0"},
				"up": {"uv": [0.66667, 3.33333, 1.66667, 4.33333], "rotation": 270, "texture": "#0"},
				"down": {"uv": [0.66667, 3.33333, 1.66667, 4.33333], "rotation": 90, "texture": "#0"}
			}
		},
		{
			"name": "hexadecagon",
			"from": [7.71828, 13.1597, 7.76418],
			"to": [8.74625, 13.71845, 7.98918],
			"rotation": {"angle": 0, "axis": "y", "origin": [7.01107, 12.72635, 7.86386]},
			"faces": {
				"north": {"uv": [0.66667, 3.33333, 1.66667, 4.33333], "texture": "#0"},
				"east": {"uv": [0.66667, 3.33333, 1.66667, 4.33333], "texture": "#0"},
				"south": {"uv": [0.66667, 3.33333, 1.66667, 4.33333], "texture": "#0"},
				"west": {"uv": [0.66667, 3.33333, 1.66667, 4.33333], "texture": "#0"},
				"up": {"uv": [0.66667, 3.33333, 1.66667, 4.33333], "rotation": 270, "texture": "#0"},
				"down": {"uv": [0.66667, 3.33333, 1.66667, 4.33333], "rotation": 90, "texture": "#0"}
			}
		},
		{
			"name": "hexadecagon",
			"from": [8.61828, 13.4597, 7.76418],
			"to": [9.04625, 13.71845, 7.86918],
			"rotation": {"angle": 0, "axis": "y", "origin": [7.01107, 12.72635, 7.86386]},
			"faces": {
				"north": {"uv": [0.66667, 3.33333, 1.66667, 4.33333], "texture": "#0"},
				"east": {"uv": [0.66667, 3.33333, 1.66667, 4.33333], "texture": "#0"},
				"south": {"uv": [0.66667, 3.33333, 1.66667, 4.33333], "texture": "#0"},
				"west": {"uv": [0.66667, 3.33333, 1.66667, 4.33333], "texture": "#0"},
				"up": {"uv": [0.66667, 3.33333, 1.66667, 4.33333], "rotation": 270, "texture": "#0"},
				"down": {"uv": [0.66667, 3.33333, 1.66667, 4.33333], "rotation": 90, "texture": "#0"}
			}
		},
		{
			"name": "hexadecagon",
			"from": [8.744, 12.62505, 7.76418],
			"to": [9.17198, 12.8838, 7.86918],
			"rotation": {"angle": 22.5, "axis": "z", "origin": [7.01107, 12.72635, 7.86386]},
			"faces": {
				"north": {"uv": [0.66667, 3.33333, 1.66667, 4.33333], "texture": "#0"},
				"east": {"uv": [0.66667, 3.33333, 1.66667, 4.33333], "texture": "#0"},
				"south": {"uv": [0.66667, 3.33333, 1.66667, 4.33333], "texture": "#0"},
				"west": {"uv": [0.66667, 3.33333, 1.66667, 4.33333], "texture": "#0"},
				"up": {"uv": [0.66667, 3.33333, 1.66667, 4.33333], "rotation": 270, "texture": "#0"},
				"down": {"uv": [0.66667, 3.33333, 1.66667, 4.33333], "rotation": 90, "texture": "#0"}
			}
		},
		{
			"name": "hexadecagon",
			"from": [6.21944, 12.5474, 7.52418],
			"to": [6.64742, 13.10615, 8.22918],
			"rotation": {"angle": -45, "axis": "z", "origin": [7.01107, 12.72635, 7.86386]},
			"faces": {
				"north": {"uv": [1.66667, 3.33333, 0.66667, 4.33333], "texture": "#0"},
				"east": {"uv": [1.66667, 3.33333, 0.66667, 4.33333], "texture": "#0"},
				"south": {"uv": [1.66667, 3.33333, 0.66667, 4.33333], "texture": "#0"},
				"west": {"uv": [1.66667, 3.33333, 0.66667, 4.33333], "texture": "#0"},
				"up": {"uv": [0.66667, 4.33333, 1.66667, 3.33333], "rotation": 270, "texture": "#0"},
				"down": {"uv": [0.66667, 4.33333, 1.66667, 3.33333], "rotation": 90, "texture": "#0"}
			}
		},
		{
			"name": "hexadecagon",
			"from": [5.99707, 12.82143, 7.64418],
			"to": [6.42504, 13.38018, 8.10918],
			"rotation": {"angle": -22.5, "axis": "z", "origin": [7.01107, 12.72635, 7.86386]},
			"faces": {
				"north": {"uv": [1.66667, 3.33333, 0.66667, 4.33333], "texture": "#0"},
				"east": {"uv": [1.66667, 3.33333, 0.66667, 4.33333], "texture": "#0"},
				"south": {"uv": [1.66667, 3.33333, 0.66667, 4.33333], "texture": "#0"},
				"west": {"uv": [1.66667, 3.33333, 0.66667, 4.33333], "texture": "#0"},
				"up": {"uv": [0.66667, 4.33333, 1.66667, 3.33333], "rotation": 270, "texture": "#0"},
				"down": {"uv": [0.66667, 4.33333, 1.66667, 3.33333], "rotation": 90, "texture": "#0"}
			}
		},
		{
			"name": "hexadecagon",
			"from": [5.2965, 13.1597, 7.76418],
			"to": [6.32447, 13.71845, 7.98918],
			"rotation": {"angle": 0, "axis": "y", "origin": [7.01107, 12.72635, 7.86386]},
			"faces": {
				"north": {"uv": [1.66667, 3.33333, 0.66667, 4.33333], "texture": "#0"},
				"east": {"uv": [1.66667, 3.33333, 0.66667, 4.33333], "texture": "#0"},
				"south": {"uv": [1.66667, 3.33333, 0.66667, 4.33333], "texture": "#0"},
				"west": {"uv": [1.66667, 3.33333, 0.66667, 4.33333], "texture": "#0"},
				"up": {"uv": [0.66667, 4.33333, 1.66667, 3.33333], "rotation": 270, "texture": "#0"},
				"down": {"uv": [0.66667, 4.33333, 1.66667, 3.33333], "rotation": 90, "texture": "#0"}
			}
		},
		{
			"name": "hexadecagon",
			"from": [4.9965, 13.4597, 7.76418],
			"to": [5.42447, 13.71845, 7.86918],
			"rotation": {"angle": 0, "axis": "y", "origin": [7.01107, 12.72635, 7.86386]},
			"faces": {
				"north": {"uv": [1.66667, 3.33333, 0.66667, 4.33333], "texture": "#0"},
				"east": {"uv": [1.66667, 3.33333, 0.66667, 4.33333], "texture": "#0"},
				"south": {"uv": [1.66667, 3.33333, 0.66667, 4.33333], "texture": "#0"},
				"west": {"uv": [1.66667, 3.33333, 0.66667, 4.33333], "texture": "#0"},
				"up": {"uv": [0.66667, 4.33333, 1.66667, 3.33333], "rotation": 270, "texture": "#0"},
				"down": {"uv": [0.66667, 4.33333, 1.66667, 3.33333], "rotation": 90, "texture": "#0"}
			}
		},
		{
			"name": "hexadecagon",
			"from": [4.86921, 12.63293, 7.76418],
			"to": [5.29718, 12.89168, 7.86918],
			"rotation": {"angle": -22.5, "axis": "z", "origin": [7.01107, 12.72635, 7.86386]},
			"faces": {
				"north": {"uv": [1.66667, 3.33333, 0.66667, 4.33333], "texture": "#0"},
				"east": {"uv": [1.66667, 3.33333, 0.66667, 4.33333], "texture": "#0"},
				"south": {"uv": [1.66667, 3.33333, 0.66667, 4.33333], "texture": "#0"},
				"west": {"uv": [1.66667, 3.33333, 0.66667, 4.33333], "texture": "#0"},
				"up": {"uv": [0.66667, 4.33333, 1.66667, 3.33333], "rotation": 270, "texture": "#0"},
				"down": {"uv": [0.66667, 4.33333, 1.66667, 3.33333], "rotation": 90, "texture": "#0"}
			}
		},
		{
			"name": "hexadecagon",
			"from": [6.57754, 12.39113, 7.90897],
			"to": [7.46854, 13.10888, 8.0862],
			"rotation": {"angle": -22.5, "axis": "y", "origin": [7.00982, 13.91419, 7.99034]},
			"faces": {
				"north": {"uv": [6, 3.33333, 7, 4.33333], "texture": "#0"},
				"east": {"uv": [6, 3.33333, 7, 4.33333], "texture": "#0"},
				"south": {"uv": [6, 3.33333, 7, 4.33333], "texture": "#0"},
				"west": {"uv": [6, 3.33333, 7, 4.33333], "texture": "#0"},
				"up": {"uv": [6, 3.33333, 7, 4.33333], "rotation": 270, "texture": "#0"},
				"down": {"uv": [6, 3.33333, 7, 4.33333], "rotation": 90, "texture": "#0"}
			}
		},
		{
			"name": "hexadecagon",
			"from": [6.57377, 12.39113, 7.91348],
			"to": [7.46477, 13.10888, 8.09071],
			"rotation": {"angle": 0, "axis": "y", "origin": [7.00982, 13.91419, 7.99034]},
			"faces": {
				"north": {"uv": [6, 3.33333, 7, 4.33333], "texture": "#0"},
				"east": {"uv": [6, 3.33333, 7, 4.33333], "texture": "#0"},
				"south": {"uv": [6, 3.33333, 7, 4.33333], "texture": "#0"},
				"west": {"uv": [6, 3.33333, 7, 4.33333], "texture": "#0"},
				"up": {"uv": [6, 3.33333, 7, 4.33333], "rotation": 270, "texture": "#0"},
				"down": {"uv": [6, 3.33333, 7, 4.33333], "rotation": 90, "texture": "#0"}
			}
		},
		{
			"name": "hexadecagon",
			"from": [6.56855, 12.39113, 7.9162],
			"to": [7.45955, 13.10888, 8.09343],
			"rotation": {"angle": 22.5, "axis": "y", "origin": [7.00982, 13.91419, 7.99034]},
			"faces": {
				"north": {"uv": [6, 3.33333, 7, 4.33333], "texture": "#0"},
				"east": {"uv": [6, 3.33333, 7, 4.33333], "texture": "#0"},
				"south": {"uv": [6, 3.33333, 7, 4.33333], "texture": "#0"},
				"west": {"uv": [6, 3.33333, 7, 4.33333], "texture": "#0"},
				"up": {"uv": [6, 3.33333, 7, 4.33333], "rotation": 270, "texture": "#0"},
				"down": {"uv": [6, 3.33333, 7, 4.33333], "rotation": 90, "texture": "#0"}
			}
		},
		{
			"name": "hexadecagon",
			"from": [6.56269, 12.39113, 7.91672],
			"to": [7.45369, 13.10888, 8.09395],
			"rotation": {"angle": 45, "axis": "y", "origin": [7.00982, 13.91419, 7.99034]},
			"faces": {
				"north": {"uv": [6, 3.33333, 7, 4.33333], "texture": "#0"},
				"east": {"uv": [6, 3.33333, 7, 4.33333], "texture": "#0"},
				"south": {"uv": [6, 3.33333, 7, 4.33333], "texture": "#0"},
				"west": {"uv": [6, 3.33333, 7, 4.33333], "texture": "#0"},
				"up": {"uv": [6, 3.33333, 7, 4.33333], "rotation": 270, "texture": "#0"},
				"down": {"uv": [6, 3.33333, 7, 4.33333], "rotation": 90, "texture": "#0"}
			}
		},
		{
			"name": "hexadecagon",
			"from": [6.93443, 12.39113, 7.55208],
			"to": [7.11166, 13.10888, 8.44308],
			"rotation": {"angle": -22.5, "axis": "y", "origin": [7.00982, 13.91419, 7.99034]},
			"faces": {
				"north": {"uv": [6, 3.33333, 7, 4.33333], "texture": "#0"},
				"east": {"uv": [6, 3.33333, 7, 4.33333], "texture": "#0"},
				"south": {"uv": [6, 3.33333, 7, 4.33333], "texture": "#0"},
				"west": {"uv": [6, 3.33333, 7, 4.33333], "texture": "#0"},
				"up": {"uv": [6, 3.33333, 7, 4.33333], "rotation": 270, "texture": "#0"},
				"down": {"uv": [6, 3.33333, 7, 4.33333], "rotation": 90, "texture": "#0"}
			}
		},
		{
			"name": "hexadecagon",
			"from": [6.93065, 12.39113, 7.55659],
			"to": [7.10788, 13.10888, 8.44759],
			"rotation": {"angle": 0, "axis": "y", "origin": [7.00982, 13.91419, 7.99034]},
			"faces": {
				"north": {"uv": [6, 3.33333, 7, 4.33333], "texture": "#0"},
				"east": {"uv": [6, 3.33333, 7, 4.33333], "texture": "#0"},
				"south": {"uv": [6, 3.33333, 7, 4.33333], "texture": "#0"},
				"west": {"uv": [6, 3.33333, 7, 4.33333], "texture": "#0"},
				"up": {"uv": [6, 3.33333, 7, 4.33333], "rotation": 270, "texture": "#0"},
				"down": {"uv": [6, 3.33333, 7, 4.33333], "rotation": 90, "texture": "#0"}
			}
		},
		{
			"name": "hexadecagon",
			"from": [6.92544, 12.39113, 7.55931],
			"to": [7.10267, 13.10888, 8.45031],
			"rotation": {"angle": 22.5, "axis": "y", "origin": [7.00982, 13.91419, 7.99034]},
			"faces": {
				"north": {"uv": [6, 3.33333, 7, 4.33333], "texture": "#0"},
				"east": {"uv": [6, 3.33333, 7, 4.33333], "texture": "#0"},
				"south": {"uv": [6, 3.33333, 7, 4.33333], "texture": "#0"},
				"west": {"uv": [6, 3.33333, 7, 4.33333], "texture": "#0"},
				"up": {"uv": [6, 3.33333, 7, 4.33333], "rotation": 270, "texture": "#0"},
				"down": {"uv": [6, 3.33333, 7, 4.33333], "rotation": 90, "texture": "#0"}
			}
		},
		{
			"name": "hexadecagon",
			"from": [6.62739, 12.85696, 7.40148],
			"to": [7.41536, 13.41571, 8.34948],
			"rotation": {"angle": 0, "axis": "y", "origin": [7.01107, 12.72635, 7.86386]},
			"faces": {
				"north": {"uv": [0.66667, 3.33333, 1.66667, 4.33333], "texture": "#0"},
				"east": {"uv": [0.66667, 3.33333, 1.66667, 4.33333], "texture": "#0"},
				"south": {"uv": [0.66667, 3.33333, 1.66667, 4.33333], "texture": "#0"},
				"west": {"uv": [0.66667, 3.33333, 1.66667, 4.33333], "texture": "#0"},
				"up": {"uv": [0.66667, 3.33333, 1.66667, 4.33333], "rotation": 270, "texture": "#0"},
				"down": {"uv": [0.66667, 3.33333, 1.66667, 4.33333], "rotation": 90, "texture": "#0"}
			}
		},
		{
			"name": "hexadecagon",
			"from": [6.74739, 12.97696, 6.98148],
			"to": [7.29536, 13.41571, 7.50948],
			"rotation": {"angle": 0, "axis": "y", "origin": [7.01107, 12.72635, 7.86386]},
			"faces": {
				"north": {"uv": [0.66667, 3.33333, 1.66667, 4.33333], "texture": "#0"},
				"east": {"uv": [0.66667, 3.33333, 1.66667, 4.33333], "texture": "#0"},
				"south": {"uv": [0.66667, 3.33333, 1.66667, 4.33333], "texture": "#0"},
				"west": {"uv": [0.66667, 3.33333, 1.66667, 4.33333], "texture": "#0"},
				"up": {"uv": [0.66667, 3.33333, 1.66667, 4.33333], "rotation": 270, "texture": "#0"},
				"down": {"uv": [0.66667, 3.33333, 1.66667, 4.33333], "rotation": 90, "texture": "#0"}
			}
		},
		{
			"name": "hexadecagon",
			"from": [6.86739, 12.30043, 6.89247],
			"to": [7.17536, 12.46843, 7.21122],
			"rotation": {"angle": 45, "axis": "x", "origin": [7.01107, 12.72635, 7.86386]},
			"faces": {
				"north": {"uv": [0.66667, 3.33333, 1.66667, 4.33333], "rotation": 90, "texture": "#0"},
				"east": {"uv": [0.66667, 3.33333, 1.66667, 4.33333], "rotation": 90, "texture": "#0"},
				"south": {"uv": [0.66667, 3.33333, 1.66667, 4.33333], "rotation": 90, "texture": "#0"},
				"west": {"uv": [0.66667, 3.33333, 1.66667, 4.33333], "rotation": 270, "texture": "#0"},
				"up": {"uv": [0.66667, 3.33333, 1.66667, 4.33333], "texture": "#0"},
				"down": {"uv": [0.66667, 3.33333, 1.66667, 4.33333], "rotation": 180, "texture": "#0"}
			}
		},
		{
			"name": "hexadecagon",
			"from": [6.86739, 12.88667, 7.1012],
			"to": [7.17536, 13.05467, 7.41995],
			"rotation": {"angle": 0, "axis": "y", "origin": [7.01107, 12.72635, 7.86386]},
			"faces": {
				"north": {"uv": [0.66667, 3.33333, 1.66667, 4.33333], "rotation": 90, "texture": "#0"},
				"east": {"uv": [0.66667, 3.33333, 1.66667, 4.33333], "rotation": 90, "texture": "#0"},
				"south": {"uv": [0.66667, 3.33333, 1.66667, 4.33333], "rotation": 90, "texture": "#0"},
				"west": {"uv": [0.66667, 3.33333, 1.66667, 4.33333], "rotation": 270, "texture": "#0"},
				"up": {"uv": [0.66667, 3.33333, 1.66667, 4.33333], "texture": "#0"},
				"down": {"uv": [0.66667, 3.33333, 1.66667, 4.33333], "rotation": 180, "texture": "#0"}
			}
		},
		{
			"name": "hexadecagon",
			"from": [6.74739, 12.85696, 7.40148],
			"to": [7.29536, 13.29571, 8.64948],
			"rotation": {"angle": 0, "axis": "y", "origin": [7.01107, 12.72635, 7.86386]},
			"faces": {
				"north": {"uv": [0.66667, 3.33333, 1.66667, 4.33333], "texture": "#0"},
				"east": {"uv": [0.66667, 3.33333, 1.66667, 4.33333], "texture": "#0"},
				"south": {"uv": [0.66667, 3.33333, 1.66667, 4.33333], "texture": "#0"},
				"west": {"uv": [0.66667, 3.33333, 1.66667, 4.33333], "texture": "#0"},
				"up": {"uv": [0.66667, 3.33333, 1.66667, 4.33333], "rotation": 270, "texture": "#0"},
				"down": {"uv": [0.66667, 3.33333, 1.66667, 4.33333], "rotation": 90, "texture": "#0"}
			}
		},
		{
			"name": "hexadecagon",
			"from": [6.86739, 12.85696, 7.76148],
			"to": [7.17536, 13.17571, 9.00948],
			"rotation": {"angle": 0, "axis": "y", "origin": [7.01107, 12.72635, 8.22386]},
			"faces": {
				"north": {"uv": [0.66667, 3.33333, 1.66667, 4.33333], "texture": "#0"},
				"east": {"uv": [0.66667, 3.33333, 1.66667, 4.33333], "texture": "#0"},
				"south": {"uv": [0.66667, 3.33333, 1.66667, 4.33333], "texture": "#0"},
				"west": {"uv": [0.66667, 3.33333, 1.66667, 4.33333], "texture": "#0"},
				"up": {"uv": [0.66667, 3.33333, 1.66667, 4.33333], "rotation": 270, "texture": "#0"},
				"down": {"uv": [0.66667, 3.33333, 1.66667, 4.33333], "rotation": 90, "texture": "#0"}
			}
		},
		{
			"name": "hexadecagon",
			"from": [7.37775, 12.85696, 8.50598],
			"to": [7.90575, 12.93571, 9.05396],
			"rotation": {"angle": -45, "axis": "y", "origin": [7.01107, 13.30631, 8.16386]},
			"faces": {
				"north": {"uv": [0.66667, 4.33333, 1.66667, 3.33333], "texture": "#0"},
				"east": {"uv": [0.66667, 4.33333, 1.66667, 3.33333], "texture": "#0"},
				"south": {"uv": [0.66667, 4.33333, 1.66667, 3.33333], "texture": "#0"},
				"west": {"uv": [0.66667, 4.33333, 1.66667, 3.33333], "texture": "#0"},
				"up": {"uv": [0.66667, 4.33333, 1.66667, 3.33333], "rotation": 180, "texture": "#0"},
				"down": {"uv": [0.66667, 4.33333, 1.66667, 3.33333], "rotation": 180, "texture": "#0"}
			}
		},
		{
			"name": "hexadecagon",
			"from": [7.37775, 12.93571, 8.50598],
			"to": [8.02575, 13.01446, 9.17396],
			"rotation": {"angle": -45, "axis": "y", "origin": [7.01107, 13.30631, 8.16386]},
			"faces": {
				"north": {"uv": [0.66667, 4.33333, 1.66667, 3.33333], "texture": "#0"},
				"east": {"uv": [0.66667, 4.33333, 1.66667, 3.33333], "texture": "#0"},
				"south": {"uv": [0.66667, 4.33333, 1.66667, 3.33333], "texture": "#0"},
				"west": {"uv": [0.66667, 4.33333, 1.66667, 3.33333], "texture": "#0"},
				"up": {"uv": [0.66667, 4.33333, 1.66667, 3.33333], "rotation": 180, "texture": "#0"},
				"down": {"uv": [0.66667, 4.33333, 1.66667, 3.33333], "rotation": 180, "texture": "#0"}
			}
		},
		{
			"name": "hexadecagon",
			"from": [7.37775, 13.05571, 8.50598],
			"to": [8.02575, 13.13446, 9.17396],
			"rotation": {"angle": -45, "axis": "y", "origin": [7.01107, 13.42631, 8.16386]},
			"faces": {
				"north": {"uv": [0.66667, 4.33333, 1.66667, 3.33333], "texture": "#0"},
				"east": {"uv": [0.66667, 4.33333, 1.66667, 3.33333], "texture": "#0"},
				"south": {"uv": [0.66667, 4.33333, 1.66667, 3.33333], "texture": "#0"},
				"west": {"uv": [0.66667, 4.33333, 1.66667, 3.33333], "texture": "#0"},
				"up": {"uv": [0.66667, 4.33333, 1.66667, 3.33333], "rotation": 180, "texture": "#0"},
				"down": {"uv": [0.66667, 4.33333, 1.66667, 3.33333], "rotation": 180, "texture": "#0"}
			}
		},
		{
			"name": "hexadecagon",
			"from": [7.25775, 13.01446, 8.38598],
			"to": [8.26575, 13.09321, 9.41396],
			"rotation": {"angle": -45, "axis": "y", "origin": [7.01107, 13.38506, 8.16386]},
			"faces": {
				"north": {"uv": [0.66667, 4.33333, 1.66667, 3.33333], "texture": "#0"},
				"east": {"uv": [0.66667, 4.33333, 1.66667, 3.33333], "texture": "#0"},
				"south": {"uv": [0.66667, 4.33333, 1.66667, 3.33333], "texture": "#0"},
				"west": {"uv": [0.66667, 4.33333, 1.66667, 3.33333], "texture": "#0"},
				"up": {"uv": [0.66667, 4.33333, 1.66667, 3.33333], "rotation": 180, "texture": "#0"},
				"down": {"uv": [0.66667, 4.33333, 1.66667, 3.33333], "rotation": 180, "texture": "#0"}
			}
		},
		{
			"name": "hexadecagon",
			"from": [6.74739, 12.85696, 7.52418],
			"to": [7.29536, 13.53571, 8.22918],
			"rotation": {"angle": 0, "axis": "y", "origin": [7.01107, 12.72635, 7.86386]},
			"faces": {
				"north": {"uv": [0.66667, 3.33333, 1.66667, 4.33333], "texture": "#0"},
				"east": {"uv": [0.66667, 3.33333, 1.66667, 4.33333], "texture": "#0"},
				"south": {"uv": [0.66667, 3.33333, 1.66667, 4.33333], "texture": "#0"},
				"west": {"uv": [0.66667, 3.33333, 1.66667, 4.33333], "texture": "#0"},
				"up": {"uv": [0.66667, 3.33333, 1.66667, 4.33333], "rotation": 270, "texture": "#0"},
				"down": {"uv": [0.66667, 3.33333, 1.66667, 4.33333], "rotation": 90, "texture": "#0"}
			}
		},
		{
			"name": "hexadecagon",
			"from": [6.61376, 12.7587, 7.52418],
			"to": [6.87251, 13.06667, 8.22918],
			"rotation": {"angle": 0, "axis": "y", "origin": [7.01107, 12.72635, 7.86386]},
			"faces": {
				"north": {"uv": [0.66667, 3.33333, 1.66667, 4.33333], "rotation": 270, "texture": "#0"},
				"east": {"uv": [0.66667, 3.33333, 1.66667, 4.33333], "texture": "#0"},
				"south": {"uv": [0.66667, 3.33333, 1.66667, 4.33333], "rotation": 90, "texture": "#0"},
				"west": {"uv": [0.66667, 3.33333, 1.66667, 4.33333], "rotation": 180, "texture": "#0"},
				"up": {"uv": [0.66667, 3.33333, 1.66667, 4.33333], "rotation": 90, "texture": "#0"},
				"down": {"uv": [0.66667, 3.33333, 1.66667, 4.33333], "rotation": 90, "texture": "#0"}
			}
		},
		{
			"name": "hexadecagon",
			"from": [7.3893, 12.53283, 7.52418],
			"to": [7.81727, 13.09158, 8.22918],
			"rotation": {"angle": 45, "axis": "z", "origin": [7.01107, 12.72635, 7.86386]},
			"faces": {
				"north": {"uv": [0.66667, 3.33333, 1.66667, 4.33333], "texture": "#0"},
				"east": {"uv": [0.66667, 3.33333, 1.66667, 4.33333], "texture": "#0"},
				"south": {"uv": [0.66667, 3.33333, 1.66667, 4.33333], "texture": "#0"},
				"west": {"uv": [0.66667, 3.33333, 1.66667, 4.33333], "texture": "#0"},
				"up": {"uv": [0.66667, 3.33333, 1.66667, 4.33333], "rotation": 270, "texture": "#0"},
				"down": {"uv": [0.66667, 3.33333, 1.66667, 4.33333], "rotation": 90, "texture": "#0"}
			}
		},
		{
			"name": "hexadecagon",
			"from": [7.61614, 12.81354, 7.64418],
			"to": [8.04411, 13.37229, 8.10918],
			"rotation": {"angle": 22.5, "axis": "z", "origin": [7.01107, 12.72635, 7.86386]},
			"faces": {
				"north": {"uv": [0.66667, 3.33333, 1.66667, 4.33333], "texture": "#0"},
				"east": {"uv": [0.66667, 3.33333, 1.66667, 4.33333], "texture": "#0"},
				"south": {"uv": [0.66667, 3.33333, 1.66667, 4.33333], "texture": "#0"},
				"west": {"uv": [0.66667, 3.33333, 1.66667, 4.33333], "texture": "#0"},
				"up": {"uv": [0.66667, 3.33333, 1.66667, 4.33333], "rotation": 270, "texture": "#0"},
				"down": {"uv": [0.66667, 3.33333, 1.66667, 4.33333], "rotation": 90, "texture": "#0"}
			}
		},
		{
			"name": "hexadecagon",
			"from": [7.71828, 13.1597, 7.76418],
			"to": [8.74625, 13.71845, 7.98918],
			"rotation": {"angle": 0, "axis": "y", "origin": [7.01107, 12.72635, 7.86386]},
			"faces": {
				"north": {"uv": [0.66667, 3.33333, 1.66667, 4.33333], "texture": "#0"},
				"east": {"uv": [0.66667, 3.33333, 1.66667, 4.33333], "texture": "#0"},
				"south": {"uv": [0.66667, 3.33333, 1.66667, 4.33333], "texture": "#0"},
				"west": {"uv": [0.66667, 3.33333, 1.66667, 4.33333], "texture": "#0"},
				"up": {"uv": [0.66667, 3.33333, 1.66667, 4.33333], "rotation": 270, "texture": "#0"},
				"down": {"uv": [0.66667, 3.33333, 1.66667, 4.33333], "rotation": 90, "texture": "#0"}
			}
		},
		{
			"name": "hexadecagon",
			"from": [8.61828, 13.4597, 7.76418],
			"to": [9.04625, 13.71845, 7.86918],
			"rotation": {"angle": 0, "axis": "y", "origin": [7.01107, 12.72635, 7.86386]},
			"faces": {
				"north": {"uv": [0.66667, 3.33333, 1.66667, 4.33333], "texture": "#0"},
				"east": {"uv": [0.66667, 3.33333, 1.66667, 4.33333], "texture": "#0"},
				"south": {"uv": [0.66667, 3.33333, 1.66667, 4.33333], "texture": "#0"},
				"west": {"uv": [0.66667, 3.33333, 1.66667, 4.33333], "texture": "#0"},
				"up": {"uv": [0.66667, 3.33333, 1.66667, 4.33333], "rotation": 270, "texture": "#0"},
				"down": {"uv": [0.66667, 3.33333, 1.66667, 4.33333], "rotation": 90, "texture": "#0"}
			}
		},
		{
			"name": "hexadecagon",
			"from": [8.744, 12.62505, 7.76418],
			"to": [9.17198, 12.8838, 7.86918],
			"rotation": {"angle": 22.5, "axis": "z", "origin": [7.01107, 12.72635, 7.86386]},
			"faces": {
				"north": {"uv": [0.66667, 3.33333, 1.66667, 4.33333], "texture": "#0"},
				"east": {"uv": [0.66667, 3.33333, 1.66667, 4.33333], "texture": "#0"},
				"south": {"uv": [0.66667, 3.33333, 1.66667, 4.33333], "texture": "#0"},
				"west": {"uv": [0.66667, 3.33333, 1.66667, 4.33333], "texture": "#0"},
				"up": {"uv": [0.66667, 3.33333, 1.66667, 4.33333], "rotation": 270, "texture": "#0"},
				"down": {"uv": [0.66667, 3.33333, 1.66667, 4.33333], "rotation": 90, "texture": "#0"}
			}
		},
		{
			"name": "hexadecagon",
			"from": [6.21944, 12.5474, 7.52418],
			"to": [6.64742, 13.10615, 8.22918],
			"rotation": {"angle": -45, "axis": "z", "origin": [7.01107, 12.72635, 7.86386]},
			"faces": {
				"north": {"uv": [1.66667, 3.33333, 0.66667, 4.33333], "texture": "#0"},
				"east": {"uv": [1.66667, 3.33333, 0.66667, 4.33333], "texture": "#0"},
				"south": {"uv": [1.66667, 3.33333, 0.66667, 4.33333], "texture": "#0"},
				"west": {"uv": [1.66667, 3.33333, 0.66667, 4.33333], "texture": "#0"},
				"up": {"uv": [0.66667, 4.33333, 1.66667, 3.33333], "rotation": 270, "texture": "#0"},
				"down": {"uv": [0.66667, 4.33333, 1.66667, 3.33333], "rotation": 90, "texture": "#0"}
			}
		},
		{
			"name": "hexadecagon",
			"from": [5.99707, 12.82143, 7.64418],
			"to": [6.42504, 13.38018, 8.10918],
			"rotation": {"angle": -22.5, "axis": "z", "origin": [7.01107, 12.72635, 7.86386]},
			"faces": {
				"north": {"uv": [1.66667, 3.33333, 0.66667, 4.33333], "texture": "#0"},
				"east": {"uv": [1.66667, 3.33333, 0.66667, 4.33333], "texture": "#0"},
				"south": {"uv": [1.66667, 3.33333, 0.66667, 4.33333], "texture": "#0"},
				"west": {"uv": [1.66667, 3.33333, 0.66667, 4.33333], "texture": "#0"},
				"up": {"uv": [0.66667, 4.33333, 1.66667, 3.33333], "rotation": 270, "texture": "#0"},
				"down": {"uv": [0.66667, 4.33333, 1.66667, 3.33333], "rotation": 90, "texture": "#0"}
			}
		},
		{
			"name": "hexadecagon",
			"from": [5.2965, 13.1597, 7.76418],
			"to": [6.32447, 13.71845, 7.98918],
			"rotation": {"angle": 0, "axis": "y", "origin": [7.01107, 12.72635, 7.86386]},
			"faces": {
				"north": {"uv": [1.66667, 3.33333, 0.66667, 4.33333], "texture": "#0"},
				"east": {"uv": [1.66667, 3.33333, 0.66667, 4.33333], "texture": "#0"},
				"south": {"uv": [1.66667, 3.33333, 0.66667, 4.33333], "texture": "#0"},
				"west": {"uv": [1.66667, 3.33333, 0.66667, 4.33333], "texture": "#0"},
				"up": {"uv": [0.66667, 4.33333, 1.66667, 3.33333], "rotation": 270, "texture": "#0"},
				"down": {"uv": [0.66667, 4.33333, 1.66667, 3.33333], "rotation": 90, "texture": "#0"}
			}
		},
		{
			"name": "hexadecagon",
			"from": [4.9965, 13.4597, 7.76418],
			"to": [5.42447, 13.71845, 7.86918],
			"rotation": {"angle": 0, "axis": "y", "origin": [7.01107, 12.72635, 7.86386]},
			"faces": {
				"north": {"uv": [1.66667, 3.33333, 0.66667, 4.33333], "texture": "#0"},
				"east": {"uv": [1.66667, 3.33333, 0.66667, 4.33333], "texture": "#0"},
				"south": {"uv": [1.66667, 3.33333, 0.66667, 4.33333], "texture": "#0"},
				"west": {"uv": [1.66667, 3.33333, 0.66667, 4.33333], "texture": "#0"},
				"up": {"uv": [0.66667, 4.33333, 1.66667, 3.33333], "rotation": 270, "texture": "#0"},
				"down": {"uv": [0.66667, 4.33333, 1.66667, 3.33333], "rotation": 90, "texture": "#0"}
			}
		},
		{
			"name": "hexadecagon",
			"from": [4.86921, 12.63293, 7.76418],
			"to": [5.29718, 12.89168, 7.86918],
			"rotation": {"angle": -22.5, "axis": "z", "origin": [7.01107, 12.72635, 7.86386]},
			"faces": {
				"north": {"uv": [1.66667, 3.33333, 0.66667, 4.33333], "texture": "#0"},
				"east": {"uv": [1.66667, 3.33333, 0.66667, 4.33333], "texture": "#0"},
				"south": {"uv": [1.66667, 3.33333, 0.66667, 4.33333], "texture": "#0"},
				"west": {"uv": [1.66667, 3.33333, 0.66667, 4.33333], "texture": "#0"},
				"up": {"uv": [0.66667, 4.33333, 1.66667, 3.33333], "rotation": 270, "texture": "#0"},
				"down": {"uv": [0.66667, 4.33333, 1.66667, 3.33333], "rotation": 90, "texture": "#0"}
			}
		},
		{
			"name": "hexadecagon",
			"from": [6.57931, 12.39113, 7.90336],
			"to": [7.47031, 13.10888, 8.08059],
			"rotation": {"angle": -45, "axis": "y", "origin": [7.00982, 13.91419, 7.99034]},
			"faces": {
				"north": {"uv": [6, 3.33333, 7, 4.33333], "texture": "#0"},
				"east": {"uv": [6, 3.33333, 7, 4.33333], "texture": "#0"},
				"south": {"uv": [6, 3.33333, 7, 4.33333], "texture": "#0"},
				"west": {"uv": [6, 3.33333, 7, 4.33333], "texture": "#0"},
				"up": {"uv": [6, 3.33333, 7, 4.33333], "rotation": 270, "texture": "#0"},
				"down": {"uv": [6, 3.33333, 7, 4.33333], "rotation": 90, "texture": "#0"}
			}
		},
		{
			"name": "hexadecagon",
			"from": [6.57754, 12.39113, 7.90897],
			"to": [7.46854, 13.10888, 8.0862],
			"rotation": {"angle": -22.5, "axis": "y", "origin": [7.00982, 13.91419, 7.99034]},
			"faces": {
				"north": {"uv": [6, 3.33333, 7, 4.33333], "texture": "#0"},
				"east": {"uv": [6, 3.33333, 7, 4.33333], "texture": "#0"},
				"south": {"uv": [6, 3.33333, 7, 4.33333], "texture": "#0"},
				"west": {"uv": [6, 3.33333, 7, 4.33333], "texture": "#0"},
				"up": {"uv": [6, 3.33333, 7, 4.33333], "rotation": 270, "texture": "#0"},
				"down": {"uv": [6, 3.33333, 7, 4.33333], "rotation": 90, "texture": "#0"}
			}
		},
		{
			"name": "hexadecagon",
			"from": [6.57377, 12.39113, 7.91348],
			"to": [7.46477, 13.10888, 8.09071],
			"rotation": {"angle": 0, "axis": "y", "origin": [7.00982, 13.91419, 7.99034]},
			"faces": {
				"north": {"uv": [6, 3.33333, 7, 4.33333], "texture": "#0"},
				"east": {"uv": [6, 3.33333, 7, 4.33333], "texture": "#0"},
				"south": {"uv": [6, 3.33333, 7, 4.33333], "texture": "#0"},
				"west": {"uv": [6, 3.33333, 7, 4.33333], "texture": "#0"},
				"up": {"uv": [6, 3.33333, 7, 4.33333], "rotation": 270, "texture": "#0"},
				"down": {"uv": [6, 3.33333, 7, 4.33333], "rotation": 90, "texture": "#0"}
			}
		},
		{
			"name": "hexadecagon",
			"from": [6.56855, 12.39113, 7.9162],
			"to": [7.45955, 13.10888, 8.09343],
			"rotation": {"angle": 22.5, "axis": "y", "origin": [7.00982, 13.91419, 7.99034]},
			"faces": {
				"north": {"uv": [6, 3.33333, 7, 4.33333], "texture": "#0"},
				"east": {"uv": [6, 3.33333, 7, 4.33333], "texture": "#0"},
				"south": {"uv": [6, 3.33333, 7, 4.33333], "texture": "#0"},
				"west": {"uv": [6, 3.33333, 7, 4.33333], "texture": "#0"},
				"up": {"uv": [6, 3.33333, 7, 4.33333], "rotation": 270, "texture": "#0"},
				"down": {"uv": [6, 3.33333, 7, 4.33333], "rotation": 90, "texture": "#0"}
			}
		},
		{
			"name": "hexadecagon",
			"from": [6.56269, 12.39113, 7.91672],
			"to": [7.45369, 13.10888, 8.09395],
			"rotation": {"angle": 45, "axis": "y", "origin": [7.00982, 13.91419, 7.99034]},
			"faces": {
				"north": {"uv": [6, 3.33333, 7, 4.33333], "texture": "#0"},
				"east": {"uv": [6, 3.33333, 7, 4.33333], "texture": "#0"},
				"south": {"uv": [6, 3.33333, 7, 4.33333], "texture": "#0"},
				"west": {"uv": [6, 3.33333, 7, 4.33333], "texture": "#0"},
				"up": {"uv": [6, 3.33333, 7, 4.33333], "rotation": 270, "texture": "#0"},
				"down": {"uv": [6, 3.33333, 7, 4.33333], "rotation": 90, "texture": "#0"}
			}
		},
		{
			"name": "hexadecagon",
			"from": [6.93443, 12.39113, 7.55208],
			"to": [7.11166, 13.10888, 8.44308],
			"rotation": {"angle": -22.5, "axis": "y", "origin": [7.00982, 13.91419, 7.99034]},
			"faces": {
				"north": {"uv": [6, 3.33333, 7, 4.33333], "texture": "#0"},
				"east": {"uv": [6, 3.33333, 7, 4.33333], "texture": "#0"},
				"south": {"uv": [6, 3.33333, 7, 4.33333], "texture": "#0"},
				"west": {"uv": [6, 3.33333, 7, 4.33333], "texture": "#0"},
				"up": {"uv": [6, 3.33333, 7, 4.33333], "rotation": 270, "texture": "#0"},
				"down": {"uv": [6, 3.33333, 7, 4.33333], "rotation": 90, "texture": "#0"}
			}
		},
		{
			"name": "hexadecagon",
			"from": [6.93065, 12.39113, 7.55659],
			"to": [7.10788, 13.10888, 8.44759],
			"rotation": {"angle": 0, "axis": "y", "origin": [7.00982, 13.91419, 7.99034]},
			"faces": {
				"north": {"uv": [6, 3.33333, 7, 4.33333], "texture": "#0"},
				"east": {"uv": [6, 3.33333, 7, 4.33333], "texture": "#0"},
				"south": {"uv": [6, 3.33333, 7, 4.33333], "texture": "#0"},
				"west": {"uv": [6, 3.33333, 7, 4.33333], "texture": "#0"},
				"up": {"uv": [6, 3.33333, 7, 4.33333], "rotation": 270, "texture": "#0"},
				"down": {"uv": [6, 3.33333, 7, 4.33333], "rotation": 90, "texture": "#0"}
			}
		},
		{
			"name": "hexadecagon",
			"from": [6.92544, 12.39113, 7.55931],
			"to": [7.10267, 13.10888, 8.45031],
			"rotation": {"angle": 22.5, "axis": "y", "origin": [7.00982, 13.91419, 7.99034]},
			"faces": {
				"north": {"uv": [6, 3.33333, 7, 4.33333], "texture": "#0"},
				"east": {"uv": [6, 3.33333, 7, 4.33333], "texture": "#0"},
				"south": {"uv": [6, 3.33333, 7, 4.33333], "texture": "#0"},
				"west": {"uv": [6, 3.33333, 7, 4.33333], "texture": "#0"},
				"up": {"uv": [6, 3.33333, 7, 4.33333], "rotation": 270, "texture": "#0"},
				"down": {"uv": [6, 3.33333, 7, 4.33333], "rotation": 90, "texture": "#0"}
			}
		}
	],
	"display": {
		"thirdperson_righthand": {
			"rotation": [65, 0, 0],
			"translation": [1.25, -4.25, -5]
		},
		"thirdperson_lefthand": {
			"rotation": [65, 0, 0],
			"translation": [-1.25, -4.25, -5]
		},
		"firstperson_righthand": {
			"translation": [0, -2.25, 2]
		},
		"firstperson_lefthand": {
			"translation": [0, -2.25, 2]
		},
		"ground": {
			"rotation": [90, -45, 90],
			"translation": [0, 1, 0]
		},
		"gui": {
			"rotation": [90, -45, 90],
			"scale": [2, 2, 2]
		},
		"fixed": {
			"rotation": [90, -45, 90]
		}
	}
}