{
    "textures": {
        "0": "gci:items/common/mpz",
        "particle": "gci:items/common/mpz"
    },
    "elements": [
        {
            "from": [
                4.82573,
                2.67255,
                3.52288
            ],
            "to": [
                5.17427,
                5.17108,
                4.15812
            ],
            "rotation": {
                "angle": 0,
                "axis": "y",
                "origin": [
                    5,
                    5.47339,
                    4.3998
                ]
            },
            "faces": {
                "north": {
                    "uv": [
                        5.83333,
                        3.26667,
                        7,
                        4.35
                    ],
                    "rotation": 270,
                    "texture": "#0"
                },
                "east": {
                    "uv": [
                        5.83333,
                        3.26667,
                        7,
                        4.35
                    ],
                    "rotation": 270,
                    "texture": "#0"
                },
                "south": {
                    "uv": [
                        5.83333,
                        3.26667,
                        7,
                        4.35
                    ],
                    "rotation": 270,
                    "texture": "#0"
                },
                "west": {
                    "uv": [
                        5.83333,
                        3.26667,
                        7,
                        4.35
                    ],
                    "rotation": 270,
                    "texture": "#0"
                },
                "up": {
                    "uv": [
                        5.83333,
                        3.26667,
                        7,
                        4.35
                    ],
                    "rotation": 270,
                    "texture": "#0"
                },
                "down": {
                    "uv": [
                        5.83333,
                        3.26667,
                        7,
                        4.35
                    ],
                    "rotation": 270,
                    "texture": "#0"
                }
            }
        },
        {
            "from": [
                4.82573,
                2.64755,
                3.49788
            ],
            "to": [
                5.17427,
                2.67255,
                4.18312
            ],
            "rotation": {
                "angle": 0,
                "axis": "y",
                "origin": [
                    5,
                    5.47339,
                    4.3998
                ]
            },
            "faces": {
                "north": {
                    "uv": [
                        5.83333,
                        3.26667,
                        7,
                        4.35
                    ],
                    "rotation": 270,
                    "texture": "#0"
                },
                "east": {
                    "uv": [
                        5.83333,
                        3.26667,
                        7,
                        4.35
                    ],
                    "rotation": 270,
                    "texture": "#0"
                },
                "south": {
                    "uv": [
                        5.83333,
                        3.26667,
                        7,
                        4.35
                    ],
                    "rotation": 270,
                    "texture": "#0"
                },
                "west": {
                    "uv": [
                        5.83333,
                        3.26667,
                        7,
                        4.35
                    ],
                    "rotation": 270,
                    "texture": "#0"
                },
                "up": {
                    "uv": [
                        5.83333,
                        3.26667,
                        7,
                        4.35
                    ],
                    "rotation": 270,
                    "texture": "#0"
                },
                "down": {
                    "uv": [
                        5.83333,
                        3.26667,
                        7,
                        4.35
                    ],
                    "rotation": 270,
                    "texture": "#0"
                }
            }
        }
    ],
    "display": {
        "thirdperson_righthand": {
            "translation": [
                6.25,
                6,
                5
            ],
            "scale": [
                2,
                2,
                2
            ]
        },
        "thirdperson_lefthand": {
            "translation": [
                -5.75,
                6,
                5
            ],
            "scale": [
                2,
                2,
                2
            ]
        },
        "firstperson_righthand": {
            "translation": [
                0.75,
                10,
                7.25
            ],
            "scale": [
                2,
                2,
                2
            ]
        },
        "firstperson_lefthand": {
            "translation": [
                -10.75,
                9.25,
                8.75
            ],
            "scale": [
                2,
                2,
                2
            ]
        },
        "ground": {
            "translation": [
                4,
                12,
                4.5
            ],
            "scale": [
                2,
                2,
                2
            ]
        },
        "gui": {
            "rotation": [
                90,
                45,
                -90
            ],
            "translation": [
                7,
                1.5,
                0
            ],
            "scale": [
                2,
                2,
                2
            ]
        },
        "head": {
            "translation": [
                0,
                11.5,
                0
            ]
        },
        "fixed": {
            "rotation": [
                90,
                45,
                -90
            ],
            "translation": [
                9.25,
                1.5,
                -9.25
            ],
            "scale": [
                2.5,
                2.5,
                2.5
            ]
        }
    }
}