{
    "textures": {
        "1": "gci:items/common/mpz", 
        "0": "gci:items/common/all_in_one", 
        "particle": "gci:items/common/all_in_one"
    }, 
    "elements": [
        {
            "to": [
                8.24519, 
                9.62386, 
                1.512
            ], 
            "rotation": {
                "origin": [
                    8.00377, 
                    9.52386, 
                    2.442
                ], 
                "angle": 45, 
                "axis": "z"
            }, 
            "from": [
                8.14519, 
                9.42386, 
                0.076
            ], 
            "faces": {
                "north": {
                    "rotation": 270, 
                    "uv": [
                        7.625, 
                        12.375, 
                        7.625, 
                        12.5
                    ], 
                    "texture": "#0"
                }, 
                "west": {
                    "rotation": 270, 
                    "uv": [
                        7.625, 
                        12.375, 
                        7.625, 
                        12.5
                    ], 
                    "texture": "#0"
                }, 
                "up": {
                    "rotation": 180, 
                    "uv": [
                        4, 
                        3, 
                        4.625, 
                        3
                    ], 
                    "texture": "#0"
                }, 
                "down": {
                    "rotation": 180, 
                    "uv": [
                        4, 
                        3, 
                        4.625, 
                        3
                    ], 
                    "texture": "#0"
                }, 
                "east": {
                    "rotation": 180, 
                    "uv": [
                        4, 
                        3, 
                        4.625, 
                        3
                    ], 
                    "texture": "#0"
                }, 
                "south": {
                    "rotation": 180, 
                    "uv": [
                        4, 
                        3, 
                        4.625, 
                        3
                    ], 
                    "texture": "#0"
                }
            }
        }, 
        {
            "to": [
                7.86234, 
                9.62386, 
                1.512
            ], 
            "rotation": {
                "origin": [
                    8.00377, 
                    9.52386, 
                    2.442
                ], 
                "angle": 45, 
                "axis": "z"
            }, 
            "from": [
                7.76234, 
                9.42386, 
                0.076
            ], 
            "faces": {
                "north": {
                    "rotation": 270, 
                    "uv": [
                        7.625, 
                        12.375, 
                        7.625, 
                        12.5
                    ], 
                    "texture": "#0"
                }, 
                "west": {
                    "rotation": 180, 
                    "uv": [
                        4, 
                        3, 
                        4.625, 
                        3
                    ], 
                    "texture": "#0"
                }, 
                "up": {
                    "rotation": 180, 
                    "uv": [
                        4, 
                        3, 
                        4.625, 
                        3
                    ], 
                    "texture": "#0"
                }, 
                "down": {
                    "rotation": 180, 
                    "uv": [
                        4, 
                        3, 
                        4.625, 
                        3
                    ], 
                    "texture": "#0"
                }, 
                "east": {
                    "rotation": 270, 
                    "uv": [
                        7.625, 
                        12.375, 
                        7.625, 
                        12.5
                    ], 
                    "texture": "#0"
                }, 
                "south": {
                    "rotation": 180, 
                    "uv": [
                        4, 
                        3, 
                        4.625, 
                        3
                    ], 
                    "texture": "#0"
                }
            }
        }, 
        {
            "to": [
                8.10377, 
                9.38244, 
                1.512
            ], 
            "rotation": {
                "origin": [
                    7.74519, 
                    9.24102, 
                    -11.308
                ], 
                "angle": 0, 
                "axis": "y"
            }, 
            "from": [
                7.90377, 
                9.28244, 
                0.076
            ], 
            "faces": {
                "north": {
                    "rotation": 270, 
                    "uv": [
                        7.625, 
                        12.375, 
                        7.625, 
                        12.5
                    ], 
                    "texture": "#0"
                }, 
                "west": {
                    "rotation": 270, 
                    "uv": [
                        4, 
                        3, 
                        4.625, 
                        3
                    ], 
                    "texture": "#0"
                }, 
                "up": {
                    "rotation": 270, 
                    "uv": [
                        7.625, 
                        12.375, 
                        7.625, 
                        12.5
                    ], 
                    "texture": "#0"
                }, 
                "down": {
                    "rotation": 270, 
                    "uv": [
                        4, 
                        3, 
                        4.625, 
                        3
                    ], 
                    "texture": "#0"
                }, 
                "east": {
                    "rotation": 270, 
                    "uv": [
                        4, 
                        3, 
                        4.625, 
                        3
                    ], 
                    "texture": "#0"
                }, 
                "south": {
                    "rotation": 270, 
                    "uv": [
                        4, 
                        3, 
                        4.625, 
                        3
                    ], 
                    "texture": "#0"
                }
            }
        }, 
        {
            "to": [
                8.10377, 
                9.76529, 
                1.512
            ], 
            "rotation": {
                "origin": [
                    7.74519, 
                    9.62386, 
                    -11.308
                ], 
                "angle": 0, 
                "axis": "y"
            }, 
            "from": [
                7.90377, 
                9.66529, 
                0.076
            ], 
            "faces": {
                "north": {
                    "rotation": 270, 
                    "uv": [
                        7.625, 
                        12.375, 
                        7.625, 
                        12.5
                    ], 
                    "texture": "#0"
                }, 
                "west": {
                    "rotation": 270, 
                    "uv": [
                        4, 
                        3, 
                        4.625, 
                        3
                    ], 
                    "texture": "#0"
                }, 
                "up": {
                    "rotation": 270, 
                    "uv": [
                        4, 
                        3, 
                        4.625, 
                        3
                    ], 
                    "texture": "#0"
                }, 
                "down": {
                    "rotation": 270, 
                    "uv": [
                        7.625, 
                        12.375, 
                        7.625, 
                        12.5
                    ], 
                    "texture": "#0"
                }, 
                "east": {
                    "rotation": 270, 
                    "uv": [
                        4, 
                        3, 
                        4.625, 
                        3
                    ], 
                    "texture": "#0"
                }, 
                "south": {
                    "rotation": 270, 
                    "uv": [
                        4, 
                        3, 
                        4.625, 
                        3
                    ], 
                    "texture": "#0"
                }
            }
        }, 
        {
            "to": [
                8.32245, 
                9.65462, 
                1.256
            ], 
            "rotation": {
                "origin": [
                    8.21998, 
                    9.52262, 
                    0.986
                ], 
                "angle": 0, 
                "axis": "y"
            }, 
            "from": [
                8.15845, 
                9.39062, 
                0.044
            ], 
            "faces": {
                "north": {
                    "uv": [
                        3, 
                        2.75, 
                        3, 
                        2.875
                    ], 
                    "texture": "#0"
                }, 
                "west": {
                    "rotation": 270, 
                    "uv": [
                        7.625, 
                        12.375, 
                        7.625, 
                        12.5
                    ], 
                    "texture": "#0"
                }, 
                "up": {
                    "rotation": 180, 
                    "uv": [
                        3, 
                        2.75, 
                        3, 
                        2.875
                    ], 
                    "texture": "#0"
                }, 
                "down": {
                    "rotation": 180, 
                    "uv": [
                        3, 
                        2.75, 
                        3, 
                        2.875
                    ], 
                    "texture": "#0"
                }, 
                "east": {
                    "rotation": 180, 
                    "uv": [
                        3, 
                        2.75, 
                        3, 
                        2.875
                    ], 
                    "texture": "#0"
                }, 
                "south": {
                    "rotation": 180, 
                    "uv": [
                        3, 
                        2.75, 
                        3, 
                        2.875
                    ], 
                    "texture": "#0"
                }
            }
        }, 
        {
            "to": [
                7.84909, 
                9.65462, 
                1.256
            ], 
            "rotation": {
                "origin": [
                    7.84161, 
                    9.45545, 
                    0.986
                ], 
                "angle": 0, 
                "axis": "y"
            }, 
            "from": [
                7.68509, 
                9.39062, 
                0.044
            ], 
            "faces": {
                "north": {
                    "rotation": 180, 
                    "uv": [
                        3, 
                        2.75, 
                        3, 
                        2.875
                    ], 
                    "texture": "#0"
                }, 
                "west": {
                    "uv": [
                        3, 
                        2.75, 
                        3, 
                        2.875
                    ], 
                    "texture": "#0"
                }, 
                "up": {
                    "uv": [
                        3, 
                        2.75, 
                        3, 
                        2.875
                    ], 
                    "texture": "#0"
                }, 
                "down": {
                    "uv": [
                        3, 
                        2.75, 
                        3, 
                        2.875
                    ], 
                    "texture": "#0"
                }, 
                "east": {
                    "rotation": 270, 
                    "uv": [
                        7.625, 
                        12.375, 
                        7.625, 
                        12.5
                    ], 
                    "texture": "#0"
                }, 
                "south": {
                    "uv": [
                        3, 
                        2.75, 
                        3, 
                        2.875
                    ], 
                    "texture": "#0"
                }
            }
        }, 
        {
            "to": [
                7.78509, 
                9.65462, 
                0.044
            ], 
            "rotation": {
                "origin": [
                    7.84161, 
                    9.45545, 
                    0.83
                ], 
                "angle": 0, 
                "axis": "y"
            }, 
            "from": [
                7.68509, 
                9.58262, 
                -0.112
            ], 
            "faces": {
                "north": {
                    "rotation": 180, 
                    "uv": [
                        3, 
                        2.75, 
                        3, 
                        2.875
                    ], 
                    "texture": "#0"
                }, 
                "west": {
                    "uv": [
                        3, 
                        2.75, 
                        3, 
                        2.875
                    ], 
                    "texture": "#0"
                }, 
                "up": {
                    "uv": [
                        3, 
                        2.75, 
                        3, 
                        2.875
                    ], 
                    "texture": "#0"
                }, 
                "down": {
                    "uv": [
                        3, 
                        2.75, 
                        3, 
                        2.875
                    ], 
                    "texture": "#0"
                }, 
                "east": {
                    "uv": [
                        3, 
                        2.75, 
                        3, 
                        2.875
                    ], 
                    "texture": "#0"
                }, 
                "south": {
                    "uv": [
                        3, 
                        2.75, 
                        3, 
                        2.875
                    ], 
                    "texture": "#0"
                }
            }
        }, 
        {
            "to": [
                8.32909, 
                9.65462, 
                0.044
            ], 
            "rotation": {
                "origin": [
                    8.38561, 
                    9.45545, 
                    0.83
                ], 
                "angle": 0, 
                "axis": "y"
            }, 
            "from": [
                8.22909, 
                9.58262, 
                -0.112
            ], 
            "faces": {
                "north": {
                    "rotation": 180, 
                    "uv": [
                        3, 
                        2.75, 
                        3, 
                        2.875
                    ], 
                    "texture": "#0"
                }, 
                "west": {
                    "uv": [
                        3, 
                        2.75, 
                        3, 
                        2.875
                    ], 
                    "texture": "#0"
                }, 
                "up": {
                    "uv": [
                        3, 
                        2.75, 
                        3, 
                        2.875
                    ], 
                    "texture": "#0"
                }, 
                "down": {
                    "uv": [
                        3, 
                        2.75, 
                        3, 
                        2.875
                    ], 
                    "texture": "#0"
                }, 
                "east": {
                    "uv": [
                        3, 
                        2.75, 
                        3, 
                        2.875
                    ], 
                    "texture": "#0"
                }, 
                "south": {
                    "uv": [
                        3, 
                        2.75, 
                        3, 
                        2.875
                    ], 
                    "texture": "#0"
                }
            }
        }, 
        {
            "to": [
                7.78509, 
                9.46262, 
                0.044
            ], 
            "rotation": {
                "origin": [
                    7.84161, 
                    9.29545, 
                    0.83
                ], 
                "angle": 0, 
                "axis": "y"
            }, 
            "from": [
                7.68509, 
                9.39062, 
                -0.112
            ], 
            "faces": {
                "north": {
                    "rotation": 180, 
                    "uv": [
                        3, 
                        2.75, 
                        3, 
                        2.875
                    ], 
                    "texture": "#0"
                }, 
                "west": {
                    "uv": [
                        3, 
                        2.75, 
                        3, 
                        2.875
                    ], 
                    "texture": "#0"
                }, 
                "up": {
                    "uv": [
                        3, 
                        2.75, 
                        3, 
                        2.875
                    ], 
                    "texture": "#0"
                }, 
                "down": {
                    "uv": [
                        3, 
                        2.75, 
                        3, 
                        2.875
                    ], 
                    "texture": "#0"
                }, 
                "east": {
                    "uv": [
                        3, 
                        2.75, 
                        3, 
                        2.875
                    ], 
                    "texture": "#0"
                }, 
                "south": {
                    "uv": [
                        3, 
                        2.75, 
                        3, 
                        2.875
                    ], 
                    "texture": "#0"
                }
            }
        }, 
        {
            "to": [
                8.32909, 
                9.46262, 
                0.044
            ], 
            "rotation": {
                "origin": [
                    8.38561, 
                    9.29545, 
                    0.83
                ], 
                "angle": 0, 
                "axis": "y"
            }, 
            "from": [
                8.22909, 
                9.39062, 
                -0.112
            ], 
            "faces": {
                "north": {
                    "rotation": 180, 
                    "uv": [
                        3, 
                        2.75, 
                        3, 
                        2.875
                    ], 
                    "texture": "#0"
                }, 
                "west": {
                    "uv": [
                        3, 
                        2.75, 
                        3, 
                        2.875
                    ], 
                    "texture": "#0"
                }, 
                "up": {
                    "uv": [
                        3, 
                        2.75, 
                        3, 
                        2.875
                    ], 
                    "texture": "#0"
                }, 
                "down": {
                    "uv": [
                        3, 
                        2.75, 
                        3, 
                        2.875
                    ], 
                    "texture": "#0"
                }, 
                "east": {
                    "uv": [
                        3, 
                        2.75, 
                        3, 
                        2.875
                    ], 
                    "texture": "#0"
                }, 
                "south": {
                    "uv": [
                        3, 
                        2.75, 
                        3, 
                        2.875
                    ], 
                    "texture": "#0"
                }
            }
        }, 
        {
            "to": [
                8.1991, 
                9.68841, 
                1.256
            ], 
            "rotation": {
                "origin": [
                    8.21998, 
                    9.52262, 
                    0.986
                ], 
                "angle": -45, 
                "axis": "z"
            }, 
            "from": [
                7.9351, 
                9.52441, 
                0.044
            ], 
            "faces": {
                "north": {
                    "rotation": 270, 
                    "uv": [
                        3, 
                        2.75, 
                        3, 
                        2.875
                    ], 
                    "texture": "#0"
                }, 
                "west": {
                    "rotation": 270, 
                    "uv": [
                        3, 
                        2.75, 
                        3, 
                        2.875
                    ], 
                    "texture": "#0"
                }, 
                "up": {
                    "rotation": 270, 
                    "uv": [
                        3, 
                        2.75, 
                        3, 
                        2.875
                    ], 
                    "texture": "#0"
                }, 
                "down": {
                    "rotation": 270, 
                    "uv": [
                        7.625, 
                        12.375, 
                        7.625, 
                        12.5
                    ], 
                    "texture": "#0"
                }, 
                "east": {
                    "rotation": 270, 
                    "uv": [
                        3, 
                        2.75, 
                        3, 
                        2.875
                    ], 
                    "texture": "#0"
                }, 
                "south": {
                    "rotation": 270, 
                    "uv": [
                        3, 
                        2.75, 
                        3, 
                        2.875
                    ], 
                    "texture": "#0"
                }
            }
        }, 
        {
            "to": [
                8.1991, 
                9.68841, 
                0.044
            ], 
            "rotation": {
                "origin": [
                    8.21998, 
                    9.52262, 
                    0.83
                ], 
                "angle": -45, 
                "axis": "z"
            }, 
            "from": [
                7.9351, 
                9.58841, 
                -0.112
            ], 
            "faces": {
                "north": {
                    "rotation": 270, 
                    "uv": [
                        3, 
                        2.75, 
                        3, 
                        2.875
                    ], 
                    "texture": "#0"
                }, 
                "west": {
                    "rotation": 270, 
                    "uv": [
                        3, 
                        2.75, 
                        3, 
                        2.875
                    ], 
                    "texture": "#0"
                }, 
                "up": {
                    "rotation": 270, 
                    "uv": [
                        3, 
                        2.75, 
                        3, 
                        2.875
                    ], 
                    "texture": "#0"
                }, 
                "down": {
                    "rotation": 270, 
                    "uv": [
                        3, 
                        2.75, 
                        3, 
                        2.875
                    ], 
                    "texture": "#0"
                }, 
                "east": {
                    "rotation": 270, 
                    "uv": [
                        3, 
                        2.75, 
                        3, 
                        2.875
                    ], 
                    "texture": "#0"
                }, 
                "south": {
                    "rotation": 270, 
                    "uv": [
                        3, 
                        2.75, 
                        3, 
                        2.875
                    ], 
                    "texture": "#0"
                }
            }
        }, 
        {
            "to": [
                7.84909, 
                9.52029, 
                1.256
            ], 
            "rotation": {
                "origin": [
                    7.84161, 
                    9.45545, 
                    0.986
                ], 
                "angle": 45, 
                "axis": "z"
            }, 
            "from": [
                7.68509, 
                9.25629, 
                0.044
            ], 
            "faces": {
                "north": {
                    "uv": [
                        3, 
                        2.75, 
                        3, 
                        2.875
                    ], 
                    "texture": "#0"
                }, 
                "west": {
                    "rotation": 180, 
                    "uv": [
                        3, 
                        2.75, 
                        3, 
                        2.875
                    ], 
                    "texture": "#0"
                }, 
                "up": {
                    "rotation": 180, 
                    "uv": [
                        3, 
                        2.75, 
                        3, 
                        2.875
                    ], 
                    "texture": "#0"
                }, 
                "down": {
                    "rotation": 180, 
                    "uv": [
                        3, 
                        2.75, 
                        3, 
                        2.875
                    ], 
                    "texture": "#0"
                }, 
                "east": {
                    "rotation": 270, 
                    "uv": [
                        7.625, 
                        12.375, 
                        7.625, 
                        12.5
                    ], 
                    "texture": "#0"
                }, 
                "south": {
                    "rotation": 180, 
                    "uv": [
                        3, 
                        2.75, 
                        3, 
                        2.875
                    ], 
                    "texture": "#0"
                }
            }
        }, 
        {
            "to": [
                7.78509, 
                9.52029, 
                0.044
            ], 
            "rotation": {
                "origin": [
                    7.84161, 
                    9.45545, 
                    0.83
                ], 
                "angle": 45, 
                "axis": "z"
            }, 
            "from": [
                7.68509, 
                9.25629, 
                -0.112
            ], 
            "faces": {
                "north": {
                    "uv": [
                        3, 
                        2.75, 
                        3, 
                        2.875
                    ], 
                    "texture": "#0"
                }, 
                "west": {
                    "rotation": 180, 
                    "uv": [
                        3, 
                        2.75, 
                        3, 
                        2.875
                    ], 
                    "texture": "#0"
                }, 
                "up": {
                    "rotation": 180, 
                    "uv": [
                        3, 
                        2.75, 
                        3, 
                        2.875
                    ], 
                    "texture": "#0"
                }, 
                "down": {
                    "rotation": 180, 
                    "uv": [
                        3, 
                        2.75, 
                        3, 
                        2.875
                    ], 
                    "texture": "#0"
                }, 
                "east": {
                    "rotation": 180, 
                    "uv": [
                        3, 
                        2.75, 
                        3, 
                        2.875
                    ], 
                    "texture": "#0"
                }, 
                "south": {
                    "rotation": 180, 
                    "uv": [
                        3, 
                        2.75, 
                        3, 
                        2.875
                    ], 
                    "texture": "#0"
                }
            }
        }, 
        {
            "to": [
                8.13577, 
                9.8413, 
                1.256
            ], 
            "rotation": {
                "origin": [
                    8.00377, 
                    9.81129, 
                    0.986
                ], 
                "angle": 0, 
                "axis": "y"
            }, 
            "from": [
                7.87177, 
                9.6773, 
                0.044
            ], 
            "faces": {
                "north": {
                    "rotation": 270, 
                    "uv": [
                        3, 
                        2.75, 
                        3, 
                        2.875
                    ], 
                    "texture": "#0"
                }, 
                "west": {
                    "rotation": 270, 
                    "uv": [
                        3, 
                        2.75, 
                        3, 
                        2.875
                    ], 
                    "texture": "#0"
                }, 
                "up": {
                    "rotation": 270, 
                    "uv": [
                        3, 
                        2.75, 
                        3, 
                        2.875
                    ], 
                    "texture": "#0"
                }, 
                "down": {
                    "rotation": 270, 
                    "uv": [
                        7.625, 
                        12.375, 
                        7.625, 
                        12.5
                    ], 
                    "texture": "#0"
                }, 
                "east": {
                    "rotation": 270, 
                    "uv": [
                        3, 
                        2.75, 
                        3, 
                        2.875
                    ], 
                    "texture": "#0"
                }, 
                "south": {
                    "rotation": 270, 
                    "uv": [
                        3, 
                        2.75, 
                        3, 
                        2.875
                    ], 
                    "texture": "#0"
                }
            }
        }, 
        {
            "to": [
                8.13577, 
                9.8413, 
                0.044
            ], 
            "rotation": {
                "origin": [
                    8.00377, 
                    9.81129, 
                    0.83
                ], 
                "angle": 0, 
                "axis": "y"
            }, 
            "from": [
                7.87177, 
                9.7413, 
                -0.112
            ], 
            "faces": {
                "north": {
                    "rotation": 270, 
                    "uv": [
                        3, 
                        2.75, 
                        3, 
                        2.875
                    ], 
                    "texture": "#0"
                }, 
                "west": {
                    "rotation": 270, 
                    "uv": [
                        3, 
                        2.75, 
                        3, 
                        2.875
                    ], 
                    "texture": "#0"
                }, 
                "up": {
                    "rotation": 270, 
                    "uv": [
                        3, 
                        2.75, 
                        3, 
                        2.875
                    ], 
                    "texture": "#0"
                }, 
                "down": {
                    "rotation": 270, 
                    "uv": [
                        3, 
                        2.75, 
                        3, 
                        2.875
                    ], 
                    "texture": "#0"
                }, 
                "east": {
                    "rotation": 270, 
                    "uv": [
                        3, 
                        2.75, 
                        3, 
                        2.875
                    ], 
                    "texture": "#0"
                }, 
                "south": {
                    "rotation": 270, 
                    "uv": [
                        3, 
                        2.75, 
                        3, 
                        2.875
                    ], 
                    "texture": "#0"
                }
            }
        }, 
        {
            "to": [
                8.13577, 
                9.36795, 
                1.256
            ], 
            "rotation": {
                "origin": [
                    7.84161, 
                    9.45545, 
                    0.986
                ], 
                "angle": 0, 
                "axis": "y"
            }, 
            "from": [
                7.87177, 
                9.20395, 
                0.044
            ], 
            "faces": {
                "north": {
                    "rotation": 90, 
                    "uv": [
                        3, 
                        2.75, 
                        3, 
                        2.875
                    ], 
                    "texture": "#0"
                }, 
                "west": {
                    "rotation": 90, 
                    "uv": [
                        3, 
                        2.75, 
                        3, 
                        2.875
                    ], 
                    "texture": "#0"
                }, 
                "up": {
                    "rotation": 270, 
                    "uv": [
                        7.625, 
                        12.375, 
                        7.625, 
                        12.5
                    ], 
                    "texture": "#0"
                }, 
                "down": {
                    "rotation": 90, 
                    "uv": [
                        3, 
                        2.75, 
                        3, 
                        2.875
                    ], 
                    "texture": "#0"
                }, 
                "east": {
                    "rotation": 90, 
                    "uv": [
                        3, 
                        2.75, 
                        3, 
                        2.875
                    ], 
                    "texture": "#0"
                }, 
                "south": {
                    "rotation": 90, 
                    "uv": [
                        3, 
                        2.75, 
                        3, 
                        2.875
                    ], 
                    "texture": "#0"
                }
            }
        }, 
        {
            "to": [
                8.13577, 
                9.30395, 
                0.044
            ], 
            "rotation": {
                "origin": [
                    7.84161, 
                    9.45545, 
                    0.83
                ], 
                "angle": 0, 
                "axis": "y"
            }, 
            "from": [
                7.87177, 
                9.20395, 
                -0.112
            ], 
            "faces": {
                "north": {
                    "rotation": 90, 
                    "uv": [
                        3, 
                        2.75, 
                        3, 
                        2.875
                    ], 
                    "texture": "#0"
                }, 
                "west": {
                    "rotation": 90, 
                    "uv": [
                        3, 
                        2.75, 
                        3, 
                        2.875
                    ], 
                    "texture": "#0"
                }, 
                "up": {
                    "rotation": 90, 
                    "uv": [
                        3, 
                        2.75, 
                        3, 
                        2.875
                    ], 
                    "texture": "#0"
                }, 
                "down": {
                    "rotation": 90, 
                    "uv": [
                        3, 
                        2.75, 
                        3, 
                        2.875
                    ], 
                    "texture": "#0"
                }, 
                "east": {
                    "rotation": 90, 
                    "uv": [
                        3, 
                        2.75, 
                        3, 
                        2.875
                    ], 
                    "texture": "#0"
                }, 
                "south": {
                    "rotation": 90, 
                    "uv": [
                        3, 
                        2.75, 
                        3, 
                        2.875
                    ], 
                    "texture": "#0"
                }
            }
        }, 
        {
            "to": [
                8.38577, 
                9.50174, 
                1.256
            ], 
            "rotation": {
                "origin": [
                    8.21998, 
                    9.52262, 
                    0.986
                ], 
                "angle": -45, 
                "axis": "z"
            }, 
            "from": [
                8.22177, 
                9.23774, 
                0.044
            ], 
            "faces": {
                "north": {
                    "rotation": 180, 
                    "uv": [
                        3, 
                        2.75, 
                        3, 
                        2.875
                    ], 
                    "texture": "#0"
                }, 
                "west": {
                    "rotation": 270, 
                    "uv": [
                        7.625, 
                        12.375, 
                        7.625, 
                        12.5
                    ], 
                    "texture": "#0"
                }, 
                "up": {
                    "uv": [
                        3, 
                        2.75, 
                        3, 
                        2.875
                    ], 
                    "texture": "#0"
                }, 
                "down": {
                    "uv": [
                        3, 
                        2.75, 
                        3, 
                        2.875
                    ], 
                    "texture": "#0"
                }, 
                "east": {
                    "uv": [
                        3, 
                        2.75, 
                        3, 
                        2.875
                    ], 
                    "texture": "#0"
                }, 
                "south": {
                    "uv": [
                        3, 
                        2.75, 
                        3, 
                        2.875
                    ], 
                    "texture": "#0"
                }
            }
        }, 
        {
            "to": [
                8.38577, 
                9.50174, 
                0.044
            ], 
            "rotation": {
                "origin": [
                    8.21998, 
                    9.52262, 
                    0.83
                ], 
                "angle": -45, 
                "axis": "z"
            }, 
            "from": [
                8.28577, 
                9.23774, 
                -0.112
            ], 
            "faces": {
                "north": {
                    "rotation": 180, 
                    "uv": [
                        3, 
                        2.75, 
                        3, 
                        2.875
                    ], 
                    "texture": "#0"
                }, 
                "west": {
                    "uv": [
                        3, 
                        2.75, 
                        3, 
                        2.875
                    ], 
                    "texture": "#0"
                }, 
                "up": {
                    "uv": [
                        3, 
                        2.75, 
                        3, 
                        2.875
                    ], 
                    "texture": "#0"
                }, 
                "down": {
                    "uv": [
                        3, 
                        2.75, 
                        3, 
                        2.875
                    ], 
                    "texture": "#0"
                }, 
                "east": {
                    "uv": [
                        3, 
                        2.75, 
                        3, 
                        2.875
                    ], 
                    "texture": "#0"
                }, 
                "south": {
                    "uv": [
                        3, 
                        2.75, 
                        3, 
                        2.875
                    ], 
                    "texture": "#0"
                }
            }
        }, 
        {
            "to": [
                8.13577, 
                9.70696, 
                1.256
            ], 
            "rotation": {
                "origin": [
                    7.84161, 
                    9.45545, 
                    0.986
                ], 
                "angle": 45, 
                "axis": "z"
            }, 
            "from": [
                7.87177, 
                9.54296, 
                0.044
            ], 
            "faces": {
                "north": {
                    "rotation": 270, 
                    "uv": [
                        3, 
                        2.75, 
                        3, 
                        2.875
                    ], 
                    "texture": "#0"
                }, 
                "west": {
                    "rotation": 270, 
                    "uv": [
                        3, 
                        2.75, 
                        3, 
                        2.875
                    ], 
                    "texture": "#0"
                }, 
                "up": {
                    "rotation": 270, 
                    "uv": [
                        3, 
                        2.75, 
                        3, 
                        2.875
                    ], 
                    "texture": "#0"
                }, 
                "down": {
                    "rotation": 270, 
                    "uv": [
                        7.625, 
                        12.375, 
                        7.625, 
                        12.5
                    ], 
                    "texture": "#0"
                }, 
                "east": {
                    "rotation": 270, 
                    "uv": [
                        3, 
                        2.75, 
                        3, 
                        2.875
                    ], 
                    "texture": "#0"
                }, 
                "south": {
                    "rotation": 270, 
                    "uv": [
                        3, 
                        2.75, 
                        3, 
                        2.875
                    ], 
                    "texture": "#0"
                }
            }
        }, 
        {
            "to": [
                8.13577, 
                9.70696, 
                0.044
            ], 
            "rotation": {
                "origin": [
                    7.84161, 
                    9.45545, 
                    0.83
                ], 
                "angle": 45, 
                "axis": "z"
            }, 
            "from": [
                7.87177, 
                9.60696, 
                -0.112
            ], 
            "faces": {
                "north": {
                    "rotation": 270, 
                    "uv": [
                        3, 
                        2.75, 
                        3, 
                        2.875
                    ], 
                    "texture": "#0"
                }, 
                "west": {
                    "rotation": 270, 
                    "uv": [
                        3, 
                        2.75, 
                        3, 
                        2.875
                    ], 
                    "texture": "#0"
                }, 
                "up": {
                    "rotation": 270, 
                    "uv": [
                        3, 
                        2.75, 
                        3, 
                        2.875
                    ], 
                    "texture": "#0"
                }, 
                "down": {
                    "rotation": 270, 
                    "uv": [
                        3, 
                        2.75, 
                        3, 
                        2.875
                    ], 
                    "texture": "#0"
                }, 
                "east": {
                    "rotation": 270, 
                    "uv": [
                        3, 
                        2.75, 
                        3, 
                        2.875
                    ], 
                    "texture": "#0"
                }, 
                "south": {
                    "rotation": 270, 
                    "uv": [
                        3, 
                        2.75, 
                        3, 
                        2.875
                    ], 
                    "texture": "#0"
                }
            }
        }, 
        {
            "to": [
                7.86234, 
                9.62386, 
                1.512
            ], 
            "rotation": {
                "origin": [
                    7.81234, 
                    9.52386, 
                    1.442
                ], 
                "angle": 0, 
                "axis": "y"
            }, 
            "from": [
                7.76234, 
                9.42386, 
                0.076
            ], 
            "faces": {
                "north": {
                    "rotation": 270, 
                    "uv": [
                        7.625, 
                        12.375, 
                        7.625, 
                        12.5
                    ], 
                    "texture": "#0"
                }, 
                "west": {
                    "uv": [
                        4, 
                        3, 
                        4.625, 
                        3
                    ], 
                    "texture": "#0"
                }, 
                "up": {
                    "uv": [
                        4, 
                        3, 
                        4.625, 
                        3
                    ], 
                    "texture": "#0"
                }, 
                "down": {
                    "uv": [
                        4, 
                        3, 
                        4.625, 
                        3
                    ], 
                    "texture": "#0"
                }, 
                "east": {
                    "rotation": 270, 
                    "uv": [
                        7.625, 
                        12.375, 
                        7.625, 
                        12.5
                    ], 
                    "texture": "#0"
                }, 
                "south": {
                    "uv": [
                        4, 
                        3, 
                        4.625, 
                        3
                    ], 
                    "texture": "#0"
                }
            }
        }, 
        {
            "to": [
                8.24519, 
                9.62386, 
                1.512
            ], 
            "rotation": {
                "origin": [
                    8.19519, 
                    9.52386, 
                    1.442
                ], 
                "angle": 0, 
                "axis": "y"
            }, 
            "from": [
                8.14519, 
                9.42386, 
                0.076
            ], 
            "faces": {
                "north": {
                    "rotation": 270, 
                    "uv": [
                        7.625, 
                        12.375, 
                        7.625, 
                        12.5
                    ], 
                    "texture": "#0"
                }, 
                "west": {
                    "rotation": 270, 
                    "uv": [
                        7.625, 
                        12.375, 
                        7.625, 
                        12.5
                    ], 
                    "texture": "#0"
                }, 
                "up": {
                    "uv": [
                        4, 
                        3, 
                        4.625, 
                        3
                    ], 
                    "texture": "#0"
                }, 
                "down": {
                    "uv": [
                        4, 
                        3, 
                        4.625, 
                        3
                    ], 
                    "texture": "#0"
                }, 
                "east": {
                    "uv": [
                        4, 
                        3, 
                        4.625, 
                        3
                    ], 
                    "texture": "#0"
                }, 
                "south": {
                    "uv": [
                        4, 
                        3, 
                        4.625, 
                        3
                    ], 
                    "texture": "#0"
                }
            }
        }, 
        {
            "to": [
                8.10377, 
                9.38244, 
                1.512
            ], 
            "rotation": {
                "origin": [
                    8.00377, 
                    9.52386, 
                    2.442
                ], 
                "angle": 45, 
                "axis": "z"
            }, 
            "from": [
                7.90377, 
                9.28244, 
                0.076
            ], 
            "faces": {
                "north": {
                    "rotation": 270, 
                    "uv": [
                        7.625, 
                        12.375, 
                        7.625, 
                        12.5
                    ], 
                    "texture": "#0"
                }, 
                "west": {
                    "rotation": 90, 
                    "uv": [
                        4, 
                        3, 
                        4.625, 
                        3
                    ], 
                    "texture": "#0"
                }, 
                "up": {
                    "rotation": 270, 
                    "uv": [
                        7.625, 
                        12.375, 
                        7.625, 
                        12.5
                    ], 
                    "texture": "#0"
                }, 
                "down": {
                    "rotation": 90, 
                    "uv": [
                        4, 
                        3, 
                        4.625, 
                        3
                    ], 
                    "texture": "#0"
                }, 
                "east": {
                    "rotation": 90, 
                    "uv": [
                        4, 
                        3, 
                        4.625, 
                        3
                    ], 
                    "texture": "#0"
                }, 
                "south": {
                    "rotation": 90, 
                    "uv": [
                        4, 
                        3, 
                        4.625, 
                        3
                    ], 
                    "texture": "#0"
                }
            }
        }, 
        {
            "to": [
                8.10377, 
                9.76529, 
                1.512
            ], 
            "rotation": {
                "origin": [
                    8.00377, 
                    9.52386, 
                    2.442
                ], 
                "angle": 45, 
                "axis": "z"
            }, 
            "from": [
                7.90377, 
                9.66529, 
                0.076
            ], 
            "faces": {
                "north": {
                    "rotation": 270, 
                    "uv": [
                        7.625, 
                        12.375, 
                        7.625, 
                        12.5
                    ], 
                    "texture": "#0"
                }, 
                "west": {
                    "rotation": 90, 
                    "uv": [
                        4, 
                        3, 
                        4.625, 
                        3
                    ], 
                    "texture": "#0"
                }, 
                "up": {
                    "rotation": 90, 
                    "uv": [
                        4, 
                        3, 
                        4.625, 
                        3
                    ], 
                    "texture": "#0"
                }, 
                "down": {
                    "rotation": 270, 
                    "uv": [
                        7.625, 
                        12.375, 
                        7.625, 
                        12.5
                    ], 
                    "texture": "#0"
                }, 
                "east": {
                    "rotation": 90, 
                    "uv": [
                        4, 
                        3, 
                        4.625, 
                        3
                    ], 
                    "texture": "#0"
                }, 
                "south": {
                    "rotation": 90, 
                    "uv": [
                        4, 
                        3, 
                        4.625, 
                        3
                    ], 
                    "texture": "#0"
                }
            }
        }
    ], 
    "display": {
        "thirdperson_righthand": {
            "rotation": [
                0, 
                0, 
                1
            ], 
            "scale": [
                1.14, 
                1, 
                1
            ], 
            "translation": [
                -0.75, 
                -0.75, 
                2
            ]
        }, 
        "head": {
            "rotation": [
                0, 
                125, 
                90
            ], 
            "scale": [
                1.64, 
                1.58, 
                1.61
            ], 
            "translation": [
                1.75, 
                6.5, 
                -2.75
            ]
        }, 
        "thirdperson_lefthand": {
            "rotation": [
                0, 
                0, 
                1
            ], 
            "scale": [
                1.14, 
                1, 
                1
            ], 
            "translation": [
                -0.25, 
                -0.75, 
                2
            ]
        }, 
        "gui": {
            "rotation": [
                16, 
                26, 
                -16
            ], 
            "scale": [
                1.61, 
                1.78, 
                1.86
            ], 
            "translation": [
                0.25, 
                0.25, 
                0
            ]
        }, 
        "firstperson_righthand": {
            "translation": [
                -5.25, 
                3.5, 
                5.25
            ]
        }, 
        "firstperson_lefthand": {
            "translation": [
                -5.25, 
                3.5, 
                5.25
            ]
        }, 
        "fixed": {
            "rotation": [
                0, 
                90, 
                0
            ], 
            "scale": [
                1.43289, 
                1.54227, 
                1.39117
            ], 
            "translation": [
                2, 
                0, 
                -0.75
            ]
        }
    }
}