{
    "textures": {
        "0": "gci:items/common/all_in_one",
        "2": "gci:items/common/mpz",
        "particle": "gci:items/common/all_in_one"
    },
    "elements": [
        {
            "from": [
                7.40624,
                2.26098,
                -2.14941
            ],
            "to": [
                7.58579,
                2.32083,
                -1.31151
            ],
            "rotation": {
                "angle": 0,
                "axis": "y",
                "origin": [
                    7.443,
                    2.29091,
                    -1.41618
                ]
            },
            "faces": {
                "north": {
                    "uv": [
                        6,
                        3.33333,
                        7,
                        4.66667
                    ],
                    "rotation": 90,
                    "texture": "#2"
                },
                "east": {
                    "uv": [
                        6,
                        3.33333,
                        7,
                        4.66667
                    ],
                    "rotation": 90,
                    "texture": "#2"
                },
                "south": {
                    "uv": [
                        6,
                        3.33333,
                        7,
                        4.66667
                    ],
                    "rotation": 90,
                    "texture": "#2"
                },
                "west": {
                    "uv": [
                        6,
                        3.33333,
                        7,
                        4.66667
                    ],
                    "rotation": 90,
                    "texture": "#2"
                },
                "up": {
                    "uv": [
                        6,
                        3.33333,
                        7,
                        4.66667
                    ],
                    "rotation": 90,
                    "texture": "#2"
                },
                "down": {
                    "uv": [
                        6,
                        3.33333,
                        7,
                        4.66667
                    ],
                    "rotation": 90,
                    "texture": "#2"
                }
            }
        },
        {
            "from": [
                7.3823,
                2.32081,
                -1.79031
            ],
            "to": [
                7.60973,
                2.38066,
                -1.67061
            ],
            "rotation": {
                "angle": 0,
                "axis": "y",
                "origin": [
                    7.443,
                    2.29091,
                    -1.65558
                ]
            },
            "faces": {
                "north": {
                    "uv": [
                        6,
                        3.33333,
                        7,
                        4.66667
                    ],
                    "rotation": 90,
                    "texture": "#2"
                },
                "east": {
                    "uv": [
                        6,
                        3.33333,
                        7,
                        4.66667
                    ],
                    "rotation": 90,
                    "texture": "#2"
                },
                "south": {
                    "uv": [
                        6,
                        3.33333,
                        7,
                        4.66667
                    ],
                    "rotation": 90,
                    "texture": "#2"
                },
                "west": {
                    "uv": [
                        6,
                        3.33333,
                        7,
                        4.66667
                    ],
                    "rotation": 90,
                    "texture": "#2"
                },
                "up": {
                    "uv": [
                        6,
                        3.33333,
                        7,
                        4.66667
                    ],
                    "rotation": 90,
                    "texture": "#2"
                },
                "down": {
                    "uv": [
                        6,
                        3.33333,
                        7,
                        4.66667
                    ],
                    "rotation": 90,
                    "texture": "#2"
                }
            }
        },
        {
            "from": [
                7.3823,
                1.8316,
                -1.79031
            ],
            "to": [
                7.60973,
                1.89145,
                -1.67061
            ],
            "rotation": {
                "angle": 0,
                "axis": "y",
                "origin": [
                    7.443,
                    1.80169,
                    -1.65558
                ]
            },
            "faces": {
                "north": {
                    "uv": [
                        6,
                        3.33333,
                        7,
                        4.66667
                    ],
                    "rotation": 90,
                    "texture": "#2"
                },
                "east": {
                    "uv": [
                        6,
                        3.33333,
                        7,
                        4.66667
                    ],
                    "rotation": 90,
                    "texture": "#2"
                },
                "south": {
                    "uv": [
                        6,
                        3.33333,
                        7,
                        4.66667
                    ],
                    "rotation": 90,
                    "texture": "#2"
                },
                "west": {
                    "uv": [
                        6,
                        3.33333,
                        7,
                        4.66667
                    ],
                    "rotation": 90,
                    "texture": "#2"
                },
                "up": {
                    "uv": [
                        6,
                        3.33333,
                        7,
                        4.66667
                    ],
                    "rotation": 90,
                    "texture": "#2"
                },
                "down": {
                    "uv": [
                        6,
                        3.33333,
                        7,
                        4.66667
                    ],
                    "rotation": 90,
                    "texture": "#2"
                }
            }
        },
        {
            "from": [
                7.7107,
                1.99241,
                -1.79031
            ],
            "to": [
                7.77055,
                2.21985,
                -1.67061
            ],
            "rotation": {
                "angle": 0,
                "axis": "y",
                "origin": [
                    7.80045,
                    2.04713,
                    -1.65558
                ]
            },
            "faces": {
                "north": {
                    "uv": [
                        6,
                        3.33333,
                        7,
                        4.66667
                    ],
                    "rotation": 180,
                    "texture": "#2"
                },
                "east": {
                    "uv": [
                        6,
                        3.33333,
                        7,
                        4.66667
                    ],
                    "rotation": 180,
                    "texture": "#2"
                },
                "south": {
                    "uv": [
                        6,
                        3.33333,
                        7,
                        4.66667
                    ],
                    "rotation": 180,
                    "texture": "#2"
                },
                "west": {
                    "uv": [
                        6,
                        3.33333,
                        7,
                        4.66667
                    ],
                    "rotation": 180,
                    "texture": "#2"
                },
                "up": {
                    "uv": [
                        6,
                        3.33333,
                        7,
                        4.66667
                    ],
                    "rotation": 180,
                    "texture": "#2"
                },
                "down": {
                    "uv": [
                        6,
                        3.33333,
                        7,
                        4.66667
                    ],
                    "rotation": 180,
                    "texture": "#2"
                }
            }
        },
        {
            "from": [
                7.22148,
                1.99241,
                -1.79031
            ],
            "to": [
                7.28133,
                2.21985,
                -1.67061
            ],
            "rotation": {
                "angle": 0,
                "axis": "y",
                "origin": [
                    7.31123,
                    2.04713,
                    -1.65558
                ]
            },
            "faces": {
                "north": {
                    "uv": [
                        6,
                        3.33333,
                        7,
                        4.66667
                    ],
                    "rotation": 180,
                    "texture": "#2"
                },
                "east": {
                    "uv": [
                        6,
                        3.33333,
                        7,
                        4.66667
                    ],
                    "rotation": 180,
                    "texture": "#2"
                },
                "south": {
                    "uv": [
                        6,
                        3.33333,
                        7,
                        4.66667
                    ],
                    "rotation": 180,
                    "texture": "#2"
                },
                "west": {
                    "uv": [
                        6,
                        3.33333,
                        7,
                        4.66667
                    ],
                    "rotation": 180,
                    "texture": "#2"
                },
                "up": {
                    "uv": [
                        6,
                        3.33333,
                        7,
                        4.66667
                    ],
                    "rotation": 180,
                    "texture": "#2"
                },
                "down": {
                    "uv": [
                        6,
                        3.33333,
                        7,
                        4.66667
                    ],
                    "rotation": 180,
                    "texture": "#2"
                }
            }
        },
        {
            "from": [
                7.26892,
                2.22497,
                -1.79031
            ],
            "to": [
                7.49635,
                2.28482,
                -1.67061
            ],
            "rotation": {
                "angle": 45,
                "axis": "z",
                "origin": [
                    7.32363,
                    2.19507,
                    -1.65558
                ]
            },
            "faces": {
                "north": {
                    "uv": [
                        6,
                        3.33333,
                        7,
                        4.66667
                    ],
                    "rotation": 90,
                    "texture": "#2"
                },
                "east": {
                    "uv": [
                        6,
                        3.33333,
                        7,
                        4.66667
                    ],
                    "rotation": 90,
                    "texture": "#2"
                },
                "south": {
                    "uv": [
                        6,
                        3.33333,
                        7,
                        4.66667
                    ],
                    "rotation": 90,
                    "texture": "#2"
                },
                "west": {
                    "uv": [
                        6,
                        3.33333,
                        7,
                        4.66667
                    ],
                    "rotation": 90,
                    "texture": "#2"
                },
                "up": {
                    "uv": [
                        6,
                        3.33333,
                        7,
                        4.66667
                    ],
                    "rotation": 90,
                    "texture": "#2"
                },
                "down": {
                    "uv": [
                        6,
                        3.33333,
                        7,
                        4.66667
                    ],
                    "rotation": 90,
                    "texture": "#2"
                }
            }
        },
        {
            "from": [
                7.61484,
                1.87905,
                -1.79031
            ],
            "to": [
                7.84227,
                1.9389,
                -1.67061
            ],
            "rotation": {
                "angle": 45,
                "axis": "z",
                "origin": [
                    7.66956,
                    1.84914,
                    -1.65558
                ]
            },
            "faces": {
                "north": {
                    "uv": [
                        6,
                        3.33333,
                        7,
                        4.66667
                    ],
                    "rotation": 90,
                    "texture": "#2"
                },
                "east": {
                    "uv": [
                        6,
                        3.33333,
                        7,
                        4.66667
                    ],
                    "rotation": 90,
                    "texture": "#2"
                },
                "south": {
                    "uv": [
                        6,
                        3.33333,
                        7,
                        4.66667
                    ],
                    "rotation": 90,
                    "texture": "#2"
                },
                "west": {
                    "uv": [
                        6,
                        3.33333,
                        7,
                        4.66667
                    ],
                    "rotation": 90,
                    "texture": "#2"
                },
                "up": {
                    "uv": [
                        6,
                        3.33333,
                        7,
                        4.66667
                    ],
                    "rotation": 90,
                    "texture": "#2"
                },
                "down": {
                    "uv": [
                        6,
                        3.33333,
                        7,
                        4.66667
                    ],
                    "rotation": 90,
                    "texture": "#2"
                }
            }
        },
        {
            "from": [
                7.53023,
                2.30841,
                -1.79031
            ],
            "to": [
                7.75766,
                2.36826,
                -1.67061
            ],
            "rotation": {
                "angle": -45,
                "axis": "z",
                "origin": [
                    7.58495,
                    2.27851,
                    -1.65558
                ]
            },
            "faces": {
                "north": {
                    "uv": [
                        6,
                        3.33333,
                        7,
                        4.66667
                    ],
                    "rotation": 90,
                    "texture": "#2"
                },
                "east": {
                    "uv": [
                        6,
                        3.33333,
                        7,
                        4.66667
                    ],
                    "rotation": 90,
                    "texture": "#2"
                },
                "south": {
                    "uv": [
                        6,
                        3.33333,
                        7,
                        4.66667
                    ],
                    "rotation": 90,
                    "texture": "#2"
                },
                "west": {
                    "uv": [
                        6,
                        3.33333,
                        7,
                        4.66667
                    ],
                    "rotation": 90,
                    "texture": "#2"
                },
                "up": {
                    "uv": [
                        6,
                        3.33333,
                        7,
                        4.66667
                    ],
                    "rotation": 90,
                    "texture": "#2"
                },
                "down": {
                    "uv": [
                        6,
                        3.33333,
                        7,
                        4.66667
                    ],
                    "rotation": 90,
                    "texture": "#2"
                }
            }
        },
        {
            "from": [
                7.18432,
                1.96248,
                -1.79031
            ],
            "to": [
                7.41175,
                2.02233,
                -1.67061
            ],
            "rotation": {
                "angle": -45,
                "axis": "z",
                "origin": [
                    7.23904,
                    1.93258,
                    -1.65558
                ]
            },
            "faces": {
                "north": {
                    "uv": [
                        6,
                        3.33333,
                        7,
                        4.66667
                    ],
                    "rotation": 90,
                    "texture": "#2"
                },
                "east": {
                    "uv": [
                        6,
                        3.33333,
                        7,
                        4.66667
                    ],
                    "rotation": 90,
                    "texture": "#2"
                },
                "south": {
                    "uv": [
                        6,
                        3.33333,
                        7,
                        4.66667
                    ],
                    "rotation": 90,
                    "texture": "#2"
                },
                "west": {
                    "uv": [
                        6,
                        3.33333,
                        7,
                        4.66667
                    ],
                    "rotation": 90,
                    "texture": "#2"
                },
                "up": {
                    "uv": [
                        6,
                        3.33333,
                        7,
                        4.66667
                    ],
                    "rotation": 90,
                    "texture": "#2"
                },
                "down": {
                    "uv": [
                        6,
                        3.33333,
                        7,
                        4.66667
                    ],
                    "rotation": 90,
                    "texture": "#2"
                }
            }
        },
        {
            "from": [
                7.28291,
                2.18511,
                -2.14941
            ],
            "to": [
                7.46246,
                2.24496,
                -1.31151
            ],
            "rotation": {
                "angle": 45,
                "axis": "z",
                "origin": [
                    7.34276,
                    2.21504,
                    -1.37136
                ]
            },
            "faces": {
                "north": {
                    "uv": [
                        6,
                        3.33333,
                        7,
                        4.66667
                    ],
                    "rotation": 90,
                    "texture": "#2"
                },
                "east": {
                    "uv": [
                        6,
                        3.33333,
                        7,
                        4.66667
                    ],
                    "rotation": 90,
                    "texture": "#2"
                },
                "south": {
                    "uv": [
                        6,
                        3.33333,
                        7,
                        4.66667
                    ],
                    "rotation": 90,
                    "texture": "#2"
                },
                "west": {
                    "uv": [
                        6,
                        3.33333,
                        7,
                        4.66667
                    ],
                    "rotation": 90,
                    "texture": "#2"
                },
                "up": {
                    "uv": [
                        6,
                        3.33333,
                        7,
                        4.66667
                    ],
                    "rotation": 90,
                    "texture": "#2"
                },
                "down": {
                    "uv": [
                        6,
                        3.33333,
                        7,
                        4.66667
                    ],
                    "rotation": 90,
                    "texture": "#2"
                }
            }
        },
        {
            "from": [
                7.27927,
                2.01433,
                -2.14941
            ],
            "to": [
                7.33912,
                2.19388,
                -1.31151
            ],
            "rotation": {
                "angle": 0,
                "axis": "y",
                "origin": [
                    7.68625,
                    2.4673,
                    -1.68258
                ]
            },
            "faces": {
                "north": {
                    "uv": [
                        6,
                        3.33333,
                        7,
                        4.66667
                    ],
                    "rotation": 270,
                    "texture": "#2"
                },
                "east": {
                    "uv": [
                        6,
                        3.33333,
                        7,
                        4.66667
                    ],
                    "rotation": 270,
                    "texture": "#2"
                },
                "south": {
                    "uv": [
                        6,
                        3.33333,
                        7,
                        4.66667
                    ],
                    "rotation": 270,
                    "texture": "#2"
                },
                "west": {
                    "uv": [
                        6,
                        3.33333,
                        7,
                        4.66667
                    ],
                    "rotation": 270,
                    "texture": "#2"
                },
                "up": {
                    "uv": [
                        6,
                        3.33333,
                        7,
                        4.66667
                    ],
                    "rotation": 270,
                    "texture": "#2"
                },
                "down": {
                    "uv": [
                        6,
                        3.33333,
                        7,
                        4.66667
                    ],
                    "rotation": 270,
                    "texture": "#2"
                }
            }
        },
        {
            "from": [
                7.35515,
                1.891,
                -2.14941
            ],
            "to": [
                7.415,
                2.07055,
                -1.31151
            ],
            "rotation": {
                "angle": 45,
                "axis": "z",
                "origin": [
                    7.38508,
                    1.95085,
                    -1.37136
                ]
            },
            "faces": {
                "north": {
                    "uv": [
                        6,
                        3.33333,
                        7,
                        4.66667
                    ],
                    "rotation": 270,
                    "texture": "#2"
                },
                "east": {
                    "uv": [
                        6,
                        3.33333,
                        7,
                        4.66667
                    ],
                    "rotation": 270,
                    "texture": "#2"
                },
                "south": {
                    "uv": [
                        6,
                        3.33333,
                        7,
                        4.66667
                    ],
                    "rotation": 270,
                    "texture": "#2"
                },
                "west": {
                    "uv": [
                        6,
                        3.33333,
                        7,
                        4.66667
                    ],
                    "rotation": 270,
                    "texture": "#2"
                },
                "up": {
                    "uv": [
                        6,
                        3.33333,
                        7,
                        4.66667
                    ],
                    "rotation": 270,
                    "texture": "#2"
                },
                "down": {
                    "uv": [
                        6,
                        3.33333,
                        7,
                        4.66667
                    ],
                    "rotation": 270,
                    "texture": "#2"
                }
            }
        },
        {
            "from": [
                7.61935,
                2.15519,
                -2.14941
            ],
            "to": [
                7.6792,
                2.33474,
                -1.31151
            ],
            "rotation": {
                "angle": 45,
                "axis": "z",
                "origin": [
                    7.64927,
                    2.21504,
                    -1.37136
                ]
            },
            "faces": {
                "north": {
                    "uv": [
                        6,
                        3.33333,
                        7,
                        4.66667
                    ],
                    "rotation": 270,
                    "texture": "#2"
                },
                "east": {
                    "uv": [
                        6,
                        3.33333,
                        7,
                        4.66667
                    ],
                    "rotation": 270,
                    "texture": "#2"
                },
                "south": {
                    "uv": [
                        6,
                        3.33333,
                        7,
                        4.66667
                    ],
                    "rotation": 270,
                    "texture": "#2"
                },
                "west": {
                    "uv": [
                        6,
                        3.33333,
                        7,
                        4.66667
                    ],
                    "rotation": 270,
                    "texture": "#2"
                },
                "up": {
                    "uv": [
                        6,
                        3.33333,
                        7,
                        4.66667
                    ],
                    "rotation": 270,
                    "texture": "#2"
                },
                "down": {
                    "uv": [
                        6,
                        3.33333,
                        7,
                        4.66667
                    ],
                    "rotation": 270,
                    "texture": "#2"
                }
            }
        },
        {
            "from": [
                7.6529,
                2.01433,
                -2.14941
            ],
            "to": [
                7.71275,
                2.19388,
                -1.31151
            ],
            "rotation": {
                "angle": 0,
                "axis": "y",
                "origin": [
                    7.98807,
                    2.2279,
                    -1.68258
                ]
            },
            "faces": {
                "north": {
                    "uv": [
                        6,
                        3.33333,
                        7,
                        4.66667
                    ],
                    "rotation": 270,
                    "texture": "#2"
                },
                "east": {
                    "uv": [
                        6,
                        3.33333,
                        7,
                        4.66667
                    ],
                    "rotation": 270,
                    "texture": "#2"
                },
                "south": {
                    "uv": [
                        6,
                        3.33333,
                        7,
                        4.66667
                    ],
                    "rotation": 270,
                    "texture": "#2"
                },
                "west": {
                    "uv": [
                        6,
                        3.33333,
                        7,
                        4.66667
                    ],
                    "rotation": 270,
                    "texture": "#2"
                },
                "up": {
                    "uv": [
                        6,
                        3.33333,
                        7,
                        4.66667
                    ],
                    "rotation": 270,
                    "texture": "#2"
                },
                "down": {
                    "uv": [
                        6,
                        3.33333,
                        7,
                        4.66667
                    ],
                    "rotation": 270,
                    "texture": "#2"
                }
            }
        },
        {
            "from": [
                7.5471,
                1.92092,
                -2.14941
            ],
            "to": [
                7.72666,
                1.98077,
                -1.31151
            ],
            "rotation": {
                "angle": 45,
                "axis": "z",
                "origin": [
                    7.60696,
                    1.95085,
                    -1.37136
                ]
            },
            "faces": {
                "north": {
                    "uv": [
                        6,
                        3.33333,
                        7,
                        4.66667
                    ],
                    "rotation": 90,
                    "texture": "#2"
                },
                "east": {
                    "uv": [
                        6,
                        3.33333,
                        7,
                        4.66667
                    ],
                    "rotation": 90,
                    "texture": "#2"
                },
                "south": {
                    "uv": [
                        6,
                        3.33333,
                        7,
                        4.66667
                    ],
                    "rotation": 90,
                    "texture": "#2"
                },
                "west": {
                    "uv": [
                        6,
                        3.33333,
                        7,
                        4.66667
                    ],
                    "rotation": 90,
                    "texture": "#2"
                },
                "up": {
                    "uv": [
                        6,
                        3.33333,
                        7,
                        4.66667
                    ],
                    "rotation": 90,
                    "texture": "#2"
                },
                "down": {
                    "uv": [
                        6,
                        3.33333,
                        7,
                        4.66667
                    ],
                    "rotation": 90,
                    "texture": "#2"
                }
            }
        },
        {
            "from": [
                7.40624,
                1.88736,
                -2.14941
            ],
            "to": [
                7.58579,
                1.94721,
                -1.31151
            ],
            "rotation": {
                "angle": 0,
                "axis": "y",
                "origin": [
                    7.47291,
                    1.91729,
                    -1.41618
                ]
            },
            "faces": {
                "north": {
                    "uv": [
                        6,
                        3.33333,
                        7,
                        4.66667
                    ],
                    "rotation": 90,
                    "texture": "#2"
                },
                "east": {
                    "uv": [
                        6,
                        3.33333,
                        7,
                        4.66667
                    ],
                    "rotation": 90,
                    "texture": "#2"
                },
                "south": {
                    "uv": [
                        6,
                        3.33333,
                        7,
                        4.66667
                    ],
                    "rotation": 90,
                    "texture": "#2"
                },
                "west": {
                    "uv": [
                        6,
                        3.33333,
                        7,
                        4.66667
                    ],
                    "rotation": 90,
                    "texture": "#2"
                },
                "up": {
                    "uv": [
                        6,
                        3.33333,
                        7,
                        4.66667
                    ],
                    "rotation": 90,
                    "texture": "#2"
                },
                "down": {
                    "uv": [
                        6,
                        3.33333,
                        7,
                        4.66667
                    ],
                    "rotation": 90,
                    "texture": "#2"
                }
            }
        },
        {
            "from": [
                7.13691,
                1.70268,
                -1.28757
            ],
            "to": [
                7.85511,
                1.94208,
                1.46553
            ],
            "rotation": {
                "angle": 0,
                "axis": "y",
                "origin": [
                    7.49601,
                    2.70232,
                    5.51979
                ]
            },
            "faces": {
                "north": {
                    "uv": [
                        0,
                        0,
                        2.33333,
                        2.33333
                    ],
                    "texture": "#2"
                },
                "east": {
                    "uv": [
                        0,
                        0,
                        2.33333,
                        2.33333
                    ],
                    "texture": "#2"
                },
                "south": {
                    "uv": [
                        0,
                        0,
                        2.33333,
                        2.33333
                    ],
                    "texture": "#2"
                },
                "west": {
                    "uv": [
                        0,
                        0,
                        2.33333,
                        2.33333
                    ],
                    "texture": "#2"
                },
                "up": {
                    "uv": [
                        0,
                        0,
                        2.33333,
                        2.33333
                    ],
                    "texture": "#2"
                },
                "down": {
                    "uv": [
                        0,
                        0,
                        2.33333,
                        2.33333
                    ],
                    "texture": "#2"
                }
            }
        },
        {
            "from": [
                7.25661,
                1.94208,
                -1.28757
            ],
            "to": [
                7.85511,
                2.30118,
                1.58523
            ],
            "rotation": {
                "angle": 0,
                "axis": "y",
                "origin": [
                    7.61571,
                    2.94172,
                    5.51979
                ]
            },
            "faces": {
                "north": {
                    "uv": [
                        0,
                        0,
                        2.33333,
                        2.33333
                    ],
                    "texture": "#2"
                },
                "east": {
                    "uv": [
                        0,
                        0,
                        2.33333,
                        2.33333
                    ],
                    "texture": "#2"
                },
                "south": {
                    "uv": [
                        0,
                        0,
                        2.33333,
                        2.33333
                    ],
                    "texture": "#2"
                },
                "west": {
                    "uv": [
                        0,
                        0,
                        2.33333,
                        2.33333
                    ],
                    "texture": "#2"
                },
                "up": {
                    "uv": [
                        0,
                        0,
                        2.33333,
                        2.33333
                    ],
                    "texture": "#2"
                },
                "down": {
                    "uv": [
                        0,
                        0,
                        2.33333,
                        2.33333
                    ],
                    "texture": "#2"
                }
            }
        },
        {
            "from": [
                7.13691,
                1.94208,
                -1.28757
            ],
            "to": [
                7.25661,
                2.30118,
                -1.04817
            ],
            "rotation": {
                "angle": 0,
                "axis": "y",
                "origin": [
                    7.49601,
                    2.94172,
                    5.51979
                ]
            },
            "faces": {
                "north": {
                    "uv": [
                        0,
                        0,
                        3.032,
                        2.394
                    ],
                    "texture": "#2"
                },
                "east": {
                    "uv": [
                        0,
                        0,
                        3.032,
                        2.394
                    ],
                    "texture": "#2"
                },
                "south": {
                    "uv": [
                        0,
                        0,
                        3.032,
                        2.394
                    ],
                    "texture": "#2"
                },
                "west": {
                    "uv": [
                        0,
                        0,
                        3.032,
                        2.394
                    ],
                    "texture": "#2"
                },
                "up": {
                    "uv": [
                        0,
                        0,
                        3.032,
                        2.394
                    ],
                    "rotation": 270,
                    "texture": "#2"
                },
                "down": {
                    "uv": [
                        0,
                        0,
                        3.032,
                        2.394
                    ],
                    "rotation": 90,
                    "texture": "#2"
                }
            }
        },
        {
            "from": [
                7.101,
                2.42088,
                1.70493
            ],
            "to": [
                7.22301,
                2.78418,
                1.94433
            ],
            "rotation": {
                "angle": 0,
                "axis": "y",
                "origin": [
                    7.49601,
                    3.42052,
                    8.51229
                ]
            },
            "faces": {
                "north": {
                    "uv": [
                        0,
                        0,
                        2.33333,
                        2.33333
                    ],
                    "texture": "#2"
                },
                "east": {
                    "uv": [
                        0,
                        0,
                        2.33333,
                        2.33333
                    ],
                    "texture": "#2"
                },
                "south": {
                    "uv": [
                        0,
                        0,
                        2.33333,
                        2.33333
                    ],
                    "texture": "#2"
                },
                "west": {
                    "uv": [
                        0,
                        0,
                        2.33333,
                        2.33333
                    ],
                    "texture": "#2"
                },
                "up": {
                    "uv": [
                        0,
                        0,
                        2.33333,
                        2.33333
                    ],
                    "texture": "#2"
                },
                "down": {
                    "uv": [
                        0,
                        0,
                        2.33333,
                        2.33333
                    ],
                    "texture": "#2"
                }
            }
        },
        {
            "from": [
                7.101,
                2.42088,
                -0.80877
            ],
            "to": [
                7.22301,
                2.78418,
                -0.56937
            ],
            "rotation": {
                "angle": 0,
                "axis": "y",
                "origin": [
                    7.49601,
                    3.42052,
                    5.99859
                ]
            },
            "faces": {
                "north": {
                    "uv": [
                        0,
                        0,
                        2.33333,
                        2.33333
                    ],
                    "texture": "#2"
                },
                "east": {
                    "uv": [
                        0,
                        0,
                        2.33333,
                        2.33333
                    ],
                    "texture": "#2"
                },
                "south": {
                    "uv": [
                        0,
                        0,
                        2.33333,
                        2.33333
                    ],
                    "texture": "#2"
                },
                "west": {
                    "uv": [
                        0,
                        0,
                        2.33333,
                        2.33333
                    ],
                    "texture": "#2"
                },
                "up": {
                    "uv": [
                        0,
                        0,
                        2.33333,
                        2.33333
                    ],
                    "texture": "#2"
                },
                "down": {
                    "uv": [
                        0,
                        0,
                        2.33333,
                        2.33333
                    ],
                    "texture": "#2"
                }
            }
        },
        {
            "from": [
                7.76901,
                2.42088,
                1.70493
            ],
            "to": [
                7.89102,
                2.78418,
                1.94433
            ],
            "rotation": {
                "angle": 0,
                "axis": "y",
                "origin": [
                    8.09451,
                    3.42052,
                    8.51229
                ]
            },
            "faces": {
                "north": {
                    "uv": [
                        0,
                        0,
                        3.032,
                        2.394
                    ],
                    "texture": "#2"
                },
                "east": {
                    "uv": [
                        0,
                        0,
                        3.032,
                        2.394
                    ],
                    "texture": "#2"
                },
                "south": {
                    "uv": [
                        0,
                        0,
                        3.032,
                        2.394
                    ],
                    "texture": "#2"
                },
                "west": {
                    "uv": [
                        0,
                        0,
                        3.032,
                        2.394
                    ],
                    "texture": "#2"
                },
                "up": {
                    "uv": [
                        0,
                        0,
                        3.032,
                        2.394
                    ],
                    "rotation": 270,
                    "texture": "#2"
                },
                "down": {
                    "uv": [
                        0,
                        0,
                        3.032,
                        2.394
                    ],
                    "rotation": 90,
                    "texture": "#2"
                }
            }
        },
        {
            "from": [
                7.76901,
                2.42088,
                -0.80877
            ],
            "to": [
                7.89102,
                2.78418,
                -0.56937
            ],
            "rotation": {
                "angle": 0,
                "axis": "y",
                "origin": [
                    8.09451,
                    3.42052,
                    5.99859
                ]
            },
            "faces": {
                "north": {
                    "uv": [
                        0,
                        0,
                        3.032,
                        2.394
                    ],
                    "texture": "#2"
                },
                "east": {
                    "uv": [
                        0,
                        0,
                        3.032,
                        2.394
                    ],
                    "texture": "#2"
                },
                "south": {
                    "uv": [
                        0,
                        0,
                        3.032,
                        2.394
                    ],
                    "texture": "#2"
                },
                "west": {
                    "uv": [
                        0,
                        0,
                        3.032,
                        2.394
                    ],
                    "texture": "#2"
                },
                "up": {
                    "uv": [
                        0,
                        0,
                        3.032,
                        2.394
                    ],
                    "rotation": 270,
                    "texture": "#2"
                },
                "down": {
                    "uv": [
                        0,
                        0,
                        3.032,
                        2.394
                    ],
                    "rotation": 90,
                    "texture": "#2"
                }
            }
        },
        {
            "from": [
                7.13691,
                2.27724,
                -1.28757
            ],
            "to": [
                7.85511,
                2.75184,
                2.06403
            ],
            "rotation": {
                "angle": 0,
                "axis": "y",
                "origin": [
                    7.49601,
                    3.18112,
                    5.51979
                ]
            },
            "faces": {
                "north": {
                    "uv": [
                        0,
                        0,
                        2.33333,
                        2.33333
                    ],
                    "texture": "#2"
                },
                "east": {
                    "uv": [
                        0,
                        0,
                        2.33333,
                        2.33333
                    ],
                    "texture": "#2"
                },
                "south": {
                    "uv": [
                        0,
                        0,
                        2.33333,
                        2.33333
                    ],
                    "texture": "#2"
                },
                "west": {
                    "uv": [
                        0,
                        0,
                        2.33333,
                        2.33333
                    ],
                    "texture": "#2"
                },
                "up": {
                    "uv": [
                        0,
                        0,
                        2.33333,
                        2.33333
                    ],
                    "texture": "#2"
                },
                "down": {
                    "uv": [
                        0,
                        0,
                        2.33333,
                        2.33333
                    ],
                    "texture": "#2"
                }
            }
        },
        {
            "from": [
                7.13691,
                1.25518,
                -0.09057
            ],
            "to": [
                7.85511,
                1.97338,
                0.74733
            ],
            "rotation": {
                "angle": -22.5,
                "axis": "x",
                "origin": [
                    7.49601,
                    1.61428,
                    0.20868
                ]
            },
            "faces": {
                "north": {
                    "uv": [
                        0,
                        0,
                        2.33333,
                        2.33333
                    ],
                    "texture": "#2"
                },
                "east": {
                    "uv": [
                        0,
                        0,
                        2.33333,
                        2.33333
                    ],
                    "texture": "#2"
                },
                "south": {
                    "uv": [
                        0,
                        0,
                        2.33333,
                        2.33333
                    ],
                    "texture": "#2"
                },
                "west": {
                    "uv": [
                        0,
                        0,
                        2.33333,
                        2.33333
                    ],
                    "texture": "#2"
                },
                "up": {
                    "uv": [
                        0,
                        0,
                        2.33333,
                        2.33333
                    ],
                    "texture": "#2"
                },
                "down": {
                    "uv": [
                        0,
                        0,
                        2.33333,
                        2.33333
                    ],
                    "texture": "#2"
                }
            }
        },
        {
            "from": [
                7.13691,
                1.43934,
                0.26853
            ],
            "to": [
                7.85511,
                2.27724,
                1.58523
            ],
            "rotation": {
                "angle": 0,
                "axis": "y",
                "origin": [
                    7.49601,
                    1.67874,
                    0.92688
                ]
            },
            "faces": {
                "north": {
                    "uv": [
                        0,
                        0,
                        2.33333,
                        2.33333
                    ],
                    "texture": "#2"
                },
                "east": {
                    "uv": [
                        0,
                        0,
                        2.33333,
                        2.33333
                    ],
                    "texture": "#2"
                },
                "south": {
                    "uv": [
                        0,
                        0,
                        2.33333,
                        2.33333
                    ],
                    "texture": "#2"
                },
                "west": {
                    "uv": [
                        0,
                        0,
                        2.33333,
                        2.33333
                    ],
                    "texture": "#2"
                },
                "up": {
                    "uv": [
                        0,
                        0,
                        2.33333,
                        2.33333
                    ],
                    "texture": "#2"
                },
                "down": {
                    "uv": [
                        0,
                        0,
                        2.33333,
                        2.33333
                    ],
                    "texture": "#2"
                }
            }
        },
        {
            "from": [
                7.13691,
                1.35091,
                1.30508
            ],
            "to": [
                7.85511,
                2.42821,
                1.90358
            ],
            "rotation": {
                "angle": 22.5,
                "axis": "x",
                "origin": [
                    7.49601,
                    1.94941,
                    1.60433
                ]
            },
            "faces": {
                "north": {
                    "uv": [
                        0,
                        0,
                        2.33333,
                        2.33333
                    ],
                    "texture": "#2"
                },
                "east": {
                    "uv": [
                        0,
                        0,
                        2.33333,
                        2.33333
                    ],
                    "texture": "#2"
                },
                "south": {
                    "uv": [
                        0,
                        0,
                        2.33333,
                        2.33333
                    ],
                    "texture": "#2"
                },
                "west": {
                    "uv": [
                        0,
                        0,
                        2.33333,
                        2.33333
                    ],
                    "texture": "#2"
                },
                "up": {
                    "uv": [
                        0,
                        0,
                        2.33333,
                        2.33333
                    ],
                    "texture": "#2"
                },
                "down": {
                    "uv": [
                        0,
                        0,
                        2.33333,
                        2.33333
                    ],
                    "texture": "#2"
                }
            }
        },
        {
            "from": [
                7.37631,
                1.26475,
                -1.15957
            ],
            "to": [
                7.61571,
                1.3246,
                -0.80047
            ],
            "rotation": {
                "angle": 45,
                "axis": "x",
                "origin": [
                    7.49601,
                    1.29468,
                    -1.09972
                ]
            },
            "faces": {
                "north": {
                    "uv": [
                        5.66667,
                        3.33333,
                        7,
                        4.66667
                    ],
                    "texture": "#2"
                },
                "east": {
                    "uv": [
                        5.66667,
                        3.33333,
                        7,
                        4.66667
                    ],
                    "texture": "#2"
                },
                "south": {
                    "uv": [
                        5.66667,
                        3.33333,
                        7,
                        4.66667
                    ],
                    "texture": "#2"
                },
                "west": {
                    "uv": [
                        5.66667,
                        3.33333,
                        7,
                        4.66667
                    ],
                    "texture": "#2"
                },
                "up": {
                    "uv": [
                        5.66667,
                        3.33333,
                        7,
                        4.66667
                    ],
                    "texture": "#2"
                },
                "down": {
                    "uv": [
                        5.66667,
                        3.33333,
                        7,
                        4.66667
                    ],
                    "texture": "#2"
                }
            }
        },
        {
            "from": [
                7.37631,
                1.31363,
                -1.23419
            ],
            "to": [
                7.61571,
                1.55303,
                -1.17434
            ],
            "rotation": {
                "angle": -22.5,
                "axis": "x",
                "origin": [
                    7.49601,
                    1.49318,
                    -1.20427
                ]
            },
            "faces": {
                "north": {
                    "uv": [
                        5.66667,
                        3.33333,
                        7,
                        4.66667
                    ],
                    "rotation": 90,
                    "texture": "#2"
                },
                "east": {
                    "uv": [
                        5.66667,
                        3.33333,
                        7,
                        4.66667
                    ],
                    "rotation": 90,
                    "texture": "#2"
                },
                "south": {
                    "uv": [
                        5.66667,
                        3.33333,
                        7,
                        4.66667
                    ],
                    "rotation": 90,
                    "texture": "#2"
                },
                "west": {
                    "uv": [
                        5.66667,
                        3.33333,
                        7,
                        4.66667
                    ],
                    "rotation": 90,
                    "texture": "#2"
                },
                "up": {
                    "uv": [
                        5.66667,
                        3.33333,
                        7,
                        4.66667
                    ],
                    "rotation": 90,
                    "texture": "#2"
                },
                "down": {
                    "uv": [
                        5.66667,
                        3.33333,
                        7,
                        4.66667
                    ],
                    "rotation": 90,
                    "texture": "#2"
                }
            }
        },
        {
            "from": [
                7.37631,
                1.53703,
                -1.25481
            ],
            "to": [
                7.61571,
                1.77643,
                -1.19496
            ],
            "rotation": {
                "angle": 0,
                "axis": "y",
                "origin": [
                    7.49601,
                    1.71658,
                    -1.22489
                ]
            },
            "faces": {
                "north": {
                    "uv": [
                        5.66667,
                        3.33333,
                        7,
                        4.66667
                    ],
                    "rotation": 90,
                    "texture": "#2"
                },
                "east": {
                    "uv": [
                        5.66667,
                        3.33333,
                        7,
                        4.66667
                    ],
                    "rotation": 90,
                    "texture": "#2"
                },
                "south": {
                    "uv": [
                        5.66667,
                        3.33333,
                        7,
                        4.66667
                    ],
                    "rotation": 90,
                    "texture": "#2"
                },
                "west": {
                    "uv": [
                        5.66667,
                        3.33333,
                        7,
                        4.66667
                    ],
                    "rotation": 90,
                    "texture": "#2"
                },
                "up": {
                    "uv": [
                        5.66667,
                        3.33333,
                        7,
                        4.66667
                    ],
                    "rotation": 90,
                    "texture": "#2"
                },
                "down": {
                    "uv": [
                        5.66667,
                        3.33333,
                        7,
                        4.66667
                    ],
                    "rotation": 90,
                    "texture": "#2"
                }
            }
        },
        {
            "from": [
                7.37631,
                1.06193,
                -0.90927
            ],
            "to": [
                7.61571,
                1.12178,
                -0.31077
            ],
            "rotation": {
                "angle": 0,
                "axis": "y",
                "origin": [
                    7.49601,
                    1.09185,
                    -0.40054
                ]
            },
            "faces": {
                "north": {
                    "uv": [
                        5.66667,
                        3.33333,
                        7,
                        4.66667
                    ],
                    "texture": "#2"
                },
                "east": {
                    "uv": [
                        5.66667,
                        3.33333,
                        7,
                        4.66667
                    ],
                    "texture": "#2"
                },
                "south": {
                    "uv": [
                        5.66667,
                        3.33333,
                        7,
                        4.66667
                    ],
                    "texture": "#2"
                },
                "west": {
                    "uv": [
                        5.66667,
                        3.33333,
                        7,
                        4.66667
                    ],
                    "texture": "#2"
                },
                "up": {
                    "uv": [
                        5.66667,
                        3.33333,
                        7,
                        4.66667
                    ],
                    "texture": "#2"
                },
                "down": {
                    "uv": [
                        5.66667,
                        3.33333,
                        7,
                        4.66667
                    ],
                    "texture": "#2"
                }
            }
        },
        {
            "from": [
                7.37631,
                1.10318,
                -0.34279
            ],
            "to": [
                7.61571,
                1.16303,
                0.19586
            ],
            "rotation": {
                "angle": -22.5,
                "axis": "x",
                "origin": [
                    7.49601,
                    1.16303,
                    -0.22309
                ]
            },
            "faces": {
                "north": {
                    "uv": [
                        5.66667,
                        3.33333,
                        7,
                        4.66667
                    ],
                    "texture": "#2"
                },
                "east": {
                    "uv": [
                        5.66667,
                        3.33333,
                        7,
                        4.66667
                    ],
                    "texture": "#2"
                },
                "south": {
                    "uv": [
                        5.66667,
                        3.33333,
                        7,
                        4.66667
                    ],
                    "texture": "#2"
                },
                "west": {
                    "uv": [
                        5.66667,
                        3.33333,
                        7,
                        4.66667
                    ],
                    "texture": "#2"
                },
                "up": {
                    "uv": [
                        5.66667,
                        3.33333,
                        7,
                        4.66667
                    ],
                    "texture": "#2"
                },
                "down": {
                    "uv": [
                        5.66667,
                        3.33333,
                        7,
                        4.66667
                    ],
                    "texture": "#2"
                }
            }
        },
        {
            "from": [
                7.43616,
                1.39649,
                -0.30161
            ],
            "to": [
                7.55586,
                1.51619,
                -0.24176
            ],
            "rotation": {
                "angle": 22.5,
                "axis": "x",
                "origin": [
                    7.49601,
                    1.57604,
                    -0.27169
                ]
            },
            "faces": {
                "north": {
                    "uv": [
                        3,
                        3.33333,
                        4.33333,
                        4.66667
                    ],
                    "rotation": 270,
                    "texture": "#2"
                },
                "east": {
                    "uv": [
                        3,
                        3.33333,
                        4.33333,
                        4.66667
                    ],
                    "rotation": 270,
                    "texture": "#2"
                },
                "south": {
                    "uv": [
                        3,
                        3.33333,
                        4.33333,
                        4.66667
                    ],
                    "rotation": 270,
                    "texture": "#2"
                },
                "west": {
                    "uv": [
                        3,
                        3.33333,
                        4.33333,
                        4.66667
                    ],
                    "rotation": 270,
                    "texture": "#2"
                },
                "up": {
                    "uv": [
                        3,
                        3.33333,
                        4.33333,
                        4.66667
                    ],
                    "rotation": 270,
                    "texture": "#2"
                },
                "down": {
                    "uv": [
                        3,
                        3.33333,
                        4.33333,
                        4.66667
                    ],
                    "rotation": 270,
                    "texture": "#2"
                }
            }
        },
        {
            "from": [
                7.43616,
                1.31771,
                -0.40616
            ],
            "to": [
                7.55586,
                1.43741,
                -0.34631
            ],
            "rotation": {
                "angle": 45,
                "axis": "x",
                "origin": [
                    7.49601,
                    1.37756,
                    -0.37624
                ]
            },
            "faces": {
                "north": {
                    "uv": [
                        3,
                        3.33333,
                        4.33333,
                        4.66667
                    ],
                    "rotation": 270,
                    "texture": "#2"
                },
                "east": {
                    "uv": [
                        3,
                        3.33333,
                        4.33333,
                        4.66667
                    ],
                    "rotation": 270,
                    "texture": "#2"
                },
                "south": {
                    "uv": [
                        3,
                        3.33333,
                        4.33333,
                        4.66667
                    ],
                    "rotation": 270,
                    "texture": "#2"
                },
                "west": {
                    "uv": [
                        3,
                        3.33333,
                        4.33333,
                        4.66667
                    ],
                    "rotation": 270,
                    "texture": "#2"
                },
                "up": {
                    "uv": [
                        3,
                        3.33333,
                        4.33333,
                        4.66667
                    ],
                    "rotation": 270,
                    "texture": "#2"
                },
                "down": {
                    "uv": [
                        3,
                        3.33333,
                        4.33333,
                        4.66667
                    ],
                    "rotation": 270,
                    "texture": "#2"
                }
            }
        },
        {
            "from": [
                7.43616,
                1.50708,
                -0.25581
            ],
            "to": [
                7.55586,
                1.86618,
                -0.19596
            ],
            "rotation": {
                "angle": 22.5,
                "axis": "x",
                "origin": [
                    7.49601,
                    1.68663,
                    -0.22589
                ]
            },
            "faces": {
                "north": {
                    "uv": [
                        3,
                        3.33333,
                        4.33333,
                        4.66667
                    ],
                    "rotation": 270,
                    "texture": "#2"
                },
                "east": {
                    "uv": [
                        3,
                        3.33333,
                        4.33333,
                        4.66667
                    ],
                    "rotation": 270,
                    "texture": "#2"
                },
                "south": {
                    "uv": [
                        3,
                        3.33333,
                        4.33333,
                        4.66667
                    ],
                    "rotation": 270,
                    "texture": "#2"
                },
                "west": {
                    "uv": [
                        3,
                        3.33333,
                        4.33333,
                        4.66667
                    ],
                    "rotation": 270,
                    "texture": "#2"
                },
                "up": {
                    "uv": [
                        3,
                        3.33333,
                        4.33333,
                        4.66667
                    ],
                    "rotation": 270,
                    "texture": "#2"
                },
                "down": {
                    "uv": [
                        3,
                        3.33333,
                        4.33333,
                        4.66667
                    ],
                    "rotation": 270,
                    "texture": "#2"
                }
            }
        },
        {
            "from": [
                7.43616,
                1.60388,
                -0.26037
            ],
            "to": [
                7.55586,
                1.96298,
                -0.20052
            ],
            "rotation": {
                "angle": 22.5,
                "axis": "x",
                "origin": [
                    7.49601,
                    1.78343,
                    -0.23044
                ]
            },
            "faces": {
                "north": {
                    "uv": [
                        3,
                        3.33333,
                        4.33333,
                        4.66667
                    ],
                    "rotation": 270,
                    "texture": "#2"
                },
                "east": {
                    "uv": [
                        3,
                        3.33333,
                        4.33333,
                        4.66667
                    ],
                    "rotation": 270,
                    "texture": "#2"
                },
                "south": {
                    "uv": [
                        3,
                        3.33333,
                        4.33333,
                        4.66667
                    ],
                    "rotation": 270,
                    "texture": "#2"
                },
                "west": {
                    "uv": [
                        3,
                        3.33333,
                        4.33333,
                        4.66667
                    ],
                    "rotation": 270,
                    "texture": "#2"
                },
                "up": {
                    "uv": [
                        3,
                        3.33333,
                        4.33333,
                        4.66667
                    ],
                    "rotation": 270,
                    "texture": "#2"
                },
                "down": {
                    "uv": [
                        3,
                        3.33333,
                        4.33333,
                        4.66667
                    ],
                    "rotation": 270,
                    "texture": "#2"
                }
            }
        },
        {
            "from": [
                7.43616,
                1.62899,
                -0.3268
            ],
            "to": [
                7.55586,
                1.98809,
                -0.26695
            ],
            "rotation": {
                "angle": 0,
                "axis": "y",
                "origin": [
                    7.49601,
                    1.80854,
                    -0.29688
                ]
            },
            "faces": {
                "north": {
                    "uv": [
                        3,
                        3.33333,
                        4.33333,
                        4.66667
                    ],
                    "rotation": 270,
                    "texture": "#2"
                },
                "east": {
                    "uv": [
                        3,
                        3.33333,
                        4.33333,
                        4.66667
                    ],
                    "rotation": 270,
                    "texture": "#2"
                },
                "south": {
                    "uv": [
                        3,
                        3.33333,
                        4.33333,
                        4.66667
                    ],
                    "rotation": 270,
                    "texture": "#2"
                },
                "west": {
                    "uv": [
                        3,
                        3.33333,
                        4.33333,
                        4.66667
                    ],
                    "rotation": 270,
                    "texture": "#2"
                },
                "up": {
                    "uv": [
                        3,
                        3.33333,
                        4.33333,
                        4.66667
                    ],
                    "rotation": 270,
                    "texture": "#2"
                },
                "down": {
                    "uv": [
                        3,
                        3.33333,
                        4.33333,
                        4.66667
                    ],
                    "rotation": 270,
                    "texture": "#2"
                }
            }
        },
        {
            "from": [
                7.43616,
                1.50929,
                -0.3268
            ],
            "to": [
                7.55586,
                1.62899,
                -0.26695
            ],
            "rotation": {
                "angle": 0,
                "axis": "y",
                "origin": [
                    7.49601,
                    1.68884,
                    -0.29688
                ]
            },
            "faces": {
                "north": {
                    "uv": [
                        3,
                        3.33333,
                        4.33333,
                        4.66667
                    ],
                    "rotation": 270,
                    "texture": "#2"
                },
                "east": {
                    "uv": [
                        3,
                        3.33333,
                        4.33333,
                        4.66667
                    ],
                    "rotation": 270,
                    "texture": "#2"
                },
                "south": {
                    "uv": [
                        3,
                        3.33333,
                        4.33333,
                        4.66667
                    ],
                    "rotation": 270,
                    "texture": "#2"
                },
                "west": {
                    "uv": [
                        3,
                        3.33333,
                        4.33333,
                        4.66667
                    ],
                    "rotation": 270,
                    "texture": "#2"
                },
                "up": {
                    "uv": [
                        3,
                        3.33333,
                        4.33333,
                        4.66667
                    ],
                    "rotation": 270,
                    "texture": "#2"
                },
                "down": {
                    "uv": [
                        3,
                        3.33333,
                        4.33333,
                        4.66667
                    ],
                    "rotation": 270,
                    "texture": "#2"
                }
            }
        },
        {
            "from": [
                7.15966,
                1.94208,
                -1.04817
            ],
            "to": [
                7.27936,
                2.30118,
                0.38823
            ],
            "rotation": {
                "angle": 0,
                "axis": "y",
                "origin": [
                    7.49601,
                    2.94172,
                    5.75919
                ]
            },
            "faces": {
                "north": {
                    "uv": [
                        0,
                        3,
                        1.66667,
                        4.33333
                    ],
                    "rotation": 270,
                    "texture": "#2"
                },
                "east": {
                    "uv": [
                        0,
                        3,
                        1.66667,
                        4.33333
                    ],
                    "rotation": 270,
                    "texture": "#2"
                },
                "south": {
                    "uv": [
                        0,
                        3,
                        1.66667,
                        4.33333
                    ],
                    "rotation": 270,
                    "texture": "#2"
                },
                "west": {
                    "uv": [
                        0,
                        3,
                        1.66667,
                        4.33333
                    ],
                    "rotation": 270,
                    "texture": "#2"
                },
                "up": {
                    "uv": [
                        0,
                        3,
                        1.66667,
                        4.33333
                    ],
                    "rotation": 270,
                    "texture": "#2"
                },
                "down": {
                    "uv": [
                        0,
                        3,
                        1.66667,
                        4.33333
                    ],
                    "rotation": 270,
                    "texture": "#2"
                }
            }
        },
        {
            "from": [
                6.77902,
                2.08106,
                -0.8623
            ],
            "to": [
                7.00645,
                2.2247,
                -0.76654
            ],
            "rotation": {
                "angle": 45,
                "axis": "y",
                "origin": [
                    6.89872,
                    2.15288,
                    -0.82639
                ]
            },
            "faces": {
                "north": {
                    "uv": [
                        0,
                        3,
                        1.66667,
                        4.33333
                    ],
                    "rotation": 270,
                    "texture": "#2"
                },
                "east": {
                    "uv": [
                        0,
                        3,
                        1.66667,
                        4.33333
                    ],
                    "rotation": 270,
                    "texture": "#2"
                },
                "south": {
                    "uv": [
                        0,
                        3,
                        1.66667,
                        4.33333
                    ],
                    "rotation": 270,
                    "texture": "#2"
                },
                "west": {
                    "uv": [
                        0,
                        3,
                        1.66667,
                        4.33333
                    ],
                    "rotation": 270,
                    "texture": "#2"
                },
                "up": {
                    "uv": [
                        0,
                        3,
                        1.66667,
                        4.33333
                    ],
                    "rotation": 270,
                    "texture": "#2"
                },
                "down": {
                    "uv": [
                        0,
                        3,
                        1.66667,
                        4.33333
                    ],
                    "rotation": 270,
                    "texture": "#2"
                }
            }
        },
        {
            "from": [
                6.85562,
                2.08106,
                -0.92608
            ],
            "to": [
                6.95138,
                2.2247,
                -0.69865
            ],
            "rotation": {
                "angle": 0,
                "axis": "y",
                "origin": [
                    6.9035,
                    2.15288,
                    -0.81237
                ]
            },
            "faces": {
                "north": {
                    "uv": [
                        0,
                        3,
                        1.66667,
                        4.33333
                    ],
                    "rotation": 270,
                    "texture": "#2"
                },
                "east": {
                    "uv": [
                        0,
                        3,
                        1.66667,
                        4.33333
                    ],
                    "rotation": 270,
                    "texture": "#2"
                },
                "south": {
                    "uv": [
                        0,
                        3,
                        1.66667,
                        4.33333
                    ],
                    "rotation": 270,
                    "texture": "#2"
                },
                "west": {
                    "uv": [
                        0,
                        3,
                        1.66667,
                        4.33333
                    ],
                    "rotation": 270,
                    "texture": "#2"
                },
                "up": {
                    "uv": [
                        0,
                        3,
                        1.66667,
                        4.33333
                    ],
                    "rotation": 270,
                    "texture": "#2"
                },
                "down": {
                    "uv": [
                        0,
                        3,
                        1.66667,
                        4.33333
                    ],
                    "rotation": 270,
                    "texture": "#2"
                }
            }
        },
        {
            "from": [
                6.78978,
                2.08106,
                -0.86025
            ],
            "to": [
                7.01721,
                2.2247,
                -0.76449
            ],
            "rotation": {
                "angle": 0,
                "axis": "y",
                "origin": [
                    7.14888,
                    3.06142,
                    6.35767
                ]
            },
            "faces": {
                "north": {
                    "uv": [
                        0,
                        3,
                        1.66667,
                        4.33333
                    ],
                    "rotation": 270,
                    "texture": "#2"
                },
                "east": {
                    "uv": [
                        0,
                        3,
                        1.66667,
                        4.33333
                    ],
                    "rotation": 270,
                    "texture": "#2"
                },
                "south": {
                    "uv": [
                        0,
                        3,
                        1.66667,
                        4.33333
                    ],
                    "rotation": 270,
                    "texture": "#2"
                },
                "west": {
                    "uv": [
                        0,
                        3,
                        1.66667,
                        4.33333
                    ],
                    "rotation": 270,
                    "texture": "#2"
                },
                "up": {
                    "uv": [
                        0,
                        3,
                        1.66667,
                        4.33333
                    ],
                    "rotation": 270,
                    "texture": "#2"
                },
                "down": {
                    "uv": [
                        0,
                        3,
                        1.66667,
                        4.33333
                    ],
                    "rotation": 270,
                    "texture": "#2"
                }
            }
        },
        {
            "from": [
                6.78978,
                2.08106,
                -0.86025
            ],
            "to": [
                7.01721,
                2.2247,
                -0.76449
            ],
            "rotation": {
                "angle": -45,
                "axis": "y",
                "origin": [
                    6.9035,
                    2.15288,
                    -0.81237
                ]
            },
            "faces": {
                "north": {
                    "uv": [
                        0,
                        3,
                        1.66667,
                        4.33333
                    ],
                    "rotation": 270,
                    "texture": "#2"
                },
                "east": {
                    "uv": [
                        0,
                        3,
                        1.66667,
                        4.33333
                    ],
                    "rotation": 270,
                    "texture": "#2"
                },
                "south": {
                    "uv": [
                        0,
                        3,
                        1.66667,
                        4.33333
                    ],
                    "rotation": 270,
                    "texture": "#2"
                },
                "west": {
                    "uv": [
                        0,
                        3,
                        1.66667,
                        4.33333
                    ],
                    "rotation": 270,
                    "texture": "#2"
                },
                "up": {
                    "uv": [
                        0,
                        3,
                        1.66667,
                        4.33333
                    ],
                    "rotation": 270,
                    "texture": "#2"
                },
                "down": {
                    "uv": [
                        0,
                        3,
                        1.66667,
                        4.33333
                    ],
                    "rotation": 270,
                    "texture": "#2"
                }
            }
        },
        {
            "from": [
                7.01721,
                2.105,
                -0.86025
            ],
            "to": [
                7.55586,
                2.20076,
                -0.76449
            ],
            "rotation": {
                "angle": 0,
                "axis": "y",
                "origin": [
                    7.37631,
                    3.06142,
                    6.35767
                ]
            },
            "faces": {
                "north": {
                    "uv": [
                        0,
                        3,
                        1.66667,
                        4.33333
                    ],
                    "rotation": 270,
                    "texture": "#2"
                },
                "east": {
                    "uv": [
                        0,
                        3,
                        1.66667,
                        4.33333
                    ],
                    "rotation": 270,
                    "texture": "#2"
                },
                "south": {
                    "uv": [
                        0,
                        3,
                        1.66667,
                        4.33333
                    ],
                    "rotation": 270,
                    "texture": "#2"
                },
                "west": {
                    "uv": [
                        0,
                        3,
                        1.66667,
                        4.33333
                    ],
                    "rotation": 270,
                    "texture": "#2"
                },
                "up": {
                    "uv": [
                        0,
                        3,
                        1.66667,
                        4.33333
                    ],
                    "rotation": 270,
                    "texture": "#2"
                },
                "down": {
                    "uv": [
                        0,
                        3,
                        1.66667,
                        4.33333
                    ],
                    "rotation": 270,
                    "texture": "#2"
                }
            }
        }
    ],
    "display": {
        "thirdperson_righthand": {
            "translation": [
                -0.75,
                4.25,
                -0.25
            ],
            "scale": [
                0.8,
                0.8,
                0.8
            ]
        },
        "thirdperson_lefthand": {
            "translation": [
                -0.75,
                4,
                -0.25
            ],
            "scale": [
                0.8,
                0.8,
                0.8
            ]
        },
        "firstperson_righthand": {
            "translation": [
                -5.5,
                8.5,
                1.75
            ],
            "scale": [
                1,
                1,
                0.9
            ]
        },
        "firstperson_lefthand": {
            "translation": [
                -5.5,
                8.5,
                1.75
            ],
            "scale": [
                1,
                1,
                0.9
            ]
        },
        "ground": {
            "translation": [
                0,
                1.75,
                0
            ],
            "scale": [
                0.88,
                0.88,
                0.88
            ]
        },
        "gui": {
            "rotation": [
                47,
                27,
                -14
            ],
            "translation": [
                5,
                3.5,
                0
            ],
            "scale": [
                0.85,
                0.85,
                0.85
            ]
        },
        "head": {
            "rotation": [
                0,
                122,
                90
            ],
            "translation": [
                -3.25,
                7.25,
                1.75
            ]
        },
        "fixed": {
            "rotation": [
                90,
                -45,
                90
            ],
            "translation": [
                -4.25,
                3,
                -2
            ]
        }
    }
}