{
	"credit": "Made with Blockbench",
	"textures": {
		"0": "gci:items/common/mpz",
		"1": "gci:items/common/all_in_one",
		"particle": "gci:items/common/mpz"
	},
	"elements": [
		{
			"from": [3.8, 4.7, 4],
			"to": [4, 4.8, 5],
			"rotation": {"angle": 0, "axis": "y", "origin": [11, 11.8, 12]},
			"faces": {
				"north": {"uv": [8.66667, 0.66667, 10, 2], "texture": "#0"},
				"east": {"uv": [8.66667, 0.66667, 10, 2], "texture": "#0"},
				"south": {"uv": [8.66667, 0.66667, 10, 2], "texture": "#0"},
				"west": {"uv": [8.66667, 0.66667, 10, 2], "texture": "#0"},
				"up": {"uv": [8.66667, 0.66667, 10, 2], "texture": "#0"},
				"down": {"uv": [8.66667, 0.66667, 10, 2], "texture": "#0"}
			}
		},
		{
			"from": [3.62675, 4.66554, 4],
			"to": [3.82675, 4.76554, 5],
			"rotation": {"angle": 22.5, "axis": "z", "origin": [3.72675, 4.71554, 4.5]},
			"faces": {
				"north": {"uv": [8.66667, 0.66667, 10, 2], "texture": "#0"},
				"east": {"uv": [8.66667, 0.66667, 10, 2], "texture": "#0"},
				"south": {"uv": [8.66667, 0.66667, 10, 2], "texture": "#0"},
				"west": {"uv": [8.66667, 0.66667, 10, 2], "texture": "#0"},
				"up": {"uv": [8.66667, 0.66667, 10, 2], "texture": "#0"},
				"down": {"uv": [8.66667, 0.66667, 10, 2], "texture": "#0"}
			}
		},
		{
			"from": [3.47987, 4.5674, 4],
			"to": [3.67987, 4.6674, 5],
			"rotation": {"angle": 45, "axis": "z", "origin": [3.57987, 4.6174, 4.5]},
			"faces": {
				"north": {"uv": [8.66667, 0.66667, 10, 2], "texture": "#0"},
				"east": {"uv": [8.66667, 0.66667, 10, 2], "texture": "#0"},
				"south": {"uv": [8.66667, 0.66667, 10, 2], "texture": "#0"},
				"west": {"uv": [8.66667, 0.66667, 10, 2], "texture": "#0"},
				"up": {"uv": [8.66667, 0.66667, 10, 2], "texture": "#0"},
				"down": {"uv": [8.66667, 0.66667, 10, 2], "texture": "#0"}
			}
		},
		{
			"from": [3.43173, 4.37052, 4],
			"to": [3.53173, 4.57052, 5],
			"rotation": {"angle": -22.5, "axis": "z", "origin": [3.48173, 4.47052, 4.5]},
			"faces": {
				"north": {"uv": [8.66667, 0.66667, 10, 2], "rotation": 270, "texture": "#0"},
				"east": {"uv": [8.66667, 0.66667, 10, 2], "rotation": 270, "texture": "#0"},
				"south": {"uv": [8.66667, 0.66667, 10, 2], "rotation": 270, "texture": "#0"},
				"west": {"uv": [8.66667, 0.66667, 10, 2], "rotation": 270, "texture": "#0"},
				"up": {"uv": [8.66667, 0.66667, 10, 2], "rotation": 270, "texture": "#0"},
				"down": {"uv": [8.66667, 0.66667, 10, 2], "rotation": 270, "texture": "#0"}
			}
		},
		{
			"from": [3.39727, 4.19727, 4],
			"to": [3.49727, 4.39727, 5],
			"rotation": {"angle": 0, "axis": "y", "origin": [3.44727, 4.29727, 4.5]},
			"faces": {
				"north": {"uv": [8.66667, 0.66667, 10, 2], "rotation": 270, "texture": "#0"},
				"east": {"uv": [8.66667, 0.66667, 10, 2], "rotation": 270, "texture": "#0"},
				"south": {"uv": [8.66667, 0.66667, 10, 2], "rotation": 270, "texture": "#0"},
				"west": {"uv": [8.66667, 0.66667, 10, 2], "rotation": 270, "texture": "#0"},
				"up": {"uv": [8.66667, 0.66667, 10, 2], "rotation": 270, "texture": "#0"},
				"down": {"uv": [8.66667, 0.66667, 10, 2], "rotation": 270, "texture": "#0"}
			}
		},
		{
			"from": [3.6748, 3.87819, 4],
			"to": [3.8748, 3.97819, 5],
			"rotation": {"angle": -22.5, "axis": "z", "origin": [3.62712, 4.02439, 4.5]},
			"faces": {
				"north": {"uv": [8.66667, 0.66667, 10, 2], "rotation": 180, "texture": "#0"},
				"east": {"uv": [8.66667, 0.66667, 10, 2], "rotation": 180, "texture": "#0"},
				"south": {"uv": [8.66667, 0.66667, 10, 2], "rotation": 180, "texture": "#0"},
				"west": {"uv": [8.66667, 0.66667, 10, 2], "rotation": 180, "texture": "#0"},
				"up": {"uv": [8.66667, 0.66667, 10, 2], "rotation": 180, "texture": "#0"},
				"down": {"uv": [8.66667, 0.66667, 10, 2], "rotation": 180, "texture": "#0"}
			}
		},
		{
			"from": [3.5103, 3.92439, 4],
			"to": [3.6103, 4.12439, 5],
			"rotation": {"angle": 45, "axis": "z", "origin": [3.62712, 4.02439, 4.5]},
			"faces": {
				"north": {"uv": [8.66667, 0.66667, 10, 2], "rotation": 270, "texture": "#0"},
				"east": {"uv": [8.66667, 0.66667, 10, 2], "rotation": 270, "texture": "#0"},
				"south": {"uv": [8.66667, 0.66667, 10, 2], "rotation": 270, "texture": "#0"},
				"west": {"uv": [8.66667, 0.66667, 10, 2], "rotation": 270, "texture": "#0"},
				"up": {"uv": [8.66667, 0.66667, 10, 2], "rotation": 270, "texture": "#0"},
				"down": {"uv": [8.66667, 0.66667, 10, 2], "rotation": 270, "texture": "#0"}
			}
		},
		{
			"from": [3.48092, 4.07207, 4],
			"to": [3.58092, 4.27207, 5],
			"rotation": {"angle": 22.5, "axis": "z", "origin": [3.62712, 4.02439, 4.5]},
			"faces": {
				"north": {"uv": [8.66667, 0.66667, 10, 2], "rotation": 270, "texture": "#0"},
				"east": {"uv": [8.66667, 0.66667, 10, 2], "rotation": 270, "texture": "#0"},
				"south": {"uv": [8.66667, 0.66667, 10, 2], "rotation": 270, "texture": "#0"},
				"west": {"uv": [8.66667, 0.66667, 10, 2], "rotation": 270, "texture": "#0"},
				"up": {"uv": [8.66667, 0.66667, 10, 2], "rotation": 270, "texture": "#0"},
				"down": {"uv": [8.66667, 0.66667, 10, 2], "rotation": 270, "texture": "#0"}
			}
		},
		{
			"from": [3.8, 3.79453, 4],
			"to": [4, 3.89453, 5],
			"rotation": {"angle": 0, "axis": "y", "origin": [3.62712, 4.02439, 4.5]},
			"faces": {
				"north": {"uv": [8.66667, 0.66667, 10, 2], "rotation": 180, "texture": "#0"},
				"east": {"uv": [8.66667, 0.66667, 10, 2], "rotation": 180, "texture": "#0"},
				"south": {"uv": [8.66667, 0.66667, 10, 2], "rotation": 180, "texture": "#0"},
				"west": {"uv": [8.66667, 0.66667, 10, 2], "rotation": 180, "texture": "#0"},
				"up": {"uv": [8.66667, 0.66667, 10, 2], "rotation": 180, "texture": "#0"},
				"down": {"uv": [8.66667, 0.66667, 10, 2], "rotation": 180, "texture": "#0"}
			}
		},
		{
			"from": [4.30273, 4.19727, 4],
			"to": [4.40273, 4.39727, 5],
			"rotation": {"angle": 0, "axis": "y", "origin": [4.2411, 4.06935, 4.5]},
			"faces": {
				"north": {"uv": [8.66667, 0.66667, 10, 2], "rotation": 90, "texture": "#0"},
				"east": {"uv": [8.66667, 0.66667, 10, 2], "rotation": 90, "texture": "#0"},
				"south": {"uv": [8.66667, 0.66667, 10, 2], "rotation": 90, "texture": "#0"},
				"west": {"uv": [8.66667, 0.66667, 10, 2], "rotation": 90, "texture": "#0"},
				"up": {"uv": [8.66667, 0.66667, 10, 2], "rotation": 90, "texture": "#0"},
				"down": {"uv": [8.66667, 0.66667, 10, 2], "rotation": 90, "texture": "#0"}
			}
		},
		{
			"from": [4.24148, 4.04938, 4],
			"to": [4.34148, 4.24938, 5],
			"rotation": {"angle": -22.5, "axis": "z", "origin": [4.2411, 4.06935, 4.5]},
			"faces": {
				"north": {"uv": [8.66667, 0.66667, 10, 2], "rotation": 90, "texture": "#0"},
				"east": {"uv": [8.66667, 0.66667, 10, 2], "rotation": 90, "texture": "#0"},
				"south": {"uv": [8.66667, 0.66667, 10, 2], "rotation": 90, "texture": "#0"},
				"west": {"uv": [8.66667, 0.66667, 10, 2], "rotation": 90, "texture": "#0"},
				"up": {"uv": [8.66667, 0.66667, 10, 2], "rotation": 90, "texture": "#0"},
				"down": {"uv": [8.66667, 0.66667, 10, 2], "rotation": 90, "texture": "#0"}
			}
		},
		{
			"from": [4.06106, 3.96897, 4],
			"to": [4.26106, 4.06897, 5],
			"rotation": {"angle": 45, "axis": "z", "origin": [4.2411, 4.06935, 4.5]},
			"faces": {
				"north": {"uv": [8.66667, 0.66667, 10, 2], "rotation": 180, "texture": "#0"},
				"east": {"uv": [8.66667, 0.66667, 10, 2], "rotation": 180, "texture": "#0"},
				"south": {"uv": [8.66667, 0.66667, 10, 2], "rotation": 180, "texture": "#0"},
				"west": {"uv": [8.66667, 0.66667, 10, 2], "rotation": 180, "texture": "#0"},
				"up": {"uv": [8.66667, 0.66667, 10, 2], "rotation": 180, "texture": "#0"},
				"down": {"uv": [8.66667, 0.66667, 10, 2], "rotation": 180, "texture": "#0"}
			}
		},
		{
			"from": [3.91318, 3.90772, 4],
			"to": [4.11318, 4.00772, 5],
			"rotation": {"angle": 22.5, "axis": "z", "origin": [4.2411, 4.06935, 4.5]},
			"faces": {
				"north": {"uv": [8.66667, 0.66667, 10, 2], "rotation": 180, "texture": "#0"},
				"east": {"uv": [8.66667, 0.66667, 10, 2], "rotation": 180, "texture": "#0"},
				"south": {"uv": [8.66667, 0.66667, 10, 2], "rotation": 180, "texture": "#0"},
				"west": {"uv": [8.66667, 0.66667, 10, 2], "rotation": 180, "texture": "#0"},
				"up": {"uv": [8.66667, 0.66667, 10, 2], "rotation": 180, "texture": "#0"},
				"down": {"uv": [8.66667, 0.66667, 10, 2], "rotation": 180, "texture": "#0"}
			}
		},
		{
			"from": [3.93942, 4.60684, 4],
			"to": [4.13942, 4.70684, 5],
			"rotation": {"angle": -22.5, "axis": "z", "origin": [4.20389, 4.60115, 4.5]},
			"faces": {
				"north": {"uv": [8.66667, 0.66667, 10, 2], "texture": "#0"},
				"east": {"uv": [8.66667, 0.66667, 10, 2], "texture": "#0"},
				"south": {"uv": [8.66667, 0.66667, 10, 2], "texture": "#0"},
				"west": {"uv": [8.66667, 0.66667, 10, 2], "texture": "#0"},
				"up": {"uv": [8.66667, 0.66667, 10, 2], "texture": "#0"},
				"down": {"uv": [8.66667, 0.66667, 10, 2], "texture": "#0"}
			}
		},
		{
			"from": [4.17686, 4.50115, 4],
			"to": [4.27686, 4.70115, 5],
			"rotation": {"angle": 45, "axis": "z", "origin": [4.20389, 4.60115, 4.5]},
			"faces": {
				"north": {"uv": [8.66667, 0.66667, 10, 2], "rotation": 90, "texture": "#0"},
				"east": {"uv": [8.66667, 0.66667, 10, 2], "rotation": 90, "texture": "#0"},
				"south": {"uv": [8.66667, 0.66667, 10, 2], "rotation": 90, "texture": "#0"},
				"west": {"uv": [8.66667, 0.66667, 10, 2], "rotation": 90, "texture": "#0"},
				"up": {"uv": [8.66667, 0.66667, 10, 2], "rotation": 90, "texture": "#0"},
				"down": {"uv": [8.66667, 0.66667, 10, 2], "rotation": 90, "texture": "#0"}
			}
		},
		{
			"from": [4.20957, 4.33669, 4],
			"to": [4.30957, 4.53669, 5],
			"rotation": {"angle": 22.5, "axis": "z", "origin": [4.20389, 4.60115, 4.5]},
			"faces": {
				"north": {"uv": [8.66667, 0.66667, 10, 2], "rotation": 90, "texture": "#0"},
				"east": {"uv": [8.66667, 0.66667, 10, 2], "rotation": 90, "texture": "#0"},
				"south": {"uv": [8.66667, 0.66667, 10, 2], "rotation": 90, "texture": "#0"},
				"west": {"uv": [8.66667, 0.66667, 10, 2], "rotation": 90, "texture": "#0"},
				"up": {"uv": [8.66667, 0.66667, 10, 2], "rotation": 90, "texture": "#0"},
				"down": {"uv": [8.66667, 0.66667, 10, 2], "rotation": 90, "texture": "#0"}
			}
		},
		{
			"from": [3.8, 4.25, 4.2],
			"to": [3.98, 4.75, 4.3],
			"rotation": {"angle": 0, "axis": "y", "origin": [11, 11.8, 12]},
			"faces": {
				"north": {"uv": [9.33333, 6.66667, 10, 7], "texture": "#0"},
				"east": {"uv": [9.33333, 6.66667, 10, 7], "texture": "#0"},
				"south": {"uv": [9.33333, 6.66667, 10, 7], "texture": "#0"},
				"west": {"uv": [9.33333, 6.66667, 10, 7], "texture": "#0"},
				"up": {"uv": [9.33333, 6.66667, 10, 7], "texture": "#0"},
				"down": {"uv": [9.33333, 6.66667, 10, 7], "texture": "#0"}
			}
		},
		{
			"from": [3.64522, 4.22319, 4.2],
			"to": [3.82522, 4.72319, 4.3],
			"rotation": {"angle": 22.5, "axis": "z", "origin": [3.74522, 4.67319, 4.5]},
			"faces": {
				"north": {"uv": [9.33333, 6.66667, 10, 7], "texture": "#0"},
				"east": {"uv": [9.33333, 6.66667, 10, 7], "texture": "#0"},
				"south": {"uv": [9.33333, 6.66667, 10, 7], "texture": "#0"},
				"west": {"uv": [9.33333, 6.66667, 10, 7], "texture": "#0"},
				"up": {"uv": [9.33333, 6.66667, 10, 7], "texture": "#0"},
				"down": {"uv": [9.33333, 6.66667, 10, 7], "texture": "#0"}
			}
		},
		{
			"from": [3.51249, 4.13919, 4.2],
			"to": [3.69249, 4.63919, 4.3],
			"rotation": {"angle": 45, "axis": "z", "origin": [3.61249, 4.58919, 4.5]},
			"faces": {
				"north": {"uv": [9.33333, 6.66667, 10, 7], "texture": "#0"},
				"east": {"uv": [9.33333, 6.66667, 10, 7], "texture": "#0"},
				"south": {"uv": [9.33333, 6.66667, 10, 7], "texture": "#0"},
				"west": {"uv": [9.33333, 6.66667, 10, 7], "texture": "#0"},
				"up": {"uv": [9.33333, 6.66667, 10, 7], "texture": "#0"},
				"down": {"uv": [9.33333, 6.66667, 10, 7], "texture": "#0"}
			}
		},
		{
			"from": [3.472, 4.36079, 4.2],
			"to": [3.972, 4.54079, 4.3],
			"rotation": {"angle": -22.5, "axis": "z", "origin": [3.522, 4.46079, 4.5]},
			"faces": {
				"north": {"uv": [9.33333, 6.66667, 10, 7], "rotation": 270, "texture": "#0"},
				"east": {"uv": [9.33333, 6.66667, 10, 7], "rotation": 270, "texture": "#0"},
				"south": {"uv": [9.33333, 6.66667, 10, 7], "rotation": 270, "texture": "#0"},
				"west": {"uv": [9.33333, 6.66667, 10, 7], "rotation": 270, "texture": "#0"},
				"up": {"uv": [9.33333, 6.66667, 10, 7], "rotation": 270, "texture": "#0"},
				"down": {"uv": [9.33333, 6.66667, 10, 7], "rotation": 270, "texture": "#0"}
			}
		},
		{
			"from": [3.43754, 4.20754, 4.2],
			"to": [3.83754, 4.38754, 4.3],
			"rotation": {"angle": 0, "axis": "y", "origin": [3.48754, 4.30754, 4.5]},
			"faces": {
				"north": {"uv": [9.33333, 6.66667, 10, 7], "rotation": 270, "texture": "#0"},
				"east": {"uv": [9.33333, 6.66667, 10, 7], "rotation": 270, "texture": "#0"},
				"south": {"uv": [9.33333, 6.66667, 10, 7], "rotation": 270, "texture": "#0"},
				"west": {"uv": [9.33333, 6.66667, 10, 7], "rotation": 270, "texture": "#0"},
				"up": {"uv": [9.33333, 6.66667, 10, 7], "rotation": 270, "texture": "#0"},
				"down": {"uv": [9.33333, 6.66667, 10, 7], "rotation": 270, "texture": "#0"}
			}
		},
		{
			"from": [3.69328, 3.92108, 4.2],
			"to": [3.87328, 4.42108, 4.3],
			"rotation": {"angle": -22.5, "axis": "z", "origin": [3.6456, 4.06728, 4.5]},
			"faces": {
				"north": {"uv": [9.33333, 6.66667, 10, 7], "rotation": 180, "texture": "#0"},
				"east": {"uv": [9.33333, 6.66667, 10, 7], "rotation": 180, "texture": "#0"},
				"south": {"uv": [9.33333, 6.66667, 10, 7], "rotation": 180, "texture": "#0"},
				"west": {"uv": [9.33333, 6.66667, 10, 7], "rotation": 180, "texture": "#0"},
				"up": {"uv": [9.33333, 6.66667, 10, 7], "rotation": 180, "texture": "#0"},
				"down": {"uv": [9.33333, 6.66667, 10, 7], "rotation": 180, "texture": "#0"}
			}
		},
		{
			"from": [3.52877, 3.96728, 4.2],
			"to": [4.02877, 4.14728, 4.3],
			"rotation": {"angle": 45, "axis": "z", "origin": [3.6456, 4.06728, 4.5]},
			"faces": {
				"north": {"uv": [9.33333, 6.66667, 10, 7], "rotation": 270, "texture": "#0"},
				"east": {"uv": [9.33333, 6.66667, 10, 7], "rotation": 270, "texture": "#0"},
				"south": {"uv": [9.33333, 6.66667, 10, 7], "rotation": 270, "texture": "#0"},
				"west": {"uv": [9.33333, 6.66667, 10, 7], "rotation": 270, "texture": "#0"},
				"up": {"uv": [9.33333, 6.66667, 10, 7], "rotation": 270, "texture": "#0"},
				"down": {"uv": [9.33333, 6.66667, 10, 7], "rotation": 270, "texture": "#0"}
			}
		},
		{
			"from": [3.51354, 4.10082, 4.2],
			"to": [4.01354, 4.28082, 4.3],
			"rotation": {"angle": 22.5, "axis": "z", "origin": [3.65974, 4.05314, 4.5]},
			"faces": {
				"north": {"uv": [9.33333, 6.66667, 10, 7], "rotation": 270, "texture": "#0"},
				"east": {"uv": [9.33333, 6.66667, 10, 7], "rotation": 270, "texture": "#0"},
				"south": {"uv": [9.33333, 6.66667, 10, 7], "rotation": 270, "texture": "#0"},
				"west": {"uv": [9.33333, 6.66667, 10, 7], "rotation": 270, "texture": "#0"},
				"up": {"uv": [9.33333, 6.66667, 10, 7], "rotation": 270, "texture": "#0"},
				"down": {"uv": [9.33333, 6.66667, 10, 7], "rotation": 270, "texture": "#0"}
			}
		},
		{
			"from": [3.8, 3.84508, 4.2],
			"to": [3.98, 4.34508, 4.3],
			"rotation": {"angle": 0, "axis": "y", "origin": [3.62712, 4.07493, 4.5]},
			"faces": {
				"north": {"uv": [9.33333, 6.66667, 10, 7], "rotation": 180, "texture": "#0"},
				"east": {"uv": [9.33333, 6.66667, 10, 7], "rotation": 180, "texture": "#0"},
				"south": {"uv": [9.33333, 6.66667, 10, 7], "rotation": 180, "texture": "#0"},
				"west": {"uv": [9.33333, 6.66667, 10, 7], "rotation": 180, "texture": "#0"},
				"up": {"uv": [9.33333, 6.66667, 10, 7], "rotation": 180, "texture": "#0"},
				"down": {"uv": [9.33333, 6.66667, 10, 7], "rotation": 180, "texture": "#0"}
			}
		},
		{
			"from": [3.84246, 4.20754, 4.2],
			"to": [4.34246, 4.38754, 4.3],
			"rotation": {"angle": 0, "axis": "y", "origin": [4.18082, 4.07963, 4.5]},
			"faces": {
				"north": {"uv": [9.33333, 6.66667, 10, 7], "rotation": 90, "texture": "#0"},
				"east": {"uv": [9.33333, 6.66667, 10, 7], "rotation": 90, "texture": "#0"},
				"south": {"uv": [9.33333, 6.66667, 10, 7], "rotation": 90, "texture": "#0"},
				"west": {"uv": [9.33333, 6.66667, 10, 7], "rotation": 90, "texture": "#0"},
				"up": {"uv": [9.33333, 6.66667, 10, 7], "rotation": 90, "texture": "#0"},
				"down": {"uv": [9.33333, 6.66667, 10, 7], "rotation": 90, "texture": "#0"}
			}
		},
		{
			"from": [3.78886, 4.07814, 4.2],
			"to": [4.28886, 4.25814, 4.3],
			"rotation": {"angle": -22.5, "axis": "z", "origin": [4.18848, 4.0981, 4.5]},
			"faces": {
				"north": {"uv": [9.33333, 6.66667, 10, 7], "rotation": 90, "texture": "#0"},
				"east": {"uv": [9.33333, 6.66667, 10, 7], "rotation": 90, "texture": "#0"},
				"south": {"uv": [9.33333, 6.66667, 10, 7], "rotation": 90, "texture": "#0"},
				"west": {"uv": [9.33333, 6.66667, 10, 7], "rotation": 90, "texture": "#0"},
				"up": {"uv": [9.33333, 6.66667, 10, 7], "rotation": 90, "texture": "#0"},
				"down": {"uv": [9.33333, 6.66667, 10, 7], "rotation": 90, "texture": "#0"}
			}
		},
		{
			"from": [4.02259, 4.01186, 4.2],
			"to": [4.20259, 4.51186, 4.3],
			"rotation": {"angle": 45, "axis": "z", "origin": [4.20262, 4.11225, 4.5]},
			"faces": {
				"north": {"uv": [9.33333, 6.66667, 10, 7], "rotation": 180, "texture": "#0"},
				"east": {"uv": [9.33333, 6.66667, 10, 7], "rotation": 180, "texture": "#0"},
				"south": {"uv": [9.33333, 6.66667, 10, 7], "rotation": 180, "texture": "#0"},
				"west": {"uv": [9.33333, 6.66667, 10, 7], "rotation": 180, "texture": "#0"},
				"up": {"uv": [9.33333, 6.66667, 10, 7], "rotation": 180, "texture": "#0"},
				"down": {"uv": [9.33333, 6.66667, 10, 7], "rotation": 180, "texture": "#0"}
			}
		},
		{
			"from": [3.89318, 3.95826, 4.2],
			"to": [4.07318, 4.45826, 4.3],
			"rotation": {"angle": 22.5, "axis": "z", "origin": [4.2211, 4.1199, 4.5]},
			"faces": {
				"north": {"uv": [9.33333, 6.66667, 10, 7], "rotation": 180, "texture": "#0"},
				"east": {"uv": [9.33333, 6.66667, 10, 7], "rotation": 180, "texture": "#0"},
				"south": {"uv": [9.33333, 6.66667, 10, 7], "rotation": 180, "texture": "#0"},
				"west": {"uv": [9.33333, 6.66667, 10, 7], "rotation": 180, "texture": "#0"},
				"up": {"uv": [9.33333, 6.66667, 10, 7], "rotation": 180, "texture": "#0"},
				"down": {"uv": [9.33333, 6.66667, 10, 7], "rotation": 180, "texture": "#0"}
			}
		},
		{
			"from": [3.91942, 4.15684, 4.2],
			"to": [4.09942, 4.65684, 4.3],
			"rotation": {"angle": -22.5, "axis": "z", "origin": [4.18389, 4.55115, 4.5]},
			"faces": {
				"north": {"uv": [9.33333, 6.66667, 10, 7], "texture": "#0"},
				"east": {"uv": [9.33333, 6.66667, 10, 7], "texture": "#0"},
				"south": {"uv": [9.33333, 6.66667, 10, 7], "texture": "#0"},
				"west": {"uv": [9.33333, 6.66667, 10, 7], "texture": "#0"},
				"up": {"uv": [9.33333, 6.66667, 10, 7], "texture": "#0"},
				"down": {"uv": [9.33333, 6.66667, 10, 7], "texture": "#0"}
			}
		},
		{
			"from": [3.72424, 4.47295, 4.2],
			"to": [4.22424, 4.65295, 4.3],
			"rotation": {"angle": 45, "axis": "z", "origin": [4.15127, 4.57295, 4.5]},
			"faces": {
				"north": {"uv": [9.33333, 6.66667, 10, 7], "rotation": 90, "texture": "#0"},
				"east": {"uv": [9.33333, 6.66667, 10, 7], "rotation": 90, "texture": "#0"},
				"south": {"uv": [9.33333, 6.66667, 10, 7], "rotation": 90, "texture": "#0"},
				"west": {"uv": [9.33333, 6.66667, 10, 7], "rotation": 90, "texture": "#0"},
				"up": {"uv": [9.33333, 6.66667, 10, 7], "rotation": 90, "texture": "#0"},
				"down": {"uv": [9.33333, 6.66667, 10, 7], "rotation": 90, "texture": "#0"}
			}
		},
		{
			"from": [3.7493, 4.32696, 4.2],
			"to": [4.2493, 4.50696, 4.3],
			"rotation": {"angle": 22.5, "axis": "z", "origin": [4.14361, 4.59142, 4.5]},
			"faces": {
				"north": {"uv": [9.33333, 6.66667, 10, 7], "rotation": 90, "texture": "#0"},
				"east": {"uv": [9.33333, 6.66667, 10, 7], "rotation": 90, "texture": "#0"},
				"south": {"uv": [9.33333, 6.66667, 10, 7], "rotation": 90, "texture": "#0"},
				"west": {"uv": [9.33333, 6.66667, 10, 7], "rotation": 90, "texture": "#0"},
				"up": {"uv": [9.33333, 6.66667, 10, 7], "rotation": 90, "texture": "#0"},
				"down": {"uv": [9.33333, 6.66667, 10, 7], "rotation": 90, "texture": "#0"}
			}
		},
		{
			"from": [3.0257, 4.7465, 4.94],
			"to": [3.1687, 4.7765, 5.14],
			"rotation": {"angle": 0, "axis": "y", "origin": [3.0972, 4.90654, 5.07]},
			"faces": {
				"north": {"uv": [6.66667, 1, 7.33333, 1.33333], "rotation": 90, "texture": "#0"},
				"east": {"uv": [6.66667, 1, 7.33333, 1.33333], "rotation": 90, "texture": "#0"},
				"south": {"uv": [6.66667, 1, 7.33333, 1.33333], "rotation": 90, "texture": "#0"},
				"west": {"uv": [6.66667, 1, 7.33333, 1.33333], "rotation": 90, "texture": "#0"},
				"up": {"uv": [6.66667, 1, 7.33333, 1.33333], "rotation": 90, "texture": "#0"},
				"down": {"uv": [6.66667, 1, 7.33333, 1.33333], "rotation": 90, "texture": "#0"}
			}
		},
		{
			"from": [2.91425, 4.70034, 4.94],
			"to": [3.05725, 4.73034, 5.14],
			"rotation": {"angle": 45, "axis": "z", "origin": [2.98575, 4.71534, 5.07]},
			"faces": {
				"north": {"uv": [6.66667, 1, 7.33333, 1.33333], "rotation": 90, "texture": "#0"},
				"east": {"uv": [6.66667, 1, 7.33333, 1.33333], "rotation": 90, "texture": "#0"},
				"south": {"uv": [6.66667, 1, 7.33333, 1.33333], "rotation": 90, "texture": "#0"},
				"west": {"uv": [6.66667, 1, 7.33333, 1.33333], "rotation": 90, "texture": "#0"},
				"up": {"uv": [6.66667, 1, 7.33333, 1.33333], "rotation": 90, "texture": "#0"},
				"down": {"uv": [6.66667, 1, 7.33333, 1.33333], "rotation": 90, "texture": "#0"}
			}
		},
		{
			"from": [2.92458, 4.53238, 4.94],
			"to": [2.95458, 4.67538, 5.14],
			"rotation": {"angle": 0, "axis": "y", "origin": [2.93958, 4.60388, 5.07]},
			"faces": {
				"north": {"uv": [6.66667, 1, 7.33333, 1.33333], "texture": "#0"},
				"east": {"uv": [6.66667, 1, 7.33333, 1.33333], "texture": "#0"},
				"south": {"uv": [6.66667, 1, 7.33333, 1.33333], "texture": "#0"},
				"west": {"uv": [6.66667, 1, 7.33333, 1.33333], "texture": "#0"},
				"up": {"uv": [6.66667, 1, 7.33333, 1.33333], "texture": "#0"},
				"down": {"uv": [6.66667, 1, 7.33333, 1.33333], "texture": "#0"}
			}
		},
		{
			"from": [2.97075, 4.42093, 4.94],
			"to": [3.00075, 4.56393, 5.14],
			"rotation": {"angle": 45, "axis": "z", "origin": [2.98575, 4.49243, 5.07]},
			"faces": {
				"north": {"uv": [6.66667, 1, 7.33333, 1.33333], "texture": "#0"},
				"east": {"uv": [6.66667, 1, 7.33333, 1.33333], "texture": "#0"},
				"south": {"uv": [6.66667, 1, 7.33333, 1.33333], "texture": "#0"},
				"west": {"uv": [6.66667, 1, 7.33333, 1.33333], "texture": "#0"},
				"up": {"uv": [6.66667, 1, 7.33333, 1.33333], "texture": "#0"},
				"down": {"uv": [6.66667, 1, 7.33333, 1.33333], "texture": "#0"}
			}
		},
		{
			"from": [3.0257, 4.43127, 4.94],
			"to": [3.1687, 4.46127, 5.14],
			"rotation": {"angle": 0, "axis": "y", "origin": [3.0972, 4.44627, 5.07]},
			"faces": {
				"north": {"uv": [6.66667, 1, 7.33333, 1.33333], "rotation": 270, "texture": "#0"},
				"east": {"uv": [6.66667, 1, 7.33333, 1.33333], "rotation": 270, "texture": "#0"},
				"south": {"uv": [6.66667, 1, 7.33333, 1.33333], "rotation": 270, "texture": "#0"},
				"west": {"uv": [6.66667, 1, 7.33333, 1.33333], "rotation": 270, "texture": "#0"},
				"up": {"uv": [6.66667, 1, 7.33333, 1.33333], "rotation": 270, "texture": "#0"},
				"down": {"uv": [6.66667, 1, 7.33333, 1.33333], "rotation": 270, "texture": "#0"}
			}
		},
		{
			"from": [3.13715, 4.47743, 4.94],
			"to": [3.28015, 4.50743, 5.14],
			"rotation": {"angle": 45, "axis": "z", "origin": [3.20865, 4.49243, 5.07]},
			"faces": {
				"north": {"uv": [6.66667, 1, 7.33333, 1.33333], "rotation": 270, "texture": "#0"},
				"east": {"uv": [6.66667, 1, 7.33333, 1.33333], "rotation": 270, "texture": "#0"},
				"south": {"uv": [6.66667, 1, 7.33333, 1.33333], "rotation": 270, "texture": "#0"},
				"west": {"uv": [6.66667, 1, 7.33333, 1.33333], "rotation": 270, "texture": "#0"},
				"up": {"uv": [6.66667, 1, 7.33333, 1.33333], "rotation": 270, "texture": "#0"},
				"down": {"uv": [6.66667, 1, 7.33333, 1.33333], "rotation": 270, "texture": "#0"}
			}
		},
		{
			"from": [3.23982, 4.53238, 4.94],
			"to": [3.26982, 4.67538, 5.14],
			"rotation": {"angle": 0, "axis": "y", "origin": [3.25482, 4.60388, 5.07]},
			"faces": {
				"north": {"uv": [6.66667, 1, 7.33333, 1.33333], "rotation": 180, "texture": "#0"},
				"east": {"uv": [6.66667, 1, 7.33333, 1.33333], "rotation": 180, "texture": "#0"},
				"south": {"uv": [6.66667, 1, 7.33333, 1.33333], "rotation": 180, "texture": "#0"},
				"west": {"uv": [6.66667, 1, 7.33333, 1.33333], "rotation": 180, "texture": "#0"},
				"up": {"uv": [6.66667, 1, 7.33333, 1.33333], "rotation": 180, "texture": "#0"},
				"down": {"uv": [6.66667, 1, 7.33333, 1.33333], "rotation": 180, "texture": "#0"}
			}
		},
		{
			"from": [3.19365, 4.64384, 4.94],
			"to": [3.22365, 4.78684, 5.14],
			"rotation": {"angle": 45, "axis": "z", "origin": [3.20865, 4.71534, 5.07]},
			"faces": {
				"north": {"uv": [6.66667, 1, 7.33333, 1.33333], "rotation": 180, "texture": "#0"},
				"east": {"uv": [6.66667, 1, 7.33333, 1.33333], "rotation": 180, "texture": "#0"},
				"south": {"uv": [6.66667, 1, 7.33333, 1.33333], "rotation": 180, "texture": "#0"},
				"west": {"uv": [6.66667, 1, 7.33333, 1.33333], "rotation": 180, "texture": "#0"},
				"up": {"uv": [6.66667, 1, 7.33333, 1.33333], "rotation": 180, "texture": "#0"},
				"down": {"uv": [6.66667, 1, 7.33333, 1.33333], "rotation": 180, "texture": "#0"}
			}
		},
		{
			"from": [3.0357, 4.45654, 4.97],
			"to": [3.1587, 4.75654, 5.17],
			"rotation": {"angle": 0, "axis": "y", "origin": [3.0972, 4.60654, 5.07]},
			"faces": {
				"north": {"uv": [11.66667, 6.66667, 12.33333, 7], "rotation": 90, "texture": "#0"},
				"east": {"uv": [11.66667, 6.66667, 12.33333, 7], "rotation": 90, "texture": "#0"},
				"south": {"uv": [11.66667, 6.66667, 12.33333, 7], "rotation": 90, "texture": "#0"},
				"west": {"uv": [11.66667, 6.66667, 12.33333, 7], "rotation": 90, "texture": "#0"},
				"up": {"uv": [11.66667, 6.66667, 12.33333, 7], "rotation": 90, "texture": "#0"},
				"down": {"uv": [11.66667, 6.66667, 12.33333, 7], "rotation": 90, "texture": "#0"}
			}
		},
		{
			"from": [3.0357, 4.45654, 4.97],
			"to": [3.1587, 4.75654, 5.17],
			"rotation": {"angle": 45, "axis": "z", "origin": [3.0972, 4.60654, 5.07]},
			"faces": {
				"north": {"uv": [11.66667, 6.66667, 12.33333, 7], "rotation": 90, "texture": "#0"},
				"east": {"uv": [11.66667, 6.66667, 12.33333, 7], "rotation": 90, "texture": "#0"},
				"south": {"uv": [11.66667, 6.66667, 12.33333, 7], "rotation": 90, "texture": "#0"},
				"west": {"uv": [11.66667, 6.66667, 12.33333, 7], "rotation": 90, "texture": "#0"},
				"up": {"uv": [11.66667, 6.66667, 12.33333, 7], "rotation": 90, "texture": "#0"},
				"down": {"uv": [11.66667, 6.66667, 12.33333, 7], "rotation": 90, "texture": "#0"}
			}
		},
		{
			"from": [2.9472, 4.54504, 4.97],
			"to": [3.2472, 4.66804, 5.17],
			"rotation": {"angle": 0, "axis": "y", "origin": [3.0972, 4.60654, 5.07]},
			"faces": {
				"north": {"uv": [11.66667, 6.66667, 12.33333, 7], "texture": "#0"},
				"east": {"uv": [11.66667, 6.66667, 12.33333, 7], "texture": "#0"},
				"south": {"uv": [11.66667, 6.66667, 12.33333, 7], "texture": "#0"},
				"west": {"uv": [11.66667, 6.66667, 12.33333, 7], "texture": "#0"},
				"up": {"uv": [11.66667, 6.66667, 12.33333, 7], "texture": "#0"},
				"down": {"uv": [11.66667, 6.66667, 12.33333, 7], "texture": "#0"}
			}
		},
		{
			"from": [2.9472, 4.54504, 4.97],
			"to": [3.2472, 4.66804, 5.17],
			"rotation": {"angle": 45, "axis": "z", "origin": [3.0972, 4.60654, 5.07]},
			"faces": {
				"north": {"uv": [11.66667, 6.66667, 12.33333, 7], "texture": "#0"},
				"east": {"uv": [11.66667, 6.66667, 12.33333, 7], "texture": "#0"},
				"south": {"uv": [11.66667, 6.66667, 12.33333, 7], "texture": "#0"},
				"west": {"uv": [11.66667, 6.66667, 12.33333, 7], "texture": "#0"},
				"up": {"uv": [11.66667, 6.66667, 12.33333, 7], "texture": "#0"},
				"down": {"uv": [11.66667, 6.66667, 12.33333, 7], "texture": "#0"}
			}
		},
		{
			"from": [3.0257, 4.1465, 4.94],
			"to": [3.1687, 4.1765, 5.14],
			"rotation": {"angle": 0, "axis": "y", "origin": [3.0972, 4.30654, 5.07]},
			"faces": {
				"north": {"uv": [6.66667, 1, 7.33333, 1.33333], "rotation": 90, "texture": "#0"},
				"east": {"uv": [6.66667, 1, 7.33333, 1.33333], "rotation": 90, "texture": "#0"},
				"south": {"uv": [6.66667, 1, 7.33333, 1.33333], "rotation": 90, "texture": "#0"},
				"west": {"uv": [6.66667, 1, 7.33333, 1.33333], "rotation": 90, "texture": "#0"},
				"up": {"uv": [6.66667, 1, 7.33333, 1.33333], "rotation": 90, "texture": "#0"},
				"down": {"uv": [6.66667, 1, 7.33333, 1.33333], "rotation": 90, "texture": "#0"}
			}
		},
		{
			"from": [2.91425, 4.10034, 4.94],
			"to": [3.05725, 4.13034, 5.14],
			"rotation": {"angle": 45, "axis": "z", "origin": [2.98575, 4.11534, 5.07]},
			"faces": {
				"north": {"uv": [6.66667, 1, 7.33333, 1.33333], "rotation": 90, "texture": "#0"},
				"east": {"uv": [6.66667, 1, 7.33333, 1.33333], "rotation": 90, "texture": "#0"},
				"south": {"uv": [6.66667, 1, 7.33333, 1.33333], "rotation": 90, "texture": "#0"},
				"west": {"uv": [6.66667, 1, 7.33333, 1.33333], "rotation": 90, "texture": "#0"},
				"up": {"uv": [6.66667, 1, 7.33333, 1.33333], "rotation": 90, "texture": "#0"},
				"down": {"uv": [6.66667, 1, 7.33333, 1.33333], "rotation": 90, "texture": "#0"}
			}
		},
		{
			"from": [2.92458, 3.93238, 4.94],
			"to": [2.95458, 4.07538, 5.14],
			"rotation": {"angle": 0, "axis": "y", "origin": [2.93958, 4.00388, 5.07]},
			"faces": {
				"north": {"uv": [6.66667, 1, 7.33333, 1.33333], "texture": "#0"},
				"east": {"uv": [6.66667, 1, 7.33333, 1.33333], "texture": "#0"},
				"south": {"uv": [6.66667, 1, 7.33333, 1.33333], "texture": "#0"},
				"west": {"uv": [6.66667, 1, 7.33333, 1.33333], "texture": "#0"},
				"up": {"uv": [6.66667, 1, 7.33333, 1.33333], "texture": "#0"},
				"down": {"uv": [6.66667, 1, 7.33333, 1.33333], "texture": "#0"}
			}
		},
		{
			"from": [2.97075, 3.82093, 4.94],
			"to": [3.00075, 3.96393, 5.14],
			"rotation": {"angle": 45, "axis": "z", "origin": [2.98575, 3.89243, 5.07]},
			"faces": {
				"north": {"uv": [6.66667, 1, 7.33333, 1.33333], "texture": "#0"},
				"east": {"uv": [6.66667, 1, 7.33333, 1.33333], "texture": "#0"},
				"south": {"uv": [6.66667, 1, 7.33333, 1.33333], "texture": "#0"},
				"west": {"uv": [6.66667, 1, 7.33333, 1.33333], "texture": "#0"},
				"up": {"uv": [6.66667, 1, 7.33333, 1.33333], "texture": "#0"},
				"down": {"uv": [6.66667, 1, 7.33333, 1.33333], "texture": "#0"}
			}
		},
		{
			"from": [3.0257, 3.83127, 4.94],
			"to": [3.1687, 3.86127, 5.14],
			"rotation": {"angle": 0, "axis": "y", "origin": [3.0972, 3.84627, 5.07]},
			"faces": {
				"north": {"uv": [6.66667, 1, 7.33333, 1.33333], "rotation": 270, "texture": "#0"},
				"east": {"uv": [6.66667, 1, 7.33333, 1.33333], "rotation": 270, "texture": "#0"},
				"south": {"uv": [6.66667, 1, 7.33333, 1.33333], "rotation": 270, "texture": "#0"},
				"west": {"uv": [6.66667, 1, 7.33333, 1.33333], "rotation": 270, "texture": "#0"},
				"up": {"uv": [6.66667, 1, 7.33333, 1.33333], "rotation": 270, "texture": "#0"},
				"down": {"uv": [6.66667, 1, 7.33333, 1.33333], "rotation": 270, "texture": "#0"}
			}
		},
		{
			"from": [3.13715, 3.87743, 4.94],
			"to": [3.28015, 3.90743, 5.14],
			"rotation": {"angle": 45, "axis": "z", "origin": [3.20865, 3.89243, 5.07]},
			"faces": {
				"north": {"uv": [6.66667, 1, 7.33333, 1.33333], "rotation": 270, "texture": "#0"},
				"east": {"uv": [6.66667, 1, 7.33333, 1.33333], "rotation": 270, "texture": "#0"},
				"south": {"uv": [6.66667, 1, 7.33333, 1.33333], "rotation": 270, "texture": "#0"},
				"west": {"uv": [6.66667, 1, 7.33333, 1.33333], "rotation": 270, "texture": "#0"},
				"up": {"uv": [6.66667, 1, 7.33333, 1.33333], "rotation": 270, "texture": "#0"},
				"down": {"uv": [6.66667, 1, 7.33333, 1.33333], "rotation": 270, "texture": "#0"}
			}
		},
		{
			"from": [3.23982, 3.93238, 4.94],
			"to": [3.26982, 4.07538, 5.14],
			"rotation": {"angle": 0, "axis": "y", "origin": [3.25482, 4.00388, 5.07]},
			"faces": {
				"north": {"uv": [6.66667, 1, 7.33333, 1.33333], "rotation": 180, "texture": "#0"},
				"east": {"uv": [6.66667, 1, 7.33333, 1.33333], "rotation": 180, "texture": "#0"},
				"south": {"uv": [6.66667, 1, 7.33333, 1.33333], "rotation": 180, "texture": "#0"},
				"west": {"uv": [6.66667, 1, 7.33333, 1.33333], "rotation": 180, "texture": "#0"},
				"up": {"uv": [6.66667, 1, 7.33333, 1.33333], "rotation": 180, "texture": "#0"},
				"down": {"uv": [6.66667, 1, 7.33333, 1.33333], "rotation": 180, "texture": "#0"}
			}
		},
		{
			"from": [3.19365, 4.04384, 4.94],
			"to": [3.22365, 4.18684, 5.14],
			"rotation": {"angle": 45, "axis": "z", "origin": [3.20865, 4.11534, 5.07]},
			"faces": {
				"north": {"uv": [6.66667, 1, 7.33333, 1.33333], "rotation": 180, "texture": "#0"},
				"east": {"uv": [6.66667, 1, 7.33333, 1.33333], "rotation": 180, "texture": "#0"},
				"south": {"uv": [6.66667, 1, 7.33333, 1.33333], "rotation": 180, "texture": "#0"},
				"west": {"uv": [6.66667, 1, 7.33333, 1.33333], "rotation": 180, "texture": "#0"},
				"up": {"uv": [6.66667, 1, 7.33333, 1.33333], "rotation": 180, "texture": "#0"},
				"down": {"uv": [6.66667, 1, 7.33333, 1.33333], "rotation": 180, "texture": "#0"}
			}
		},
		{
			"from": [3.0357, 3.85654, 4.97],
			"to": [3.1587, 4.15654, 5.17],
			"rotation": {"angle": 0, "axis": "y", "origin": [3.0972, 4.00654, 5.07]},
			"faces": {
				"north": {"uv": [14.33333, 9.33333, 15, 9.66667], "rotation": 90, "texture": "#0"},
				"east": {"uv": [14.33333, 9.33333, 15, 9.66667], "rotation": 90, "texture": "#0"},
				"south": {"uv": [14.33333, 9.33333, 15, 9.66667], "rotation": 90, "texture": "#0"},
				"west": {"uv": [14.33333, 9.33333, 15, 9.66667], "rotation": 90, "texture": "#0"},
				"up": {"uv": [14.33333, 9.33333, 15, 9.66667], "rotation": 90, "texture": "#0"},
				"down": {"uv": [14.33333, 9.33333, 15, 9.66667], "rotation": 90, "texture": "#0"}
			}
		},
		{
			"from": [3.0357, 3.85654, 4.97],
			"to": [3.1587, 4.15654, 5.17],
			"rotation": {"angle": 45, "axis": "z", "origin": [3.0972, 4.00654, 5.07]},
			"faces": {
				"north": {"uv": [14.33333, 9.33333, 15, 9.66667], "rotation": 90, "texture": "#0"},
				"east": {"uv": [14.33333, 9.33333, 15, 9.66667], "rotation": 90, "texture": "#0"},
				"south": {"uv": [14.33333, 9.33333, 15, 9.66667], "rotation": 90, "texture": "#0"},
				"west": {"uv": [14.33333, 9.33333, 15, 9.66667], "rotation": 90, "texture": "#0"},
				"up": {"uv": [14.33333, 9.33333, 15, 9.66667], "rotation": 90, "texture": "#0"},
				"down": {"uv": [14.33333, 9.33333, 15, 9.66667], "rotation": 90, "texture": "#0"}
			}
		},
		{
			"from": [2.9472, 3.94504, 4.97],
			"to": [3.2472, 4.06804, 5.17],
			"rotation": {"angle": 0, "axis": "y", "origin": [3.0972, 4.00654, 5.07]},
			"faces": {
				"north": {"uv": [14.33333, 9.33333, 15, 9.66667], "texture": "#0"},
				"east": {"uv": [14.33333, 9.33333, 15, 9.66667], "texture": "#0"},
				"south": {"uv": [14.33333, 9.33333, 15, 9.66667], "texture": "#0"},
				"west": {"uv": [14.33333, 9.33333, 15, 9.66667], "texture": "#0"},
				"up": {"uv": [14.33333, 9.33333, 15, 9.66667], "texture": "#0"},
				"down": {"uv": [14.33333, 9.33333, 15, 9.66667], "texture": "#0"}
			}
		},
		{
			"from": [2.9472, 3.94504, 4.97],
			"to": [3.2472, 4.06804, 5.17],
			"rotation": {"angle": 45, "axis": "z", "origin": [3.0972, 4.00654, 5.07]},
			"faces": {
				"north": {"uv": [14.33333, 9.33333, 15, 9.66667], "texture": "#0"},
				"east": {"uv": [14.33333, 9.33333, 15, 9.66667], "texture": "#0"},
				"south": {"uv": [14.33333, 9.33333, 15, 9.66667], "texture": "#0"},
				"west": {"uv": [14.33333, 9.33333, 15, 9.66667], "texture": "#0"},
				"up": {"uv": [14.33333, 9.33333, 15, 9.66667], "texture": "#0"},
				"down": {"uv": [14.33333, 9.33333, 15, 9.66667], "texture": "#0"}
			}
		},
		{
			"from": [3.54, 4.275, 7.2],
			"to": [3.69, 4.675, 7.3],
			"rotation": {"angle": 0, "axis": "y", "origin": [10.7, 11.7, 15.2]},
			"faces": {
				"north": {"uv": [9.33333, 6.66667, 10, 7], "texture": "#0"},
				"east": {"uv": [9.33333, 6.66667, 10, 7], "texture": "#0"},
				"south": {"uv": [9.33333, 6.66667, 10, 7], "texture": "#0"},
				"west": {"uv": [9.33333, 6.66667, 10, 7], "texture": "#0"},
				"up": {"uv": [9.33333, 6.66667, 10, 7], "texture": "#0"},
				"down": {"uv": [9.33333, 6.66667, 10, 7], "texture": "#0"}
			}
		},
		{
			"from": [3.43398, 4.45391, 7.2],
			"to": [3.58398, 4.65391, 7.3],
			"rotation": {"angle": 22.5, "axis": "z", "origin": [3.50898, 4.55391, 7.55]},
			"faces": {
				"north": {"uv": [9.33333, 6.66667, 10, 7], "texture": "#0"},
				"east": {"uv": [9.33333, 6.66667, 10, 7], "texture": "#0"},
				"south": {"uv": [9.33333, 6.66667, 10, 7], "texture": "#0"},
				"west": {"uv": [9.33333, 6.66667, 10, 7], "texture": "#0"},
				"up": {"uv": [9.33333, 6.66667, 10, 7], "texture": "#0"},
				"down": {"uv": [9.33333, 6.66667, 10, 7], "texture": "#0"}
			}
		},
		{
			"from": [3.3441, 4.29385, 7.2],
			"to": [3.4941, 4.59385, 7.3],
			"rotation": {"angle": 45, "axis": "z", "origin": [3.4191, 4.49385, 7.55]},
			"faces": {
				"north": {"uv": [9.33333, 6.66667, 10, 7], "texture": "#0"},
				"east": {"uv": [9.33333, 6.66667, 10, 7], "texture": "#0"},
				"south": {"uv": [9.33333, 6.66667, 10, 7], "texture": "#0"},
				"west": {"uv": [9.33333, 6.66667, 10, 7], "texture": "#0"},
				"up": {"uv": [9.33333, 6.66667, 10, 7], "texture": "#0"},
				"down": {"uv": [9.33333, 6.66667, 10, 7], "texture": "#0"}
			}
		},
		{
			"from": [3.25904, 4.32897, 7.2],
			"to": [3.45904, 4.47897, 7.3],
			"rotation": {"angle": -22.5, "axis": "z", "origin": [3.35904, 4.40397, 7.55]},
			"faces": {
				"north": {"uv": [9.33333, 6.66667, 10, 7], "rotation": 270, "texture": "#0"},
				"east": {"uv": [9.33333, 6.66667, 10, 7], "rotation": 270, "texture": "#0"},
				"south": {"uv": [9.33333, 6.66667, 10, 7], "rotation": 270, "texture": "#0"},
				"west": {"uv": [9.33333, 6.66667, 10, 7], "rotation": 270, "texture": "#0"},
				"up": {"uv": [9.33333, 6.66667, 10, 7], "rotation": 270, "texture": "#0"},
				"down": {"uv": [9.33333, 6.66667, 10, 7], "rotation": 270, "texture": "#0"}
			}
		},
		{
			"from": [3.47074, 3.99016, 7.2],
			"to": [3.62074, 4.19016, 7.3],
			"rotation": {"angle": -22.5, "axis": "z", "origin": [3.40627, 4.15848, 7.55]},
			"faces": {
				"north": {"uv": [9.33333, 6.66667, 10, 7], "rotation": 180, "texture": "#0"},
				"east": {"uv": [9.33333, 6.66667, 10, 7], "rotation": 180, "texture": "#0"},
				"south": {"uv": [9.33333, 6.66667, 10, 7], "rotation": 180, "texture": "#0"},
				"west": {"uv": [9.33333, 6.66667, 10, 7], "rotation": 180, "texture": "#0"},
				"up": {"uv": [9.33333, 6.66667, 10, 7], "rotation": 180, "texture": "#0"},
				"down": {"uv": [9.33333, 6.66667, 10, 7], "rotation": 180, "texture": "#0"}
			}
		},
		{
			"from": [3.27543, 4.0345, 7.2],
			"to": [3.57543, 4.1845, 7.3],
			"rotation": {"angle": 45, "axis": "z", "origin": [3.40627, 4.15848, 7.55]},
			"faces": {
				"north": {"uv": [9.33333, 6.66667, 10, 7], "rotation": 270, "texture": "#0"},
				"east": {"uv": [9.33333, 6.66667, 10, 7], "rotation": 270, "texture": "#0"},
				"south": {"uv": [9.33333, 6.66667, 10, 7], "rotation": 270, "texture": "#0"},
				"west": {"uv": [9.33333, 6.66667, 10, 7], "rotation": 270, "texture": "#0"},
				"up": {"uv": [9.33333, 6.66667, 10, 7], "rotation": 270, "texture": "#0"},
				"down": {"uv": [9.33333, 6.66667, 10, 7], "rotation": 270, "texture": "#0"}
			}
		},
		{
			"from": [3.27543, 4.13245, 7.2],
			"to": [3.47543, 4.28245, 7.3],
			"rotation": {"angle": 22.5, "axis": "z", "origin": [3.40627, 4.15848, 7.55]},
			"faces": {
				"north": {"uv": [9.33333, 6.66667, 10, 7], "rotation": 270, "texture": "#0"},
				"east": {"uv": [9.33333, 6.66667, 10, 7], "rotation": 270, "texture": "#0"},
				"south": {"uv": [9.33333, 6.66667, 10, 7], "rotation": 270, "texture": "#0"},
				"west": {"uv": [9.33333, 6.66667, 10, 7], "rotation": 270, "texture": "#0"},
				"up": {"uv": [9.33333, 6.66667, 10, 7], "rotation": 270, "texture": "#0"},
				"down": {"uv": [9.33333, 6.66667, 10, 7], "rotation": 270, "texture": "#0"}
			}
		},
		{
			"from": [3.23795, 4.22295, 7.2],
			"to": [3.63795, 4.37295, 7.3],
			"rotation": {"angle": 0, "axis": "y", "origin": [3.40627, 4.15848, 7.55]},
			"faces": {
				"north": {"uv": [9.33333, 6.66667, 10, 7], "rotation": 270, "texture": "#0"},
				"east": {"uv": [9.33333, 6.66667, 10, 7], "rotation": 270, "texture": "#0"},
				"south": {"uv": [9.33333, 6.66667, 10, 7], "rotation": 270, "texture": "#0"},
				"west": {"uv": [9.33333, 6.66667, 10, 7], "rotation": 270, "texture": "#0"},
				"up": {"uv": [9.33333, 6.66667, 10, 7], "rotation": 270, "texture": "#0"},
				"down": {"uv": [9.33333, 6.66667, 10, 7], "rotation": 270, "texture": "#0"}
			}
		},
		{
			"from": [3.54, 3.9209, 7.2],
			"to": [3.69, 4.3209, 7.3],
			"rotation": {"angle": 0, "axis": "y", "origin": [3.75447, 4.08921, 7.55]},
			"faces": {
				"north": {"uv": [9.33333, 6.66667, 10, 7], "rotation": 180, "texture": "#0"},
				"east": {"uv": [9.33333, 6.66667, 10, 7], "rotation": 180, "texture": "#0"},
				"south": {"uv": [9.33333, 6.66667, 10, 7], "rotation": 180, "texture": "#0"},
				"west": {"uv": [9.33333, 6.66667, 10, 7], "rotation": 180, "texture": "#0"},
				"up": {"uv": [9.33333, 6.66667, 10, 7], "rotation": 180, "texture": "#0"},
				"down": {"uv": [9.33333, 6.66667, 10, 7], "rotation": 180, "texture": "#0"}
			}
		},
		{
			"from": [3.6305, 3.95838, 7.2],
			"to": [3.7805, 4.15838, 7.3],
			"rotation": {"angle": 22.5, "axis": "z", "origin": [3.75447, 4.08921, 7.55]},
			"faces": {
				"north": {"uv": [9.33333, 6.66667, 10, 7], "rotation": 180, "texture": "#0"},
				"east": {"uv": [9.33333, 6.66667, 10, 7], "rotation": 180, "texture": "#0"},
				"south": {"uv": [9.33333, 6.66667, 10, 7], "rotation": 180, "texture": "#0"},
				"west": {"uv": [9.33333, 6.66667, 10, 7], "rotation": 180, "texture": "#0"},
				"up": {"uv": [9.33333, 6.66667, 10, 7], "rotation": 180, "texture": "#0"},
				"down": {"uv": [9.33333, 6.66667, 10, 7], "rotation": 180, "texture": "#0"}
			}
		},
		{
			"from": [3.72845, 3.95838, 7.2],
			"to": [3.87845, 4.25838, 7.3],
			"rotation": {"angle": 45, "axis": "z", "origin": [3.75447, 4.08921, 7.55]},
			"faces": {
				"north": {"uv": [9.33333, 6.66667, 10, 7], "rotation": 180, "texture": "#0"},
				"east": {"uv": [9.33333, 6.66667, 10, 7], "rotation": 180, "texture": "#0"},
				"south": {"uv": [9.33333, 6.66667, 10, 7], "rotation": 180, "texture": "#0"},
				"west": {"uv": [9.33333, 6.66667, 10, 7], "rotation": 180, "texture": "#0"},
				"up": {"uv": [9.33333, 6.66667, 10, 7], "rotation": 180, "texture": "#0"},
				"down": {"uv": [9.33333, 6.66667, 10, 7], "rotation": 180, "texture": "#0"}
			}
		},
		{
			"from": [3.72279, 4.15369, 7.2],
			"to": [3.92279, 4.30369, 7.3],
			"rotation": {"angle": -22.5, "axis": "z", "origin": [3.75447, 4.08921, 7.55]},
			"faces": {
				"north": {"uv": [9.33333, 6.66667, 10, 7], "rotation": 90, "texture": "#0"},
				"east": {"uv": [9.33333, 6.66667, 10, 7], "rotation": 90, "texture": "#0"},
				"south": {"uv": [9.33333, 6.66667, 10, 7], "rotation": 90, "texture": "#0"},
				"west": {"uv": [9.33333, 6.66667, 10, 7], "rotation": 90, "texture": "#0"},
				"up": {"uv": [9.33333, 6.66667, 10, 7], "rotation": 90, "texture": "#0"},
				"down": {"uv": [9.33333, 6.66667, 10, 7], "rotation": 90, "texture": "#0"}
			}
		},
		{
			"from": [3.59205, 4.22295, 7.2],
			"to": [3.99205, 4.37295, 7.3],
			"rotation": {"angle": 0, "axis": "y", "origin": [3.82373, 4.43742, 7.55]},
			"faces": {
				"north": {"uv": [9.33333, 6.66667, 10, 7], "rotation": 90, "texture": "#0"},
				"east": {"uv": [9.33333, 6.66667, 10, 7], "rotation": 90, "texture": "#0"},
				"south": {"uv": [9.33333, 6.66667, 10, 7], "rotation": 90, "texture": "#0"},
				"west": {"uv": [9.33333, 6.66667, 10, 7], "rotation": 90, "texture": "#0"},
				"up": {"uv": [9.33333, 6.66667, 10, 7], "rotation": 90, "texture": "#0"},
				"down": {"uv": [9.33333, 6.66667, 10, 7], "rotation": 90, "texture": "#0"}
			}
		},
		{
			"from": [3.75457, 4.31345, 7.2],
			"to": [3.95457, 4.46345, 7.3],
			"rotation": {"angle": 22.5, "axis": "z", "origin": [3.82373, 4.43742, 7.55]},
			"faces": {
				"north": {"uv": [9.33333, 6.66667, 10, 7], "rotation": 90, "texture": "#0"},
				"east": {"uv": [9.33333, 6.66667, 10, 7], "rotation": 90, "texture": "#0"},
				"south": {"uv": [9.33333, 6.66667, 10, 7], "rotation": 90, "texture": "#0"},
				"west": {"uv": [9.33333, 6.66667, 10, 7], "rotation": 90, "texture": "#0"},
				"up": {"uv": [9.33333, 6.66667, 10, 7], "rotation": 90, "texture": "#0"},
				"down": {"uv": [9.33333, 6.66667, 10, 7], "rotation": 90, "texture": "#0"}
			}
		},
		{
			"from": [3.65457, 4.4114, 7.2],
			"to": [3.95457, 4.5614, 7.3],
			"rotation": {"angle": 45, "axis": "z", "origin": [3.82373, 4.43742, 7.55]},
			"faces": {
				"north": {"uv": [9.33333, 6.66667, 10, 7], "rotation": 90, "texture": "#0"},
				"east": {"uv": [9.33333, 6.66667, 10, 7], "rotation": 90, "texture": "#0"},
				"south": {"uv": [9.33333, 6.66667, 10, 7], "rotation": 90, "texture": "#0"},
				"west": {"uv": [9.33333, 6.66667, 10, 7], "rotation": 90, "texture": "#0"},
				"up": {"uv": [9.33333, 6.66667, 10, 7], "rotation": 90, "texture": "#0"},
				"down": {"uv": [9.33333, 6.66667, 10, 7], "rotation": 90, "texture": "#0"}
			}
		},
		{
			"from": [3.60926, 4.40574, 7.2],
			"to": [3.75926, 4.60574, 7.3],
			"rotation": {"angle": -22.5, "axis": "z", "origin": [3.82373, 4.43742, 7.55]},
			"faces": {
				"north": {"uv": [9.33333, 6.66667, 10, 7], "texture": "#0"},
				"east": {"uv": [9.33333, 6.66667, 10, 7], "texture": "#0"},
				"south": {"uv": [9.33333, 6.66667, 10, 7], "texture": "#0"},
				"west": {"uv": [9.33333, 6.66667, 10, 7], "texture": "#0"},
				"up": {"uv": [9.33333, 6.66667, 10, 7], "texture": "#0"},
				"down": {"uv": [9.33333, 6.66667, 10, 7], "texture": "#0"}
			}
		},
		{
			"from": [3, 4.275, 5],
			"to": [4.03, 4.875, 6],
			"rotation": {"angle": 0, "axis": "y", "origin": [11, 11.9, 13]},
			"faces": {
				"north": {"uv": [8.66667, 0.66667, 10, 2], "texture": "#0"},
				"east": {"uv": [8.66667, 0.66667, 10, 2], "texture": "#0"},
				"south": {"uv": [8.66667, 0.66667, 10, 2], "texture": "#0"},
				"west": {"uv": [8.66667, 0.66667, 10, 2], "texture": "#0"},
				"up": {"uv": [8.66667, 0.66667, 10, 2], "texture": "#0"},
				"down": {"uv": [8.66667, 0.66667, 10, 2], "texture": "#0"}
			}
		},
		{
			"from": [3.96942, 4.38184, 5],
			"to": [4.19942, 4.78184, 6],
			"rotation": {"angle": -22.5, "axis": "z", "origin": [4.23389, 4.67615, 5.5]},
			"faces": {
				"north": {"uv": [8.66667, 0.66667, 10, 2], "texture": "#0"},
				"east": {"uv": [8.66667, 0.66667, 10, 2], "texture": "#0"},
				"south": {"uv": [8.66667, 0.66667, 10, 2], "texture": "#0"},
				"west": {"uv": [8.66667, 0.66667, 10, 2], "texture": "#0"},
				"up": {"uv": [8.66667, 0.66667, 10, 2], "texture": "#0"},
				"down": {"uv": [8.66667, 0.66667, 10, 2], "texture": "#0"}
			}
		},
		{
			"from": [3.85579, 4.54346, 5],
			"to": [4.35579, 4.77346, 6],
			"rotation": {"angle": 45, "axis": "z", "origin": [4.28282, 4.64346, 5.5]},
			"faces": {
				"north": {"uv": [8.66667, 0.66667, 10, 2], "rotation": 90, "texture": "#0"},
				"east": {"uv": [8.66667, 0.66667, 10, 2], "rotation": 90, "texture": "#0"},
				"south": {"uv": [8.66667, 0.66667, 10, 2], "rotation": 90, "texture": "#0"},
				"west": {"uv": [8.66667, 0.66667, 10, 2], "rotation": 90, "texture": "#0"},
				"up": {"uv": [8.66667, 0.66667, 10, 2], "rotation": 90, "texture": "#0"},
				"down": {"uv": [8.66667, 0.66667, 10, 2], "rotation": 90, "texture": "#0"}
			}
		},
		{
			"from": [3.89998, 4.35128, 5],
			"to": [4.39998, 4.58128, 6],
			"rotation": {"angle": 22.5, "axis": "z", "origin": [4.2943, 4.61574, 5.5]},
			"faces": {
				"north": {"uv": [8.66667, 0.66667, 10, 2], "rotation": 90, "texture": "#0"},
				"east": {"uv": [8.66667, 0.66667, 10, 2], "rotation": 90, "texture": "#0"},
				"south": {"uv": [8.66667, 0.66667, 10, 2], "rotation": 90, "texture": "#0"},
				"west": {"uv": [8.66667, 0.66667, 10, 2], "rotation": 90, "texture": "#0"},
				"up": {"uv": [8.66667, 0.66667, 10, 2], "rotation": 90, "texture": "#0"},
				"down": {"uv": [8.66667, 0.66667, 10, 2], "rotation": 90, "texture": "#0"}
			}
		},
		{
			"from": [3.99314, 4.18186, 5],
			"to": [4.49314, 4.41186, 6],
			"rotation": {"angle": 0, "axis": "y", "origin": [4.33151, 4.05394, 5.5]},
			"faces": {
				"north": {"uv": [8.66667, 0.66667, 10, 2], "rotation": 90, "texture": "#0"},
				"east": {"uv": [8.66667, 0.66667, 10, 2], "rotation": 90, "texture": "#0"},
				"south": {"uv": [8.66667, 0.66667, 10, 2], "rotation": 90, "texture": "#0"},
				"west": {"uv": [8.66667, 0.66667, 10, 2], "rotation": 90, "texture": "#0"},
				"up": {"uv": [8.66667, 0.66667, 10, 2], "rotation": 90, "texture": "#0"},
				"down": {"uv": [8.66667, 0.66667, 10, 2], "rotation": 90, "texture": "#0"}
			}
		},
		{
			"from": [3.92041, 4.00626, 5],
			"to": [4.42041, 4.23626, 6],
			"rotation": {"angle": -22.5, "axis": "z", "origin": [4.32003, 4.02623, 5.5]},
			"faces": {
				"north": {"uv": [8.66667, 0.66667, 10, 2], "rotation": 90, "texture": "#0"},
				"east": {"uv": [8.66667, 0.66667, 10, 2], "rotation": 90, "texture": "#0"},
				"south": {"uv": [8.66667, 0.66667, 10, 2], "rotation": 90, "texture": "#0"},
				"west": {"uv": [8.66667, 0.66667, 10, 2], "rotation": 90, "texture": "#0"},
				"up": {"uv": [8.66667, 0.66667, 10, 2], "rotation": 90, "texture": "#0"},
				"down": {"uv": [8.66667, 0.66667, 10, 2], "rotation": 90, "texture": "#0"}
			}
		},
		{
			"from": [4.11878, 3.90463, 5],
			"to": [4.34878, 4.30463, 6],
			"rotation": {"angle": 45, "axis": "z", "origin": [4.29881, 4.00501, 5.5]},
			"faces": {
				"north": {"uv": [8.66667, 0.66667, 10, 2], "rotation": 180, "texture": "#0"},
				"east": {"uv": [8.66667, 0.66667, 10, 2], "rotation": 180, "texture": "#0"},
				"south": {"uv": [8.66667, 0.66667, 10, 2], "rotation": 180, "texture": "#0"},
				"west": {"uv": [8.66667, 0.66667, 10, 2], "rotation": 180, "texture": "#0"},
				"up": {"uv": [8.66667, 0.66667, 10, 2], "rotation": 180, "texture": "#0"},
				"down": {"uv": [8.66667, 0.66667, 10, 2], "rotation": 180, "texture": "#0"}
			}
		},
		{
			"from": [3.94318, 3.8319, 5],
			"to": [4.17318, 4.2319, 6],
			"rotation": {"angle": 22.5, "axis": "z", "origin": [4.2711, 3.99353, 5.5]},
			"faces": {
				"north": {"uv": [8.66667, 0.66667, 10, 2], "rotation": 180, "texture": "#0"},
				"east": {"uv": [8.66667, 0.66667, 10, 2], "rotation": 180, "texture": "#0"},
				"south": {"uv": [8.66667, 0.66667, 10, 2], "rotation": 180, "texture": "#0"},
				"west": {"uv": [8.66667, 0.66667, 10, 2], "rotation": 180, "texture": "#0"},
				"up": {"uv": [8.66667, 0.66667, 10, 2], "rotation": 180, "texture": "#0"},
				"down": {"uv": [8.66667, 0.66667, 10, 2], "rotation": 180, "texture": "#0"}
			}
		},
		{
			"from": [3, 3.71871, 5],
			"to": [4.03, 4.31871, 6],
			"rotation": {"angle": 0, "axis": "y", "origin": [3.62712, 3.94857, 5.5]},
			"faces": {
				"north": {"uv": [8.66667, 0.66667, 10, 2], "rotation": 180, "texture": "#0"},
				"east": {"uv": [8.66667, 0.66667, 10, 2], "rotation": 180, "texture": "#0"},
				"south": {"uv": [8.66667, 0.66667, 10, 2], "rotation": 180, "texture": "#0"},
				"west": {"uv": [8.66667, 0.66667, 10, 2], "rotation": 180, "texture": "#0"},
				"up": {"uv": [8.66667, 0.66667, 10, 2], "rotation": 180, "texture": "#0"},
				"down": {"uv": [8.66667, 0.66667, 10, 2], "rotation": 180, "texture": "#0"}
			}
		},
		{
			"from": [2.7357, 4.55654, 5],
			"to": [3.0357, 4.78654, 6],
			"rotation": {"angle": -22.5, "axis": "z", "origin": [2.76273, 4.65654, 5.5]},
			"faces": {
				"north": {"uv": [8.66667, 0.66667, 10, 2], "rotation": 90, "texture": "#0"},
				"east": {"uv": [8.66667, 0.66667, 10, 2], "rotation": 90, "texture": "#0"},
				"south": {"uv": [8.66667, 0.66667, 10, 2], "rotation": 90, "texture": "#0"},
				"west": {"uv": [8.66667, 0.66667, 10, 2], "rotation": 90, "texture": "#0"},
				"up": {"uv": [8.66667, 0.66667, 10, 2], "rotation": 90, "texture": "#0"},
				"down": {"uv": [8.66667, 0.66667, 10, 2], "rotation": 90, "texture": "#0"}
			}
		},
		{
			"from": [2.77366, 4.65585, 5],
			"to": [3.00366, 4.85585, 6],
			"rotation": {"angle": 22.5, "axis": "z", "origin": [2.95369, 4.85623, 5.5]},
			"faces": {
				"north": {"uv": [8.66667, 0.66667, 10, 2], "rotation": 180, "texture": "#0"},
				"east": {"uv": [8.66667, 0.66667, 10, 2], "rotation": 180, "texture": "#0"},
				"south": {"uv": [8.66667, 0.66667, 10, 2], "rotation": 180, "texture": "#0"},
				"west": {"uv": [8.66667, 0.66667, 10, 2], "rotation": 180, "texture": "#0"},
				"up": {"uv": [8.66667, 0.66667, 10, 2], "rotation": 180, "texture": "#0"},
				"down": {"uv": [8.66667, 0.66667, 10, 2], "rotation": 180, "texture": "#0"}
			}
		},
		{
			"from": [2.76795, 3.83599, 5],
			"to": [3.06795, 4.06599, 6],
			"rotation": {"angle": 22.5, "axis": "z", "origin": [2.85129, 3.87051, 5.5]},
			"faces": {
				"north": {"uv": [8.66667, 0.66667, 10, 2], "rotation": 90, "texture": "#0"},
				"east": {"uv": [8.66667, 0.66667, 10, 2], "rotation": 90, "texture": "#0"},
				"south": {"uv": [8.66667, 0.66667, 10, 2], "rotation": 90, "texture": "#0"},
				"west": {"uv": [8.66667, 0.66667, 10, 2], "rotation": 90, "texture": "#0"},
				"up": {"uv": [8.66667, 0.66667, 10, 2], "rotation": 90, "texture": "#0"},
				"down": {"uv": [8.66667, 0.66667, 10, 2], "rotation": 90, "texture": "#0"}
			}
		},
		{
			"from": [2.81677, 3.78718, 5],
			"to": [3.04677, 3.98718, 6],
			"rotation": {"angle": -22.5, "axis": "z", "origin": [2.85129, 3.87051, 5.5]},
			"faces": {
				"north": {"uv": [8.66667, 0.66667, 10, 2], "texture": "#0"},
				"east": {"uv": [8.66667, 0.66667, 10, 2], "texture": "#0"},
				"south": {"uv": [8.66667, 0.66667, 10, 2], "texture": "#0"},
				"west": {"uv": [8.66667, 0.66667, 10, 2], "texture": "#0"},
				"up": {"uv": [8.66667, 0.66667, 10, 2], "texture": "#0"},
				"down": {"uv": [8.66667, 0.66667, 10, 2], "texture": "#0"}
			}
		},
		{
			"from": [2.69949, 4.01922, 5],
			"to": [3.09949, 4.57522, 6],
			"rotation": {"angle": 0, "axis": "y", "origin": [2.63785, 3.89131, 5.5]},
			"faces": {
				"north": {"uv": [8.66667, 0.66667, 10, 2], "rotation": 90, "texture": "#0"},
				"east": {"uv": [8.66667, 0.66667, 10, 2], "rotation": 90, "texture": "#0"},
				"south": {"uv": [8.66667, 0.66667, 10, 2], "rotation": 90, "texture": "#0"},
				"west": {"uv": [8.66667, 0.66667, 10, 2], "rotation": 90, "texture": "#0"},
				"up": {"uv": [8.66667, 0.66667, 10, 2], "rotation": 90, "texture": "#0"},
				"down": {"uv": [8.66667, 0.66667, 10, 2], "rotation": 90, "texture": "#0"}
			}
		},
		{
			"from": [3.66942, 4.58184, 6],
			"to": [3.89942, 4.78184, 6.6],
			"rotation": {"angle": -22.5, "axis": "z", "origin": [3.93389, 4.67615, 6.5]},
			"faces": {
				"north": {"uv": [8.66667, 0.66667, 10, 2], "texture": "#0"},
				"east": {"uv": [8.66667, 0.66667, 10, 2], "texture": "#0"},
				"south": {"uv": [8.66667, 0.66667, 10, 2], "texture": "#0"},
				"west": {"uv": [8.66667, 0.66667, 10, 2], "texture": "#0"},
				"up": {"uv": [8.66667, 0.66667, 10, 2], "texture": "#0"},
				"down": {"uv": [8.66667, 0.66667, 10, 2], "texture": "#0"}
			}
		},
		{
			"from": [3.85579, 4.54346, 6],
			"to": [4.05579, 4.77346, 6.6],
			"rotation": {"angle": 45, "axis": "z", "origin": [3.98282, 4.64346, 6.5]},
			"faces": {
				"north": {"uv": [8.66667, 0.66667, 10, 2], "rotation": 90, "texture": "#0"},
				"east": {"uv": [8.66667, 0.66667, 10, 2], "rotation": 90, "texture": "#0"},
				"south": {"uv": [8.66667, 0.66667, 10, 2], "rotation": 90, "texture": "#0"},
				"west": {"uv": [8.66667, 0.66667, 10, 2], "rotation": 90, "texture": "#0"},
				"up": {"uv": [8.66667, 0.66667, 10, 2], "rotation": 90, "texture": "#0"},
				"down": {"uv": [8.66667, 0.66667, 10, 2], "rotation": 90, "texture": "#0"}
			}
		},
		{
			"from": [3.89998, 4.35128, 6],
			"to": [4.09998, 4.58128, 6.6],
			"rotation": {"angle": 22.5, "axis": "z", "origin": [3.9943, 4.61574, 6.5]},
			"faces": {
				"north": {"uv": [8.66667, 0.66667, 10, 2], "rotation": 90, "texture": "#0"},
				"east": {"uv": [8.66667, 0.66667, 10, 2], "rotation": 90, "texture": "#0"},
				"south": {"uv": [8.66667, 0.66667, 10, 2], "rotation": 90, "texture": "#0"},
				"west": {"uv": [8.66667, 0.66667, 10, 2], "rotation": 90, "texture": "#0"},
				"up": {"uv": [8.66667, 0.66667, 10, 2], "rotation": 90, "texture": "#0"},
				"down": {"uv": [8.66667, 0.66667, 10, 2], "rotation": 90, "texture": "#0"}
			}
		},
		{
			"from": [3.99314, 4.18186, 6],
			"to": [4.19314, 4.41186, 6.6],
			"rotation": {"angle": 0, "axis": "y", "origin": [4.03151, 4.05394, 6.5]},
			"faces": {
				"north": {"uv": [8.66667, 0.66667, 10, 2], "rotation": 90, "texture": "#0"},
				"east": {"uv": [8.66667, 0.66667, 10, 2], "rotation": 90, "texture": "#0"},
				"south": {"uv": [8.66667, 0.66667, 10, 2], "rotation": 90, "texture": "#0"},
				"west": {"uv": [8.66667, 0.66667, 10, 2], "rotation": 90, "texture": "#0"},
				"up": {"uv": [8.66667, 0.66667, 10, 2], "rotation": 90, "texture": "#0"},
				"down": {"uv": [8.66667, 0.66667, 10, 2], "rotation": 90, "texture": "#0"}
			}
		},
		{
			"from": [3.92041, 4.00626, 6],
			"to": [4.12041, 4.23626, 6.6],
			"rotation": {"angle": -22.5, "axis": "z", "origin": [4.02003, 4.02623, 6.5]},
			"faces": {
				"north": {"uv": [8.66667, 0.66667, 10, 2], "rotation": 90, "texture": "#0"},
				"east": {"uv": [8.66667, 0.66667, 10, 2], "rotation": 90, "texture": "#0"},
				"south": {"uv": [8.66667, 0.66667, 10, 2], "rotation": 90, "texture": "#0"},
				"west": {"uv": [8.66667, 0.66667, 10, 2], "rotation": 90, "texture": "#0"},
				"up": {"uv": [8.66667, 0.66667, 10, 2], "rotation": 90, "texture": "#0"},
				"down": {"uv": [8.66667, 0.66667, 10, 2], "rotation": 90, "texture": "#0"}
			}
		},
		{
			"from": [3.81878, 3.90463, 6],
			"to": [4.04878, 4.10463, 6.6],
			"rotation": {"angle": 45, "axis": "z", "origin": [3.99881, 4.00501, 6.5]},
			"faces": {
				"north": {"uv": [8.66667, 0.66667, 10, 2], "rotation": 180, "texture": "#0"},
				"east": {"uv": [8.66667, 0.66667, 10, 2], "rotation": 180, "texture": "#0"},
				"south": {"uv": [8.66667, 0.66667, 10, 2], "rotation": 180, "texture": "#0"},
				"west": {"uv": [8.66667, 0.66667, 10, 2], "rotation": 180, "texture": "#0"},
				"up": {"uv": [8.66667, 0.66667, 10, 2], "rotation": 180, "texture": "#0"},
				"down": {"uv": [8.66667, 0.66667, 10, 2], "rotation": 180, "texture": "#0"}
			}
		},
		{
			"from": [3.64318, 3.8319, 6],
			"to": [3.87318, 4.0319, 6.6],
			"rotation": {"angle": 22.5, "axis": "z", "origin": [3.9711, 3.99353, 6.5]},
			"faces": {
				"north": {"uv": [8.66667, 0.66667, 10, 2], "rotation": 180, "texture": "#0"},
				"east": {"uv": [8.66667, 0.66667, 10, 2], "rotation": 180, "texture": "#0"},
				"south": {"uv": [8.66667, 0.66667, 10, 2], "rotation": 180, "texture": "#0"},
				"west": {"uv": [8.66667, 0.66667, 10, 2], "rotation": 180, "texture": "#0"},
				"up": {"uv": [8.66667, 0.66667, 10, 2], "rotation": 180, "texture": "#0"},
				"down": {"uv": [8.66667, 0.66667, 10, 2], "rotation": 180, "texture": "#0"}
			}
		},
		{
			"from": [3.5, 4.675, 6],
			"to": [3.73, 4.875, 6.6],
			"rotation": {"angle": 0, "axis": "y", "origin": [10.7, 11.9, 14]},
			"faces": {
				"north": {"uv": [8.66667, 0.66667, 10, 2], "texture": "#0"},
				"east": {"uv": [8.66667, 0.66667, 10, 2], "texture": "#0"},
				"south": {"uv": [8.66667, 0.66667, 10, 2], "texture": "#0"},
				"west": {"uv": [8.66667, 0.66667, 10, 2], "texture": "#0"},
				"up": {"uv": [8.66667, 0.66667, 10, 2], "texture": "#0"},
				"down": {"uv": [8.66667, 0.66667, 10, 2], "texture": "#0"}
			}
		},
		{
			"from": [3.5, 3.85075, 6],
			"to": [3.73, 4.05075, 6.6],
			"rotation": {"angle": -22.5, "axis": "z", "origin": [3.28311, 4.36287, 6.5]},
			"faces": {
				"north": {"uv": [8.66667, 0.66667, 10, 2], "rotation": 180, "texture": "#0"},
				"east": {"uv": [8.66667, 0.66667, 10, 2], "rotation": 180, "texture": "#0"},
				"south": {"uv": [8.66667, 0.66667, 10, 2], "rotation": 180, "texture": "#0"},
				"west": {"uv": [8.66667, 0.66667, 10, 2], "rotation": 180, "texture": "#0"},
				"up": {"uv": [8.66667, 0.66667, 10, 2], "rotation": 180, "texture": "#0"},
				"down": {"uv": [8.66667, 0.66667, 10, 2], "rotation": 180, "texture": "#0"}
			}
		},
		{
			"from": [3.5, 3.71871, 6],
			"to": [3.73, 3.91871, 6.6],
			"rotation": {"angle": 0, "axis": "y", "origin": [3.28311, 3.30659, 6.5]},
			"faces": {
				"north": {"uv": [8.66667, 0.66667, 10, 2], "texture": "#0"},
				"east": {"uv": [8.66667, 0.66667, 10, 2], "texture": "#0"},
				"south": {"uv": [8.66667, 0.66667, 10, 2], "texture": "#0"},
				"west": {"uv": [8.66667, 0.66667, 10, 2], "texture": "#0"},
				"up": {"uv": [8.66667, 0.66667, 10, 2], "texture": "#0"},
				"down": {"uv": [8.66667, 0.66667, 10, 2], "texture": "#0"}
			}
		},
		{
			"from": [3.44947, 4.55301, 6],
			"to": [3.67947, 4.75301, 6.6],
			"rotation": {"angle": 22.5, "axis": "z", "origin": [3.28311, 4.36287, 6.5]},
			"faces": {
				"north": {"uv": [8.66667, 0.66667, 10, 2], "texture": "#0"},
				"east": {"uv": [8.66667, 0.66667, 10, 2], "texture": "#0"},
				"south": {"uv": [8.66667, 0.66667, 10, 2], "texture": "#0"},
				"west": {"uv": [8.66667, 0.66667, 10, 2], "texture": "#0"},
				"up": {"uv": [8.66667, 0.66667, 10, 2], "texture": "#0"},
				"down": {"uv": [8.66667, 0.66667, 10, 2], "texture": "#0"}
			}
		},
		{
			"from": [2.98633, 4.43588, 6],
			"to": [3.18633, 4.66588, 6.6],
			"rotation": {"angle": -45, "axis": "z", "origin": [3.28311, 4.36287, 6.5]},
			"faces": {
				"north": {"uv": [8.66667, 0.66667, 10, 2], "rotation": 270, "texture": "#0"},
				"east": {"uv": [8.66667, 0.66667, 10, 2], "rotation": 270, "texture": "#0"},
				"south": {"uv": [8.66667, 0.66667, 10, 2], "rotation": 270, "texture": "#0"},
				"west": {"uv": [8.66667, 0.66667, 10, 2], "rotation": 270, "texture": "#0"},
				"up": {"uv": [8.66667, 0.66667, 10, 2], "rotation": 270, "texture": "#0"},
				"down": {"uv": [8.66667, 0.66667, 10, 2], "rotation": 270, "texture": "#0"}
			}
		},
		{
			"from": [3.03686, 4.31389, 6],
			"to": [3.23686, 4.54389, 6.6],
			"rotation": {"angle": -22.5, "axis": "z", "origin": [3.28311, 4.36287, 6.5]},
			"faces": {
				"north": {"uv": [8.66667, 0.66667, 10, 2], "rotation": 270, "texture": "#0"},
				"east": {"uv": [8.66667, 0.66667, 10, 2], "rotation": 270, "texture": "#0"},
				"south": {"uv": [8.66667, 0.66667, 10, 2], "rotation": 270, "texture": "#0"},
				"west": {"uv": [8.66667, 0.66667, 10, 2], "rotation": 270, "texture": "#0"},
				"up": {"uv": [8.66667, 0.66667, 10, 2], "rotation": 270, "texture": "#0"},
				"down": {"uv": [8.66667, 0.66667, 10, 2], "rotation": 270, "texture": "#0"}
			}
		},
		{
			"from": [3.03686, 4.18186, 6],
			"to": [3.23686, 4.41186, 6.6],
			"rotation": {"angle": 0, "axis": "y", "origin": [3.28311, 4.36287, 6.5]},
			"faces": {
				"north": {"uv": [8.66667, 0.66667, 10, 2], "rotation": 270, "texture": "#0"},
				"east": {"uv": [8.66667, 0.66667, 10, 2], "rotation": 270, "texture": "#0"},
				"south": {"uv": [8.66667, 0.66667, 10, 2], "rotation": 270, "texture": "#0"},
				"west": {"uv": [8.66667, 0.66667, 10, 2], "rotation": 270, "texture": "#0"},
				"up": {"uv": [8.66667, 0.66667, 10, 2], "rotation": 270, "texture": "#0"},
				"down": {"uv": [8.66667, 0.66667, 10, 2], "rotation": 270, "texture": "#0"}
			}
		},
		{
			"from": [2.98633, 4.05987, 6],
			"to": [3.18633, 4.28987, 6.6],
			"rotation": {"angle": 22.5, "axis": "z", "origin": [3.28311, 4.36287, 6.5]},
			"faces": {
				"north": {"uv": [8.66667, 0.66667, 10, 2], "rotation": 270, "texture": "#0"},
				"east": {"uv": [8.66667, 0.66667, 10, 2], "rotation": 270, "texture": "#0"},
				"south": {"uv": [8.66667, 0.66667, 10, 2], "rotation": 270, "texture": "#0"},
				"west": {"uv": [8.66667, 0.66667, 10, 2], "rotation": 270, "texture": "#0"},
				"up": {"uv": [8.66667, 0.66667, 10, 2], "rotation": 270, "texture": "#0"},
				"down": {"uv": [8.66667, 0.66667, 10, 2], "rotation": 270, "texture": "#0"}
			}
		},
		{
			"from": [3.44947, 3.97273, 6],
			"to": [3.67947, 4.17273, 6.6],
			"rotation": {"angle": -45, "axis": "z", "origin": [3.28311, 4.36287, 6.5]},
			"faces": {
				"north": {"uv": [8.66667, 0.66667, 10, 2], "rotation": 180, "texture": "#0"},
				"east": {"uv": [8.66667, 0.66667, 10, 2], "rotation": 180, "texture": "#0"},
				"south": {"uv": [8.66667, 0.66667, 10, 2], "rotation": 180, "texture": "#0"},
				"west": {"uv": [8.66667, 0.66667, 10, 2], "rotation": 180, "texture": "#0"},
				"up": {"uv": [8.66667, 0.66667, 10, 2], "rotation": 180, "texture": "#0"},
				"down": {"uv": [8.66667, 0.66667, 10, 2], "rotation": 180, "texture": "#0"}
			}
		},
		{
			"from": [3.44947, 3.97273, 6.8],
			"to": [3.67947, 4.17273, 7.6],
			"rotation": {"angle": -45, "axis": "z", "origin": [3.28311, 4.36287, 7.8]},
			"faces": {
				"north": {"uv": [8.66667, 0.66667, 10, 2], "rotation": 180, "texture": "#0"},
				"east": {"uv": [8.66667, 0.66667, 10, 2], "rotation": 180, "texture": "#0"},
				"south": {"uv": [8.66667, 0.66667, 10, 2], "rotation": 180, "texture": "#0"},
				"west": {"uv": [8.66667, 0.66667, 10, 2], "rotation": 180, "texture": "#0"},
				"up": {"uv": [8.66667, 0.66667, 10, 2], "rotation": 180, "texture": "#0"},
				"down": {"uv": [8.66667, 0.66667, 10, 2], "rotation": 180, "texture": "#0"}
			}
		},
		{
			"from": [3.66942, 4.58184, 6.8],
			"to": [3.89942, 4.78184, 7.6],
			"rotation": {"angle": -22.5, "axis": "z", "origin": [3.93389, 4.67615, 7.8]},
			"faces": {
				"north": {"uv": [8.66667, 0.66667, 10, 2], "texture": "#0"},
				"east": {"uv": [8.66667, 0.66667, 10, 2], "texture": "#0"},
				"south": {"uv": [8.66667, 0.66667, 10, 2], "texture": "#0"},
				"west": {"uv": [8.66667, 0.66667, 10, 2], "texture": "#0"},
				"up": {"uv": [8.66667, 0.66667, 10, 2], "texture": "#0"},
				"down": {"uv": [8.66667, 0.66667, 10, 2], "texture": "#0"}
			}
		},
		{
			"from": [3.85579, 4.54346, 6.8],
			"to": [4.05579, 4.77346, 7.6],
			"rotation": {"angle": 45, "axis": "z", "origin": [3.98282, 4.64346, 7.8]},
			"faces": {
				"north": {"uv": [8.66667, 0.66667, 10, 2], "rotation": 90, "texture": "#0"},
				"east": {"uv": [8.66667, 0.66667, 10, 2], "rotation": 90, "texture": "#0"},
				"south": {"uv": [8.66667, 0.66667, 10, 2], "rotation": 90, "texture": "#0"},
				"west": {"uv": [8.66667, 0.66667, 10, 2], "rotation": 90, "texture": "#0"},
				"up": {"uv": [8.66667, 0.66667, 10, 2], "rotation": 90, "texture": "#0"},
				"down": {"uv": [8.66667, 0.66667, 10, 2], "rotation": 90, "texture": "#0"}
			}
		},
		{
			"from": [3.89998, 4.35128, 6.8],
			"to": [4.09998, 4.58128, 7.6],
			"rotation": {"angle": 22.5, "axis": "z", "origin": [3.9943, 4.61574, 7.8]},
			"faces": {
				"north": {"uv": [8.66667, 0.66667, 10, 2], "rotation": 90, "texture": "#0"},
				"east": {"uv": [8.66667, 0.66667, 10, 2], "rotation": 90, "texture": "#0"},
				"south": {"uv": [8.66667, 0.66667, 10, 2], "rotation": 90, "texture": "#0"},
				"west": {"uv": [8.66667, 0.66667, 10, 2], "rotation": 90, "texture": "#0"},
				"up": {"uv": [8.66667, 0.66667, 10, 2], "rotation": 90, "texture": "#0"},
				"down": {"uv": [8.66667, 0.66667, 10, 2], "rotation": 90, "texture": "#0"}
			}
		},
		{
			"from": [3.99314, 4.18186, 6.8],
			"to": [4.19314, 4.41186, 7.6],
			"rotation": {"angle": 0, "axis": "y", "origin": [4.03151, 4.05394, 7.8]},
			"faces": {
				"north": {"uv": [8.66667, 0.66667, 10, 2], "rotation": 90, "texture": "#0"},
				"east": {"uv": [8.66667, 0.66667, 10, 2], "rotation": 90, "texture": "#0"},
				"south": {"uv": [8.66667, 0.66667, 10, 2], "rotation": 90, "texture": "#0"},
				"west": {"uv": [8.66667, 0.66667, 10, 2], "rotation": 90, "texture": "#0"},
				"up": {"uv": [8.66667, 0.66667, 10, 2], "rotation": 90, "texture": "#0"},
				"down": {"uv": [8.66667, 0.66667, 10, 2], "rotation": 90, "texture": "#0"}
			}
		},
		{
			"from": [3.92041, 4.00626, 6.8],
			"to": [4.12041, 4.23626, 7.6],
			"rotation": {"angle": -22.5, "axis": "z", "origin": [4.02003, 4.02623, 7.8]},
			"faces": {
				"north": {"uv": [8.66667, 0.66667, 10, 2], "rotation": 90, "texture": "#0"},
				"east": {"uv": [8.66667, 0.66667, 10, 2], "rotation": 90, "texture": "#0"},
				"south": {"uv": [8.66667, 0.66667, 10, 2], "rotation": 90, "texture": "#0"},
				"west": {"uv": [8.66667, 0.66667, 10, 2], "rotation": 90, "texture": "#0"},
				"up": {"uv": [8.66667, 0.66667, 10, 2], "rotation": 90, "texture": "#0"},
				"down": {"uv": [8.66667, 0.66667, 10, 2], "rotation": 90, "texture": "#0"}
			}
		},
		{
			"from": [3.81878, 3.90463, 6.8],
			"to": [4.04878, 4.10463, 7.6],
			"rotation": {"angle": 45, "axis": "z", "origin": [3.99881, 4.00501, 7.8]},
			"faces": {
				"north": {"uv": [8.66667, 0.66667, 10, 2], "rotation": 180, "texture": "#0"},
				"east": {"uv": [8.66667, 0.66667, 10, 2], "rotation": 180, "texture": "#0"},
				"south": {"uv": [8.66667, 0.66667, 10, 2], "rotation": 180, "texture": "#0"},
				"west": {"uv": [8.66667, 0.66667, 10, 2], "rotation": 180, "texture": "#0"},
				"up": {"uv": [8.66667, 0.66667, 10, 2], "rotation": 180, "texture": "#0"},
				"down": {"uv": [8.66667, 0.66667, 10, 2], "rotation": 180, "texture": "#0"}
			}
		},
		{
			"from": [3.64318, 3.8319, 6.8],
			"to": [3.87318, 4.0319, 7.6],
			"rotation": {"angle": 22.5, "axis": "z", "origin": [3.9711, 3.99353, 7.8]},
			"faces": {
				"north": {"uv": [8.66667, 0.66667, 10, 2], "rotation": 180, "texture": "#0"},
				"east": {"uv": [8.66667, 0.66667, 10, 2], "rotation": 180, "texture": "#0"},
				"south": {"uv": [8.66667, 0.66667, 10, 2], "rotation": 180, "texture": "#0"},
				"west": {"uv": [8.66667, 0.66667, 10, 2], "rotation": 180, "texture": "#0"},
				"up": {"uv": [8.66667, 0.66667, 10, 2], "rotation": 180, "texture": "#0"},
				"down": {"uv": [8.66667, 0.66667, 10, 2], "rotation": 180, "texture": "#0"}
			}
		},
		{
			"from": [3.5, 4.675, 6.8],
			"to": [3.73, 4.875, 7.6],
			"rotation": {"angle": 0, "axis": "y", "origin": [10.7, 11.9, 15.3]},
			"faces": {
				"north": {"uv": [8.66667, 0.66667, 10, 2], "texture": "#0"},
				"east": {"uv": [8.66667, 0.66667, 10, 2], "texture": "#0"},
				"south": {"uv": [8.66667, 0.66667, 10, 2], "texture": "#0"},
				"west": {"uv": [8.66667, 0.66667, 10, 2], "texture": "#0"},
				"up": {"uv": [8.66667, 0.66667, 10, 2], "texture": "#0"},
				"down": {"uv": [8.66667, 0.66667, 10, 2], "texture": "#0"}
			}
		},
		{
			"from": [3.5, 3.85075, 6.8],
			"to": [3.73, 4.05075, 7.6],
			"rotation": {"angle": -22.5, "axis": "z", "origin": [3.28311, 4.36287, 7.8]},
			"faces": {
				"north": {"uv": [8.66667, 0.66667, 10, 2], "rotation": 180, "texture": "#0"},
				"east": {"uv": [8.66667, 0.66667, 10, 2], "rotation": 180, "texture": "#0"},
				"south": {"uv": [8.66667, 0.66667, 10, 2], "rotation": 180, "texture": "#0"},
				"west": {"uv": [8.66667, 0.66667, 10, 2], "rotation": 180, "texture": "#0"},
				"up": {"uv": [8.66667, 0.66667, 10, 2], "rotation": 180, "texture": "#0"},
				"down": {"uv": [8.66667, 0.66667, 10, 2], "rotation": 180, "texture": "#0"}
			}
		},
		{
			"from": [3.5, 3.71871, 6.8],
			"to": [3.73, 3.91871, 7.6],
			"rotation": {"angle": 0, "axis": "y", "origin": [3.28311, 3.30659, 7.8]},
			"faces": {
				"north": {"uv": [8.66667, 0.66667, 10, 2], "texture": "#0"},
				"east": {"uv": [8.66667, 0.66667, 10, 2], "texture": "#0"},
				"south": {"uv": [8.66667, 0.66667, 10, 2], "texture": "#0"},
				"west": {"uv": [8.66667, 0.66667, 10, 2], "texture": "#0"},
				"up": {"uv": [8.66667, 0.66667, 10, 2], "texture": "#0"},
				"down": {"uv": [8.66667, 0.66667, 10, 2], "texture": "#0"}
			}
		},
		{
			"from": [3.44947, 4.55301, 6.8],
			"to": [3.67947, 4.75301, 7.6],
			"rotation": {"angle": 22.5, "axis": "z", "origin": [3.28311, 4.36287, 7.8]},
			"faces": {
				"north": {"uv": [8.66667, 0.66667, 10, 2], "texture": "#0"},
				"east": {"uv": [8.66667, 0.66667, 10, 2], "texture": "#0"},
				"south": {"uv": [8.66667, 0.66667, 10, 2], "texture": "#0"},
				"west": {"uv": [8.66667, 0.66667, 10, 2], "texture": "#0"},
				"up": {"uv": [8.66667, 0.66667, 10, 2], "texture": "#0"},
				"down": {"uv": [8.66667, 0.66667, 10, 2], "texture": "#0"}
			}
		},
		{
			"from": [2.98633, 4.43588, 6.8],
			"to": [3.18633, 4.66588, 7.6],
			"rotation": {"angle": -45, "axis": "z", "origin": [3.28311, 4.36287, 7.8]},
			"faces": {
				"north": {"uv": [8.66667, 0.66667, 10, 2], "rotation": 270, "texture": "#0"},
				"east": {"uv": [8.66667, 0.66667, 10, 2], "rotation": 270, "texture": "#0"},
				"south": {"uv": [8.66667, 0.66667, 10, 2], "rotation": 270, "texture": "#0"},
				"west": {"uv": [8.66667, 0.66667, 10, 2], "rotation": 270, "texture": "#0"},
				"up": {"uv": [8.66667, 0.66667, 10, 2], "rotation": 270, "texture": "#0"},
				"down": {"uv": [8.66667, 0.66667, 10, 2], "rotation": 270, "texture": "#0"}
			}
		},
		{
			"from": [3.03686, 4.31389, 6.8],
			"to": [3.23686, 4.54389, 7.6],
			"rotation": {"angle": -22.5, "axis": "z", "origin": [3.28311, 4.36287, 7.8]},
			"faces": {
				"north": {"uv": [8.66667, 0.66667, 10, 2], "rotation": 270, "texture": "#0"},
				"east": {"uv": [8.66667, 0.66667, 10, 2], "rotation": 270, "texture": "#0"},
				"south": {"uv": [8.66667, 0.66667, 10, 2], "rotation": 270, "texture": "#0"},
				"west": {"uv": [8.66667, 0.66667, 10, 2], "rotation": 270, "texture": "#0"},
				"up": {"uv": [8.66667, 0.66667, 10, 2], "rotation": 270, "texture": "#0"},
				"down": {"uv": [8.66667, 0.66667, 10, 2], "rotation": 270, "texture": "#0"}
			}
		},
		{
			"from": [3.03686, 4.18186, 6.8],
			"to": [3.23686, 4.41186, 7.6],
			"rotation": {"angle": 0, "axis": "y", "origin": [3.28311, 4.36287, 7.8]},
			"faces": {
				"north": {"uv": [8.66667, 0.66667, 10, 2], "rotation": 270, "texture": "#0"},
				"east": {"uv": [8.66667, 0.66667, 10, 2], "rotation": 270, "texture": "#0"},
				"south": {"uv": [8.66667, 0.66667, 10, 2], "rotation": 270, "texture": "#0"},
				"west": {"uv": [8.66667, 0.66667, 10, 2], "rotation": 270, "texture": "#0"},
				"up": {"uv": [8.66667, 0.66667, 10, 2], "rotation": 270, "texture": "#0"},
				"down": {"uv": [8.66667, 0.66667, 10, 2], "rotation": 270, "texture": "#0"}
			}
		},
		{
			"from": [2.98633, 4.05987, 6.8],
			"to": [3.18633, 4.28987, 7.6],
			"rotation": {"angle": 22.5, "axis": "z", "origin": [3.28311, 4.36287, 7.8]},
			"faces": {
				"north": {"uv": [8.66667, 0.66667, 10, 2], "rotation": 270, "texture": "#0"},
				"east": {"uv": [8.66667, 0.66667, 10, 2], "rotation": 270, "texture": "#0"},
				"south": {"uv": [8.66667, 0.66667, 10, 2], "rotation": 270, "texture": "#0"},
				"west": {"uv": [8.66667, 0.66667, 10, 2], "rotation": 270, "texture": "#0"},
				"up": {"uv": [8.66667, 0.66667, 10, 2], "rotation": 270, "texture": "#0"},
				"down": {"uv": [8.66667, 0.66667, 10, 2], "rotation": 270, "texture": "#0"}
			}
		},
		{
			"from": [3.44947, 3.97273, 6.6],
			"to": [3.67947, 4.17273, 6.8],
			"rotation": {"angle": -45, "axis": "z", "origin": [3.28311, 4.36287, 7.6]},
			"faces": {
				"north": {"uv": [4.25, 2.5, 4.5, 2.875], "rotation": 180, "texture": "#1"},
				"east": {"uv": [4.25, 2.5, 4.5, 2.875], "rotation": 180, "texture": "#1"},
				"south": {"uv": [4.25, 2.5, 4.5, 2.875], "rotation": 180, "texture": "#1"},
				"west": {"uv": [4.25, 2.5, 4.5, 2.875], "rotation": 180, "texture": "#1"},
				"up": {"uv": [4.25, 2.5, 4.5, 2.875], "rotation": 180, "texture": "#1"},
				"down": {"uv": [4.25, 2.5, 4.5, 2.875], "rotation": 180, "texture": "#1"}
			}
		},
		{
			"from": [3.66942, 4.58184, 6.6],
			"to": [3.89942, 4.78184, 6.8],
			"rotation": {"angle": -22.5, "axis": "z", "origin": [3.93389, 4.67615, 7.6]},
			"faces": {
				"north": {"uv": [4.25, 2.5, 4.5, 2.875], "texture": "#1"},
				"east": {"uv": [4.25, 2.5, 4.5, 2.875], "texture": "#1"},
				"south": {"uv": [4.25, 2.5, 4.5, 2.875], "texture": "#1"},
				"west": {"uv": [4.25, 2.5, 4.5, 2.875], "texture": "#1"},
				"up": {"uv": [4.25, 2.5, 4.5, 2.875], "texture": "#1"},
				"down": {"uv": [4.25, 2.5, 4.5, 2.875], "texture": "#1"}
			}
		},
		{
			"from": [3.85579, 4.54346, 6.6],
			"to": [4.05579, 4.77346, 6.8],
			"rotation": {"angle": 45, "axis": "z", "origin": [3.98282, 4.64346, 7.6]},
			"faces": {
				"north": {"uv": [4.25, 2.5, 4.5, 2.875], "rotation": 270, "texture": "#1"},
				"east": {"uv": [4.25, 2.5, 4.5, 2.875], "rotation": 270, "texture": "#1"},
				"south": {"uv": [4.25, 2.5, 4.5, 2.875], "rotation": 270, "texture": "#1"},
				"west": {"uv": [4.25, 2.5, 4.5, 2.875], "rotation": 270, "texture": "#1"},
				"up": {"uv": [4.25, 2.5, 4.5, 2.875], "rotation": 270, "texture": "#1"},
				"down": {"uv": [4.25, 2.5, 4.5, 2.875], "rotation": 270, "texture": "#1"}
			}
		},
		{
			"from": [3.89998, 4.35128, 6.6],
			"to": [4.09998, 4.58128, 6.8],
			"rotation": {"angle": 22.5, "axis": "z", "origin": [3.9943, 4.61574, 7.6]},
			"faces": {
				"north": {"uv": [4.25, 2.5, 4.5, 2.875], "rotation": 270, "texture": "#1"},
				"east": {"uv": [4.25, 2.5, 4.5, 2.875], "rotation": 270, "texture": "#1"},
				"south": {"uv": [4.25, 2.5, 4.5, 2.875], "rotation": 270, "texture": "#1"},
				"west": {"uv": [4.25, 2.5, 4.5, 2.875], "rotation": 270, "texture": "#1"},
				"up": {"uv": [4.25, 2.5, 4.5, 2.875], "rotation": 270, "texture": "#1"},
				"down": {"uv": [4.25, 2.5, 4.5, 2.875], "rotation": 270, "texture": "#1"}
			}
		},
		{
			"from": [3.99314, 4.18186, 6.6],
			"to": [4.19314, 4.41186, 6.8],
			"rotation": {"angle": 0, "axis": "y", "origin": [4.03151, 4.05394, 7.6]},
			"faces": {
				"north": {"uv": [4.25, 2.5, 4.5, 2.875], "rotation": 270, "texture": "#1"},
				"east": {"uv": [4.25, 2.5, 4.5, 2.875], "rotation": 270, "texture": "#1"},
				"south": {"uv": [4.25, 2.5, 4.5, 2.875], "rotation": 270, "texture": "#1"},
				"west": {"uv": [4.25, 2.5, 4.5, 2.875], "rotation": 270, "texture": "#1"},
				"up": {"uv": [4.25, 2.5, 4.5, 2.875], "rotation": 270, "texture": "#1"},
				"down": {"uv": [4.25, 2.5, 4.5, 2.875], "rotation": 270, "texture": "#1"}
			}
		},
		{
			"from": [3.92041, 4.00626, 6.6],
			"to": [4.12041, 4.23626, 6.8],
			"rotation": {"angle": -22.5, "axis": "z", "origin": [4.02003, 4.02623, 7.6]},
			"faces": {
				"north": {"uv": [4.25, 2.5, 4.5, 2.875], "rotation": 270, "texture": "#1"},
				"east": {"uv": [4.25, 2.5, 4.5, 2.875], "rotation": 270, "texture": "#1"},
				"south": {"uv": [4.25, 2.5, 4.5, 2.875], "rotation": 270, "texture": "#1"},
				"west": {"uv": [4.25, 2.5, 4.5, 2.875], "rotation": 270, "texture": "#1"},
				"up": {"uv": [4.25, 2.5, 4.5, 2.875], "rotation": 270, "texture": "#1"},
				"down": {"uv": [4.25, 2.5, 4.5, 2.875], "rotation": 270, "texture": "#1"}
			}
		},
		{
			"from": [3.81878, 3.90463, 6.6],
			"to": [4.04878, 4.10463, 6.8],
			"rotation": {"angle": 45, "axis": "z", "origin": [3.99881, 4.00501, 7.6]},
			"faces": {
				"north": {"uv": [4.25, 2.5, 4.5, 2.875], "rotation": 180, "texture": "#1"},
				"east": {"uv": [4.25, 2.5, 4.5, 2.875], "rotation": 180, "texture": "#1"},
				"south": {"uv": [4.25, 2.5, 4.5, 2.875], "rotation": 180, "texture": "#1"},
				"west": {"uv": [4.25, 2.5, 4.5, 2.875], "rotation": 180, "texture": "#1"},
				"up": {"uv": [4.25, 2.5, 4.5, 2.875], "rotation": 180, "texture": "#1"},
				"down": {"uv": [4.25, 2.5, 4.5, 2.875], "rotation": 180, "texture": "#1"}
			}
		},
		{
			"from": [3.64318, 3.8319, 6.6],
			"to": [3.87318, 4.0319, 6.8],
			"rotation": {"angle": 22.5, "axis": "z", "origin": [3.9711, 3.99353, 7.6]},
			"faces": {
				"north": {"uv": [4.25, 2.5, 4.5, 2.875], "rotation": 180, "texture": "#1"},
				"east": {"uv": [4.25, 2.5, 4.5, 2.875], "rotation": 180, "texture": "#1"},
				"south": {"uv": [4.25, 2.5, 4.5, 2.875], "rotation": 180, "texture": "#1"},
				"west": {"uv": [4.25, 2.5, 4.5, 2.875], "rotation": 180, "texture": "#1"},
				"up": {"uv": [4.25, 2.5, 4.5, 2.875], "rotation": 180, "texture": "#1"},
				"down": {"uv": [4.25, 2.5, 4.5, 2.875], "rotation": 180, "texture": "#1"}
			}
		},
		{
			"from": [3.5, 4.675, 6.6],
			"to": [3.73, 4.875, 6.8],
			"rotation": {"angle": 0, "axis": "y", "origin": [10.7, 11.9, 15.1]},
			"faces": {
				"north": {"uv": [4.25, 2.5, 4.5, 2.875], "texture": "#1"},
				"east": {"uv": [4.25, 2.5, 4.5, 2.875], "texture": "#1"},
				"south": {"uv": [4.25, 2.5, 4.5, 2.875], "texture": "#1"},
				"west": {"uv": [4.25, 2.5, 4.5, 2.875], "texture": "#1"},
				"up": {"uv": [4.25, 2.5, 4.5, 2.875], "texture": "#1"},
				"down": {"uv": [4.25, 2.5, 4.5, 2.875], "texture": "#1"}
			}
		},
		{
			"from": [3.5, 3.85075, 6.6],
			"to": [3.73, 4.05075, 6.8],
			"rotation": {"angle": -22.5, "axis": "z", "origin": [3.28311, 4.36287, 7.6]},
			"faces": {
				"north": {"uv": [4.25, 2.5, 4.5, 2.875], "rotation": 180, "texture": "#1"},
				"east": {"uv": [4.25, 2.5, 4.5, 2.875], "rotation": 180, "texture": "#1"},
				"south": {"uv": [4.25, 2.5, 4.5, 2.875], "rotation": 180, "texture": "#1"},
				"west": {"uv": [4.25, 2.5, 4.5, 2.875], "rotation": 180, "texture": "#1"},
				"up": {"uv": [4.25, 2.5, 4.5, 2.875], "rotation": 180, "texture": "#1"},
				"down": {"uv": [4.25, 2.5, 4.5, 2.875], "rotation": 180, "texture": "#1"}
			}
		},
		{
			"from": [3.5, 3.71871, 6.6],
			"to": [3.73, 3.91871, 6.8],
			"rotation": {"angle": 0, "axis": "y", "origin": [3.28311, 3.30659, 7.6]},
			"faces": {
				"north": {"uv": [4.25, 2.5, 4.5, 2.875], "texture": "#1"},
				"east": {"uv": [4.25, 2.5, 4.5, 2.875], "texture": "#1"},
				"south": {"uv": [4.25, 2.5, 4.5, 2.875], "texture": "#1"},
				"west": {"uv": [4.25, 2.5, 4.5, 2.875], "texture": "#1"},
				"up": {"uv": [4.25, 2.5, 4.5, 2.875], "texture": "#1"},
				"down": {"uv": [4.25, 2.5, 4.5, 2.875], "texture": "#1"}
			}
		},
		{
			"from": [3.44947, 4.55301, 6.6],
			"to": [3.67947, 4.75301, 6.8],
			"rotation": {"angle": 22.5, "axis": "z", "origin": [3.28311, 4.36287, 7.6]},
			"faces": {
				"north": {"uv": [4.25, 2.5, 4.5, 2.875], "texture": "#1"},
				"east": {"uv": [4.25, 2.5, 4.5, 2.875], "texture": "#1"},
				"south": {"uv": [4.25, 2.5, 4.5, 2.875], "texture": "#1"},
				"west": {"uv": [4.25, 2.5, 4.5, 2.875], "texture": "#1"},
				"up": {"uv": [4.25, 2.5, 4.5, 2.875], "texture": "#1"},
				"down": {"uv": [4.25, 2.5, 4.5, 2.875], "texture": "#1"}
			}
		},
		{
			"from": [2.98633, 4.43588, 6.6],
			"to": [3.18633, 4.66588, 6.8],
			"rotation": {"angle": -45, "axis": "z", "origin": [3.28311, 4.36287, 7.6]},
			"faces": {
				"north": {"uv": [4.25, 2.5, 4.5, 2.875], "rotation": 90, "texture": "#1"},
				"east": {"uv": [4.25, 2.5, 4.5, 2.875], "rotation": 90, "texture": "#1"},
				"south": {"uv": [4.25, 2.5, 4.5, 2.875], "rotation": 90, "texture": "#1"},
				"west": {"uv": [4.25, 2.5, 4.5, 2.875], "rotation": 90, "texture": "#1"},
				"up": {"uv": [4.25, 2.5, 4.5, 2.875], "rotation": 90, "texture": "#1"},
				"down": {"uv": [4.25, 2.5, 4.5, 2.875], "rotation": 90, "texture": "#1"}
			}
		},
		{
			"from": [3.03686, 4.31389, 6.6],
			"to": [3.23686, 4.54389, 6.8],
			"rotation": {"angle": -22.5, "axis": "z", "origin": [3.28311, 4.36287, 7.6]},
			"faces": {
				"north": {"uv": [4.25, 2.5, 4.5, 2.875], "rotation": 90, "texture": "#1"},
				"east": {"uv": [4.25, 2.5, 4.5, 2.875], "rotation": 90, "texture": "#1"},
				"south": {"uv": [4.25, 2.5, 4.5, 2.875], "rotation": 90, "texture": "#1"},
				"west": {"uv": [4.25, 2.5, 4.5, 2.875], "rotation": 90, "texture": "#1"},
				"up": {"uv": [4.25, 2.5, 4.5, 2.875], "rotation": 90, "texture": "#1"},
				"down": {"uv": [4.25, 2.5, 4.5, 2.875], "rotation": 90, "texture": "#1"}
			}
		},
		{
			"from": [3.03686, 4.18186, 6.6],
			"to": [3.23686, 4.41186, 6.8],
			"rotation": {"angle": 0, "axis": "y", "origin": [3.28311, 4.36287, 7.6]},
			"faces": {
				"north": {"uv": [4.25, 2.5, 4.5, 2.875], "rotation": 90, "texture": "#1"},
				"east": {"uv": [4.25, 2.5, 4.5, 2.875], "rotation": 90, "texture": "#1"},
				"south": {"uv": [4.25, 2.5, 4.5, 2.875], "rotation": 90, "texture": "#1"},
				"west": {"uv": [4.25, 2.5, 4.5, 2.875], "rotation": 90, "texture": "#1"},
				"up": {"uv": [4.25, 2.5, 4.5, 2.875], "rotation": 90, "texture": "#1"},
				"down": {"uv": [4.25, 2.5, 4.5, 2.875], "rotation": 90, "texture": "#1"}
			}
		},
		{
			"from": [2.98633, 4.05987, 6.6],
			"to": [3.18633, 4.28987, 6.8],
			"rotation": {"angle": 22.5, "axis": "z", "origin": [3.28311, 4.36287, 7.6]},
			"faces": {
				"north": {"uv": [4.25, 2.5, 4.5, 2.875], "rotation": 90, "texture": "#1"},
				"east": {"uv": [4.25, 2.5, 4.5, 2.875], "rotation": 90, "texture": "#1"},
				"south": {"uv": [4.25, 2.5, 4.5, 2.875], "rotation": 90, "texture": "#1"},
				"west": {"uv": [4.25, 2.5, 4.5, 2.875], "rotation": 90, "texture": "#1"},
				"up": {"uv": [4.25, 2.5, 4.5, 2.875], "rotation": 90, "texture": "#1"},
				"down": {"uv": [4.25, 2.5, 4.5, 2.875], "rotation": 90, "texture": "#1"}
			}
		},
		{
			"from": [3.0872, 4.6, 5.45],
			"to": [3.2372, 4.9, 5.6],
			"rotation": {"angle": 0, "axis": "y", "origin": [3.1872, 4.80654, 5.47]},
			"faces": {
				"north": {"uv": [1, 6.33333, 1.66667, 6.66667], "texture": "#0"},
				"east": {"uv": [1, 6.33333, 1.66667, 6.66667], "texture": "#0"},
				"south": {"uv": [1, 6.33333, 1.66667, 6.66667], "texture": "#0"},
				"west": {"uv": [1, 6.33333, 1.66667, 6.66667], "texture": "#0"},
				"up": {"uv": [1, 6.33333, 1.66667, 6.66667], "texture": "#0"},
				"down": {"uv": [1, 6.33333, 1.66667, 6.66667], "texture": "#0"}
			}
		},
		{
			"from": [2.6372, 4.1465, 5.403],
			"to": [2.6872, 4.4665, 5.535],
			"rotation": {"angle": 0, "axis": "y", "origin": [2.6622, 4.3065, 5.469]},
			"faces": {
				"north": {"uv": [6.33333, 1, 7, 1.33333], "texture": "#0"},
				"east": {"uv": [6.33333, 1, 7, 1.33333], "texture": "#0"},
				"south": {"uv": [6.33333, 1, 7, 1.33333], "texture": "#0"},
				"west": {"uv": [6.33333, 1, 7, 1.33333], "texture": "#0"},
				"up": {"uv": [6.33333, 1, 7, 1.33333], "texture": "#0"},
				"down": {"uv": [6.33333, 1, 7, 1.33333], "texture": "#0"}
			}
		},
		{
			"from": [2.6372, 4.1465, 5.403],
			"to": [2.6872, 4.4665, 5.535],
			"rotation": {"angle": 45, "axis": "x", "origin": [2.6622, 4.3065, 5.469]},
			"faces": {
				"north": {"uv": [6.33333, 1, 7, 1.33333], "texture": "#0"},
				"east": {"uv": [6.33333, 1, 7, 1.33333], "texture": "#0"},
				"south": {"uv": [6.33333, 1, 7, 1.33333], "texture": "#0"},
				"west": {"uv": [6.33333, 1, 7, 1.33333], "texture": "#0"},
				"up": {"uv": [6.33333, 1, 7, 1.33333], "texture": "#0"},
				"down": {"uv": [6.33333, 1, 7, 1.33333], "texture": "#0"}
			}
		},
		{
			"from": [2.6372, 4.2405, 5.309],
			"to": [2.6872, 4.3725, 5.629],
			"rotation": {"angle": 0, "axis": "y", "origin": [2.6622, 4.3065, 5.469]},
			"faces": {
				"north": {"uv": [6.33333, 1, 7, 1.33333], "rotation": 270, "texture": "#0"},
				"east": {"uv": [6.33333, 1, 7, 1.33333], "rotation": 270, "texture": "#0"},
				"south": {"uv": [6.33333, 1, 7, 1.33333], "rotation": 270, "texture": "#0"},
				"west": {"uv": [6.33333, 1, 7, 1.33333], "rotation": 270, "texture": "#0"},
				"up": {"uv": [6.33333, 1, 7, 1.33333], "rotation": 270, "texture": "#0"},
				"down": {"uv": [6.33333, 1, 7, 1.33333], "rotation": 270, "texture": "#0"}
			}
		},
		{
			"from": [2.6372, 4.2405, 5.309],
			"to": [2.6872, 4.3725, 5.629],
			"rotation": {"angle": 45, "axis": "x", "origin": [2.6622, 4.3065, 5.469]},
			"faces": {
				"north": {"uv": [6.33333, 1, 7, 1.33333], "rotation": 270, "texture": "#0"},
				"east": {"uv": [6.33333, 1, 7, 1.33333], "rotation": 270, "texture": "#0"},
				"south": {"uv": [6.33333, 1, 7, 1.33333], "rotation": 270, "texture": "#0"},
				"west": {"uv": [6.33333, 1, 7, 1.33333], "rotation": 270, "texture": "#0"},
				"up": {"uv": [6.33333, 1, 7, 1.33333], "rotation": 270, "texture": "#0"},
				"down": {"uv": [6.33333, 1, 7, 1.33333], "rotation": 270, "texture": "#0"}
			}
		},
		{
			"from": [2.6872, 4.24504, 5.32],
			"to": [2.8872, 4.36804, 5.62],
			"rotation": {"angle": 0, "axis": "y", "origin": [2.7972, 4.30654, 5.47]},
			"faces": {
				"north": {"uv": [6.33333, 1, 7, 1.33333], "rotation": 90, "texture": "#0"},
				"east": {"uv": [6.33333, 1, 7, 1.33333], "rotation": 90, "texture": "#0"},
				"south": {"uv": [6.33333, 1, 7, 1.33333], "rotation": 90, "texture": "#0"},
				"west": {"uv": [6.33333, 1, 7, 1.33333], "rotation": 90, "texture": "#0"},
				"up": {"uv": [6.33333, 1, 7, 1.33333], "rotation": 90, "texture": "#0"},
				"down": {"uv": [6.33333, 1, 7, 1.33333], "rotation": 90, "texture": "#0"}
			}
		},
		{
			"from": [2.6872, 4.24504, 5.32],
			"to": [2.8872, 4.36804, 5.62],
			"rotation": {"angle": 45, "axis": "x", "origin": [2.7872, 4.30654, 5.47]},
			"faces": {
				"north": {"uv": [6.33333, 1, 7, 1.33333], "rotation": 90, "texture": "#0"},
				"east": {"uv": [6.33333, 1, 7, 1.33333], "rotation": 90, "texture": "#0"},
				"south": {"uv": [6.33333, 1, 7, 1.33333], "rotation": 90, "texture": "#0"},
				"west": {"uv": [6.33333, 1, 7, 1.33333], "rotation": 90, "texture": "#0"},
				"up": {"uv": [6.33333, 1, 7, 1.33333], "rotation": 90, "texture": "#0"},
				"down": {"uv": [6.33333, 1, 7, 1.33333], "rotation": 90, "texture": "#0"}
			}
		},
		{
			"from": [2.6872, 4.15654, 5.4085],
			"to": [2.8872, 4.45654, 5.5315],
			"rotation": {"angle": 0, "axis": "y", "origin": [2.7872, 4.30654, 5.47]},
			"faces": {
				"north": {"uv": [6.33333, 1, 7, 1.33333], "texture": "#0"},
				"east": {"uv": [6.33333, 1, 7, 1.33333], "texture": "#0"},
				"south": {"uv": [6.33333, 1, 7, 1.33333], "texture": "#0"},
				"west": {"uv": [6.33333, 1, 7, 1.33333], "texture": "#0"},
				"up": {"uv": [6.33333, 1, 7, 1.33333], "texture": "#0"},
				"down": {"uv": [6.33333, 1, 7, 1.33333], "texture": "#0"}
			}
		},
		{
			"from": [2.6872, 4.15654, 5.4085],
			"to": [2.8872, 4.45654, 5.5315],
			"rotation": {"angle": 45, "axis": "x", "origin": [2.7872, 4.30654, 5.47]},
			"faces": {
				"north": {"uv": [6.33333, 1, 7, 1.33333], "texture": "#0"},
				"east": {"uv": [6.33333, 1, 7, 1.33333], "texture": "#0"},
				"south": {"uv": [6.33333, 1, 7, 1.33333], "texture": "#0"},
				"west": {"uv": [6.33333, 1, 7, 1.33333], "texture": "#0"},
				"up": {"uv": [6.33333, 1, 7, 1.33333], "texture": "#0"},
				"down": {"uv": [6.33333, 1, 7, 1.33333], "texture": "#0"}
			}
		},
		{
			"from": [3.53, 4.44, 5.2],
			"to": [3.779, 4.94, 5.8],
			"rotation": {"angle": 0, "axis": "y", "origin": [3.6545, 4.69, 5.5]},
			"faces": {
				"north": {"uv": [11.33333, 0.66667, 12.66667, 2], "rotation": 180, "texture": "#0"},
				"east": {"uv": [11.33333, 0.66667, 12.66667, 2], "rotation": 180, "texture": "#0"},
				"south": {"uv": [11.33333, 0.66667, 12.66667, 2], "rotation": 180, "texture": "#0"},
				"west": {"uv": [11.33333, 0.66667, 12.66667, 2], "rotation": 180, "texture": "#0"},
				"up": {"uv": [11.33333, 0.66667, 12.66667, 2], "rotation": 180, "texture": "#0"},
				"down": {"uv": [11.33333, 0.66667, 12.66667, 2], "rotation": 180, "texture": "#0"}
			}
		},
		{
			"from": [3.3545, 4.44, 5.3755],
			"to": [3.9545, 4.94, 5.6245],
			"rotation": {"angle": -45, "axis": "y", "origin": [3.6545, 4.69, 5.5]},
			"faces": {
				"north": {"uv": [11.33333, 0.66667, 12.66667, 2], "rotation": 90, "texture": "#0"},
				"east": {"uv": [11.33333, 0.66667, 12.66667, 2], "rotation": 90, "texture": "#0"},
				"south": {"uv": [11.33333, 0.66667, 12.66667, 2], "rotation": 90, "texture": "#0"},
				"west": {"uv": [11.33333, 0.66667, 12.66667, 2], "rotation": 90, "texture": "#0"},
				"up": {"uv": [11.33333, 0.66667, 12.66667, 2], "rotation": 90, "texture": "#0"},
				"down": {"uv": [11.33333, 0.66667, 12.66667, 2], "rotation": 90, "texture": "#0"}
			}
		},
		{
			"from": [3.53, 4.44, 5.2],
			"to": [3.779, 4.94, 5.8],
			"rotation": {"angle": -45, "axis": "y", "origin": [3.6545, 4.69, 5.5]},
			"faces": {
				"north": {"uv": [11.33333, 0.66667, 12.66667, 2], "rotation": 180, "texture": "#0"},
				"east": {"uv": [11.33333, 0.66667, 12.66667, 2], "rotation": 180, "texture": "#0"},
				"south": {"uv": [11.33333, 0.66667, 12.66667, 2], "rotation": 180, "texture": "#0"},
				"west": {"uv": [11.33333, 0.66667, 12.66667, 2], "rotation": 180, "texture": "#0"},
				"up": {"uv": [11.33333, 0.66667, 12.66667, 2], "rotation": 180, "texture": "#0"},
				"down": {"uv": [11.33333, 0.66667, 12.66667, 2], "rotation": 180, "texture": "#0"}
			}
		},
		{
			"from": [3.3545, 4.44, 5.3755],
			"to": [3.9545, 4.94, 5.6245],
			"rotation": {"angle": 0, "axis": "y", "origin": [3.6545, 4.69, 5.5]},
			"faces": {
				"north": {"uv": [11.33333, 0.66667, 12.66667, 2], "rotation": 270, "texture": "#0"},
				"east": {"uv": [11.33333, 0.66667, 12.66667, 2], "rotation": 270, "texture": "#0"},
				"south": {"uv": [11.33333, 0.66667, 12.66667, 2], "rotation": 270, "texture": "#0"},
				"west": {"uv": [11.33333, 0.66667, 12.66667, 2], "rotation": 270, "texture": "#0"},
				"up": {"uv": [11.33333, 0.66667, 12.66667, 2], "rotation": 270, "texture": "#0"},
				"down": {"uv": [11.33333, 0.66667, 12.66667, 2], "rotation": 270, "texture": "#0"}
			}
		}
	],
	"display": {
		"thirdperson_righthand": {
			"rotation": [-90, 0, 90],
			"translation": [-7.25, 1.75, -5.5],
			"scale": [1.7, 1.7, 1.7]
		},
		"thirdperson_lefthand": {
			"rotation": [-90, 0, 90],
			"translation": [-6.25, 1.75, 9.5],
			"scale": [1.7, 1.7, 1.7]
		},
		"firstperson_righthand": {
			"rotation": [-37, 5, 0],
			"translation": [3.5, 9, 1],
			"scale": [1.7, 1.7, 1.7]
		},
		"firstperson_lefthand": {
			"rotation": [-32, 0, 0],
			"translation": [-10.25, 9.25, 1.25],
			"scale": [1.7, 1.7, 1.7]
		},
		"ground": {
			"translation": [7.75, 4.5, 3.5],
			"scale": [1.7, 1.7, 1.7]
		},
		"gui": {
			"rotation": [37, 83, 0],
			"translation": [7.25, 15.5, 0],
			"scale": [2.7, 2.7, 2.7]
		},
		"head": {
			"translation": [10, 5.5, -6.25],
			"scale": [1.7, 1.7, 1.7]
		},
		"fixed": {
			"rotation": [-90, -90, 0],
			"translation": [-3.5, 8.25, -7.75],
			"scale": [1.7, 1.7, 1.7]
		}
	},
	"groups": [
		{
			"name": "FTube",
			"origin": [4.20389, 4.60115, 4.5],
			"children": [0, 1, 2, 3, 4, 5, 6, 7, 8, 9, 10, 11, 12, 13, 14, 15]
		},
		{
			"name": "Lens",
			"origin": [4.20389, 4.60115, 4.5],
			"children": [
				{
					"name": "Front",
					"origin": [4.14361, 4.59142, 4.5],
					"children": [16, 17, 18, 19, 20, 21, 22, 23, 24, 25, 26, 27, 28, 29, 30, 31]
				},
				{
					"name": "group",
					"origin": [4.20389, 4.60115, 4.5],
					"children": [32, 33, 34, 35, 36, 37, 38, 39, 40, 41, 42, 43]
				},
				{
					"name": "group",
					"origin": [4.20389, 4.60115, 4.5],
					"children": [44, 45, 46, 47, 48, 49, 50, 51, 52, 53, 54, 55]
				},
				{
					"name": "LBack",
					"origin": [8, 8, 8],
					"children": [56, 57, 58, 59, 60, 61, 62, 63, 64, 65, 66, 67, 68, 69, 70, 71]
				}
			]
		},
		{
			"name": "Middle",
			"origin": [8, 8, 8],
			"children": [72, 73, 74, 75, 76, 77, 78, 79, 80, 81, 82, 83, 84, 85]
		},
		{
			"name": "Back",
			"origin": [8, 8, 8],
			"children": [
				{
					"name": "1",
					"origin": [3.28311, 4.36287, 6.5],
					"children": [86, 87, 88, 89, 90, 91, 92, 93, 94, 95, 96, 97, 98, 99, 100, 101]
				},
				{
					"name": "2",
					"origin": [8, 8, 8],
					"children": [102, 103, 104, 105, 106, 107, 108, 109, 110, 111, 112, 113, 114, 115, 116, 117]
				},
				{
					"name": "Ring",
					"origin": [8, 8, 8],
					"children": [118, 119, 120, 121, 122, 123, 124, 125, 126, 127, 128, 129, 130, 131, 132, 133]
				}
			]
		},
		{
			"name": "Reg",
			"origin": [8, 8, 8],
			"children": [
				{
					"name": "Buttons",
					"origin": [8, 8, 8],
					"children": [134]
				},
				{
					"name": "Rotator",
					"origin": [8, 8, 8],
					"children": [
						{
							"name": "group",
							"origin": [2.6622, 4.3065, 5.469],
							"children": [135, 136, 137, 138]
						},
						{
							"name": "group",
							"origin": [2.7872, 4.30654, 5.47],
							"children": [139, 140, 141, 142]
						}
					]
				}
			]
		},
		{
			"name": "Rotor",
			"origin": [3.892, 4.99, 6.45],
			"children": [143, 144, 145, 146]
		}
	]
}
