{
    "textures": {
        "0": "gci:items/common/mpz",
        "2": "gci:items/common/mpz1",
        "particle": "gci:items/common/all_in_one1"
    },
    "elements": [
        {
            "from": [
                7,
                -0.5,
                1
            ],
            "to": [
                8,
                3,
                2
            ],
            "rotation": {
                "angle": 0,
                "axis": "y",
                "origin": [
                    15,
                    8,
                    9
                ]
            },
            "faces": {
                "north": {
                    "uv": [
                        5,
                        13.125,
                        5.125,
                        13.25
                    ],
                    "texture": "#0"
                },
                "east": {
                    "uv": [
                        5,
                        13.125,
                        5.125,
                        13.25
                    ],
                    "texture": "#0"
                },
                "south": {
                    "uv": [
                        5,
                        13.125,
                        5.125,
                        13.25
                    ],
                    "texture": "#0"
                },
                "west": {
                    "uv": [
                        5,
                        13.125,
                        5.125,
                        13.25
                    ],
                    "texture": "#0"
                },
                "up": {
                    "uv": [
                        5,
                        13.125,
                        5.125,
                        13.25
                    ],
                    "texture": "#0"
                },
                "down": {
                    "uv": [
                        5,
                        13.125,
                        5.125,
                        13.25
                    ],
                    "texture": "#0"
                }
            }
        },
        {
            "from": [
                6.75,
                -0.75,
                0.75
            ],
            "to": [
                8.25,
                -0.5,
                2.25
            ],
            "rotation": {
                "angle": 0,
                "axis": "y",
                "origin": [
                    15,
                    7.25,
                    9
                ]
            },
            "faces": {
                "north": {
                    "uv": [
                        5,
                        13.125,
                        5.125,
                        13.25
                    ],
                    "texture": "#0"
                },
                "east": {
                    "uv": [
                        5,
                        13.125,
                        5.125,
                        13.25
                    ],
                    "texture": "#0"
                },
                "south": {
                    "uv": [
                        5,
                        13.125,
                        5.125,
                        13.25
                    ],
                    "texture": "#0"
                },
                "west": {
                    "uv": [
                        5,
                        13.125,
                        5.125,
                        13.25
                    ],
                    "texture": "#0"
                },
                "up": {
                    "uv": [
                        5,
                        13.125,
                        5.125,
                        13.25
                    ],
                    "texture": "#0"
                },
                "down": {
                    "uv": [
                        5,
                        13.125,
                        5.125,
                        13.25
                    ],
                    "texture": "#0"
                }
            }
        }
    ],
    "display": {
        "thirdperson_righthand": {
            "translation": [
                -0.75,
                4.25,
                -0.25
            ],
            "scale": [
                0.8,
                0.8,
                0.8
            ]
        },
        "thirdperson_lefthand": {
            "translation": [
                -0.75,
                4,
                -0.25
            ],
            "scale": [
                0.8,
                0.8,
                0.8
            ]
        },
        "firstperson_righthand": {
            "translation": [
                -5.5,
                8.5,
                1.75
            ],
            "scale": [
                1,
                1,
                0.9
            ]
        },
        "firstperson_lefthand": {
            "translation": [
                -5.5,
                8.5,
                1.75
            ],
            "scale": [
                1,
                1,
                0.9
            ]
        },
        "ground": {
            "translation": [
                0,
                1.75,
                0
            ],
            "scale": [
                0.88,
                0.88,
                0.88
            ]
        },
        "gui": {
            "rotation": [
                47,
                27,
                -14
            ],
            "translation": [
                5,
                3.5,
                0
            ],
            "scale": [
                0.85,
                0.85,
                0.85
            ]
        },
        "head": {
            "rotation": [
                0,
                122,
                90
            ],
            "translation": [
                -3.25,
                7.25,
                1.75
            ]
        },
        "fixed": {
            "rotation": [
                90,
                -45,
                90
            ],
            "translation": [
                -4.25,
                3,
                -2
            ]
        }
    }
}