{
    "textures": {
        "0": "gci:items/common/mpz",
        "particle": "gci:items/common/mpz"
    },
    "elements": [
        {
            "from": [
                4.74145,
                3.15083,
                11.2232
            ],
            "to": [
                5.35855,
                5.35114,
                13.7632
            ],
            "rotation": {
                "angle": 0,
                "axis": "y",
                "origin": [
                    5.05,
                    5.02588,
                    12.1432
                ]
            },
            "faces": {
                "north": {
                    "uv": [
                        3.16667,
                        11.6,
                        4.33333,
                        12.68333
                    ],
                    "rotation": 90,
                    "texture": "#0"
                },
                "east": {
                    "uv": [
                        3.16667,
                        11.6,
                        4.33333,
                        12.68333
                    ],
                    "rotation": 90,
                    "texture": "#0"
                },
                "south": {
                    "uv": [
                        3.16667,
                        11.6,
                        4.33333,
                        12.68333
                    ],
                    "rotation": 90,
                    "texture": "#0"
                },
                "west": {
                    "uv": [
                        3.16667,
                        11.6,
                        4.33333,
                        12.68333
                    ],
                    "rotation": 90,
                    "texture": "#0"
                },
                "up": {
                    "uv": [
                        3.16667,
                        11.6,
                        4.33333,
                        12.68333
                    ],
                    "rotation": 90,
                    "texture": "#0"
                },
                "down": {
                    "uv": [
                        3.16667,
                        11.6,
                        4.33333,
                        12.68333
                    ],
                    "rotation": 90,
                    "texture": "#0"
                }
            }
        },
        {
            "from": [
                4.71645,
                3.12583,
                11.1982
            ],
            "to": [
                5.38355,
                3.17583,
                13.7632
            ],
            "rotation": {
                "angle": 0,
                "axis": "y",
                "origin": [
                    5.05,
                    5.02588,
                    12.1432
                ]
            },
            "faces": {
                "north": {
                    "uv": [
                        11.5,
                        0.6,
                        12.66667,
                        1.68333
                    ],
                    "rotation": 90,
                    "texture": "#0"
                },
                "east": {
                    "uv": [
                        11.5,
                        0.6,
                        12.66667,
                        1.68333
                    ],
                    "rotation": 90,
                    "texture": "#0"
                },
                "south": {
                    "uv": [
                        11.5,
                        0.6,
                        12.66667,
                        1.68333
                    ],
                    "rotation": 90,
                    "texture": "#0"
                },
                "west": {
                    "uv": [
                        11.5,
                        0.6,
                        12.66667,
                        1.68333
                    ],
                    "rotation": 90,
                    "texture": "#0"
                },
                "up": {
                    "uv": [
                        11.5,
                        0.6,
                        12.66667,
                        1.68333
                    ],
                    "rotation": 90,
                    "texture": "#0"
                },
                "down": {
                    "uv": [
                        11.5,
                        0.6,
                        12.66667,
                        1.68333
                    ],
                    "rotation": 90,
                    "texture": "#0"
                }
            }
        },
        {
            "from": [
                4.71645,
                3.17583,
                13.2232
            ],
            "to": [
                5.38355,
                5.35114,
                13.5132
            ],
            "rotation": {
                "angle": 0,
                "axis": "y",
                "origin": [
                    5.05,
                    5.02588,
                    12.1432
                ]
            },
            "faces": {
                "north": {
                    "uv": [
                        11.5,
                        0.6,
                        12.66667,
                        1.68333
                    ],
                    "rotation": 90,
                    "texture": "#0"
                },
                "east": {
                    "uv": [
                        11.5,
                        0.6,
                        12.66667,
                        1.68333
                    ],
                    "rotation": 90,
                    "texture": "#0"
                },
                "south": {
                    "uv": [
                        11.5,
                        0.6,
                        12.66667,
                        1.68333
                    ],
                    "rotation": 90,
                    "texture": "#0"
                },
                "west": {
                    "uv": [
                        11.5,
                        0.6,
                        12.66667,
                        1.68333
                    ],
                    "rotation": 90,
                    "texture": "#0"
                },
                "up": {
                    "uv": [
                        11.5,
                        0.6,
                        12.66667,
                        1.68333
                    ],
                    "rotation": 90,
                    "texture": "#0"
                },
                "down": {
                    "uv": [
                        11.5,
                        0.6,
                        12.66667,
                        1.68333
                    ],
                    "rotation": 90,
                    "texture": "#0"
                }
            }
        },
        {
            "from": [
                4.71645,
                3.17583,
                12.4732
            ],
            "to": [
                5.38355,
                5.35114,
                12.7632
            ],
            "rotation": {
                "angle": 0,
                "axis": "y",
                "origin": [
                    5.05,
                    5.02588,
                    12.1432
                ]
            },
            "faces": {
                "north": {
                    "uv": [
                        11.5,
                        0.6,
                        12.66667,
                        1.68333
                    ],
                    "rotation": 90,
                    "texture": "#0"
                },
                "east": {
                    "uv": [
                        11.5,
                        0.6,
                        12.66667,
                        1.68333
                    ],
                    "rotation": 90,
                    "texture": "#0"
                },
                "south": {
                    "uv": [
                        11.5,
                        0.6,
                        12.66667,
                        1.68333
                    ],
                    "rotation": 90,
                    "texture": "#0"
                },
                "west": {
                    "uv": [
                        11.5,
                        0.6,
                        12.66667,
                        1.68333
                    ],
                    "rotation": 90,
                    "texture": "#0"
                },
                "up": {
                    "uv": [
                        11.5,
                        0.6,
                        12.66667,
                        1.68333
                    ],
                    "rotation": 90,
                    "texture": "#0"
                },
                "down": {
                    "uv": [
                        11.5,
                        0.6,
                        12.66667,
                        1.68333
                    ],
                    "rotation": 90,
                    "texture": "#0"
                }
            }
        },
        {
            "from": [
                4.71645,
                3.17583,
                11.7232
            ],
            "to": [
                5.38355,
                5.35114,
                12.0132
            ],
            "rotation": {
                "angle": 0,
                "axis": "y",
                "origin": [
                    5.05,
                    5.02588,
                    12.1432
                ]
            },
            "faces": {
                "north": {
                    "uv": [
                        11.5,
                        0.6,
                        12.66667,
                        1.68333
                    ],
                    "rotation": 90,
                    "texture": "#0"
                },
                "east": {
                    "uv": [
                        11.5,
                        0.6,
                        12.66667,
                        1.68333
                    ],
                    "rotation": 90,
                    "texture": "#0"
                },
                "south": {
                    "uv": [
                        11.5,
                        0.6,
                        12.66667,
                        1.68333
                    ],
                    "rotation": 90,
                    "texture": "#0"
                },
                "west": {
                    "uv": [
                        11.5,
                        0.6,
                        12.66667,
                        1.68333
                    ],
                    "rotation": 90,
                    "texture": "#0"
                },
                "up": {
                    "uv": [
                        11.5,
                        0.6,
                        12.66667,
                        1.68333
                    ],
                    "rotation": 90,
                    "texture": "#0"
                },
                "down": {
                    "uv": [
                        11.5,
                        0.6,
                        12.66667,
                        1.68333
                    ],
                    "rotation": 90,
                    "texture": "#0"
                }
            }
        }
    ],
    "display": {
        "thirdperson_righthand": {
            "translation": [
                3.5,
                4,
                -0.75
            ],
            "scale": [
                1.2,
                1.2,
                1.2
            ]
        },
        "thirdperson_lefthand": {
            "translation": [
                -3.5,
                4,
                -1
            ],
            "scale": [
                1.2,
                1.2,
                1.2
            ]
        },
        "firstperson_righthand": {
            "translation": [
                -1.75,
                5.5,
                3.75
            ],
            "scale": [
                1.2,
                1.2,
                1.2
            ]
        },
        "firstperson_lefthand": {
            "translation": [
                -6.75,
                5.5,
                4.75
            ],
            "scale": [
                1.2,
                1.2,
                1.2
            ]
        },
        "ground": {
            "translation": [
                3.25,
                5.75,
                5
            ],
            "scale": [
                1.2,
                1.2,
                1.2
            ]
        },
        "gui": {
            "rotation": [
                90,
                45,
                -90
            ],
            "translation": [
                4.75,
                -1,
                0
            ],
            "scale": [
                0.9,
                0.9,
                0.9
            ]
        },
        "head": {
            "translation": [
                3.25,
                11.75,
                0
            ]
        },
        "fixed": {
            "rotation": [
                90,
                45,
                -90
            ],
            "translation": [
                5.75,
                0,
                -3.5
            ],
            "scale": [
                1.2,
                1.2,
                1.2
            ]
        }
    }
}