{
    "textures": {
        "1": "gci:items/common/mpz", 
        "0": "gci:items/common/all_in_one", 
        "2": "gci:items/common/mpz", 
        "particle": "gci:items/common/all_in_one"
    }, 
    "elements": [
        {
            "to": [
                8.27797, 
                9.08841, 
                7.50659
            ], 
            "rotation": {
                "origin": [
                    8.01797, 
                    9.34241, 
                    6.58059
                ], 
                "angle": 0, 
                "axis": "y"
            }, 
            "from": [
                7.75797, 
                6.26841, 
                6.55059
            ], 
            "faces": {
                "north": {
                    "rotation": 180, 
                    "uv": [
                        5.125, 
                        3.375, 
                        5.125, 
                        3.5
                    ], 
                    "texture": "#0"
                }, 
                "west": {
                    "rotation": 180, 
                    "uv": [
                        5.125, 
                        3.375, 
                        5.625, 
                        3.875
                    ], 
                    "texture": "#0"
                }, 
                "up": {
                    "rotation": 180, 
                    "uv": [
                        5.125, 
                        3.375, 
                        5.625, 
                        3.875
                    ], 
                    "texture": "#0"
                }, 
                "down": {
                    "rotation": 180, 
                    "uv": [
                        5.125, 
                        3.375, 
                        5.625, 
                        3.875
                    ], 
                    "texture": "#0"
                }, 
                "east": {
                    "rotation": 180, 
                    "uv": [
                        5.125, 
                        3.375, 
                        5.625, 
                        3.875
                    ], 
                    "texture": "#0"
                }, 
                "south": {
                    "rotation": 180, 
                    "uv": [
                        5.125, 
                        3.375, 
                        5.125, 
                        3.75
                    ], 
                    "texture": "#0"
                }
            }
        }
    ], 
    "display": {
        "thirdperson_righthand": {
            "rotation": [
                0, 
                0, 
                1
            ], 
            "scale": [
                1.14, 
                1, 
                1
            ], 
            "translation": [
                -1.5, 
                0, 
                0.5
            ]
        }, 
        "head": {
            "rotation": [
                0, 
                125, 
                90
            ], 
            "scale": [
                1.64, 
                1.58, 
                1.61
            ], 
            "translation": [
                0, 
                6.5, 
                0
            ]
        }, 
        "thirdperson_lefthand": {
            "rotation": [
                0, 
                0, 
                1
            ], 
            "scale": [
                1.14, 
                1, 
                1
            ], 
            "translation": [
                -1.5, 
                0, 
                0.5
            ]
        }, 
        "gui": {
            "rotation": [
                23, 
                38, 
                -16
            ], 
            "scale": [
                1.25, 
                1.39, 
                1.22
            ], 
            "translation": [
                -0.75, 
                0.75, 
                0
            ]
        }, 
        "firstperson_righthand": {
            "translation": [
                -5.25, 
                3.5, 
                2.75
            ]
        }, 
        "firstperson_lefthand": {
            "translation": [
                -5.25, 
                3.5, 
                2.75
            ]
        }, 
        "fixed": {
            "rotation": [
                0, 
                90, 
                0
            ], 
            "scale": [
                1.22, 
                1.22, 
                1.19
            ], 
            "translation": [
                -0.5, 
                0, 
                -0.75
            ]
        }
    }
}