{
    "textures": {
        "1": "gci:items/common/mpz", 
        "0": "gci:items/common/all_in_one", 
        "2": "gci:items/common/mpz", 
        "particle": "gci:items/common/all_in_one"
    }, 
    "elements": [
        {
            "to": [
                8.36606, 
                10.59492, 
                9.028
            ], 
            "rotation": {
                "origin": [
                    8.00906, 
                    10.52159, 
                    8.87
                ], 
                "angle": 0, 
                "axis": "y"
            }, 
            "from": [
                7.67806, 
                10.21092, 
                7.368
            ], 
            "faces": {
                "north": {
                    "rotation": 270, 
                    "uv": [
                        2.875, 
                        3, 
                        2.875, 
                        3.25
                    ], 
                    "texture": "#0"
                }, 
                "west": {
                    "rotation": 270, 
                    "uv": [
                        2.875, 
                        3, 
                        2.875, 
                        3.25
                    ], 
                    "texture": "#0"
                }, 
                "up": {
                    "rotation": 270, 
                    "uv": [
                        2.875, 
                        3, 
                        2.875, 
                        3.25
                    ], 
                    "texture": "#0"
                }, 
                "down": {
                    "rotation": 270, 
                    "uv": [
                        2.875, 
                        3, 
                        2.875, 
                        3.25
                    ], 
                    "texture": "#0"
                }, 
                "east": {
                    "rotation": 270, 
                    "uv": [
                        2.875, 
                        3, 
                        2.875, 
                        3.25
                    ], 
                    "texture": "#0"
                }, 
                "south": {
                    "rotation": 270, 
                    "uv": [
                        2.875, 
                        3, 
                        2.875, 
                        3.25
                    ], 
                    "texture": "#0"
                }
            }
        }, 
        {
            "to": [
                8.39806, 
                10.40092, 
                7.622
            ], 
            "rotation": {
                "origin": [
                    8.02206, 
                    10.33892, 
                    7.558
                ], 
                "angle": -45, 
                "axis": "x"
            }, 
            "from": [
                7.64606, 
                10.27692, 
                7.494
            ], 
            "faces": {
                "north": {
                    "uv": [
                        14.25, 
                        6.625, 
                        14.25, 
                        6.625
                    ], 
                    "texture": "#0"
                }, 
                "west": {
                    "uv": [
                        14.25, 
                        6.625, 
                        14.25, 
                        6.625
                    ], 
                    "texture": "#0"
                }, 
                "up": {
                    "uv": [
                        14.25, 
                        6.625, 
                        14.25, 
                        6.625
                    ], 
                    "texture": "#0"
                }, 
                "down": {
                    "uv": [
                        14.25, 
                        6.625, 
                        14.25, 
                        6.625
                    ], 
                    "texture": "#0"
                }, 
                "east": {
                    "uv": [
                        14.25, 
                        6.625, 
                        14.25, 
                        6.625
                    ], 
                    "texture": "#0"
                }, 
                "south": {
                    "uv": [
                        14.25, 
                        6.625, 
                        14.25, 
                        6.625
                    ], 
                    "texture": "#0"
                }
            }
        }, 
        {
            "to": [
                8.39806, 
                10.40092, 
                8.934
            ], 
            "rotation": {
                "origin": [
                    8.02206, 
                    10.33892, 
                    8.87
                ], 
                "angle": -45, 
                "axis": "x"
            }, 
            "from": [
                7.64606, 
                10.27692, 
                8.806
            ], 
            "faces": {
                "north": {
                    "uv": [
                        14.25, 
                        6.625, 
                        14.25, 
                        6.625
                    ], 
                    "texture": "#0"
                }, 
                "west": {
                    "uv": [
                        14.25, 
                        6.625, 
                        14.25, 
                        6.625
                    ], 
                    "texture": "#0"
                }, 
                "up": {
                    "uv": [
                        14.25, 
                        6.625, 
                        14.25, 
                        6.625
                    ], 
                    "texture": "#0"
                }, 
                "down": {
                    "uv": [
                        14.25, 
                        6.625, 
                        14.25, 
                        6.625
                    ], 
                    "texture": "#0"
                }, 
                "east": {
                    "uv": [
                        14.25, 
                        6.625, 
                        14.25, 
                        6.625
                    ], 
                    "texture": "#0"
                }, 
                "south": {
                    "uv": [
                        14.25, 
                        6.625, 
                        14.25, 
                        6.625
                    ], 
                    "texture": "#0"
                }
            }
        }, 
        {
            "to": [
                8.39806, 
                10.84892, 
                9.03
            ], 
            "rotation": {
                "origin": [
                    8.02206, 
                    10.78692, 
                    8.966
                ], 
                "angle": -45, 
                "axis": "x"
            }, 
            "from": [
                7.64606, 
                10.72492, 
                8.902
            ], 
            "faces": {
                "north": {
                    "uv": [
                        2.875, 
                        1, 
                        2.875, 
                        1.25
                    ], 
                    "texture": "#0"
                }, 
                "west": {
                    "uv": [
                        2.875, 
                        1, 
                        2.875, 
                        1.25
                    ], 
                    "texture": "#0"
                }, 
                "up": {
                    "uv": [
                        2.875, 
                        1, 
                        2.875, 
                        1.25
                    ], 
                    "texture": "#0"
                }, 
                "down": {
                    "uv": [
                        2.875, 
                        1, 
                        2.875, 
                        1.25
                    ], 
                    "texture": "#0"
                }, 
                "east": {
                    "uv": [
                        2.875, 
                        1, 
                        2.875, 
                        1.25
                    ], 
                    "texture": "#0"
                }, 
                "south": {
                    "uv": [
                        2.875, 
                        1, 
                        2.875, 
                        1.25
                    ], 
                    "texture": "#0"
                }
            }
        }, 
        {
            "to": [
                8.36606, 
                10.81892, 
                9.444
            ], 
            "rotation": {
                "origin": [
                    8.00906, 
                    10.96959, 
                    8.87
                ], 
                "angle": 0, 
                "axis": "y"
            }, 
            "from": [
                7.67806, 
                10.65892, 
                7.368
            ], 
            "faces": {
                "north": {
                    "rotation": 270, 
                    "uv": [
                        2.875, 
                        3, 
                        2.875, 
                        3.25
                    ], 
                    "texture": "#0"
                }, 
                "west": {
                    "rotation": 270, 
                    "uv": [
                        2.875, 
                        3, 
                        2.875, 
                        3.25
                    ], 
                    "texture": "#0"
                }, 
                "up": {
                    "rotation": 270, 
                    "uv": [
                        2.875, 
                        3, 
                        2.875, 
                        3.25
                    ], 
                    "texture": "#0"
                }, 
                "down": {
                    "rotation": 270, 
                    "uv": [
                        2.875, 
                        3, 
                        2.875, 
                        3.25
                    ], 
                    "texture": "#0"
                }, 
                "east": {
                    "rotation": 270, 
                    "uv": [
                        2.875, 
                        3, 
                        2.875, 
                        3.25
                    ], 
                    "texture": "#0"
                }, 
                "south": {
                    "rotation": 270, 
                    "uv": [
                        2.875, 
                        3, 
                        2.875, 
                        3.25
                    ], 
                    "texture": "#0"
                }
            }
        }, 
        {
            "to": [
                8.07806, 
                10.91892, 
                8.216
            ], 
            "rotation": {
                "origin": [
                    8.02206, 
                    10.88292, 
                    8.16
                ], 
                "angle": -45, 
                "axis": "y"
            }, 
            "from": [
                7.96606, 
                10.81892, 
                8.104
            ], 
            "faces": {
                "north": {
                    "rotation": 270, 
                    "uv": [
                        4.25, 
                        3.125, 
                        4.25, 
                        3.375
                    ], 
                    "texture": "#0"
                }, 
                "west": {
                    "rotation": 270, 
                    "uv": [
                        4.25, 
                        3.125, 
                        4.25, 
                        3.375
                    ], 
                    "texture": "#0"
                }, 
                "up": {
                    "rotation": 270, 
                    "uv": [
                        4.25, 
                        3.125, 
                        4.25, 
                        3.375
                    ], 
                    "texture": "#0"
                }, 
                "down": {
                    "rotation": 270, 
                    "uv": [
                        4.25, 
                        3.125, 
                        4.25, 
                        3.375
                    ], 
                    "texture": "#0"
                }, 
                "east": {
                    "rotation": 270, 
                    "uv": [
                        4.25, 
                        3.125, 
                        4.25, 
                        3.375
                    ], 
                    "texture": "#0"
                }, 
                "south": {
                    "rotation": 270, 
                    "uv": [
                        4.25, 
                        3.125, 
                        4.25, 
                        3.375
                    ], 
                    "texture": "#0"
                }
            }
        }, 
        {
            "to": [
                8.5042, 
                10.91492, 
                8.33553
            ], 
            "rotation": {
                "origin": [
                    8.0522, 
                    10.85092, 
                    8.31153
                ], 
                "angle": 45, 
                "axis": "y"
            }, 
            "from": [
                7.7722, 
                10.81892, 
                8.03153
            ], 
            "faces": {
                "north": {
                    "rotation": 270, 
                    "uv": [
                        14.25, 
                        6.625, 
                        14.25, 
                        6.625
                    ], 
                    "texture": "#0"
                }, 
                "west": {
                    "rotation": 270, 
                    "uv": [
                        14.25, 
                        6.625, 
                        14.25, 
                        6.625
                    ], 
                    "texture": "#0"
                }, 
                "up": {
                    "rotation": 270, 
                    "uv": [
                        14.25, 
                        6.625, 
                        14.25, 
                        6.625
                    ], 
                    "texture": "#0"
                }, 
                "down": {
                    "rotation": 270, 
                    "uv": [
                        14.25, 
                        6.625, 
                        14.25, 
                        6.625
                    ], 
                    "texture": "#0"
                }, 
                "east": {
                    "rotation": 270, 
                    "uv": [
                        14.25, 
                        6.625, 
                        14.25, 
                        6.625
                    ], 
                    "texture": "#0"
                }, 
                "south": {
                    "rotation": 270, 
                    "uv": [
                        14.25, 
                        6.625, 
                        14.25, 
                        6.625
                    ], 
                    "texture": "#0"
                }
            }
        }, 
        {
            "to": [
                8.3885, 
                10.91492, 
                8.31221
            ], 
            "rotation": {
                "origin": [
                    8.0225, 
                    10.86692, 
                    8.16021
                ], 
                "angle": 0, 
                "axis": "y"
            }, 
            "from": [
                7.6565, 
                10.81892, 
                8.00821
            ], 
            "faces": {
                "north": {
                    "rotation": 270, 
                    "uv": [
                        14.25, 
                        6.625, 
                        14.25, 
                        6.625
                    ], 
                    "texture": "#0"
                }, 
                "west": {
                    "rotation": 270, 
                    "uv": [
                        14.25, 
                        6.625, 
                        14.25, 
                        6.625
                    ], 
                    "texture": "#0"
                }, 
                "up": {
                    "rotation": 270, 
                    "uv": [
                        14.25, 
                        6.625, 
                        14.25, 
                        6.625
                    ], 
                    "texture": "#0"
                }, 
                "down": {
                    "rotation": 270, 
                    "uv": [
                        14.25, 
                        6.625, 
                        14.25, 
                        6.625
                    ], 
                    "texture": "#0"
                }, 
                "east": {
                    "rotation": 270, 
                    "uv": [
                        14.25, 
                        6.625, 
                        14.25, 
                        6.625
                    ], 
                    "texture": "#0"
                }, 
                "south": {
                    "rotation": 270, 
                    "uv": [
                        14.25, 
                        6.625, 
                        14.25, 
                        6.625
                    ], 
                    "texture": "#0"
                }
            }
        }, 
        {
            "to": [
                8.1745, 
                10.91492, 
                8.52621
            ], 
            "rotation": {
                "origin": [
                    8.0225, 
                    10.86692, 
                    8.16021
                ], 
                "angle": 45, 
                "axis": "y"
            }, 
            "from": [
                7.8705, 
                10.81892, 
                7.79421
            ], 
            "faces": {
                "north": {
                    "uv": [
                        14.25, 
                        6.625, 
                        14.25, 
                        6.625
                    ], 
                    "texture": "#0"
                }, 
                "west": {
                    "uv": [
                        14.25, 
                        6.625, 
                        14.25, 
                        6.625
                    ], 
                    "texture": "#0"
                }, 
                "up": {
                    "uv": [
                        14.25, 
                        6.625, 
                        14.25, 
                        6.625
                    ], 
                    "texture": "#0"
                }, 
                "down": {
                    "uv": [
                        14.25, 
                        6.625, 
                        14.25, 
                        6.625
                    ], 
                    "texture": "#0"
                }, 
                "east": {
                    "uv": [
                        14.25, 
                        6.625, 
                        14.25, 
                        6.625
                    ], 
                    "texture": "#0"
                }, 
                "south": {
                    "uv": [
                        14.25, 
                        6.625, 
                        14.25, 
                        6.625
                    ], 
                    "texture": "#0"
                }
            }
        }, 
        {
            "to": [
                8.1745, 
                10.91492, 
                8.52621
            ], 
            "rotation": {
                "origin": [
                    8.0225, 
                    10.86692, 
                    8.16021
                ], 
                "angle": 0, 
                "axis": "y"
            }, 
            "from": [
                7.8705, 
                10.81892, 
                7.79421
            ], 
            "faces": {
                "north": {
                    "uv": [
                        14.25, 
                        6.625, 
                        14.25, 
                        6.625
                    ], 
                    "texture": "#0"
                }, 
                "west": {
                    "uv": [
                        14.25, 
                        6.625, 
                        14.25, 
                        6.625
                    ], 
                    "texture": "#0"
                }, 
                "up": {
                    "uv": [
                        14.25, 
                        6.625, 
                        14.25, 
                        6.625
                    ], 
                    "texture": "#0"
                }, 
                "down": {
                    "uv": [
                        14.25, 
                        6.625, 
                        14.25, 
                        6.625
                    ], 
                    "texture": "#0"
                }, 
                "east": {
                    "uv": [
                        14.25, 
                        6.625, 
                        14.25, 
                        6.625
                    ], 
                    "texture": "#0"
                }, 
                "south": {
                    "uv": [
                        14.25, 
                        6.625, 
                        14.25, 
                        6.625
                    ], 
                    "texture": "#0"
                }
            }
        }, 
        {
            "to": [
                8.23162, 
                10.88089, 
                7.748
            ], 
            "rotation": {
                "origin": [
                    8.32866, 
                    11.16258, 
                    7.606
                ], 
                "angle": 22.5, 
                "axis": "z"
            }, 
            "from": [
                7.99162, 
                10.83289, 
                7.464
            ], 
            "faces": {
                "north": {
                    "rotation": 90, 
                    "uv": [
                        2.875, 
                        3, 
                        2.875, 
                        3.25
                    ], 
                    "texture": "#0"
                }, 
                "west": {
                    "rotation": 90, 
                    "uv": [
                        2.875, 
                        3, 
                        2.875, 
                        3.25
                    ], 
                    "texture": "#0"
                }, 
                "up": {
                    "rotation": 90, 
                    "uv": [
                        2.875, 
                        3, 
                        2.875, 
                        3.25
                    ], 
                    "texture": "#0"
                }, 
                "down": {
                    "rotation": 90, 
                    "uv": [
                        2.875, 
                        3, 
                        2.875, 
                        3.25
                    ], 
                    "texture": "#0"
                }, 
                "east": {
                    "rotation": 90, 
                    "uv": [
                        2.875, 
                        3, 
                        2.875, 
                        3.25
                    ], 
                    "texture": "#0"
                }, 
                "south": {
                    "rotation": 90, 
                    "uv": [
                        2.875, 
                        3, 
                        2.875, 
                        3.25
                    ], 
                    "texture": "#0"
                }
            }
        }, 
        {
            "to": [
                8.36971, 
                11.53632, 
                7.748
            ], 
            "rotation": {
                "origin": [
                    8.01271, 
                    11.12699, 
                    8.934
                ], 
                "angle": 0, 
                "axis": "y"
            }, 
            "from": [
                7.68171, 
                11.48832, 
                7.464
            ], 
            "faces": {
                "north": {
                    "rotation": 270, 
                    "uv": [
                        2.875, 
                        3, 
                        2.875, 
                        3.25
                    ], 
                    "texture": "#0"
                }, 
                "west": {
                    "rotation": 270, 
                    "uv": [
                        2.875, 
                        3, 
                        2.875, 
                        3.25
                    ], 
                    "texture": "#0"
                }, 
                "up": {
                    "rotation": 270, 
                    "uv": [
                        2.875, 
                        3, 
                        2.875, 
                        3.25
                    ], 
                    "texture": "#0"
                }, 
                "down": {
                    "rotation": 270, 
                    "uv": [
                        2.875, 
                        3, 
                        2.875, 
                        3.25
                    ], 
                    "texture": "#0"
                }, 
                "east": {
                    "rotation": 270, 
                    "uv": [
                        2.875, 
                        3, 
                        2.875, 
                        3.25
                    ], 
                    "texture": "#0"
                }, 
                "south": {
                    "rotation": 270, 
                    "uv": [
                        2.875, 
                        3, 
                        2.875, 
                        3.25
                    ], 
                    "texture": "#0"
                }
            }
        }, 
        {
            "to": [
                8.06376, 
                11.21632, 
                7.592
            ], 
            "rotation": {
                "origin": [
                    8.36471, 
                    11.41499, 
                    8.934
                ], 
                "angle": 0, 
                "axis": "y"
            }, 
            "from": [
                7.98376, 
                11.13632, 
                7.592
            ], 
            "faces": {
                "north": {
                    "uv": [
                        8.75, 
                        7, 
                        8.75, 
                        7.125
                    ], 
                    "texture": "#0"
                }, 
                "west": {
                    "uv": [
                        8.75, 
                        7, 
                        8.75, 
                        7.125
                    ], 
                    "texture": "#0"
                }, 
                "up": {
                    "uv": [
                        8.75, 
                        7, 
                        8.75, 
                        7.125
                    ], 
                    "texture": "#0"
                }, 
                "down": {
                    "uv": [
                        8.75, 
                        7, 
                        8.75, 
                        7.125
                    ], 
                    "texture": "#0"
                }, 
                "east": {
                    "uv": [
                        8.75, 
                        7, 
                        8.75, 
                        7.125
                    ], 
                    "texture": "#0"
                }, 
                "south": {
                    "uv": [
                        8.75, 
                        7, 
                        8.75, 
                        7.125
                    ], 
                    "texture": "#0"
                }
            }
        }, 
        {
            "to": [
                7.77049, 
                10.76725, 
                7.748
            ], 
            "rotation": {
                "origin": [
                    7.86149, 
                    10.38992, 
                    8.934
                ], 
                "angle": -22.5, 
                "axis": "z"
            }, 
            "from": [
                7.53049, 
                10.71925, 
                7.464
            ], 
            "faces": {
                "north": {
                    "rotation": 270, 
                    "uv": [
                        2.875, 
                        3, 
                        2.875, 
                        3.25
                    ], 
                    "texture": "#0"
                }, 
                "west": {
                    "rotation": 270, 
                    "uv": [
                        2.875, 
                        3, 
                        2.875, 
                        3.25
                    ], 
                    "texture": "#0"
                }, 
                "up": {
                    "rotation": 270, 
                    "uv": [
                        2.875, 
                        3, 
                        2.875, 
                        3.25
                    ], 
                    "texture": "#0"
                }, 
                "down": {
                    "rotation": 270, 
                    "uv": [
                        2.875, 
                        3, 
                        2.875, 
                        3.25
                    ], 
                    "texture": "#0"
                }, 
                "east": {
                    "rotation": 270, 
                    "uv": [
                        2.875, 
                        3, 
                        2.875, 
                        3.25
                    ], 
                    "texture": "#0"
                }, 
                "south": {
                    "rotation": 270, 
                    "uv": [
                        2.875, 
                        3, 
                        2.875, 
                        3.25
                    ], 
                    "texture": "#0"
                }
            }
        }, 
        {
            "to": [
                7.63787, 
                11.31458, 
                7.748
            ], 
            "rotation": {
                "origin": [
                    7.66644, 
                    11.1063, 
                    7.606
                ], 
                "angle": 0, 
                "axis": "y"
            }, 
            "from": [
                7.58987, 
                11.07458, 
                7.464
            ], 
            "faces": {
                "north": {
                    "uv": [
                        2.875, 
                        3, 
                        2.875, 
                        3.25
                    ], 
                    "texture": "#0"
                }, 
                "west": {
                    "rotation": 180, 
                    "uv": [
                        2.875, 
                        3, 
                        2.875, 
                        3.25
                    ], 
                    "texture": "#0"
                }, 
                "up": {
                    "rotation": 180, 
                    "uv": [
                        2.875, 
                        3, 
                        2.875, 
                        3.25
                    ], 
                    "texture": "#0"
                }, 
                "down": {
                    "rotation": 180, 
                    "uv": [
                        2.875, 
                        3, 
                        2.875, 
                        3.25
                    ], 
                    "texture": "#0"
                }, 
                "east": {
                    "rotation": 180, 
                    "uv": [
                        2.875, 
                        3, 
                        2.875, 
                        3.25
                    ], 
                    "texture": "#0"
                }, 
                "south": {
                    "rotation": 180, 
                    "uv": [
                        2.875, 
                        3, 
                        2.875, 
                        3.25
                    ], 
                    "texture": "#0"
                }
            }
        }, 
        {
            "to": [
                8.45702, 
                11.31458, 
                7.748
            ], 
            "rotation": {
                "origin": [
                    8.32866, 
                    11.19458, 
                    7.606
                ], 
                "angle": 0, 
                "axis": "y"
            }, 
            "from": [
                8.40902, 
                11.07458, 
                7.464
            ], 
            "faces": {
                "north": {
                    "rotation": 180, 
                    "uv": [
                        2.875, 
                        3, 
                        2.875, 
                        3.25
                    ], 
                    "texture": "#0"
                }, 
                "west": {
                    "uv": [
                        2.875, 
                        3, 
                        2.875, 
                        3.25
                    ], 
                    "texture": "#0"
                }, 
                "up": {
                    "uv": [
                        2.875, 
                        3, 
                        2.875, 
                        3.25
                    ], 
                    "texture": "#0"
                }, 
                "down": {
                    "uv": [
                        2.875, 
                        3, 
                        2.875, 
                        3.25
                    ], 
                    "texture": "#0"
                }, 
                "east": {
                    "uv": [
                        2.875, 
                        3, 
                        2.875, 
                        3.25
                    ], 
                    "texture": "#0"
                }, 
                "south": {
                    "uv": [
                        2.875, 
                        3, 
                        2.875, 
                        3.25
                    ], 
                    "texture": "#0"
                }
            }
        }, 
        {
            "to": [
                8.36606, 
                10.86692, 
                7.748
            ], 
            "rotation": {
                "origin": [
                    8.00906, 
                    10.42559, 
                    8.934
                ], 
                "angle": 0, 
                "axis": "y"
            }, 
            "from": [
                7.67806, 
                10.75492, 
                7.464
            ], 
            "faces": {
                "north": {
                    "rotation": 270, 
                    "uv": [
                        2.875, 
                        3, 
                        2.875, 
                        3.25
                    ], 
                    "texture": "#0"
                }, 
                "west": {
                    "rotation": 270, 
                    "uv": [
                        2.875, 
                        3, 
                        2.875, 
                        3.25
                    ], 
                    "texture": "#0"
                }, 
                "up": {
                    "rotation": 270, 
                    "uv": [
                        2.875, 
                        3, 
                        2.875, 
                        3.25
                    ], 
                    "texture": "#0"
                }, 
                "down": {
                    "rotation": 270, 
                    "uv": [
                        2.875, 
                        3, 
                        2.875, 
                        3.25
                    ], 
                    "texture": "#0"
                }, 
                "east": {
                    "rotation": 270, 
                    "uv": [
                        2.875, 
                        3, 
                        2.875, 
                        3.25
                    ], 
                    "texture": "#0"
                }, 
                "south": {
                    "rotation": 270, 
                    "uv": [
                        2.875, 
                        3, 
                        2.875, 
                        3.25
                    ], 
                    "texture": "#0"
                }
            }
        }, 
        {
            "to": [
                8.36606, 
                10.96292, 
                9.444
            ], 
            "rotation": {
                "origin": [
                    8.00906, 
                    10.48959, 
                    10.63
                ], 
                "angle": 0, 
                "axis": "y"
            }, 
            "from": [
                7.67806, 
                10.81892, 
                9
            ], 
            "faces": {
                "north": {
                    "rotation": 270, 
                    "uv": [
                        2.875, 
                        3, 
                        2.875, 
                        3.25
                    ], 
                    "texture": "#0"
                }, 
                "west": {
                    "rotation": 270, 
                    "uv": [
                        2.875, 
                        3, 
                        2.875, 
                        3.25
                    ], 
                    "texture": "#0"
                }, 
                "up": {
                    "rotation": 270, 
                    "uv": [
                        2.875, 
                        3, 
                        2.875, 
                        3.25
                    ], 
                    "texture": "#0"
                }, 
                "down": {
                    "rotation": 270, 
                    "uv": [
                        2.875, 
                        3, 
                        2.875, 
                        3.25
                    ], 
                    "texture": "#0"
                }, 
                "east": {
                    "rotation": 270, 
                    "uv": [
                        2.875, 
                        3, 
                        2.875, 
                        3.25
                    ], 
                    "texture": "#0"
                }, 
                "south": {
                    "rotation": 270, 
                    "uv": [
                        2.875, 
                        3, 
                        2.875, 
                        3.25
                    ], 
                    "texture": "#0"
                }
            }
        }, 
        {
            "to": [
                8.36606, 
                10.86648, 
                9.11918
            ], 
            "rotation": {
                "origin": [
                    8.00906, 
                    10.39315, 
                    9.95318
                ], 
                "angle": 0, 
                "axis": "y"
            }, 
            "from": [
                7.67806, 
                10.72248, 
                8.54718
            ], 
            "faces": {
                "north": {
                    "rotation": 270, 
                    "uv": [
                        2.875, 
                        3, 
                        2.875, 
                        3.25
                    ], 
                    "texture": "#0"
                }, 
                "west": {
                    "rotation": 270, 
                    "uv": [
                        2.875, 
                        3, 
                        2.875, 
                        3.25
                    ], 
                    "texture": "#0"
                }, 
                "up": {
                    "rotation": 270, 
                    "uv": [
                        2.875, 
                        3, 
                        2.875, 
                        3.25
                    ], 
                    "texture": "#0"
                }, 
                "down": {
                    "rotation": 270, 
                    "uv": [
                        2.875, 
                        3, 
                        2.875, 
                        3.25
                    ], 
                    "texture": "#0"
                }, 
                "east": {
                    "rotation": 270, 
                    "uv": [
                        2.875, 
                        3, 
                        2.875, 
                        3.25
                    ], 
                    "texture": "#0"
                }, 
                "south": {
                    "rotation": 270, 
                    "uv": [
                        2.875, 
                        3, 
                        2.875, 
                        3.25
                    ], 
                    "texture": "#0"
                }
            }
        }, 
        {
            "to": [
                8.36606, 
                11.45281, 
                9.09086
            ], 
            "rotation": {
                "origin": [
                    8.00906, 
                    10.97948, 
                    10.27686
                ], 
                "angle": -22.5, 
                "axis": "x"
            }, 
            "from": [
                7.67806, 
                11.30881, 
                8.83886
            ], 
            "faces": {
                "north": {
                    "rotation": 270, 
                    "uv": [
                        2.875, 
                        3, 
                        2.875, 
                        3.25
                    ], 
                    "texture": "#0"
                }, 
                "west": {
                    "rotation": 270, 
                    "uv": [
                        2.875, 
                        3, 
                        2.875, 
                        3.25
                    ], 
                    "texture": "#0"
                }, 
                "up": {
                    "rotation": 270, 
                    "uv": [
                        2.875, 
                        3, 
                        2.875, 
                        3.25
                    ], 
                    "texture": "#0"
                }, 
                "down": {
                    "rotation": 270, 
                    "uv": [
                        2.875, 
                        3, 
                        2.875, 
                        3.25
                    ], 
                    "texture": "#0"
                }, 
                "east": {
                    "rotation": 270, 
                    "uv": [
                        2.875, 
                        3, 
                        2.875, 
                        3.25
                    ], 
                    "texture": "#0"
                }, 
                "south": {
                    "rotation": 270, 
                    "uv": [
                        2.875, 
                        3, 
                        2.875, 
                        3.25
                    ], 
                    "texture": "#0"
                }
            }
        }, 
        {
            "to": [
                7.79096, 
                11.50822, 
                7.748
            ], 
            "rotation": {
                "origin": [
                    7.78296, 
                    11.67622, 
                    7.606
                ], 
                "angle": -22.5, 
                "axis": "z"
            }, 
            "from": [
                7.74296, 
                11.26822, 
                7.464
            ], 
            "faces": {
                "north": {
                    "rotation": 180, 
                    "uv": [
                        2.875, 
                        3, 
                        2.875, 
                        3.25
                    ], 
                    "texture": "#0"
                }, 
                "west": {
                    "uv": [
                        2.875, 
                        3, 
                        2.875, 
                        3.25
                    ], 
                    "texture": "#0"
                }, 
                "up": {
                    "uv": [
                        2.875, 
                        3, 
                        2.875, 
                        3.25
                    ], 
                    "texture": "#0"
                }, 
                "down": {
                    "uv": [
                        2.875, 
                        3, 
                        2.875, 
                        3.25
                    ], 
                    "texture": "#0"
                }, 
                "east": {
                    "uv": [
                        2.875, 
                        3, 
                        2.875, 
                        3.25
                    ], 
                    "texture": "#0"
                }, 
                "south": {
                    "uv": [
                        2.875, 
                        3, 
                        2.875, 
                        3.25
                    ], 
                    "texture": "#0"
                }
            }
        }, 
        {
            "to": [
                8.49317, 
                11.13284, 
                7.748
            ], 
            "rotation": {
                "origin": [
                    8.32866, 
                    11.19458, 
                    7.606
                ], 
                "angle": -22.5, 
                "axis": "z"
            }, 
            "from": [
                8.44517, 
                10.89284, 
                7.464
            ], 
            "faces": {
                "north": {
                    "uv": [
                        2.875, 
                        3, 
                        2.875, 
                        3.25
                    ], 
                    "texture": "#0"
                }, 
                "west": {
                    "rotation": 180, 
                    "uv": [
                        2.875, 
                        3, 
                        2.875, 
                        3.25
                    ], 
                    "texture": "#0"
                }, 
                "up": {
                    "rotation": 180, 
                    "uv": [
                        2.875, 
                        3, 
                        2.875, 
                        3.25
                    ], 
                    "texture": "#0"
                }, 
                "down": {
                    "rotation": 180, 
                    "uv": [
                        2.875, 
                        3, 
                        2.875, 
                        3.25
                    ], 
                    "texture": "#0"
                }, 
                "east": {
                    "rotation": 180, 
                    "uv": [
                        2.875, 
                        3, 
                        2.875, 
                        3.25
                    ], 
                    "texture": "#0"
                }, 
                "south": {
                    "rotation": 180, 
                    "uv": [
                        2.875, 
                        3, 
                        2.875, 
                        3.25
                    ], 
                    "texture": "#0"
                }
            }
        }, 
        {
            "to": [
                7.64418, 
                11.1063, 
                7.748
            ], 
            "rotation": {
                "origin": [
                    7.67275, 
                    11.07458, 
                    7.606
                ], 
                "angle": 22.5, 
                "axis": "z"
            }, 
            "from": [
                7.59618, 
                10.8663, 
                7.464
            ], 
            "faces": {
                "north": {
                    "rotation": 180, 
                    "uv": [
                        2.875, 
                        3, 
                        2.875, 
                        3.25
                    ], 
                    "texture": "#0"
                }, 
                "west": {
                    "uv": [
                        2.875, 
                        3, 
                        2.875, 
                        3.25
                    ], 
                    "texture": "#0"
                }, 
                "up": {
                    "uv": [
                        2.875, 
                        3, 
                        2.875, 
                        3.25
                    ], 
                    "texture": "#0"
                }, 
                "down": {
                    "uv": [
                        2.875, 
                        3, 
                        2.875, 
                        3.25
                    ], 
                    "texture": "#0"
                }, 
                "east": {
                    "uv": [
                        2.875, 
                        3, 
                        2.875, 
                        3.25
                    ], 
                    "texture": "#0"
                }, 
                "south": {
                    "uv": [
                        2.875, 
                        3, 
                        2.875, 
                        3.25
                    ], 
                    "texture": "#0"
                }
            }
        }, 
        {
            "to": [
                8.49317, 
                11.49633, 
                7.748
            ], 
            "rotation": {
                "origin": [
                    8.32866, 
                    11.19458, 
                    7.606
                ], 
                "angle": 22.5, 
                "axis": "z"
            }, 
            "from": [
                8.44517, 
                11.25633, 
                7.464
            ], 
            "faces": {
                "north": {
                    "uv": [
                        2.875, 
                        3, 
                        2.875, 
                        3.25
                    ], 
                    "texture": "#0"
                }, 
                "west": {
                    "rotation": 180, 
                    "uv": [
                        2.875, 
                        3, 
                        2.875, 
                        3.25
                    ], 
                    "texture": "#0"
                }, 
                "up": {
                    "rotation": 180, 
                    "uv": [
                        2.875, 
                        3, 
                        2.875, 
                        3.25
                    ], 
                    "texture": "#0"
                }, 
                "down": {
                    "rotation": 180, 
                    "uv": [
                        2.875, 
                        3, 
                        2.875, 
                        3.25
                    ], 
                    "texture": "#0"
                }, 
                "east": {
                    "rotation": 180, 
                    "uv": [
                        2.875, 
                        3, 
                        2.875, 
                        3.25
                    ], 
                    "texture": "#0"
                }, 
                "south": {
                    "rotation": 180, 
                    "uv": [
                        2.875, 
                        3, 
                        2.875, 
                        3.25
                    ], 
                    "texture": "#0"
                }
            }
        }, 
        {
            "to": [
                8.33406, 
                10.75492, 
                9.412
            ], 
            "rotation": {
                "origin": [
                    8.00906, 
                    10.90559, 
                    8.87
                ], 
                "angle": 0, 
                "axis": "y"
            }, 
            "from": [
                7.71006, 
                10.56292, 
                7.4
            ], 
            "faces": {
                "north": {
                    "rotation": 270, 
                    "uv": [
                        1.625, 
                        0.875, 
                        1.625, 
                        0.875
                    ], 
                    "texture": "#0"
                }, 
                "west": {
                    "rotation": 270, 
                    "uv": [
                        1.625, 
                        0.875, 
                        1.625, 
                        0.875
                    ], 
                    "texture": "#0"
                }, 
                "up": {
                    "rotation": 270, 
                    "uv": [
                        1.625, 
                        0.875, 
                        1.625, 
                        0.875
                    ], 
                    "texture": "#0"
                }, 
                "down": {
                    "rotation": 270, 
                    "uv": [
                        1.625, 
                        0.875, 
                        1.625, 
                        0.875
                    ], 
                    "texture": "#0"
                }, 
                "east": {
                    "rotation": 270, 
                    "uv": [
                        1.625, 
                        0.875, 
                        1.625, 
                        0.875
                    ], 
                    "texture": "#0"
                }, 
                "south": {
                    "rotation": 270, 
                    "uv": [
                        1.625, 
                        0.875, 
                        1.625, 
                        0.875
                    ], 
                    "texture": "#0"
                }
            }
        }
    ], 
    "display": {
        "thirdperson_righthand": {
            "rotation": [
                0, 
                0, 
                1
            ], 
            "scale": [
                1.14, 
                1, 
                1
            ], 
            "translation": [
                -1.5, 
                0, 
                0.5
            ]
        }, 
        "head": {
            "rotation": [
                0, 
                125, 
                90
            ], 
            "scale": [
                1.64, 
                1.58, 
                1.61
            ], 
            "translation": [
                0, 
                6.5, 
                0
            ]
        }, 
        "thirdperson_lefthand": {
            "rotation": [
                0, 
                0, 
                1
            ], 
            "scale": [
                1.14, 
                1, 
                1
            ], 
            "translation": [
                -1.5, 
                0, 
                0.5
            ]
        }, 
        "gui": {
            "rotation": [
                23, 
                38, 
                -16
            ], 
            "scale": [
                1.25, 
                1.39, 
                1.22
            ], 
            "translation": [
                -0.75, 
                0.75, 
                0
            ]
        }, 
        "firstperson_righthand": {
            "translation": [
                -5.25, 
                3.5, 
                2.75
            ]
        }, 
        "firstperson_lefthand": {
            "translation": [
                -5.25, 
                3.5, 
                2.75
            ]
        }, 
        "fixed": {
            "rotation": [
                0, 
                90, 
                0
            ], 
            "scale": [
                1.22, 
                1.22, 
                1.19
            ], 
            "translation": [
                -0.5, 
                0, 
                -0.75
            ]
        }
    }
}