{
    "textures": {
        "1": "gci:items/common/mpz", 
        "0": "gci:items/common/all_in_one", 
        "2": "gci:items/common/mpz", 
        "particle": "gci:items/common/all_in_one"
    }, 
    "elements": [
        {
            "to": [
                8.34205, 
                10.02834, 
                12.21158
            ], 
            "rotation": {
                "origin": [
                    7.73308, 
                    9.76243, 
                    -18.27482
                ], 
                "angle": 0, 
                "axis": "y"
            }, 
            "from": [
                7.66749, 
                8.69778, 
                11.38662
            ], 
            "faces": {
                "north": {
                    "rotation": 270, 
                    "uv": [
                        1.25, 
                        1.125, 
                        1.375, 
                        1.125
                    ], 
                    "texture": "#0"
                }, 
                "west": {
                    "rotation": 270, 
                    "uv": [
                        1.25, 
                        1.125, 
                        1.375, 
                        1.125
                    ], 
                    "texture": "#0"
                }, 
                "up": {
                    "rotation": 270, 
                    "uv": [
                        1.25, 
                        1.125, 
                        1.375, 
                        1.125
                    ], 
                    "texture": "#0"
                }, 
                "down": {
                    "rotation": 270, 
                    "uv": [
                        1.25, 
                        1.125, 
                        1.375, 
                        1.125
                    ], 
                    "texture": "#0"
                }, 
                "east": {
                    "rotation": 270, 
                    "uv": [
                        1.25, 
                        1.125, 
                        1.375, 
                        1.125
                    ], 
                    "texture": "#0"
                }, 
                "south": {
                    "rotation": 270, 
                    "uv": [
                        1.25, 
                        1.125, 
                        1.375, 
                        1.125
                    ], 
                    "texture": "#0"
                }
            }
        }, 
        {
            "to": [
                8.31389, 
                10.10002, 
                12.64166
            ], 
            "rotation": {
                "origin": [
                    7.69724, 
                    9.76243, 
                    -18.27482
                ], 
                "angle": 0, 
                "axis": "y"
            }, 
            "from": [
                7.69565, 
                8.6261, 
                12.14438
            ], 
            "faces": {
                "north": {
                    "rotation": 270, 
                    "uv": [
                        4.375, 
                        3.625, 
                        4.375, 
                        3.625
                    ], 
                    "texture": "#0"
                }, 
                "west": {
                    "rotation": 270, 
                    "uv": [
                        4.375, 
                        3.625, 
                        4.375, 
                        3.625
                    ], 
                    "texture": "#0"
                }, 
                "up": {
                    "rotation": 270, 
                    "uv": [
                        4.375, 
                        3.625, 
                        4.375, 
                        3.625
                    ], 
                    "texture": "#0"
                }, 
                "down": {
                    "rotation": 270, 
                    "uv": [
                        4.375, 
                        3.625, 
                        4.375, 
                        3.625
                    ], 
                    "texture": "#0"
                }, 
                "east": {
                    "rotation": 270, 
                    "uv": [
                        4.375, 
                        3.625, 
                        4.375, 
                        3.625
                    ], 
                    "texture": "#0"
                }, 
                "south": {
                    "rotation": 270, 
                    "uv": [
                        4.375, 
                        3.625, 
                        4.375, 
                        3.625
                    ], 
                    "texture": "#0"
                }
            }
        }, 
        {
            "to": [
                8.13469, 
                10.1717, 
                12.64166
            ], 
            "rotation": {
                "origin": [
                    7.69724, 
                    9.76243, 
                    -18.27482
                ], 
                "angle": 0, 
                "axis": "y"
            }, 
            "from": [
                7.87485, 
                8.55442, 
                12.14438
            ], 
            "faces": {
                "north": {
                    "rotation": 270, 
                    "uv": [
                        4.375, 
                        3.625, 
                        4.375, 
                        3.625
                    ], 
                    "texture": "#0"
                }, 
                "west": {
                    "rotation": 270, 
                    "uv": [
                        4.375, 
                        3.625, 
                        4.375, 
                        3.625
                    ], 
                    "texture": "#0"
                }, 
                "up": {
                    "rotation": 270, 
                    "uv": [
                        4.375, 
                        3.625, 
                        4.375, 
                        3.625
                    ], 
                    "texture": "#0"
                }, 
                "down": {
                    "rotation": 270, 
                    "uv": [
                        4.375, 
                        3.625, 
                        4.375, 
                        3.625
                    ], 
                    "texture": "#0"
                }, 
                "east": {
                    "rotation": 270, 
                    "uv": [
                        4.375, 
                        3.625, 
                        4.375, 
                        3.625
                    ], 
                    "texture": "#0"
                }, 
                "south": {
                    "rotation": 270, 
                    "uv": [
                        4.375, 
                        3.625, 
                        4.375, 
                        3.625
                    ], 
                    "texture": "#0"
                }
            }
        }, 
        {
            "to": [
                8.10467, 
                10.40129, 
                18.46936
            ], 
            "rotation": {
                "origin": [
                    7.72771, 
                    9.99202, 
                    -12.59048
                ], 
                "angle": 0, 
                "axis": "y"
            }, 
            "from": [
                7.90531, 
                8.78401, 
                17.82872
            ], 
            "faces": {
                "north": {
                    "rotation": 270, 
                    "uv": [
                        4.25, 
                        2.125, 
                        4.25, 
                        2.125
                    ], 
                    "texture": "#0"
                }, 
                "west": {
                    "rotation": 270, 
                    "uv": [
                        4.25, 
                        2.125, 
                        4.25, 
                        2.125
                    ], 
                    "texture": "#0"
                }, 
                "up": {
                    "rotation": 270, 
                    "uv": [
                        4.25, 
                        2.125, 
                        4.25, 
                        2.125
                    ], 
                    "texture": "#0"
                }, 
                "down": {
                    "rotation": 270, 
                    "uv": [
                        4.25, 
                        2.125, 
                        4.25, 
                        2.125
                    ], 
                    "texture": "#0"
                }, 
                "east": {
                    "rotation": 270, 
                    "uv": [
                        4.25, 
                        2.125, 
                        4.25, 
                        2.125
                    ], 
                    "texture": "#0"
                }, 
                "south": {
                    "rotation": 270, 
                    "uv": [
                        4.25, 
                        2.125, 
                        4.25, 
                        2.125
                    ], 
                    "texture": "#0"
                }
            }
        }, 
        {
            "to": [
                8.10467, 
                10.13025, 
                18.6844
            ], 
            "rotation": {
                "origin": [
                    8.00499, 
                    10.03057, 
                    18.39992
                ], 
                "angle": -45, 
                "axis": "z"
            }, 
            "from": [
                7.90531, 
                9.93089, 
                18.0796
            ], 
            "faces": {
                "north": {
                    "rotation": 270, 
                    "uv": [
                        13.875, 
                        4.75, 
                        13.875, 
                        5
                    ], 
                    "texture": "#0"
                }, 
                "west": {
                    "rotation": 270, 
                    "uv": [
                        13.875, 
                        4.75, 
                        13.875, 
                        5
                    ], 
                    "texture": "#0"
                }, 
                "up": {
                    "rotation": 270, 
                    "uv": [
                        13.875, 
                        4.75, 
                        13.875, 
                        5
                    ], 
                    "texture": "#0"
                }, 
                "down": {
                    "rotation": 270, 
                    "uv": [
                        13.875, 
                        4.75, 
                        13.875, 
                        5
                    ], 
                    "texture": "#0"
                }, 
                "east": {
                    "rotation": 270, 
                    "uv": [
                        13.875, 
                        4.75, 
                        13.875, 
                        5
                    ], 
                    "texture": "#0"
                }, 
                "south": {
                    "rotation": 270, 
                    "uv": [
                        13.875, 
                        4.75, 
                        13.875, 
                        5
                    ], 
                    "texture": "#0"
                }
            }
        }, 
        {
            "to": [
                8.10467, 
                7.47809, 
                18.6844
            ], 
            "rotation": {
                "origin": [
                    8.00499, 
                    7.37841, 
                    18.39992
                ], 
                "angle": -45, 
                "axis": "z"
            }, 
            "from": [
                7.90531, 
                7.27873, 
                18.18712
            ], 
            "faces": {
                "north": {
                    "rotation": 270, 
                    "uv": [
                        13.875, 
                        4.75, 
                        13.875, 
                        5
                    ], 
                    "texture": "#0"
                }, 
                "west": {
                    "rotation": 270, 
                    "uv": [
                        13.875, 
                        4.75, 
                        13.875, 
                        5
                    ], 
                    "texture": "#0"
                }, 
                "up": {
                    "rotation": 270, 
                    "uv": [
                        13.875, 
                        4.75, 
                        13.875, 
                        5
                    ], 
                    "texture": "#0"
                }, 
                "down": {
                    "rotation": 270, 
                    "uv": [
                        13.875, 
                        4.75, 
                        13.875, 
                        5
                    ], 
                    "texture": "#0"
                }, 
                "east": {
                    "rotation": 270, 
                    "uv": [
                        13.875, 
                        4.75, 
                        13.875, 
                        5
                    ], 
                    "texture": "#0"
                }, 
                "south": {
                    "rotation": 270, 
                    "uv": [
                        13.875, 
                        4.75, 
                        13.875, 
                        5
                    ], 
                    "texture": "#0"
                }
            }
        }, 
        {
            "to": [
                8.0035, 
                10.18354, 
                12.64166
            ], 
            "rotation": {
                "origin": [
                    7.94526, 
                    9.3749, 
                    12.39302
                ], 
                "angle": -22.5, 
                "axis": "z"
            }, 
            "from": [
                7.81534, 
                9.17554, 
                12.14438
            ], 
            "faces": {
                "north": {
                    "rotation": 270, 
                    "uv": [
                        4.375, 
                        3.625, 
                        4.375, 
                        3.625
                    ], 
                    "texture": "#0"
                }, 
                "west": {
                    "rotation": 270, 
                    "uv": [
                        4.375, 
                        3.625, 
                        4.375, 
                        3.625
                    ], 
                    "texture": "#0"
                }, 
                "up": {
                    "rotation": 270, 
                    "uv": [
                        4.375, 
                        3.625, 
                        4.375, 
                        3.625
                    ], 
                    "texture": "#0"
                }, 
                "down": {
                    "rotation": 270, 
                    "uv": [
                        4.375, 
                        3.625, 
                        4.375, 
                        3.625
                    ], 
                    "texture": "#0"
                }, 
                "east": {
                    "rotation": 270, 
                    "uv": [
                        4.375, 
                        3.625, 
                        4.375, 
                        3.625
                    ], 
                    "texture": "#0"
                }, 
                "south": {
                    "rotation": 270, 
                    "uv": [
                        4.375, 
                        3.625, 
                        4.375, 
                        3.625
                    ], 
                    "texture": "#0"
                }
            }
        }, 
        {
            "to": [
                7.97303, 
                10.41313, 
                18.46936
            ], 
            "rotation": {
                "origin": [
                    7.91479, 
                    9.60449, 
                    18.07736
                ], 
                "angle": -22.5, 
                "axis": "z"
            }, 
            "from": [
                7.78487, 
                9.54849, 
                17.82872
            ], 
            "faces": {
                "north": {
                    "rotation": 270, 
                    "uv": [
                        4.25, 
                        2.125, 
                        4.25, 
                        2.125
                    ], 
                    "texture": "#0"
                }, 
                "west": {
                    "rotation": 270, 
                    "uv": [
                        4.25, 
                        2.125, 
                        4.25, 
                        2.125
                    ], 
                    "texture": "#0"
                }, 
                "up": {
                    "rotation": 270, 
                    "uv": [
                        4.25, 
                        2.125, 
                        4.25, 
                        2.125
                    ], 
                    "texture": "#0"
                }, 
                "down": {
                    "rotation": 270, 
                    "uv": [
                        4.25, 
                        2.125, 
                        4.25, 
                        2.125
                    ], 
                    "texture": "#0"
                }, 
                "east": {
                    "rotation": 270, 
                    "uv": [
                        4.25, 
                        2.125, 
                        4.25, 
                        2.125
                    ], 
                    "texture": "#0"
                }, 
                "south": {
                    "rotation": 270, 
                    "uv": [
                        4.25, 
                        2.125, 
                        4.25, 
                        2.125
                    ], 
                    "texture": "#0"
                }
            }
        }, 
        {
            "to": [
                8.07134, 
                9.55056, 
                12.64166
            ], 
            "rotation": {
                "origin": [
                    7.9994, 
                    9.05573, 
                    12.39302
                ], 
                "angle": -22.5, 
                "axis": "z"
            }, 
            "from": [
                7.88318, 
                8.54256, 
                12.14438
            ], 
            "faces": {
                "north": {
                    "rotation": 90, 
                    "uv": [
                        4.375, 
                        3.625, 
                        4.375, 
                        3.625
                    ], 
                    "texture": "#0"
                }, 
                "west": {
                    "rotation": 90, 
                    "uv": [
                        4.375, 
                        3.625, 
                        4.375, 
                        3.625
                    ], 
                    "texture": "#0"
                }, 
                "up": {
                    "rotation": 90, 
                    "uv": [
                        4.375, 
                        3.625, 
                        4.375, 
                        3.625
                    ], 
                    "texture": "#0"
                }, 
                "down": {
                    "rotation": 90, 
                    "uv": [
                        4.375, 
                        3.625, 
                        4.375, 
                        3.625
                    ], 
                    "texture": "#0"
                }, 
                "east": {
                    "rotation": 90, 
                    "uv": [
                        4.375, 
                        3.625, 
                        4.375, 
                        3.625
                    ], 
                    "texture": "#0"
                }, 
                "south": {
                    "rotation": 90, 
                    "uv": [
                        4.375, 
                        3.625, 
                        4.375, 
                        3.625
                    ], 
                    "texture": "#0"
                }
            }
        }, 
        {
            "to": [
                8.18874, 
                10.21097, 
                12.64166
            ], 
            "rotation": {
                "origin": [
                    8.1305, 
                    9.40233, 
                    12.39302
                ], 
                "angle": 22.5, 
                "axis": "z"
            }, 
            "from": [
                8.00058, 
                9.20297, 
                12.14438
            ], 
            "faces": {
                "north": {
                    "rotation": 270, 
                    "uv": [
                        4.375, 
                        3.625, 
                        4.375, 
                        3.625
                    ], 
                    "texture": "#0"
                }, 
                "west": {
                    "rotation": 270, 
                    "uv": [
                        4.375, 
                        3.625, 
                        4.375, 
                        3.625
                    ], 
                    "texture": "#0"
                }, 
                "up": {
                    "rotation": 270, 
                    "uv": [
                        4.375, 
                        3.625, 
                        4.375, 
                        3.625
                    ], 
                    "texture": "#0"
                }, 
                "down": {
                    "rotation": 270, 
                    "uv": [
                        4.375, 
                        3.625, 
                        4.375, 
                        3.625
                    ], 
                    "texture": "#0"
                }, 
                "east": {
                    "rotation": 270, 
                    "uv": [
                        4.375, 
                        3.625, 
                        4.375, 
                        3.625
                    ], 
                    "texture": "#0"
                }, 
                "south": {
                    "rotation": 270, 
                    "uv": [
                        4.375, 
                        3.625, 
                        4.375, 
                        3.625
                    ], 
                    "texture": "#0"
                }
            }
        }, 
        {
            "to": [
                8.21921, 
                10.44056, 
                18.46936
            ], 
            "rotation": {
                "origin": [
                    8.16097, 
                    9.63192, 
                    18.07736
                ], 
                "angle": 22.5, 
                "axis": "z"
            }, 
            "from": [
                8.03105, 
                9.54008, 
                17.82872
            ], 
            "faces": {
                "north": {
                    "rotation": 270, 
                    "uv": [
                        4.25, 
                        2.125, 
                        4.25, 
                        2.125
                    ], 
                    "texture": "#0"
                }, 
                "west": {
                    "rotation": 270, 
                    "uv": [
                        4.25, 
                        2.125, 
                        4.25, 
                        2.125
                    ], 
                    "texture": "#0"
                }, 
                "up": {
                    "rotation": 270, 
                    "uv": [
                        4.25, 
                        2.125, 
                        4.25, 
                        2.125
                    ], 
                    "texture": "#0"
                }, 
                "down": {
                    "rotation": 270, 
                    "uv": [
                        4.25, 
                        2.125, 
                        4.25, 
                        2.125
                    ], 
                    "texture": "#0"
                }, 
                "east": {
                    "rotation": 270, 
                    "uv": [
                        4.25, 
                        2.125, 
                        4.25, 
                        2.125
                    ], 
                    "texture": "#0"
                }, 
                "south": {
                    "rotation": 270, 
                    "uv": [
                        4.25, 
                        2.125, 
                        4.25, 
                        2.125
                    ], 
                    "texture": "#0"
                }
            }
        }, 
        {
            "to": [
                8.11562, 
                9.55056, 
                12.64166
            ], 
            "rotation": {
                "origin": [
                    7.9994, 
                    9.05573, 
                    12.39302
                ], 
                "angle": 22.5, 
                "axis": "z"
            }, 
            "from": [
                7.92746, 
                8.54256, 
                12.14438
            ], 
            "faces": {
                "north": {
                    "rotation": 90, 
                    "uv": [
                        4.375, 
                        3.625, 
                        4.375, 
                        3.625
                    ], 
                    "texture": "#0"
                }, 
                "west": {
                    "rotation": 90, 
                    "uv": [
                        4.375, 
                        3.625, 
                        4.375, 
                        3.625
                    ], 
                    "texture": "#0"
                }, 
                "up": {
                    "rotation": 90, 
                    "uv": [
                        4.375, 
                        3.625, 
                        4.375, 
                        3.625
                    ], 
                    "texture": "#0"
                }, 
                "down": {
                    "rotation": 90, 
                    "uv": [
                        4.375, 
                        3.625, 
                        4.375, 
                        3.625
                    ], 
                    "texture": "#0"
                }, 
                "east": {
                    "rotation": 90, 
                    "uv": [
                        4.375, 
                        3.625, 
                        4.375, 
                        3.625
                    ], 
                    "texture": "#0"
                }, 
                "south": {
                    "rotation": 90, 
                    "uv": [
                        4.375, 
                        3.625, 
                        4.375, 
                        3.625
                    ], 
                    "texture": "#0"
                }
            }
        }, 
        {
            "to": [
                8.20637, 
                10.02834, 
                18.4119
            ], 
            "rotation": {
                "origin": [
                    7.69724, 
                    9.76243, 
                    -17.19962
                ], 
                "angle": 0, 
                "axis": "y"
            }, 
            "from": [
                7.80317, 
                9.7013, 
                12.64614
            ], 
            "faces": {
                "north": {
                    "rotation": 270, 
                    "uv": [
                        4.25, 
                        3.5, 
                        4.25, 
                        3.5
                    ], 
                    "texture": "#0"
                }, 
                "west": {
                    "rotation": 270, 
                    "uv": [
                        4.25, 
                        3.5, 
                        4.25, 
                        3.5
                    ], 
                    "texture": "#0"
                }, 
                "up": {
                    "rotation": 270, 
                    "uv": [
                        4.25, 
                        3.5, 
                        4.25, 
                        3.5
                    ], 
                    "texture": "#0"
                }, 
                "down": {
                    "rotation": 270, 
                    "uv": [
                        4.25, 
                        3.5, 
                        4.25, 
                        3.5
                    ], 
                    "texture": "#0"
                }, 
                "east": {
                    "rotation": 270, 
                    "uv": [
                        4.25, 
                        3.5, 
                        4.25, 
                        3.5
                    ], 
                    "texture": "#0"
                }, 
                "south": {
                    "rotation": 270, 
                    "uv": [
                        4.25, 
                        3.5, 
                        4.25, 
                        3.5
                    ], 
                    "texture": "#0"
                }
            }
        }, 
        {
            "to": [
                8.27805, 
                10.32928, 
                18.5052
            ], 
            "rotation": {
                "origin": [
                    7.69724, 
                    9.77665, 
                    -17.21384
                ], 
                "angle": 0, 
                "axis": "y"
            }, 
            "from": [
                7.73149, 
                7.67264, 
                17.82872
            ], 
            "faces": {
                "north": {
                    "rotation": 270, 
                    "uv": [
                        4.25, 
                        2.125, 
                        4.25, 
                        2.125
                    ], 
                    "texture": "#0"
                }, 
                "west": {
                    "rotation": 270, 
                    "uv": [
                        4.25, 
                        2.125, 
                        4.25, 
                        2.125
                    ], 
                    "texture": "#0"
                }, 
                "up": {
                    "rotation": 270, 
                    "uv": [
                        4.25, 
                        2.125, 
                        4.25, 
                        2.125
                    ], 
                    "texture": "#0"
                }, 
                "down": {
                    "rotation": 270, 
                    "uv": [
                        4.25, 
                        2.125, 
                        4.25, 
                        2.125
                    ], 
                    "texture": "#0"
                }, 
                "east": {
                    "rotation": 270, 
                    "uv": [
                        4.25, 
                        2.125, 
                        4.25, 
                        2.125
                    ], 
                    "texture": "#0"
                }, 
                "south": {
                    "rotation": 270, 
                    "uv": [
                        4.25, 
                        2.125, 
                        4.25, 
                        2.125
                    ], 
                    "texture": "#0"
                }
            }
        }, 
        {
            "to": [
                8.13469, 
                10.04256, 
                18.5052
            ], 
            "rotation": {
                "origin": [
                    7.69724, 
                    9.77665, 
                    -17.21384
                ], 
                "angle": 0, 
                "axis": "y"
            }, 
            "from": [
                7.91069, 
                7.6368, 
                17.57784
            ], 
            "faces": {
                "north": {
                    "rotation": 270, 
                    "uv": [
                        4.25, 
                        2.125, 
                        4.25, 
                        2.125
                    ], 
                    "texture": "#0"
                }, 
                "west": {
                    "rotation": 270, 
                    "uv": [
                        4.25, 
                        2.125, 
                        4.25, 
                        2.125
                    ], 
                    "texture": "#0"
                }, 
                "up": {
                    "rotation": 270, 
                    "uv": [
                        4.25, 
                        2.125, 
                        4.25, 
                        2.125
                    ], 
                    "texture": "#0"
                }, 
                "down": {
                    "rotation": 270, 
                    "uv": [
                        4.25, 
                        2.125, 
                        4.25, 
                        2.125
                    ], 
                    "texture": "#0"
                }, 
                "east": {
                    "rotation": 270, 
                    "uv": [
                        4.25, 
                        2.125, 
                        4.25, 
                        2.125
                    ], 
                    "texture": "#0"
                }, 
                "south": {
                    "rotation": 270, 
                    "uv": [
                        4.25, 
                        2.125, 
                        4.25, 
                        2.125
                    ], 
                    "texture": "#0"
                }
            }
        }, 
        {
            "to": [
                8.13469, 
                11.02894, 
                17.91627
            ], 
            "rotation": {
                "origin": [
                    8.02269, 
                    10.56526, 
                    18.75627
                ], 
                "angle": -45, 
                "axis": "x"
            }, 
            "from": [
                7.91069, 
                10.10158, 
                17.55339
            ], 
            "faces": {
                "north": {
                    "uv": [
                        4.25, 
                        2.125, 
                        4.25, 
                        2.125
                    ], 
                    "texture": "#0"
                }, 
                "west": {
                    "uv": [
                        4.25, 
                        2.125, 
                        4.25, 
                        2.125
                    ], 
                    "texture": "#0"
                }, 
                "up": {
                    "uv": [
                        4.25, 
                        2.125, 
                        4.25, 
                        2.125
                    ], 
                    "texture": "#0"
                }, 
                "down": {
                    "uv": [
                        4.25, 
                        2.125, 
                        4.25, 
                        2.125
                    ], 
                    "texture": "#0"
                }, 
                "east": {
                    "uv": [
                        4.25, 
                        2.125, 
                        4.25, 
                        2.125
                    ], 
                    "texture": "#0"
                }, 
                "south": {
                    "uv": [
                        4.25, 
                        2.125, 
                        4.25, 
                        2.125
                    ], 
                    "texture": "#0"
                }
            }
        }, 
        {
            "to": [
                8.27805, 
                10.27922, 
                18.51942
            ], 
            "rotation": {
                "origin": [
                    7.69724, 
                    9.76243, 
                    -17.19962
                ], 
                "angle": 0, 
                "axis": "y"
            }, 
            "from": [
                7.73149, 
                7.08498, 
                18.12966
            ], 
            "faces": {
                "north": {
                    "rotation": 270, 
                    "uv": [
                        4.25, 
                        2.125, 
                        4.25, 
                        2.125
                    ], 
                    "texture": "#0"
                }, 
                "west": {
                    "rotation": 270, 
                    "uv": [
                        4.25, 
                        2.125, 
                        4.25, 
                        2.125
                    ], 
                    "texture": "#0"
                }, 
                "up": {
                    "rotation": 270, 
                    "uv": [
                        4.25, 
                        2.125, 
                        4.25, 
                        2.125
                    ], 
                    "texture": "#0"
                }, 
                "down": {
                    "rotation": 270, 
                    "uv": [
                        4.25, 
                        2.125, 
                        4.25, 
                        2.125
                    ], 
                    "texture": "#0"
                }, 
                "east": {
                    "rotation": 270, 
                    "uv": [
                        4.25, 
                        2.125, 
                        4.25, 
                        2.125
                    ], 
                    "texture": "#0"
                }, 
                "south": {
                    "rotation": 270, 
                    "uv": [
                        4.25, 
                        2.125, 
                        4.25, 
                        2.125
                    ], 
                    "texture": "#0"
                }
            }
        }, 
        {
            "to": [
                8.31389, 
                10.42258, 
                18.66278
            ], 
            "rotation": {
                "origin": [
                    7.69724, 
                    9.76243, 
                    -17.05626
                ], 
                "angle": 0, 
                "axis": "y"
            }, 
            "from": [
                7.69565, 
                7.0133, 
                18.41638
            ], 
            "faces": {
                "north": {
                    "rotation": 270, 
                    "uv": [
                        3, 
                        2.875, 
                        3, 
                        3.125
                    ], 
                    "texture": "#0"
                }, 
                "west": {
                    "rotation": 270, 
                    "uv": [
                        3, 
                        2.875, 
                        3, 
                        3.125
                    ], 
                    "texture": "#0"
                }, 
                "up": {
                    "rotation": 270, 
                    "uv": [
                        3, 
                        2.875, 
                        3, 
                        3.125
                    ], 
                    "texture": "#0"
                }, 
                "down": {
                    "rotation": 270, 
                    "uv": [
                        3, 
                        2.875, 
                        3, 
                        3.125
                    ], 
                    "texture": "#0"
                }, 
                "east": {
                    "rotation": 270, 
                    "uv": [
                        3, 
                        2.875, 
                        3, 
                        3.125
                    ], 
                    "texture": "#0"
                }, 
                "south": {
                    "rotation": 270, 
                    "uv": [
                        3, 
                        2.875, 
                        3, 
                        3.125
                    ], 
                    "texture": "#0"
                }
            }
        }, 
        {
            "to": [
                8.27805, 
                7.78864, 
                18.30237
            ], 
            "rotation": {
                "origin": [
                    8.00477, 
                    7.62512, 
                    18.10749
                ], 
                "angle": 45, 
                "axis": "x"
            }, 
            "from": [
                7.73149, 
                7.4616, 
                17.87677
            ], 
            "faces": {
                "north": {
                    "rotation": 270, 
                    "uv": [
                        4.25, 
                        2.125, 
                        4.25, 
                        2.125
                    ], 
                    "texture": "#0"
                }, 
                "west": {
                    "rotation": 270, 
                    "uv": [
                        4.25, 
                        2.125, 
                        4.25, 
                        2.125
                    ], 
                    "texture": "#0"
                }, 
                "up": {
                    "rotation": 270, 
                    "uv": [
                        4.25, 
                        2.125, 
                        4.25, 
                        2.125
                    ], 
                    "texture": "#0"
                }, 
                "down": {
                    "rotation": 270, 
                    "uv": [
                        4.25, 
                        2.125, 
                        4.25, 
                        2.125
                    ], 
                    "texture": "#0"
                }, 
                "east": {
                    "rotation": 270, 
                    "uv": [
                        4.25, 
                        2.125, 
                        4.25, 
                        2.125
                    ], 
                    "texture": "#0"
                }, 
                "south": {
                    "rotation": 270, 
                    "uv": [
                        4.25, 
                        2.125, 
                        4.25, 
                        2.125
                    ], 
                    "texture": "#0"
                }
            }
        }, 
        {
            "to": [
                8.13469, 
                7.7528, 
                18.40989
            ], 
            "rotation": {
                "origin": [
                    8.18397, 
                    7.58928, 
                    17.85661
                ], 
                "angle": 45, 
                "axis": "x"
            }, 
            "from": [
                7.91069, 
                7.42576, 
                17.62589
            ], 
            "faces": {
                "north": {
                    "rotation": 270, 
                    "uv": [
                        4.25, 
                        2.125, 
                        4.25, 
                        2.125
                    ], 
                    "texture": "#0"
                }, 
                "west": {
                    "rotation": 270, 
                    "uv": [
                        4.25, 
                        2.125, 
                        4.25, 
                        2.125
                    ], 
                    "texture": "#0"
                }, 
                "up": {
                    "rotation": 270, 
                    "uv": [
                        4.25, 
                        2.125, 
                        4.25, 
                        2.125
                    ], 
                    "texture": "#0"
                }, 
                "down": {
                    "rotation": 270, 
                    "uv": [
                        4.25, 
                        2.125, 
                        4.25, 
                        2.125
                    ], 
                    "texture": "#0"
                }, 
                "east": {
                    "rotation": 270, 
                    "uv": [
                        4.25, 
                        2.125, 
                        4.25, 
                        2.125
                    ], 
                    "texture": "#0"
                }, 
                "south": {
                    "rotation": 270, 
                    "uv": [
                        4.25, 
                        2.125, 
                        4.25, 
                        2.125
                    ], 
                    "texture": "#0"
                }
            }
        }, 
        {
            "to": [
                8.20637, 
                9.06287, 
                15.27981
            ], 
            "rotation": {
                "origin": [
                    7.69724, 
                    8.79696, 
                    -18.53971
                ], 
                "angle": 0, 
                "axis": "y"
            }, 
            "from": [
                7.80317, 
                8.73583, 
                12.48877
            ], 
            "faces": {
                "north": {
                    "rotation": 270, 
                    "uv": [
                        4.25, 
                        3.5, 
                        4.25, 
                        3.5
                    ], 
                    "texture": "#0"
                }, 
                "west": {
                    "rotation": 270, 
                    "uv": [
                        4.25, 
                        3.5, 
                        4.25, 
                        3.5
                    ], 
                    "texture": "#0"
                }, 
                "up": {
                    "rotation": 270, 
                    "uv": [
                        4.25, 
                        3.5, 
                        4.25, 
                        3.5
                    ], 
                    "texture": "#0"
                }, 
                "down": {
                    "rotation": 270, 
                    "uv": [
                        4.25, 
                        3.5, 
                        4.25, 
                        3.5
                    ], 
                    "texture": "#0"
                }, 
                "east": {
                    "rotation": 270, 
                    "uv": [
                        4.25, 
                        3.5, 
                        4.25, 
                        3.5
                    ], 
                    "texture": "#0"
                }, 
                "south": {
                    "rotation": 270, 
                    "uv": [
                        4.25, 
                        3.5, 
                        4.25, 
                        3.5
                    ], 
                    "texture": "#0"
                }
            }
        }, 
        {
            "to": [
                8.20637, 
                8.79641, 
                18.48307
            ], 
            "rotation": {
                "origin": [
                    7.98685, 
                    8.70457, 
                    15.90483
                ], 
                "angle": 22.5, 
                "axis": "x"
            }, 
            "from": [
                7.80317, 
                8.46937, 
                15.19027
            ], 
            "faces": {
                "north": {
                    "rotation": 270, 
                    "uv": [
                        4.25, 
                        3.5, 
                        4.25, 
                        3.5
                    ], 
                    "texture": "#0"
                }, 
                "west": {
                    "rotation": 270, 
                    "uv": [
                        4.25, 
                        3.5, 
                        4.25, 
                        3.5
                    ], 
                    "texture": "#0"
                }, 
                "up": {
                    "rotation": 270, 
                    "uv": [
                        4.25, 
                        3.5, 
                        4.25, 
                        3.5
                    ], 
                    "texture": "#0"
                }, 
                "down": {
                    "rotation": 270, 
                    "uv": [
                        4.25, 
                        3.5, 
                        4.25, 
                        3.5
                    ], 
                    "texture": "#0"
                }, 
                "east": {
                    "rotation": 270, 
                    "uv": [
                        4.25, 
                        3.5, 
                        4.25, 
                        3.5
                    ], 
                    "texture": "#0"
                }, 
                "south": {
                    "rotation": 270, 
                    "uv": [
                        4.25, 
                        3.5, 
                        4.25, 
                        3.5
                    ], 
                    "texture": "#0"
                }
            }
        }
    ], 
    "display": {
        "thirdperson_righthand": {
            "rotation": [
                0, 
                0, 
                1
            ], 
            "scale": [
                1.14, 
                1, 
                1
            ], 
            "translation": [
                -1.5, 
                0, 
                0.5
            ]
        }, 
        "head": {
            "rotation": [
                0, 
                125, 
                90
            ], 
            "scale": [
                1.64, 
                1.58, 
                1.61
            ], 
            "translation": [
                0, 
                6.5, 
                0
            ]
        }, 
        "thirdperson_lefthand": {
            "rotation": [
                0, 
                0, 
                1
            ], 
            "scale": [
                1.14, 
                1, 
                1
            ], 
            "translation": [
                -1.5, 
                0, 
                0.5
            ]
        }, 
        "gui": {
            "rotation": [
                23, 
                38, 
                -16
            ], 
            "scale": [
                1.25, 
                1.39, 
                1.22
            ], 
            "translation": [
                -0.75, 
                0.75, 
                0
            ]
        }, 
        "firstperson_righthand": {
            "translation": [
                -5.25, 
                3.5, 
                2.75
            ]
        }, 
        "firstperson_lefthand": {
            "translation": [
                -5.25, 
                3.5, 
                2.75
            ]
        }, 
        "fixed": {
            "rotation": [
                0, 
                90, 
                0
            ], 
            "scale": [
                1.22, 
                1.22, 
                1.19
            ], 
            "translation": [
                -0.5, 
                0, 
                -0.75
            ]
        }
    }
}