{
    "textures": {
        "1": "gci:items/common/mpz2", 
        "0": "gci:items/common/all_in_one", 
        "2": "gci:items/common/mpz2", 
        "particle": "gci:items/common/all_in_one"
    }, 
    "elements": [
        {
            "to": [
                8.08647, 
                8.8189, 
                1.6401
            ], 
            "rotation": {
                "origin": [
                    8.05397, 
                    8.9314, 
                    0.5901
                ], 
                "angle": 0, 
                "axis": "y"
            }, 
            "from": [
                7.95397, 
                8.6189, 
                -2.6599
            ], 
            "faces": {
                "north": {
                    "rotation": 180, 
                    "uv": [
                        5.5, 
                        5.5, 
                        6.57, 
                        7.188
                    ], 
                    "texture": "#2"
                }, 
                "west": {
                    "rotation": 180, 
                    "uv": [
                        5.5, 
                        5.5, 
                        6.57, 
                        7.188
                    ], 
                    "texture": "#2"
                }, 
                "up": {
                    "rotation": 180, 
                    "uv": [
                        5.5, 
                        5.5, 
                        6.57, 
                        7.188
                    ], 
                    "texture": "#2"
                }, 
                "down": {
                    "rotation": 180, 
                    "uv": [
                        5.5, 
                        5.5, 
                        6.57, 
                        7.188
                    ], 
                    "texture": "#2"
                }, 
                "east": {
                    "rotation": 180, 
                    "uv": [
                        5.5, 
                        5.5, 
                        6.57, 
                        7.188
                    ], 
                    "texture": "#2"
                }, 
                "south": {
                    "rotation": 180, 
                    "uv": [
                        5.5, 
                        5.5, 
                        6.57, 
                        7.188
                    ], 
                    "texture": "#2"
                }
            }
        }, 
        {
            "to": [
                8.08647, 
                8.6189, 
                1.6401
            ], 
            "rotation": {
                "origin": [
                    8.05397, 
                    8.7314, 
                    0.5901
                ], 
                "angle": 0, 
                "axis": "y"
            }, 
            "from": [
                7.95397, 
                8.4189, 
                -0.4599
            ], 
            "faces": {
                "north": {
                    "rotation": 180, 
                    "uv": [
                        8.5, 
                        5, 
                        11.076, 
                        7.188
                    ], 
                    "texture": "#2"
                }, 
                "west": {
                    "rotation": 180, 
                    "uv": [
                        8.5, 
                        5, 
                        11.076, 
                        7.188
                    ], 
                    "texture": "#2"
                }, 
                "up": {
                    "rotation": 180, 
                    "uv": [
                        8.5, 
                        5, 
                        11.076, 
                        7.188
                    ], 
                    "texture": "#2"
                }, 
                "down": {
                    "rotation": 180, 
                    "uv": [
                        8.5, 
                        5, 
                        11.076, 
                        7.188
                    ], 
                    "texture": "#2"
                }, 
                "east": {
                    "rotation": 180, 
                    "uv": [
                        8.5, 
                        5, 
                        11.076, 
                        7.188
                    ], 
                    "texture": "#2"
                }, 
                "south": {
                    "rotation": 180, 
                    "uv": [
                        8.5, 
                        5, 
                        11.076, 
                        7.188
                    ], 
                    "texture": "#2"
                }
            }
        }, 
        {
            "to": [
                8.08647, 
                8.4189, 
                1.6401
            ], 
            "rotation": {
                "origin": [
                    8.05397, 
                    8.5314, 
                    0.5901
                ], 
                "angle": 0, 
                "axis": "y"
            }, 
            "from": [
                7.95397, 
                8.2189, 
                -2.6599
            ], 
            "faces": {
                "north": {
                    "rotation": 180, 
                    "uv": [
                        5.5, 
                        5.5, 
                        6.57, 
                        7.188
                    ], 
                    "texture": "#2"
                }, 
                "west": {
                    "rotation": 180, 
                    "uv": [
                        5.5, 
                        5.5, 
                        6.57, 
                        7.188
                    ], 
                    "texture": "#2"
                }, 
                "up": {
                    "rotation": 180, 
                    "uv": [
                        5.5, 
                        5.5, 
                        6.57, 
                        7.188
                    ], 
                    "texture": "#2"
                }, 
                "down": {
                    "rotation": 180, 
                    "uv": [
                        5.5, 
                        5.5, 
                        6.57, 
                        7.188
                    ], 
                    "texture": "#2"
                }, 
                "east": {
                    "rotation": 180, 
                    "uv": [
                        5.5, 
                        5.5, 
                        6.57, 
                        7.188
                    ], 
                    "texture": "#2"
                }, 
                "south": {
                    "rotation": 180, 
                    "uv": [
                        5.5, 
                        5.5, 
                        6.57, 
                        7.188
                    ], 
                    "texture": "#2"
                }
            }
        }, 
        {
            "to": [
                8.06897, 
                8.6189, 
                -0.4599
            ], 
            "rotation": {
                "origin": [
                    8.05397, 
                    8.7314, 
                    0.5901
                ], 
                "angle": 0, 
                "axis": "y"
            }, 
            "from": [
                7.96897, 
                8.4189, 
                -2.8599
            ], 
            "faces": {
                "north": {
                    "rotation": 180, 
                    "uv": [
                        0.5, 
                        4.5, 
                        3.076, 
                        6.688
                    ], 
                    "texture": "#2"
                }, 
                "west": {
                    "rotation": 180, 
                    "uv": [
                        0.5, 
                        4.5, 
                        3.076, 
                        6.688
                    ], 
                    "texture": "#2"
                }, 
                "up": {
                    "rotation": 180, 
                    "uv": [
                        0.5, 
                        4.5, 
                        3.076, 
                        6.688
                    ], 
                    "texture": "#2"
                }, 
                "down": {
                    "rotation": 180, 
                    "uv": [
                        0.5, 
                        4.5, 
                        3.076, 
                        6.688
                    ], 
                    "texture": "#2"
                }, 
                "east": {
                    "rotation": 180, 
                    "uv": [
                        0.5, 
                        4.5, 
                        3.076, 
                        6.688
                    ], 
                    "texture": "#2"
                }, 
                "south": {
                    "rotation": 180, 
                    "uv": [
                        0.5, 
                        4.5, 
                        3.076, 
                        6.688
                    ], 
                    "texture": "#2"
                }
            }
        }, 
        {
            "to": [
                8.08647, 
                8.71171, 
                -2.5988
            ], 
            "rotation": {
                "origin": [
                    8.02022, 
                    8.61171, 
                    -2.8988
                ], 
                "angle": -22.5, 
                "axis": "x"
            }, 
            "from": [
                7.95397, 
                8.51171, 
                -3.0988
            ], 
            "faces": {
                "north": {
                    "rotation": 180, 
                    "uv": [
                        5.5, 
                        5.5, 
                        6.57, 
                        7.188
                    ], 
                    "texture": "#2"
                }, 
                "west": {
                    "rotation": 180, 
                    "uv": [
                        5.5, 
                        5.5, 
                        6.57, 
                        7.188
                    ], 
                    "texture": "#2"
                }, 
                "up": {
                    "rotation": 180, 
                    "uv": [
                        5.5, 
                        5.5, 
                        6.57, 
                        7.188
                    ], 
                    "texture": "#2"
                }, 
                "down": {
                    "rotation": 180, 
                    "uv": [
                        5.5, 
                        5.5, 
                        6.57, 
                        7.188
                    ], 
                    "texture": "#2"
                }, 
                "east": {
                    "rotation": 180, 
                    "uv": [
                        5.5, 
                        5.5, 
                        6.57, 
                        7.188
                    ], 
                    "texture": "#2"
                }, 
                "south": {
                    "rotation": 180, 
                    "uv": [
                        5.5, 
                        5.5, 
                        6.57, 
                        7.188
                    ], 
                    "texture": "#2"
                }
            }
        }, 
        {
            "to": [
                8.08647, 
                8.52609, 
                -2.5988
            ], 
            "rotation": {
                "origin": [
                    8.02022, 
                    8.42609, 
                    -2.8988
                ], 
                "angle": 22.5, 
                "axis": "x"
            }, 
            "from": [
                7.95397, 
                8.32609, 
                -3.0988
            ], 
            "faces": {
                "north": {
                    "rotation": 180, 
                    "uv": [
                        5.5, 
                        5.5, 
                        6.57, 
                        7.188
                    ], 
                    "texture": "#2"
                }, 
                "west": {
                    "rotation": 180, 
                    "uv": [
                        5.5, 
                        5.5, 
                        6.57, 
                        7.188
                    ], 
                    "texture": "#2"
                }, 
                "up": {
                    "rotation": 180, 
                    "uv": [
                        5.5, 
                        5.5, 
                        6.57, 
                        7.188
                    ], 
                    "texture": "#2"
                }, 
                "down": {
                    "rotation": 180, 
                    "uv": [
                        5.5, 
                        5.5, 
                        6.57, 
                        7.188
                    ], 
                    "texture": "#2"
                }, 
                "east": {
                    "rotation": 180, 
                    "uv": [
                        5.5, 
                        5.5, 
                        6.57, 
                        7.188
                    ], 
                    "texture": "#2"
                }, 
                "south": {
                    "rotation": 180, 
                    "uv": [
                        5.5, 
                        5.5, 
                        6.57, 
                        7.188
                    ], 
                    "texture": "#2"
                }
            }
        }, 
        {
            "to": [
                8.08647, 
                8.4666, 
                -3.01043
            ], 
            "rotation": {
                "origin": [
                    8.02022, 
                    8.4126, 
                    -3.26043
                ], 
                "angle": -45, 
                "axis": "x"
            }, 
            "from": [
                7.95397, 
                8.3126, 
                -3.16443
            ], 
            "faces": {
                "north": {
                    "rotation": 180, 
                    "uv": [
                        5.5, 
                        5.5, 
                        6.57, 
                        7.188
                    ], 
                    "texture": "#2"
                }, 
                "west": {
                    "rotation": 180, 
                    "uv": [
                        5.5, 
                        5.5, 
                        6.57, 
                        7.188
                    ], 
                    "texture": "#2"
                }, 
                "up": {
                    "rotation": 180, 
                    "uv": [
                        5.5, 
                        5.5, 
                        6.57, 
                        7.188
                    ], 
                    "texture": "#2"
                }, 
                "down": {
                    "rotation": 180, 
                    "uv": [
                        5.5, 
                        5.5, 
                        6.57, 
                        7.188
                    ], 
                    "texture": "#2"
                }, 
                "east": {
                    "rotation": 180, 
                    "uv": [
                        5.5, 
                        5.5, 
                        6.57, 
                        7.188
                    ], 
                    "texture": "#2"
                }, 
                "south": {
                    "rotation": 180, 
                    "uv": [
                        5.5, 
                        5.5, 
                        6.57, 
                        7.188
                    ], 
                    "texture": "#2"
                }
            }
        }, 
        {
            "to": [
                8.18647, 
                8.7439, 
                4.0401
            ], 
            "rotation": {
                "origin": [
                    8.05397, 
                    8.8314, 
                    2.9901
                ], 
                "angle": 0, 
                "axis": "y"
            }, 
            "from": [
                7.85397, 
                8.2189, 
                1.7401
            ], 
            "faces": {
                "north": {
                    "rotation": 180, 
                    "uv": [
                        4.5, 
                        1, 
                        7.076, 
                        3.188
                    ], 
                    "texture": "#2"
                }, 
                "west": {
                    "rotation": 180, 
                    "uv": [
                        4.5, 
                        1, 
                        7.076, 
                        3.188
                    ], 
                    "texture": "#2"
                }, 
                "up": {
                    "rotation": 180, 
                    "uv": [
                        4.5, 
                        1, 
                        7.076, 
                        3.188
                    ], 
                    "texture": "#2"
                }, 
                "down": {
                    "rotation": 180, 
                    "uv": [
                        4.5, 
                        1, 
                        7.076, 
                        3.188
                    ], 
                    "texture": "#2"
                }, 
                "east": {
                    "rotation": 180, 
                    "uv": [
                        4.5, 
                        1, 
                        7.076, 
                        3.188
                    ], 
                    "texture": "#2"
                }, 
                "south": {
                    "rotation": 180, 
                    "uv": [
                        4.5, 
                        1, 
                        7.076, 
                        3.188
                    ], 
                    "texture": "#2"
                }
            }
        }, 
        {
            "to": [
                8.16576, 
                8.7439, 
                4.0901
            ], 
            "rotation": {
                "origin": [
                    8.11576, 
                    8.4814, 
                    4.0401
                ], 
                "angle": 45, 
                "axis": "y"
            }, 
            "from": [
                8.06576, 
                8.2189, 
                3.9901
            ], 
            "faces": {
                "north": {
                    "rotation": 180, 
                    "uv": [
                        4.5, 
                        1, 
                        7.076, 
                        3.188
                    ], 
                    "texture": "#2"
                }, 
                "west": {
                    "rotation": 180, 
                    "uv": [
                        4.5, 
                        1, 
                        7.076, 
                        3.188
                    ], 
                    "texture": "#2"
                }, 
                "up": {
                    "rotation": 180, 
                    "uv": [
                        4.5, 
                        1, 
                        7.076, 
                        3.188
                    ], 
                    "texture": "#2"
                }, 
                "down": {
                    "rotation": 180, 
                    "uv": [
                        4.5, 
                        1, 
                        7.076, 
                        3.188
                    ], 
                    "texture": "#2"
                }, 
                "east": {
                    "rotation": 180, 
                    "uv": [
                        4.5, 
                        1, 
                        7.076, 
                        3.188
                    ], 
                    "texture": "#2"
                }, 
                "south": {
                    "rotation": 180, 
                    "uv": [
                        4.5, 
                        1, 
                        7.076, 
                        3.188
                    ], 
                    "texture": "#2"
                }
            }
        }, 
        {
            "to": [
                7.97468, 
                8.7439, 
                4.0901
            ], 
            "rotation": {
                "origin": [
                    7.92468, 
                    8.4814, 
                    4.0401
                ], 
                "angle": 45, 
                "axis": "y"
            }, 
            "from": [
                7.87468, 
                8.2189, 
                3.9901
            ], 
            "faces": {
                "north": {
                    "rotation": 180, 
                    "uv": [
                        4.5, 
                        1, 
                        7.076, 
                        3.188
                    ], 
                    "texture": "#2"
                }, 
                "west": {
                    "rotation": 180, 
                    "uv": [
                        4.5, 
                        1, 
                        7.076, 
                        3.188
                    ], 
                    "texture": "#2"
                }, 
                "up": {
                    "rotation": 180, 
                    "uv": [
                        4.5, 
                        1, 
                        7.076, 
                        3.188
                    ], 
                    "texture": "#2"
                }, 
                "down": {
                    "rotation": 180, 
                    "uv": [
                        4.5, 
                        1, 
                        7.076, 
                        3.188
                    ], 
                    "texture": "#2"
                }, 
                "east": {
                    "rotation": 180, 
                    "uv": [
                        4.5, 
                        1, 
                        7.076, 
                        3.188
                    ], 
                    "texture": "#2"
                }, 
                "south": {
                    "rotation": 180, 
                    "uv": [
                        4.5, 
                        1, 
                        7.076, 
                        3.188
                    ], 
                    "texture": "#2"
                }
            }
        }, 
        {
            "to": [
                7.98504, 
                8.7689, 
                4.0401
            ], 
            "rotation": {
                "origin": [
                    7.96004, 
                    8.7439, 
                    2.8901
                ], 
                "angle": -45, 
                "axis": "z"
            }, 
            "from": [
                7.88504, 
                8.6689, 
                1.7401
            ], 
            "faces": {
                "north": {
                    "rotation": 180, 
                    "uv": [
                        4.5, 
                        1, 
                        7.076, 
                        3.188
                    ], 
                    "texture": "#2"
                }, 
                "west": {
                    "rotation": 180, 
                    "uv": [
                        4.5, 
                        1, 
                        7.076, 
                        3.188
                    ], 
                    "texture": "#2"
                }, 
                "up": {
                    "rotation": 180, 
                    "uv": [
                        4.5, 
                        1, 
                        7.076, 
                        3.188
                    ], 
                    "texture": "#2"
                }, 
                "down": {
                    "rotation": 180, 
                    "uv": [
                        4.5, 
                        1, 
                        7.076, 
                        3.188
                    ], 
                    "texture": "#2"
                }, 
                "east": {
                    "rotation": 180, 
                    "uv": [
                        4.5, 
                        1, 
                        7.076, 
                        3.188
                    ], 
                    "texture": "#2"
                }, 
                "south": {
                    "rotation": 180, 
                    "uv": [
                        4.5, 
                        1, 
                        7.076, 
                        3.188
                    ], 
                    "texture": "#2"
                }
            }
        }, 
        {
            "to": [
                8.11468, 
                8.81461, 
                4.0401
            ], 
            "rotation": {
                "origin": [
                    7.97468, 
                    8.76461, 
                    2.8901
                ], 
                "angle": 0, 
                "axis": "y"
            }, 
            "from": [
                7.92468, 
                8.71461, 
                1.7401
            ], 
            "faces": {
                "north": {
                    "uv": [
                        4.5, 
                        1, 
                        7.076, 
                        3.188
                    ], 
                    "texture": "#2"
                }, 
                "west": {
                    "uv": [
                        4.5, 
                        1, 
                        7.076, 
                        3.188
                    ], 
                    "texture": "#2"
                }, 
                "up": {
                    "uv": [
                        4.5, 
                        1, 
                        7.076, 
                        3.188
                    ], 
                    "texture": "#2"
                }, 
                "down": {
                    "uv": [
                        4.5, 
                        1, 
                        7.076, 
                        3.188
                    ], 
                    "texture": "#2"
                }, 
                "east": {
                    "uv": [
                        4.5, 
                        1, 
                        7.076, 
                        3.188
                    ], 
                    "texture": "#2"
                }, 
                "south": {
                    "uv": [
                        4.5, 
                        1, 
                        7.076, 
                        3.188
                    ], 
                    "texture": "#2"
                }
            }
        }, 
        {
            "to": [
                8.11576, 
                8.7439, 
                4.11081
            ], 
            "rotation": {
                "origin": [
                    7.97576, 
                    8.6689, 
                    2.96081
                ], 
                "angle": 0, 
                "axis": "y"
            }, 
            "from": [
                7.92576, 
                8.2189, 
                4.01081
            ], 
            "faces": {
                "north": {
                    "uv": [
                        4.5, 
                        1, 
                        7.076, 
                        3.188
                    ], 
                    "texture": "#2"
                }, 
                "west": {
                    "uv": [
                        4.5, 
                        1, 
                        7.076, 
                        3.188
                    ], 
                    "texture": "#2"
                }, 
                "up": {
                    "uv": [
                        4.5, 
                        1, 
                        7.076, 
                        3.188
                    ], 
                    "texture": "#2"
                }, 
                "down": {
                    "uv": [
                        4.5, 
                        1, 
                        7.076, 
                        3.188
                    ], 
                    "texture": "#2"
                }, 
                "east": {
                    "uv": [
                        4.5, 
                        1, 
                        7.076, 
                        3.188
                    ], 
                    "texture": "#2"
                }, 
                "south": {
                    "uv": [
                        4.5, 
                        1, 
                        7.076, 
                        3.188
                    ], 
                    "texture": "#2"
                }
            }
        }, 
        {
            "to": [
                8.11468, 
                8.7939, 
                4.0901
            ], 
            "rotation": {
                "origin": [
                    8.01968, 
                    8.7439, 
                    4.0401
                ], 
                "angle": -45, 
                "axis": "x"
            }, 
            "from": [
                7.92468, 
                8.6939, 
                3.9901
            ], 
            "faces": {
                "north": {
                    "uv": [
                        4.5, 
                        1, 
                        7.076, 
                        3.188
                    ], 
                    "texture": "#2"
                }, 
                "west": {
                    "uv": [
                        4.5, 
                        1, 
                        7.076, 
                        3.188
                    ], 
                    "texture": "#2"
                }, 
                "up": {
                    "uv": [
                        4.5, 
                        1, 
                        7.076, 
                        3.188
                    ], 
                    "texture": "#2"
                }, 
                "down": {
                    "uv": [
                        4.5, 
                        1, 
                        7.076, 
                        3.188
                    ], 
                    "texture": "#2"
                }, 
                "east": {
                    "uv": [
                        4.5, 
                        1, 
                        7.076, 
                        3.188
                    ], 
                    "texture": "#2"
                }, 
                "south": {
                    "uv": [
                        4.5, 
                        1, 
                        7.076, 
                        3.188
                    ], 
                    "texture": "#2"
                }
            }
        }, 
        {
            "to": [
                8.33868, 
                9.33461, 
                3.3681
            ], 
            "rotation": {
                "origin": [
                    8.01968, 
                    8.86461, 
                    3.2221
                ], 
                "angle": 0, 
                "axis": "y"
            }, 
            "from": [
                7.73268, 
                8.07861, 
                2.4361
            ], 
            "faces": {
                "north": {
                    "rotation": 270, 
                    "uv": [
                        8.5, 
                        1.5, 
                        11.076, 
                        3.688
                    ], 
                    "texture": "#2"
                }, 
                "west": {
                    "rotation": 270, 
                    "uv": [
                        8.5, 
                        1.5, 
                        11.076, 
                        3.688
                    ], 
                    "texture": "#2"
                }, 
                "up": {
                    "rotation": 270, 
                    "uv": [
                        8.5, 
                        1.5, 
                        11.076, 
                        3.688
                    ], 
                    "texture": "#2"
                }, 
                "down": {
                    "rotation": 270, 
                    "uv": [
                        8.5, 
                        1.5, 
                        11.076, 
                        3.688
                    ], 
                    "texture": "#2"
                }, 
                "east": {
                    "rotation": 270, 
                    "uv": [
                        8.5, 
                        1.5, 
                        11.076, 
                        3.688
                    ], 
                    "texture": "#2"
                }, 
                "south": {
                    "rotation": 270, 
                    "uv": [
                        8.5, 
                        1.5, 
                        11.076, 
                        3.688
                    ], 
                    "texture": "#2"
                }
            }
        }, 
        {
            "to": [
                8.37068, 
                9.07861, 
                2.6001
            ], 
            "rotation": {
                "origin": [
                    8.03568, 
                    8.97861, 
                    2.5981
                ], 
                "angle": 45, 
                "axis": "x"
            }, 
            "from": [
                7.70068, 
                8.97461, 
                2.5001
            ], 
            "faces": {
                "north": {
                    "rotation": 270, 
                    "uv": [
                        8.5, 
                        4.5, 
                        11.076, 
                        6.688
                    ], 
                    "texture": "#2"
                }, 
                "west": {
                    "rotation": 270, 
                    "uv": [
                        8.5, 
                        4.5, 
                        11.076, 
                        6.688
                    ], 
                    "texture": "#2"
                }, 
                "up": {
                    "rotation": 270, 
                    "uv": [
                        8.5, 
                        4.5, 
                        11.076, 
                        6.688
                    ], 
                    "texture": "#2"
                }, 
                "down": {
                    "rotation": 270, 
                    "uv": [
                        8.5, 
                        4.5, 
                        11.076, 
                        6.688
                    ], 
                    "texture": "#2"
                }, 
                "east": {
                    "rotation": 270, 
                    "uv": [
                        8.5, 
                        4.5, 
                        11.076, 
                        6.688
                    ], 
                    "texture": "#2"
                }, 
                "south": {
                    "rotation": 270, 
                    "uv": [
                        8.5, 
                        4.5, 
                        11.076, 
                        6.688
                    ], 
                    "texture": "#2"
                }
            }
        }, 
        {
            "to": [
                8.37068, 
                9.07861, 
                3.2401
            ], 
            "rotation": {
                "origin": [
                    8.03568, 
                    8.97861, 
                    3.2381
                ], 
                "angle": 45, 
                "axis": "x"
            }, 
            "from": [
                7.70068, 
                8.97461, 
                3.1401
            ], 
            "faces": {
                "north": {
                    "rotation": 270, 
                    "uv": [
                        8.5, 
                        4.5, 
                        11.076, 
                        6.688
                    ], 
                    "texture": "#2"
                }, 
                "west": {
                    "rotation": 270, 
                    "uv": [
                        8.5, 
                        4.5, 
                        11.076, 
                        6.688
                    ], 
                    "texture": "#2"
                }, 
                "up": {
                    "rotation": 270, 
                    "uv": [
                        8.5, 
                        4.5, 
                        11.076, 
                        6.688
                    ], 
                    "texture": "#2"
                }, 
                "down": {
                    "rotation": 270, 
                    "uv": [
                        8.5, 
                        4.5, 
                        11.076, 
                        6.688
                    ], 
                    "texture": "#2"
                }, 
                "east": {
                    "rotation": 270, 
                    "uv": [
                        8.5, 
                        4.5, 
                        11.076, 
                        6.688
                    ], 
                    "texture": "#2"
                }, 
                "south": {
                    "rotation": 270, 
                    "uv": [
                        8.5, 
                        4.5, 
                        11.076, 
                        6.688
                    ], 
                    "texture": "#2"
                }
            }
        }, 
        {
            "to": [
                8.11576, 
                8.2689, 
                4.0901
            ], 
            "rotation": {
                "origin": [
                    8.02076, 
                    8.2189, 
                    4.0401
                ], 
                "angle": -45, 
                "axis": "x"
            }, 
            "from": [
                7.92576, 
                8.1689, 
                3.9901
            ], 
            "faces": {
                "north": {
                    "uv": [
                        4.5, 
                        1, 
                        7.076, 
                        3.188
                    ], 
                    "texture": "#2"
                }, 
                "west": {
                    "uv": [
                        4.5, 
                        1, 
                        7.076, 
                        3.188
                    ], 
                    "texture": "#2"
                }, 
                "up": {
                    "uv": [
                        4.5, 
                        1, 
                        7.076, 
                        3.188
                    ], 
                    "texture": "#2"
                }, 
                "down": {
                    "uv": [
                        4.5, 
                        1, 
                        7.076, 
                        3.188
                    ], 
                    "texture": "#2"
                }, 
                "east": {
                    "uv": [
                        4.5, 
                        1, 
                        7.076, 
                        3.188
                    ], 
                    "texture": "#2"
                }, 
                "south": {
                    "uv": [
                        4.5, 
                        1, 
                        7.076, 
                        3.188
                    ], 
                    "texture": "#2"
                }
            }
        }, 
        {
            "to": [
                8.11468, 
                8.24819, 
                4.0401
            ], 
            "rotation": {
                "origin": [
                    7.97468, 
                    8.19819, 
                    2.8901
                ], 
                "angle": 0, 
                "axis": "y"
            }, 
            "from": [
                7.92468, 
                8.14819, 
                1.7401
            ], 
            "faces": {
                "north": {
                    "uv": [
                        4.5, 
                        1, 
                        7.076, 
                        3.188
                    ], 
                    "texture": "#2"
                }, 
                "west": {
                    "uv": [
                        4.5, 
                        1, 
                        7.076, 
                        3.188
                    ], 
                    "texture": "#2"
                }, 
                "up": {
                    "uv": [
                        4.5, 
                        1, 
                        7.076, 
                        3.188
                    ], 
                    "texture": "#2"
                }, 
                "down": {
                    "uv": [
                        4.5, 
                        1, 
                        7.076, 
                        3.188
                    ], 
                    "texture": "#2"
                }, 
                "east": {
                    "uv": [
                        4.5, 
                        1, 
                        7.076, 
                        3.188
                    ], 
                    "texture": "#2"
                }, 
                "south": {
                    "uv": [
                        4.5, 
                        1, 
                        7.076, 
                        3.188
                    ], 
                    "texture": "#2"
                }
            }
        }, 
        {
            "to": [
                8.17611, 
                8.7689, 
                4.0401
            ], 
            "rotation": {
                "origin": [
                    8.15111, 
                    8.7439, 
                    2.8901
                ], 
                "angle": -45, 
                "axis": "z"
            }, 
            "from": [
                8.07611, 
                8.6689, 
                1.7401
            ], 
            "faces": {
                "north": {
                    "rotation": 180, 
                    "uv": [
                        4.5, 
                        1, 
                        7.076, 
                        3.188
                    ], 
                    "texture": "#2"
                }, 
                "west": {
                    "rotation": 180, 
                    "uv": [
                        4.5, 
                        1, 
                        7.076, 
                        3.188
                    ], 
                    "texture": "#2"
                }, 
                "up": {
                    "rotation": 180, 
                    "uv": [
                        4.5, 
                        1, 
                        7.076, 
                        3.188
                    ], 
                    "texture": "#2"
                }, 
                "down": {
                    "rotation": 180, 
                    "uv": [
                        4.5, 
                        1, 
                        7.076, 
                        3.188
                    ], 
                    "texture": "#2"
                }, 
                "east": {
                    "rotation": 180, 
                    "uv": [
                        4.5, 
                        1, 
                        7.076, 
                        3.188
                    ], 
                    "texture": "#2"
                }, 
                "south": {
                    "rotation": 180, 
                    "uv": [
                        4.5, 
                        1, 
                        7.076, 
                        3.188
                    ], 
                    "texture": "#2"
                }
            }
        }, 
        {
            "to": [
                8.17611, 
                8.2439, 
                4.0401
            ], 
            "rotation": {
                "origin": [
                    8.15111, 
                    8.2189, 
                    2.8901
                ], 
                "angle": -45, 
                "axis": "z"
            }, 
            "from": [
                8.07611, 
                8.1439, 
                1.7401
            ], 
            "faces": {
                "north": {
                    "rotation": 180, 
                    "uv": [
                        4.5, 
                        1, 
                        7.076, 
                        3.188
                    ], 
                    "texture": "#2"
                }, 
                "west": {
                    "rotation": 180, 
                    "uv": [
                        4.5, 
                        1, 
                        7.076, 
                        3.188
                    ], 
                    "texture": "#2"
                }, 
                "up": {
                    "rotation": 180, 
                    "uv": [
                        4.5, 
                        1, 
                        7.076, 
                        3.188
                    ], 
                    "texture": "#2"
                }, 
                "down": {
                    "rotation": 180, 
                    "uv": [
                        4.5, 
                        1, 
                        7.076, 
                        3.188
                    ], 
                    "texture": "#2"
                }, 
                "east": {
                    "rotation": 180, 
                    "uv": [
                        4.5, 
                        1, 
                        7.076, 
                        3.188
                    ], 
                    "texture": "#2"
                }, 
                "south": {
                    "rotation": 180, 
                    "uv": [
                        4.5, 
                        1, 
                        7.076, 
                        3.188
                    ], 
                    "texture": "#2"
                }
            }
        }, 
        {
            "to": [
                7.98504, 
                8.2439, 
                4.0401
            ], 
            "rotation": {
                "origin": [
                    7.96004, 
                    8.2189, 
                    2.8901
                ], 
                "angle": -45, 
                "axis": "z"
            }, 
            "from": [
                7.88504, 
                8.1439, 
                1.7401
            ], 
            "faces": {
                "north": {
                    "rotation": 180, 
                    "uv": [
                        4.5, 
                        1, 
                        7.076, 
                        3.188
                    ], 
                    "texture": "#2"
                }, 
                "west": {
                    "rotation": 180, 
                    "uv": [
                        4.5, 
                        1, 
                        7.076, 
                        3.188
                    ], 
                    "texture": "#2"
                }, 
                "up": {
                    "rotation": 180, 
                    "uv": [
                        4.5, 
                        1, 
                        7.076, 
                        3.188
                    ], 
                    "texture": "#2"
                }, 
                "down": {
                    "rotation": 180, 
                    "uv": [
                        4.5, 
                        1, 
                        7.076, 
                        3.188
                    ], 
                    "texture": "#2"
                }, 
                "east": {
                    "rotation": 180, 
                    "uv": [
                        4.5, 
                        1, 
                        7.076, 
                        3.188
                    ], 
                    "texture": "#2"
                }, 
                "south": {
                    "rotation": 180, 
                    "uv": [
                        4.5, 
                        1, 
                        7.076, 
                        3.188
                    ], 
                    "texture": "#2"
                }
            }
        }, 
        {
            "to": [
                8.28647, 
                8.893, 
                1.7401
            ], 
            "rotation": {
                "origin": [
                    8.05397, 
                    8.9314, 
                    0.6901
                ], 
                "angle": 0, 
                "axis": "y"
            }, 
            "from": [
                7.75397, 
                7.968, 
                1.6401
            ], 
            "faces": {
                "north": {
                    "rotation": 180, 
                    "uv": [
                        4.5, 
                        1, 
                        7.076, 
                        3.188
                    ], 
                    "texture": "#2"
                }, 
                "west": {
                    "rotation": 180, 
                    "uv": [
                        4.5, 
                        1, 
                        7.076, 
                        3.188
                    ], 
                    "texture": "#2"
                }, 
                "up": {
                    "rotation": 180, 
                    "uv": [
                        4.5, 
                        1, 
                        7.076, 
                        3.188
                    ], 
                    "texture": "#2"
                }, 
                "down": {
                    "rotation": 180, 
                    "uv": [
                        4.5, 
                        1, 
                        7.076, 
                        3.188
                    ], 
                    "texture": "#2"
                }, 
                "east": {
                    "rotation": 180, 
                    "uv": [
                        4.5, 
                        1, 
                        7.076, 
                        3.188
                    ], 
                    "texture": "#2"
                }, 
                "south": {
                    "rotation": 180, 
                    "uv": [
                        4.5, 
                        1, 
                        7.076, 
                        3.188
                    ], 
                    "texture": "#2"
                }
            }
        }, 
        {
            "to": [
                8.28647, 
                8, 
                1.7401
            ], 
            "rotation": {
                "origin": [
                    8.05397, 
                    8.3274, 
                    0.6901
                ], 
                "angle": 0, 
                "axis": "y"
            }, 
            "from": [
                7.75397, 
                7.364, 
                1.6401
            ], 
            "faces": {
                "north": {
                    "rotation": 180, 
                    "uv": [
                        4.5, 
                        1, 
                        7.076, 
                        3.188
                    ], 
                    "texture": "#2"
                }, 
                "west": {
                    "rotation": 180, 
                    "uv": [
                        4.5, 
                        1, 
                        7.076, 
                        3.188
                    ], 
                    "texture": "#2"
                }, 
                "up": {
                    "rotation": 180, 
                    "uv": [
                        4.5, 
                        1, 
                        7.076, 
                        3.188
                    ], 
                    "texture": "#2"
                }, 
                "down": {
                    "rotation": 180, 
                    "uv": [
                        4.5, 
                        1, 
                        7.076, 
                        3.188
                    ], 
                    "texture": "#2"
                }, 
                "east": {
                    "rotation": 180, 
                    "uv": [
                        4.5, 
                        1, 
                        7.076, 
                        3.188
                    ], 
                    "texture": "#2"
                }, 
                "south": {
                    "rotation": 180, 
                    "uv": [
                        4.5, 
                        1, 
                        7.076, 
                        3.188
                    ], 
                    "texture": "#2"
                }
            }
        }
    ], 
    "display": {
        "thirdperson_righthand": {
            "rotation": [
                0, 
                0, 
                1
            ], 
            "scale": [
                1.14, 
                1, 
                1
            ], 
            "translation": [
                -1.5, 
                0, 
                0.5
            ]
        }, 
        "head": {
            "rotation": [
                0, 
                125, 
                90
            ], 
            "scale": [
                1.64, 
                1.58, 
                1.61
            ], 
            "translation": [
                0, 
                6.5, 
                0
            ]
        }, 
        "thirdperson_lefthand": {
            "rotation": [
                0, 
                0, 
                1
            ], 
            "scale": [
                1.14, 
                1, 
                1
            ], 
            "translation": [
                -1.5, 
                0, 
                0.5
            ]
        }, 
        "gui": {
            "rotation": [
                23, 
                38, 
                -16
            ], 
            "scale": [
                1.25, 
                1.39, 
                1.22
            ], 
            "translation": [
                -0.75, 
                0.75, 
                0
            ]
        }, 
        "firstperson_righthand": {
            "translation": [
                -5.25, 
                3.5, 
                2.75
            ]
        }, 
        "firstperson_lefthand": {
            "translation": [
                -5.25, 
                3.5, 
                2.75
            ]
        }, 
        "fixed": {
            "rotation": [
                0, 
                90, 
                0
            ], 
            "scale": [
                1.22, 
                1.22, 
                1.19
            ], 
            "translation": [
                -0.5, 
                0, 
                -0.75
            ]
        }
    }
}
