{
	"credit": "Made with Blockbench",
	"textures": {
		"0": "gci:items/common/plazma",
		"particle": "gci:items/common/plazma"
	},
	"elements": [
		{
			"from": [7.05, 1.6, 4.65],
			"to": [8.95, 5.6, 6.45],
			"rotation": {"angle": -22.5, "axis": "x", "origin": [7.5, 0.8, 6.45]},
			"faces": {
				"north": {"uv": [1, 0, 1.5, 1], "texture": "#0"},
				"east": {"uv": [2, 1, 2.4375, 2], "texture": "#0"},
				"south": {"uv": [1, 1, 1.5, 2], "texture": "#0"},
				"west": {"uv": [2, 2, 2.4375, 3], "texture": "#0"},
				"up": {"uv": [2, 5.1875, 1.5, 4.75], "texture": "#0"},
				"down": {"uv": [3, 4.75, 2.5, 5.1875], "texture": "#0"}
			}
		},
		{
			"from": [7.45, -0.95, 4.9],
			"to": [8.55, 5.95, 6],
			"rotation": {"angle": -22.5, "axis": "x", "origin": [7.5, 0.8, 6.45]},
			"faces": {
				"north": {"uv": [1.5, 2.25, 1.75, 4], "texture": "#0"},
				"east": {"uv": [1.75, 2.25, 2, 4], "texture": "#0"},
				"south": {"uv": [0, 2.5, 0.25, 4.25], "texture": "#0"},
				"west": {"uv": [0.25, 2.5, 0.5, 4.25], "texture": "#0"},
				"up": {"uv": [0.75, 7.25, 0.5, 7], "texture": "#0"},
				"down": {"uv": [7.25, 0.5, 7, 0.75], "texture": "#0"}
			}
		},
		{
			"from": [7.1, -0.75, 4.75],
			"to": [8.9, 3.6, 6.2],
			"rotation": {"angle": -22.5, "axis": "x", "origin": [7.5, 0.8, 6.45]},
			"faces": {
				"north": {"uv": [0, 1.25, 0.4375, 2.3125], "texture": "#0"},
				"east": {"uv": [1, 3.25, 1.375, 4.3125], "texture": "#0"},
				"south": {"uv": [0.5, 1.25, 0.9375, 2.3125], "texture": "#0"},
				"west": {"uv": [3.25, 1, 3.625, 2.0625], "texture": "#0"},
				"up": {"uv": [3.4375, 5.875, 3, 5.5], "texture": "#0"},
				"down": {"uv": [5.9375, 3.25, 5.5, 3.625], "texture": "#0"}
			}
		}
	],
	"display": {
		"thirdperson_righthand": {
			"translation": [0, 2.5, -0.5]
		},
		"thirdperson_lefthand": {
			"translation": [0, 2.5, -0.5]
		},
		"firstperson_righthand": {
			"translation": [-2.5, 7.25, 4]
		},
		"firstperson_lefthand": {
			"translation": [-2.5, 7.25, 4]
		},
		"ground": {
			"translation": [0, 6.25, 0]
		},
		"gui": {
			"rotation": [90, 64.5, -90],
			"translation": [1.25, 2.25, 0]
		},
		"fixed": {
			"rotation": [90, 45, -90],
			"translation": [2, 2.5, -1.25]
		}
	},
	"groups": [
		{
			"name": "magazine",
			"origin": [8, 8, 8],
			"color": 0,
			"children": [0, 1, 2]
		}
	]
}