{
	"credit": "Made with Blockbench",
	"textures": {
		"0": "gci:items/common/all_in_one",
		"particle": "gci:items/common/all_in_one"
	},
	"elements": [
		{
			"from": [2.5, 0, 3],
			"to": [13.5, 1, 4],
			"rotation": {"angle": 0, "axis": "y", "origin": [20.5, 8, 11]},
			"faces": {
				"north": {"uv": [14.25, 6.375, 14.5, 6.625], "texture": "#0"},
				"east": {"uv": [14.25, 6.375, 14.5, 6.625], "texture": "#0"},
				"south": {"uv": [14.25, 6.375, 14.5, 6.625], "texture": "#0"},
				"west": {"uv": [14.25, 6.375, 14.5, 6.625], "texture": "#0"},
				"up": {"uv": [14.25, 6.375, 14.5, 6.625], "texture": "#0"},
				"down": {"uv": [14.25, 6.375, 14.5, 6.625], "texture": "#0"}
			}
		},
		{
			"from": [1.5, 10, 3],
			"to": [14.5, 12, 4],
			"rotation": {"angle": 0, "axis": "y", "origin": [20.5, 3, 11]},
			"faces": {
				"north": {"uv": [14.25, 6.375, 14.5, 6.625], "texture": "#0"},
				"east": {"uv": [14.25, 6.375, 14.5, 6.625], "texture": "#0"},
				"south": {"uv": [14.25, 6.375, 14.5, 6.625], "texture": "#0"},
				"west": {"uv": [14.25, 6.375, 14.5, 6.625], "texture": "#0"},
				"up": {"uv": [14.25, 6.375, 14.5, 6.625], "texture": "#0"},
				"down": {"uv": [14.25, 6.375, 14.5, 6.625], "texture": "#0"}
			}
		},
		{
			"from": [3.5, 12, 3],
			"to": [12.5, 15, 4],
			"rotation": {"angle": 0, "axis": "y", "origin": [20.5, 3, 11]},
			"faces": {
				"north": {"uv": [14.25, 6.375, 14.5, 6.625], "texture": "#0"},
				"east": {"uv": [14.25, 6.375, 14.5, 6.625], "texture": "#0"},
				"south": {"uv": [14.25, 6.375, 14.5, 6.625], "texture": "#0"},
				"west": {"uv": [14.25, 6.375, 14.5, 6.625], "texture": "#0"},
				"up": {"uv": [14.25, 6.375, 14.5, 6.625], "texture": "#0"},
				"down": {"uv": [14.25, 6.375, 14.5, 6.625], "texture": "#0"}
			}
		},
		{
			"from": [19.18198, 13.63984, 3],
			"to": [20.18198, 15.03984, 4],
			"rotation": {"angle": 45, "axis": "z", "origin": [14.68198, 5.03984, 3.5]},
			"faces": {
				"north": {"uv": [14.25, 6.375, 14.5, 6.625], "texture": "#0"},
				"east": {"uv": [14.25, 6.375, 14.5, 6.625], "texture": "#0"},
				"south": {"uv": [14.25, 6.375, 14.5, 6.625], "texture": "#0"},
				"west": {"uv": [14.25, 6.375, 14.5, 6.625], "texture": "#0"},
				"up": {"uv": [14.25, 6.375, 14.5, 6.625], "texture": "#0"},
				"down": {"uv": [14.25, 6.375, 14.5, 6.625], "texture": "#0"}
			}
		},
		{
			"from": [9.89914, -0.6631, 3],
			"to": [10.89914, 0.7369, 4],
			"rotation": {"angle": 45, "axis": "z", "origin": [5.39914, -9.2631, 3.5]},
			"faces": {
				"north": {"uv": [14.25, 6.375, 14.5, 6.625], "texture": "#0"},
				"east": {"uv": [14.25, 6.375, 14.5, 6.625], "texture": "#0"},
				"south": {"uv": [14.25, 6.375, 14.5, 6.625], "texture": "#0"},
				"west": {"uv": [14.25, 6.375, 14.5, 6.625], "texture": "#0"},
				"up": {"uv": [14.25, 6.375, 14.5, 6.625], "texture": "#0"},
				"down": {"uv": [14.25, 6.375, 14.5, 6.625], "texture": "#0"}
			}
		},
		{
			"from": [-4.18198, 13.63984, 3],
			"to": [-3.18198, 15.03984, 4],
			"rotation": {"angle": -45, "axis": "z", "origin": [1.31802, 5.03984, 3.5]},
			"faces": {
				"north": {"uv": [14.25, 6.375, 14.5, 6.625], "texture": "#0"},
				"east": {"uv": [14.25, 6.375, 14.5, 6.625], "texture": "#0"},
				"south": {"uv": [14.25, 6.375, 14.5, 6.625], "texture": "#0"},
				"west": {"uv": [14.25, 6.375, 14.5, 6.625], "texture": "#0"},
				"up": {"uv": [14.25, 6.375, 14.5, 6.625], "texture": "#0"},
				"down": {"uv": [14.25, 6.375, 14.5, 6.625], "texture": "#0"}
			}
		},
		{
			"from": [5.10086, -0.6631, 3],
			"to": [6.10086, 0.7369, 4],
			"rotation": {"angle": -45, "axis": "z", "origin": [10.60086, -9.2631, 3.5]},
			"faces": {
				"north": {"uv": [14.25, 6.375, 14.5, 6.625], "texture": "#0"},
				"east": {"uv": [14.25, 6.375, 14.5, 6.625], "texture": "#0"},
				"south": {"uv": [14.25, 6.375, 14.5, 6.625], "texture": "#0"},
				"west": {"uv": [14.25, 6.375, 14.5, 6.625], "texture": "#0"},
				"up": {"uv": [14.25, 6.375, 14.5, 6.625], "texture": "#0"},
				"down": {"uv": [14.25, 6.375, 14.5, 6.625], "texture": "#0"}
			}
		},
		{
			"from": [1.5, 1, 3],
			"to": [14.5, 10, 4],
			"rotation": {"angle": 0, "axis": "y", "origin": [20.5, 9, 11]},
			"faces": {
				"north": {"uv": [14.25, 6.375, 14.5, 6.625], "texture": "#0"},
				"east": {"uv": [14.25, 6.375, 14.5, 6.625], "texture": "#0"},
				"south": {"uv": [14.25, 6.375, 14.5, 6.625], "texture": "#0"},
				"west": {"uv": [14.25, 6.375, 14.5, 6.625], "texture": "#0"},
				"up": {"uv": [14.25, 6.375, 14.5, 6.625], "texture": "#0"},
				"down": {"uv": [14.25, 6.375, 14.5, 6.625], "texture": "#0"}
			}
		},
		{
			"from": [2.5, 4.7, 4],
			"to": [13.5, 11.1, 4.2],
			"rotation": {"angle": 0, "axis": "y", "origin": [20.5, 11.9, 11.2]},
			"faces": {
				"north": {"uv": [13.625, 4.75, 13.875, 5.125], "texture": "#0"},
				"east": {"uv": [13.625, 4.75, 13.875, 5.125], "texture": "#0"},
				"south": {"uv": [13.625, 4.75, 13.875, 5.125], "texture": "#0"},
				"west": {"uv": [13.625, 4.75, 13.875, 5.125], "texture": "#0"},
				"up": {"uv": [13.625, 4.75, 13.875, 5.125], "texture": "#0"},
				"down": {"uv": [13.625, 4.75, 13.875, 5.125], "texture": "#0"}
			}
		},
		{
			"from": [4.5, 15, 3],
			"to": [11.5, 16, 4],
			"rotation": {"angle": 0, "axis": "y", "origin": [20.5, 23, 11]},
			"faces": {
				"north": {"uv": [14.25, 6.375, 14.5, 6.625], "texture": "#0"},
				"east": {"uv": [14.25, 6.375, 14.5, 6.625], "texture": "#0"},
				"south": {"uv": [14.25, 6.375, 14.5, 6.625], "texture": "#0"},
				"west": {"uv": [14.25, 6.375, 14.5, 6.625], "texture": "#0"},
				"up": {"uv": [14.25, 6.375, 14.5, 6.625], "texture": "#0"},
				"down": {"uv": [14.25, 6.375, 14.5, 6.625], "texture": "#0"}
			}
		},
		{
			"from": [7.5, 5.9, 4],
			"to": [8.5, 9.9, 4.5],
			"rotation": {"angle": 0, "axis": "y", "origin": [20.5, 5.9, 11]},
			"faces": {
				"north": {"uv": [2.875, 3.375, 3, 3.5], "texture": "#0"},
				"east": {"uv": [2.875, 3.375, 3, 3.5], "texture": "#0"},
				"south": {"uv": [2.875, 3.375, 3, 3.5], "texture": "#0"},
				"west": {"uv": [2.875, 3.375, 3, 3.5], "texture": "#0"},
				"up": {"uv": [2.875, 3.375, 3, 3.5], "texture": "#0"},
				"down": {"uv": [2.875, 3.375, 3, 3.5], "texture": "#0"}
			}
		},
		{
			"from": [7.5, 9.9, 4],
			"to": [8.5, 10.6, 9.2],
			"rotation": {"angle": 0, "axis": "y", "origin": [8, 10.15, 6]},
			"faces": {
				"north": {"uv": [2.875, 3.375, 3, 3.5], "texture": "#0"},
				"east": {"uv": [2.875, 3.375, 3, 3.5], "texture": "#0"},
				"south": {"uv": [2.875, 3.375, 3, 3.5], "texture": "#0"},
				"west": {"uv": [2.875, 3.375, 3, 3.5], "rotation": 270, "texture": "#0"},
				"up": {"uv": [2.875, 3.375, 3, 3.5], "texture": "#0"},
				"down": {"uv": [2.875, 3.375, 3, 3.5], "texture": "#0"}
			}
		},
		{
			"from": [7.5, 5.2, 4],
			"to": [8.5, 5.9, 9.2],
			"rotation": {"angle": 0, "axis": "y", "origin": [8, 6.775, 6.875]},
			"faces": {
				"north": {"uv": [2.875, 3.375, 3, 3.5], "texture": "#0"},
				"east": {"uv": [2.875, 3.375, 3, 3.5], "texture": "#0"},
				"south": {"uv": [2.875, 3.375, 3, 3.5], "texture": "#0"},
				"west": {"uv": [2.875, 3.375, 3, 3.5], "rotation": 90, "texture": "#0"},
				"up": {"uv": [2.875, 3.375, 3, 3.5], "texture": "#0"},
				"down": {"uv": [2.875, 3.375, 3, 3.5], "texture": "#0"}
			}
		},
		{
			"from": [7.5, 5.9, 8.5],
			"to": [8.5, 9.9, 9.2],
			"rotation": {"angle": 0, "axis": "y", "origin": [8, 6.775, 7.875]},
			"faces": {
				"north": {"uv": [2.875, 3.375, 3, 3.5], "texture": "#0"},
				"east": {"uv": [2.875, 3.375, 3, 3.5], "texture": "#0"},
				"south": {"uv": [2.875, 3.375, 3, 3.5], "texture": "#0"},
				"west": {"uv": [2.875, 3.375, 3, 3.5], "rotation": 180, "texture": "#0"},
				"up": {"uv": [2.875, 3.375, 3, 3.5], "texture": "#0"},
				"down": {"uv": [2.875, 3.375, 3, 3.5], "texture": "#0"}
			}
		},
		{
			"from": [19.68198, 13.63984, 2.8001],
			"to": [20.18198, 15.03984, 3.0001],
			"rotation": {"angle": 45, "axis": "z", "origin": [14.68198, 5.03984, 3.5]},
			"faces": {
				"north": {"uv": [9.375, 9.875, 9.625, 10.15], "texture": "#0"},
				"east": {"uv": [9.375, 9.875, 9.625, 10.15], "texture": "#0"},
				"south": {"uv": [9.375, 9.875, 9.625, 10.15], "texture": "#0"},
				"west": {"uv": [9.375, 9.875, 9.625, 10.15], "texture": "#0"},
				"up": {"uv": [9.375, 9.875, 9.625, 10.15], "texture": "#0"},
				"down": {"uv": [9.375, 9.875, 9.625, 10.15], "texture": "#0"}
			}
		},
		{
			"from": [-4.18198, 13.63984, 2.8001],
			"to": [-3.68198, 15.03984, 3.0001],
			"rotation": {"angle": -45, "axis": "z", "origin": [1.31802, 5.03984, 3.5]},
			"faces": {
				"north": {"uv": [9.375, 9.875, 9.625, 10.15], "texture": "#0"},
				"east": {"uv": [9.375, 9.875, 9.625, 10.15], "texture": "#0"},
				"south": {"uv": [9.375, 9.875, 9.625, 10.15], "texture": "#0"},
				"west": {"uv": [9.375, 9.875, 9.625, 10.15], "texture": "#0"},
				"up": {"uv": [9.375, 9.875, 9.625, 10.15], "texture": "#0"},
				"down": {"uv": [9.375, 9.875, 9.625, 10.15], "texture": "#0"}
			}
		},
		{
			"from": [9.89914, -0.6631, 2.8001],
			"to": [10.39914, 0.7369, 3.0001],
			"rotation": {"angle": 45, "axis": "z", "origin": [5.39914, -9.2631, 3.5]},
			"faces": {
				"north": {"uv": [9.375, 9.875, 9.625, 10.15], "texture": "#0"},
				"east": {"uv": [9.375, 9.875, 9.625, 10.15], "texture": "#0"},
				"south": {"uv": [9.375, 9.875, 9.625, 10.15], "texture": "#0"},
				"west": {"uv": [9.375, 9.875, 9.625, 10.15], "texture": "#0"},
				"up": {"uv": [9.375, 9.875, 9.625, 10.15], "texture": "#0"},
				"down": {"uv": [9.375, 9.875, 9.625, 10.15], "texture": "#0"}
			}
		},
		{
			"from": [5.60086, -0.6631, 2.8001],
			"to": [6.10086, 0.7369, 3.0001],
			"rotation": {"angle": -45, "axis": "z", "origin": [10.60086, -9.2631, 3.5]},
			"faces": {
				"north": {"uv": [9.375, 9.875, 9.625, 10.15], "texture": "#0"},
				"east": {"uv": [9.375, 9.875, 9.625, 10.15], "texture": "#0"},
				"south": {"uv": [9.375, 9.875, 9.625, 10.15], "texture": "#0"},
				"west": {"uv": [9.375, 9.875, 9.625, 10.15], "texture": "#0"},
				"up": {"uv": [9.375, 9.875, 9.625, 10.15], "texture": "#0"},
				"down": {"uv": [9.375, 9.875, 9.625, 10.15], "texture": "#0"}
			}
		},
		{
			"from": [4.5, 15.5, 2.8],
			"to": [11.5, 16, 3],
			"rotation": {"angle": 0, "axis": "y", "origin": [20.5, 23, 10]},
			"faces": {
				"north": {"uv": [9.375, 9.875, 9.625, 10.15], "texture": "#0"},
				"east": {"uv": [9.375, 9.875, 9.625, 10.15], "texture": "#0"},
				"south": {"uv": [9.375, 9.875, 9.625, 10.15], "texture": "#0"},
				"west": {"uv": [9.375, 9.875, 9.625, 10.15], "texture": "#0"},
				"up": {"uv": [9.375, 9.875, 9.625, 10.15], "texture": "#0"},
				"down": {"uv": [9.375, 9.875, 9.625, 10.15], "texture": "#0"}
			}
		},
		{
			"from": [2.5, 0, 2.8],
			"to": [13.5, 0.5, 3],
			"rotation": {"angle": 0, "axis": "y", "origin": [20.5, 8, 10]},
			"faces": {
				"north": {"uv": [9.375, 9.875, 9.625, 10.15], "texture": "#0"},
				"east": {"uv": [9.375, 9.875, 9.625, 10.15], "texture": "#0"},
				"south": {"uv": [9.375, 9.875, 9.625, 10.15], "texture": "#0"},
				"west": {"uv": [9.375, 9.875, 9.625, 10.15], "texture": "#0"},
				"up": {"uv": [9.375, 9.875, 9.625, 10.15], "texture": "#0"},
				"down": {"uv": [9.375, 9.875, 9.625, 10.15], "texture": "#0"}
			}
		},
		{
			"from": [1.51005, 1.01005, 2.8],
			"to": [2.01005, 12.01005, 3],
			"rotation": {"angle": 0, "axis": "y", "origin": [20.51005, 1.01005, 11]},
			"faces": {
				"north": {"uv": [9.375, 9.875, 9.625, 10.15], "texture": "#0"},
				"east": {"uv": [9.375, 9.875, 9.625, 10.15], "texture": "#0"},
				"south": {"uv": [9.375, 9.875, 9.625, 10.15], "texture": "#0"},
				"west": {"uv": [9.375, 9.875, 9.625, 10.15], "texture": "#0"},
				"up": {"uv": [9.375, 9.875, 9.625, 10.15], "texture": "#0"},
				"down": {"uv": [9.375, 9.875, 9.625, 10.15], "texture": "#0"}
			}
		},
		{
			"from": [13.98995, 1.01005, 2.8],
			"to": [14.48995, 12.01005, 3],
			"rotation": {"angle": 0, "axis": "y", "origin": [-4.51005, 1.01005, 11]},
			"faces": {
				"north": {"uv": [9.375, 9.875, 9.625, 10.15], "texture": "#0"},
				"east": {"uv": [9.375, 9.875, 9.625, 10.15], "texture": "#0"},
				"south": {"uv": [9.375, 9.875, 9.625, 10.15], "texture": "#0"},
				"west": {"uv": [9.375, 9.875, 9.625, 10.15], "texture": "#0"},
				"up": {"uv": [9.375, 9.875, 9.625, 10.15], "texture": "#0"},
				"down": {"uv": [9.375, 9.875, 9.625, 10.15], "texture": "#0"}
			}
		},
		{
			"from": [1.51005, 11.51005, 2.8001],
			"to": [4.01005, 12.01005, 3.0001],
			"rotation": {"angle": 0, "axis": "y", "origin": [7.21005, 11.76005, 2.9]},
			"faces": {
				"north": {"uv": [9.375, 9.875, 9.625, 10.15], "rotation": 270, "texture": "#0"},
				"east": {"uv": [9.375, 9.875, 9.625, 10.15], "rotation": 90, "texture": "#0"},
				"south": {"uv": [9.375, 9.875, 9.625, 10.15], "rotation": 90, "texture": "#0"},
				"west": {"uv": [9.375, 9.875, 9.625, 10.15], "rotation": 90, "texture": "#0"},
				"up": {"uv": [9.375, 9.875, 9.625, 10.15], "rotation": 90, "texture": "#0"},
				"down": {"uv": [9.375, 9.875, 9.625, 10.15], "rotation": 90, "texture": "#0"}
			}
		},
		{
			"from": [3.51005, 11.51005, 2.8],
			"to": [4.01005, 15.01005, 3],
			"rotation": {"angle": 0, "axis": "y", "origin": [22.51005, 4.01005, 11]},
			"faces": {
				"north": {"uv": [9.375, 9.875, 9.625, 10.15], "texture": "#0"},
				"east": {"uv": [9.375, 9.875, 9.625, 10.15], "texture": "#0"},
				"south": {"uv": [9.375, 9.875, 9.625, 10.15], "texture": "#0"},
				"west": {"uv": [9.375, 9.875, 9.625, 10.15], "texture": "#0"},
				"up": {"uv": [9.375, 9.875, 9.625, 10.15], "texture": "#0"},
				"down": {"uv": [9.375, 9.875, 9.625, 10.15], "texture": "#0"}
			}
		},
		{
			"from": [11.98995, 11.51005, 2.8001],
			"to": [14.48995, 12.01005, 3.0001],
			"rotation": {"angle": 0, "axis": "y", "origin": [8.78995, 11.76005, 2.9]},
			"faces": {
				"north": {"uv": [9.375, 10.15, 9.625, 9.875], "rotation": 270, "texture": "#0"},
				"east": {"uv": [9.375, 10.15, 9.625, 9.875], "rotation": 90, "texture": "#0"},
				"south": {"uv": [9.375, 10.15, 9.625, 9.875], "rotation": 90, "texture": "#0"},
				"west": {"uv": [9.375, 10.15, 9.625, 9.875], "rotation": 90, "texture": "#0"},
				"up": {"uv": [9.375, 10.15, 9.625, 9.875], "rotation": 90, "texture": "#0"},
				"down": {"uv": [9.375, 10.15, 9.625, 9.875], "rotation": 90, "texture": "#0"}
			}
		},
		{
			"from": [11.98995, 11.51005, 2.8],
			"to": [12.48995, 15.01005, 3],
			"rotation": {"angle": 0, "axis": "y", "origin": [-6.51005, 4.01005, 11]},
			"faces": {
				"north": {"uv": [9.625, 9.875, 9.375, 10.15], "texture": "#0"},
				"east": {"uv": [9.625, 9.875, 9.375, 10.15], "texture": "#0"},
				"south": {"uv": [9.625, 9.875, 9.375, 10.15], "texture": "#0"},
				"west": {"uv": [9.625, 9.875, 9.375, 10.15], "texture": "#0"},
				"up": {"uv": [9.625, 9.875, 9.375, 10.15], "texture": "#0"},
				"down": {"uv": [9.625, 9.875, 9.375, 10.15], "texture": "#0"}
			}
		},
		{
			"from": [11.8, 9.7, 2.7],
			"to": [12.2, 10.1, 3],
			"rotation": {"angle": 0, "axis": "y", "origin": [20.5, 11.9, 10]},
			"faces": {
				"north": {"uv": [13.625, 4.75, 13.875, 5.125], "texture": "#0"},
				"east": {"uv": [13.625, 4.75, 13.875, 5.125], "texture": "#0"},
				"south": {"uv": [13.625, 4.75, 13.875, 5.125], "texture": "#0"},
				"west": {"uv": [13.625, 4.75, 13.875, 5.125], "texture": "#0"},
				"up": {"uv": [13.625, 4.75, 13.875, 5.125], "texture": "#0"},
				"down": {"uv": [13.625, 4.75, 13.875, 5.125], "texture": "#0"}
			}
		},
		{
			"from": [3.8, 9.7, 2.7],
			"to": [4.2, 10.1, 3],
			"rotation": {"angle": 0, "axis": "y", "origin": [20.5, 11.9, 10]},
			"faces": {
				"north": {"uv": [13.625, 4.75, 13.875, 5.125], "texture": "#0"},
				"east": {"uv": [13.625, 4.75, 13.875, 5.125], "texture": "#0"},
				"south": {"uv": [13.625, 4.75, 13.875, 5.125], "texture": "#0"},
				"west": {"uv": [13.625, 4.75, 13.875, 5.125], "texture": "#0"},
				"up": {"uv": [13.625, 4.75, 13.875, 5.125], "texture": "#0"},
				"down": {"uv": [13.625, 4.75, 13.875, 5.125], "texture": "#0"}
			}
		},
		{
			"from": [11.8, 5.7, 2.7],
			"to": [12.2, 6.1, 3],
			"rotation": {"angle": 0, "axis": "y", "origin": [20.5, 11.9, 10]},
			"faces": {
				"north": {"uv": [13.625, 4.75, 13.875, 5.125], "texture": "#0"},
				"east": {"uv": [13.625, 4.75, 13.875, 5.125], "texture": "#0"},
				"south": {"uv": [13.625, 4.75, 13.875, 5.125], "texture": "#0"},
				"west": {"uv": [13.625, 4.75, 13.875, 5.125], "texture": "#0"},
				"up": {"uv": [13.625, 4.75, 13.875, 5.125], "texture": "#0"},
				"down": {"uv": [13.625, 4.75, 13.875, 5.125], "texture": "#0"}
			}
		},
		{
			"from": [3.8, 5.7, 2.7],
			"to": [4.2, 6.1, 3],
			"rotation": {"angle": 0, "axis": "y", "origin": [20.5, 11.9, 10]},
			"faces": {
				"north": {"uv": [13.625, 4.75, 13.875, 5.125], "texture": "#0"},
				"east": {"uv": [13.625, 4.75, 13.875, 5.125], "texture": "#0"},
				"south": {"uv": [13.625, 4.75, 13.875, 5.125], "texture": "#0"},
				"west": {"uv": [13.625, 4.75, 13.875, 5.125], "texture": "#0"},
				"up": {"uv": [13.625, 4.75, 13.875, 5.125], "texture": "#0"},
				"down": {"uv": [13.625, 4.75, 13.875, 5.125], "texture": "#0"}
			}
		}
	],
	"display": {
		"thirdperson_righthand": {
			"rotation": [0, -90, 0],
			"translation": [-1.5, -2, 2.5]
		},
		"fixed": {
			"translation": [0, 0, 3]
		}
	}
}