{
	"credit": "Made with Blockbench",
	"textures": {
		"0": "gci:items/common/all_in_one",
		"particle": "gci:items/common/all_in_one"
	},
	"elements": [
		{
			"from": [2.5, 0, 3],
			"to": [13.5, 1, 4],
			"rotation": {"angle": 0, "axis": "y", "origin": [20.5, 8, 11]},
			"faces": {
				"north": {"uv": [14.25, 6.375, 14.5, 6.625], "texture": "#0"},
				"east": {"uv": [14.25, 6.375, 14.5, 6.625], "texture": "#0"},
				"south": {"uv": [14.25, 6.375, 14.5, 6.625], "texture": "#0"},
				"west": {"uv": [14.25, 6.375, 14.5, 6.625], "texture": "#0"},
				"up": {"uv": [14.25, 6.375, 14.5, 6.625], "texture": "#0"},
				"down": {"uv": [14.25, 6.375, 14.5, 6.625], "texture": "#0"}
			}
		},
		{
			"from": [1.5, 10, 3],
			"to": [14.5, 12, 4],
			"rotation": {"angle": 0, "axis": "y", "origin": [20.5, 3, 11]},
			"faces": {
				"north": {"uv": [14.25, 6.375, 14.5, 6.625], "texture": "#0"},
				"east": {"uv": [14.25, 6.375, 14.5, 6.625], "texture": "#0"},
				"south": {"uv": [14.25, 6.375, 14.5, 6.625], "texture": "#0"},
				"west": {"uv": [14.25, 6.375, 14.5, 6.625], "texture": "#0"},
				"up": {"uv": [14.25, 6.375, 14.5, 6.625], "texture": "#0"},
				"down": {"uv": [14.25, 6.375, 14.5, 6.625], "texture": "#0"}
			}
		},
		{
			"from": [3.5, 12, 3],
			"to": [12.5, 15, 4],
			"rotation": {"angle": 0, "axis": "y", "origin": [20.5, 3, 11]},
			"faces": {
				"north": {"uv": [14.25, 6.375, 14.5, 6.625], "texture": "#0"},
				"east": {"uv": [14.25, 6.375, 14.5, 6.625], "texture": "#0"},
				"south": {"uv": [14.25, 6.375, 14.5, 6.625], "texture": "#0"},
				"west": {"uv": [14.25, 6.375, 14.5, 6.625], "texture": "#0"},
				"up": {"uv": [14.25, 6.375, 14.5, 6.625], "texture": "#0"},
				"down": {"uv": [14.25, 6.375, 14.5, 6.625], "texture": "#0"}
			}
		},
		{
			"from": [19.18198, 13.63984, 3],
			"to": [20.18198, 15.03984, 4],
			"rotation": {"angle": 45, "axis": "z", "origin": [14.68198, 5.03984, 3.5]},
			"faces": {
				"north": {"uv": [14.25, 6.375, 14.5, 6.625], "texture": "#0"},
				"east": {"uv": [14.25, 6.375, 14.5, 6.625], "texture": "#0"},
				"south": {"uv": [14.25, 6.375, 14.5, 6.625], "texture": "#0"},
				"west": {"uv": [14.25, 6.375, 14.5, 6.625], "texture": "#0"},
				"up": {"uv": [14.25, 6.375, 14.5, 6.625], "texture": "#0"},
				"down": {"uv": [14.25, 6.375, 14.5, 6.625], "texture": "#0"}
			}
		},
		{
			"from": [9.89914, -0.6631, 3],
			"to": [10.89914, 0.7369, 4],
			"rotation": {"angle": 45, "axis": "z", "origin": [5.39914, -9.2631, 3.5]},
			"faces": {
				"north": {"uv": [14.25, 6.375, 14.5, 6.625], "texture": "#0"},
				"east": {"uv": [14.25, 6.375, 14.5, 6.625], "texture": "#0"},
				"south": {"uv": [14.25, 6.375, 14.5, 6.625], "texture": "#0"},
				"west": {"uv": [14.25, 6.375, 14.5, 6.625], "texture": "#0"},
				"up": {"uv": [14.25, 6.375, 14.5, 6.625], "texture": "#0"},
				"down": {"uv": [14.25, 6.375, 14.5, 6.625], "texture": "#0"}
			}
		},
		{
			"from": [-4.18198, 13.63984, 3],
			"to": [-3.18198, 15.03984, 4],
			"rotation": {"angle": -45, "axis": "z", "origin": [1.31802, 5.03984, 3.5]},
			"faces": {
				"north": {"uv": [14.25, 6.375, 14.5, 6.625], "texture": "#0"},
				"east": {"uv": [14.25, 6.375, 14.5, 6.625], "texture": "#0"},
				"south": {"uv": [14.25, 6.375, 14.5, 6.625], "texture": "#0"},
				"west": {"uv": [14.25, 6.375, 14.5, 6.625], "texture": "#0"},
				"up": {"uv": [14.25, 6.375, 14.5, 6.625], "texture": "#0"},
				"down": {"uv": [14.25, 6.375, 14.5, 6.625], "texture": "#0"}
			}
		},
		{
			"from": [5.10086, -0.6631, 3],
			"to": [6.10086, 0.7369, 4],
			"rotation": {"angle": -45, "axis": "z", "origin": [10.60086, -9.2631, 3.5]},
			"faces": {
				"north": {"uv": [14.25, 6.375, 14.5, 6.625], "texture": "#0"},
				"east": {"uv": [14.25, 6.375, 14.5, 6.625], "texture": "#0"},
				"south": {"uv": [14.25, 6.375, 14.5, 6.625], "texture": "#0"},
				"west": {"uv": [14.25, 6.375, 14.5, 6.625], "texture": "#0"},
				"up": {"uv": [14.25, 6.375, 14.5, 6.625], "texture": "#0"},
				"down": {"uv": [14.25, 6.375, 14.5, 6.625], "texture": "#0"}
			}
		},
		{
			"from": [1.5, 1, 3],
			"to": [14.5, 10, 4],
			"rotation": {"angle": 0, "axis": "y", "origin": [20.5, 9, 11]},
			"faces": {
				"north": {"uv": [14.25, 6.375, 14.5, 6.625], "texture": "#0"},
				"east": {"uv": [14.25, 6.375, 14.5, 6.625], "texture": "#0"},
				"south": {"uv": [14.25, 6.375, 14.5, 6.625], "texture": "#0"},
				"west": {"uv": [14.25, 6.375, 14.5, 6.625], "texture": "#0"},
				"up": {"uv": [14.25, 6.375, 14.5, 6.625], "texture": "#0"},
				"down": {"uv": [14.25, 6.375, 14.5, 6.625], "texture": "#0"}
			}
		},
		{
			"from": [2.5, 4.7, 4],
			"to": [13.5, 11.1, 4.2],
			"rotation": {"angle": 0, "axis": "y", "origin": [20.5, 11.9, 11.2]},
			"faces": {
				"north": {"uv": [13.625, 4.75, 13.875, 5.125], "texture": "#0"},
				"east": {"uv": [13.625, 4.75, 13.875, 5.125], "texture": "#0"},
				"south": {"uv": [13.625, 4.75, 13.875, 5.125], "texture": "#0"},
				"west": {"uv": [13.625, 4.75, 13.875, 5.125], "texture": "#0"},
				"up": {"uv": [13.625, 4.75, 13.875, 5.125], "texture": "#0"},
				"down": {"uv": [13.625, 4.75, 13.875, 5.125], "texture": "#0"}
			}
		},
		{
			"from": [4.5, 15, 3],
			"to": [11.5, 16, 4],
			"rotation": {"angle": 0, "axis": "y", "origin": [20.5, 23, 11]},
			"faces": {
				"north": {"uv": [14.25, 6.375, 14.5, 6.625], "texture": "#0"},
				"east": {"uv": [14.25, 6.375, 14.5, 6.625], "texture": "#0"},
				"south": {"uv": [14.25, 6.375, 14.5, 6.625], "texture": "#0"},
				"west": {"uv": [14.25, 6.375, 14.5, 6.625], "texture": "#0"},
				"up": {"uv": [14.25, 6.375, 14.5, 6.625], "texture": "#0"},
				"down": {"uv": [14.25, 6.375, 14.5, 6.625], "texture": "#0"}
			}
		},
		{
			"from": [7.5, 5.9, 4],
			"to": [8.5, 9.9, 4.5],
			"rotation": {"angle": 0, "axis": "y", "origin": [20.5, 5.9, 11]},
			"faces": {
				"north": {"uv": [2.875, 3.375, 3, 3.5], "texture": "#0"},
				"east": {"uv": [2.875, 3.375, 3, 3.5], "texture": "#0"},
				"south": {"uv": [2.875, 3.375, 3, 3.5], "texture": "#0"},
				"west": {"uv": [2.875, 3.375, 3, 3.5], "texture": "#0"},
				"up": {"uv": [2.875, 3.375, 3, 3.5], "texture": "#0"},
				"down": {"uv": [2.875, 3.375, 3, 3.5], "texture": "#0"}
			}
		},
		{
			"from": [7.5, 9.9, 4],
			"to": [8.5, 10.6, 9.2],
			"rotation": {"angle": 0, "axis": "y", "origin": [8, 10.15, 6]},
			"faces": {
				"north": {"uv": [2.875, 3.375, 3, 3.5], "texture": "#0"},
				"east": {"uv": [2.875, 3.375, 3, 3.5], "texture": "#0"},
				"south": {"uv": [2.875, 3.375, 3, 3.5], "texture": "#0"},
				"west": {"uv": [2.875, 3.375, 3, 3.5], "rotation": 270, "texture": "#0"},
				"up": {"uv": [2.875, 3.375, 3, 3.5], "texture": "#0"},
				"down": {"uv": [2.875, 3.375, 3, 3.5], "texture": "#0"}
			}
		},
		{
			"from": [7.5, 5.2, 4],
			"to": [8.5, 5.9, 9.2],
			"rotation": {"angle": 0, "axis": "y", "origin": [8, 6.775, 6.875]},
			"faces": {
				"north": {"uv": [2.875, 3.375, 3, 3.5], "texture": "#0"},
				"east": {"uv": [2.875, 3.375, 3, 3.5], "texture": "#0"},
				"south": {"uv": [2.875, 3.375, 3, 3.5], "texture": "#0"},
				"west": {"uv": [2.875, 3.375, 3, 3.5], "rotation": 90, "texture": "#0"},
				"up": {"uv": [2.875, 3.375, 3, 3.5], "texture": "#0"},
				"down": {"uv": [2.875, 3.375, 3, 3.5], "texture": "#0"}
			}
		},
		{
			"from": [7.5, 5.9, 8.5],
			"to": [8.5, 9.9, 9.2],
			"rotation": {"angle": 0, "axis": "y", "origin": [8, 6.775, 7.875]},
			"faces": {
				"north": {"uv": [2.875, 3.375, 3, 3.5], "texture": "#0"},
				"east": {"uv": [2.875, 3.375, 3, 3.5], "texture": "#0"},
				"south": {"uv": [2.875, 3.375, 3, 3.5], "texture": "#0"},
				"west": {"uv": [2.875, 3.375, 3, 3.5], "rotation": 180, "texture": "#0"},
				"up": {"uv": [2.875, 3.375, 3, 3.5], "texture": "#0"},
				"down": {"uv": [2.875, 3.375, 3, 3.5], "texture": "#0"}
			}
		},
		{
			"from": [19.68198, 13.63984, 2.8001],
			"to": [20.18198, 15.03984, 3.0001],
			"rotation": {"angle": 45, "axis": "z", "origin": [14.68198, 5.03984, 3.5]},
			"faces": {
				"north": {"uv": [9.375, 9.875, 9.625, 10.15], "texture": "#0"},
				"east": {"uv": [9.375, 9.875, 9.625, 10.15], "texture": "#0"},
				"south": {"uv": [9.375, 9.875, 9.625, 10.15], "texture": "#0"},
				"west": {"uv": [9.375, 9.875, 9.625, 10.15], "texture": "#0"},
				"up": {"uv": [9.375, 9.875, 9.625, 10.15], "texture": "#0"},
				"down": {"uv": [9.375, 9.875, 9.625, 10.15], "texture": "#0"}
			}
		},
		{
			"from": [-4.18198, 13.63984, 2.8001],
			"to": [-3.68198, 15.03984, 3.0001],
			"rotation": {"angle": -45, "axis": "z", "origin": [1.31802, 5.03984, 3.5]},
			"faces": {
				"north": {"uv": [9.375, 9.875, 9.625, 10.15], "texture": "#0"},
				"east": {"uv": [9.375, 9.875, 9.625, 10.15], "texture": "#0"},
				"south": {"uv": [9.375, 9.875, 9.625, 10.15], "texture": "#0"},
				"west": {"uv": [9.375, 9.875, 9.625, 10.15], "texture": "#0"},
				"up": {"uv": [9.375, 9.875, 9.625, 10.15], "texture": "#0"},
				"down": {"uv": [9.375, 9.875, 9.625, 10.15], "texture": "#0"}
			}
		},
		{
			"from": [9.89914, -0.6631, 2.8001],
			"to": [10.39914, 0.7369, 3.0001],
			"rotation": {"angle": 45, "axis": "z", "origin": [5.39914, -9.2631, 3.5]},
			"faces": {
				"north": {"uv": [9.375, 9.875, 9.625, 10.15], "texture": "#0"},
				"east": {"uv": [9.375, 9.875, 9.625, 10.15], "texture": "#0"},
				"south": {"uv": [9.375, 9.875, 9.625, 10.15], "texture": "#0"},
				"west": {"uv": [9.375, 9.875, 9.625, 10.15], "texture": "#0"},
				"up": {"uv": [9.375, 9.875, 9.625, 10.15], "texture": "#0"},
				"down": {"uv": [9.375, 9.875, 9.625, 10.15], "texture": "#0"}
			}
		},
		{
			"from": [5.60086, -0.6631, 2.8001],
			"to": [6.10086, 0.7369, 3.0001],
			"rotation": {"angle": -45, "axis": "z", "origin": [10.60086, -9.2631, 3.5]},
			"faces": {
				"north": {"uv": [9.375, 9.875, 9.625, 10.15], "texture": "#0"},
				"east": {"uv": [9.375, 9.875, 9.625, 10.15], "texture": "#0"},
				"south": {"uv": [9.375, 9.875, 9.625, 10.15], "texture": "#0"},
				"west": {"uv": [9.375, 9.875, 9.625, 10.15], "texture": "#0"},
				"up": {"uv": [9.375, 9.875, 9.625, 10.15], "texture": "#0"},
				"down": {"uv": [9.375, 9.875, 9.625, 10.15], "texture": "#0"}
			}
		},
		{
			"from": [4.5, 15.5, 2.8],
			"to": [11.5, 16, 3],
			"rotation": {"angle": 0, "axis": "y", "origin": [20.5, 23, 10]},
			"faces": {
				"north": {"uv": [9.375, 9.875, 9.625, 10.15], "texture": "#0"},
				"east": {"uv": [9.375, 9.875, 9.625, 10.15], "texture": "#0"},
				"south": {"uv": [9.375, 9.875, 9.625, 10.15], "texture": "#0"},
				"west": {"uv": [9.375, 9.875, 9.625, 10.15], "texture": "#0"},
				"up": {"uv": [9.375, 9.875, 9.625, 10.15], "texture": "#0"},
				"down": {"uv": [9.375, 9.875, 9.625, 10.15], "texture": "#0"}
			}
		},
		{
			"from": [2.5, 0, 2.8],
			"to": [13.5, 0.5, 3],
			"rotation": {"angle": 0, "axis": "y", "origin": [20.5, 8, 10]},
			"faces": {
				"north": {"uv": [9.375, 9.875, 9.625, 10.15], "texture": "#0"},
				"east": {"uv": [9.375, 9.875, 9.625, 10.15], "texture": "#0"},
				"south": {"uv": [9.375, 9.875, 9.625, 10.15], "texture": "#0"},
				"west": {"uv": [9.375, 9.875, 9.625, 10.15], "texture": "#0"},
				"up": {"uv": [9.375, 9.875, 9.625, 10.15], "texture": "#0"},
				"down": {"uv": [9.375, 9.875, 9.625, 10.15], "texture": "#0"}
			}
		},
		{
			"from": [1.51005, 1.01005, 2.8],
			"to": [2.01005, 12.01005, 3],
			"rotation": {"angle": 0, "axis": "y", "origin": [20.51005, 1.01005, 11]},
			"faces": {
				"north": {"uv": [9.375, 9.875, 9.625, 10.15], "texture": "#0"},
				"east": {"uv": [9.375, 9.875, 9.625, 10.15], "texture": "#0"},
				"south": {"uv": [9.375, 9.875, 9.625, 10.15], "texture": "#0"},
				"west": {"uv": [9.375, 9.875, 9.625, 10.15], "texture": "#0"},
				"up": {"uv": [9.375, 9.875, 9.625, 10.15], "texture": "#0"},
				"down": {"uv": [9.375, 9.875, 9.625, 10.15], "texture": "#0"}
			}
		},
		{
			"from": [13.98995, 1.01005, 2.8],
			"to": [14.48995, 12.01005, 3],
			"rotation": {"angle": 0, "axis": "y", "origin": [-4.51005, 1.01005, 11]},
			"faces": {
				"north": {"uv": [9.375, 9.875, 9.625, 10.15], "texture": "#0"},
				"east": {"uv": [9.375, 9.875, 9.625, 10.15], "texture": "#0"},
				"south": {"uv": [9.375, 9.875, 9.625, 10.15], "texture": "#0"},
				"west": {"uv": [9.375, 9.875, 9.625, 10.15], "texture": "#0"},
				"up": {"uv": [9.375, 9.875, 9.625, 10.15], "texture": "#0"},
				"down": {"uv": [9.375, 9.875, 9.625, 10.15], "texture": "#0"}
			}
		},
		{
			"from": [1.51005, 11.51005, 2.8001],
			"to": [4.01005, 12.01005, 3.0001],
			"rotation": {"angle": 0, "axis": "y", "origin": [7.21005, 11.76005, 2.9]},
			"faces": {
				"north": {"uv": [9.375, 9.875, 9.625, 10.15], "rotation": 270, "texture": "#0"},
				"east": {"uv": [9.375, 9.875, 9.625, 10.15], "rotation": 90, "texture": "#0"},
				"south": {"uv": [9.375, 9.875, 9.625, 10.15], "rotation": 90, "texture": "#0"},
				"west": {"uv": [9.375, 9.875, 9.625, 10.15], "rotation": 90, "texture": "#0"},
				"up": {"uv": [9.375, 9.875, 9.625, 10.15], "rotation": 90, "texture": "#0"},
				"down": {"uv": [9.375, 9.875, 9.625, 10.15], "rotation": 90, "texture": "#0"}
			}
		},
		{
			"from": [3.51005, 11.51005, 2.8],
			"to": [4.01005, 15.01005, 3],
			"rotation": {"angle": 0, "axis": "y", "origin": [22.51005, 4.01005, 11]},
			"faces": {
				"north": {"uv": [9.375, 9.875, 9.625, 10.15], "texture": "#0"},
				"east": {"uv": [9.375, 9.875, 9.625, 10.15], "texture": "#0"},
				"south": {"uv": [9.375, 9.875, 9.625, 10.15], "texture": "#0"},
				"west": {"uv": [9.375, 9.875, 9.625, 10.15], "texture": "#0"},
				"up": {"uv": [9.375, 9.875, 9.625, 10.15], "texture": "#0"},
				"down": {"uv": [9.375, 9.875, 9.625, 10.15], "texture": "#0"}
			}
		},
		{
			"from": [11.98995, 11.51005, 2.8001],
			"to": [14.48995, 12.01005, 3.0001],
			"rotation": {"angle": 0, "axis": "y", "origin": [8.78995, 11.76005, 2.9]},
			"faces": {
				"north": {"uv": [9.375, 10.15, 9.625, 9.875], "rotation": 270, "texture": "#0"},
				"east": {"uv": [9.375, 10.15, 9.625, 9.875], "rotation": 90, "texture": "#0"},
				"south": {"uv": [9.375, 10.15, 9.625, 9.875], "rotation": 90, "texture": "#0"},
				"west": {"uv": [9.375, 10.15, 9.625, 9.875], "rotation": 90, "texture": "#0"},
				"up": {"uv": [9.375, 10.15, 9.625, 9.875], "rotation": 90, "texture": "#0"},
				"down": {"uv": [9.375, 10.15, 9.625, 9.875], "rotation": 90, "texture": "#0"}
			}
		},
		{
			"from": [11.98995, 11.51005, 2.8],
			"to": [12.48995, 15.01005, 3],
			"rotation": {"angle": 0, "axis": "y", "origin": [-6.51005, 4.01005, 11]},
			"faces": {
				"north": {"uv": [9.625, 9.875, 9.375, 10.15], "texture": "#0"},
				"east": {"uv": [9.625, 9.875, 9.375, 10.15], "texture": "#0"},
				"south": {"uv": [9.625, 9.875, 9.375, 10.15], "texture": "#0"},
				"west": {"uv": [9.625, 9.875, 9.375, 10.15], "texture": "#0"},
				"up": {"uv": [9.625, 9.875, 9.375, 10.15], "texture": "#0"},
				"down": {"uv": [9.625, 9.875, 9.375, 10.15], "texture": "#0"}
			}
		},
		{
			"from": [11.8, 9.7, 2.7],
			"to": [12.2, 10.1, 3],
			"rotation": {"angle": 0, "axis": "y", "origin": [20.5, 11.9, 10]},
			"faces": {
				"north": {"uv": [13.625, 4.75, 13.875, 5.125], "texture": "#0"},
				"east": {"uv": [13.625, 4.75, 13.875, 5.125], "texture": "#0"},
				"south": {"uv": [13.625, 4.75, 13.875, 5.125], "texture": "#0"},
				"west": {"uv": [13.625, 4.75, 13.875, 5.125], "texture": "#0"},
				"up": {"uv": [13.625, 4.75, 13.875, 5.125], "texture": "#0"},
				"down": {"uv": [13.625, 4.75, 13.875, 5.125], "texture": "#0"}
			}
		},
		{
			"from": [3.8, 9.7, 2.7],
			"to": [4.2, 10.1, 3],
			"rotation": {"angle": 0, "axis": "y", "origin": [20.5, 11.9, 10]},
			"faces": {
				"north": {"uv": [13.625, 4.75, 13.875, 5.125], "texture": "#0"},
				"east": {"uv": [13.625, 4.75, 13.875, 5.125], "texture": "#0"},
				"south": {"uv": [13.625, 4.75, 13.875, 5.125], "texture": "#0"},
				"west": {"uv": [13.625, 4.75, 13.875, 5.125], "texture": "#0"},
				"up": {"uv": [13.625, 4.75, 13.875, 5.125], "texture": "#0"},
				"down": {"uv": [13.625, 4.75, 13.875, 5.125], "texture": "#0"}
			}
		},
		{
			"from": [11.8, 5.7, 2.7],
			"to": [12.2, 6.1, 3],
			"rotation": {"angle": 0, "axis": "y", "origin": [20.5, 11.9, 10]},
			"faces": {
				"north": {"uv": [13.625, 4.75, 13.875, 5.125], "texture": "#0"},
				"east": {"uv": [13.625, 4.75, 13.875, 5.125], "texture": "#0"},
				"south": {"uv": [13.625, 4.75, 13.875, 5.125], "texture": "#0"},
				"west": {"uv": [13.625, 4.75, 13.875, 5.125], "texture": "#0"},
				"up": {"uv": [13.625, 4.75, 13.875, 5.125], "texture": "#0"},
				"down": {"uv": [13.625, 4.75, 13.875, 5.125], "texture": "#0"}
			}
		},
		{
			"from": [3.8, 5.7, 2.7],
			"to": [4.2, 6.1, 3],
			"rotation": {"angle": 0, "axis": "y", "origin": [20.5, 11.9, 10]},
			"faces": {
				"north": {"uv": [13.625, 4.75, 13.875, 5.125], "texture": "#0"},
				"east": {"uv": [13.625, 4.75, 13.875, 5.125], "texture": "#0"},
				"south": {"uv": [13.625, 4.75, 13.875, 5.125], "texture": "#0"},
				"west": {"uv": [13.625, 4.75, 13.875, 5.125], "texture": "#0"},
				"up": {"uv": [13.625, 4.75, 13.875, 5.125], "texture": "#0"},
				"down": {"uv": [13.625, 4.75, 13.875, 5.125], "texture": "#0"}
			}
		},
		{
			"from": [10.05, 7.2, 2.3],
			"to": [11.15, 8.3, 2.9],
			"rotation": {"angle": -45, "axis": "z", "origin": [10.85, 8, 2.65]},
			"faces": {
				"north": {"uv": [0.625, 9.625, 1.125, 10.125], "rotation": 90, "texture": "#0"},
				"east": {"uv": [0.625, 9.625, 1.125, 10.125], "rotation": 90, "texture": "#0"},
				"south": {"uv": [0.625, 9.625, 1.125, 10.125], "rotation": 90, "texture": "#0"},
				"west": {"uv": [0.625, 9.625, 1.125, 10.125], "rotation": 90, "texture": "#0"},
				"up": {"uv": [0.625, 9.625, 1.125, 10.125], "rotation": 90, "texture": "#0"},
				"down": {"uv": [0.625, 9.625, 1.125, 10.125], "rotation": 90, "texture": "#0"}
			}
		},
		{
			"from": [8.375, 7.2, 2.3],
			"to": [9.475, 8.3, 2.9],
			"rotation": {"angle": -45, "axis": "z", "origin": [9.175, 8, 2.65]},
			"faces": {
				"north": {"uv": [0.625, 9.625, 1.125, 10.125], "rotation": 90, "texture": "#0"},
				"east": {"uv": [0.625, 9.625, 1.125, 10.125], "rotation": 90, "texture": "#0"},
				"south": {"uv": [0.625, 9.625, 1.125, 10.125], "rotation": 90, "texture": "#0"},
				"west": {"uv": [0.625, 9.625, 1.125, 10.125], "rotation": 90, "texture": "#0"},
				"up": {"uv": [0.625, 9.625, 1.125, 10.125], "rotation": 90, "texture": "#0"},
				"down": {"uv": [0.625, 9.625, 1.125, 10.125], "rotation": 90, "texture": "#0"}
			}
		},
		{
			"from": [4.5, 6.5, 2.5],
			"to": [11.5, 9.5, 3],
			"rotation": {"angle": 0, "axis": "y", "origin": [20.5, 3.5, 9.8]},
			"faces": {
				"north": {"uv": [7, 11.625, 7.5, 12.125], "texture": "#0"},
				"east": {"uv": [7, 11.625, 7.5, 12.125], "texture": "#0"},
				"south": {"uv": [7, 11.625, 7.5, 12.125], "texture": "#0"},
				"west": {"uv": [7, 11.625, 7.5, 12.125], "texture": "#0"},
				"up": {"uv": [7, 11.625, 7.5, 12.125], "texture": "#0"},
				"down": {"uv": [7, 11.625, 7.5, 12.125], "texture": "#0"}
			}
		},
		{
			"from": [6.725, 7.2, 2.3],
			"to": [7.825, 8.3, 2.9],
			"rotation": {"angle": -45, "axis": "z", "origin": [7.525, 8, 2.65]},
			"faces": {
				"north": {"uv": [0.625, 9.625, 1.125, 10.125], "rotation": 90, "texture": "#0"},
				"east": {"uv": [0.625, 9.625, 1.125, 10.125], "rotation": 90, "texture": "#0"},
				"south": {"uv": [0.625, 9.625, 1.125, 10.125], "rotation": 90, "texture": "#0"},
				"west": {"uv": [0.625, 9.625, 1.125, 10.125], "rotation": 90, "texture": "#0"},
				"up": {"uv": [0.625, 9.625, 1.125, 10.125], "rotation": 90, "texture": "#0"},
				"down": {"uv": [0.625, 9.625, 1.125, 10.125], "rotation": 90, "texture": "#0"}
			}
		},
		{
			"from": [5.05, 7.2, 2.3],
			"to": [6.15, 8.3, 2.9],
			"rotation": {"angle": -45, "axis": "z", "origin": [5.85, 8, 2.65]},
			"faces": {
				"north": {"uv": [0.625, 9.625, 1.125, 10.125], "rotation": 90, "texture": "#0"},
				"east": {"uv": [0.625, 9.625, 1.125, 10.125], "rotation": 90, "texture": "#0"},
				"south": {"uv": [0.625, 9.625, 1.125, 10.125], "rotation": 90, "texture": "#0"},
				"west": {"uv": [0.625, 9.625, 1.125, 10.125], "rotation": 90, "texture": "#0"},
				"up": {"uv": [0.625, 9.625, 1.125, 10.125], "rotation": 90, "texture": "#0"},
				"down": {"uv": [0.625, 9.625, 1.125, 10.125], "rotation": 90, "texture": "#0"}
			}
		},
		{
			"from": [11.96572, 10.35856, 2.7],
			"to": [12.26572, 12.35856, 3],
			"rotation": {"angle": -22.5, "axis": "z", "origin": [12.11572, 10.66572, 3.43]},
			"faces": {
				"north": {"uv": [6.375, 3.375, 6.5, 3.5], "texture": "#0"},
				"east": {"uv": [6.375, 3.375, 6.5, 3.5], "texture": "#0"},
				"south": {"uv": [6.375, 3.375, 6.5, 3.5], "texture": "#0"},
				"west": {"uv": [6.375, 3.375, 6.5, 3.5], "texture": "#0"},
				"up": {"uv": [6.375, 3.375, 6.5, 3.5], "texture": "#0"},
				"down": {"uv": [6.375, 3.375, 6.5, 3.5], "texture": "#0"}
			}
		},
		{
			"from": [10.43883, 9.29048, 2.7],
			"to": [10.73883, 10.29048, 3],
			"rotation": {"angle": -22.5, "axis": "z", "origin": [10.58883, 8.59764, 3.43]},
			"faces": {
				"north": {"uv": [6.375, 3.375, 6.5, 3.5], "texture": "#0"},
				"east": {"uv": [6.375, 3.375, 6.5, 3.5], "texture": "#0"},
				"south": {"uv": [6.375, 3.375, 6.5, 3.5], "texture": "#0"},
				"west": {"uv": [6.375, 3.375, 6.5, 3.5], "texture": "#0"},
				"up": {"uv": [6.375, 3.375, 6.5, 3.5], "texture": "#0"},
				"down": {"uv": [6.375, 3.375, 6.5, 3.5], "texture": "#0"}
			}
		},
		{
			"from": [12.26572, 10.84435, 2.6],
			"to": [12.76572, 11.14435, 3],
			"rotation": {"angle": -22.5, "axis": "z", "origin": [12.51572, 11.66572, 3.43]},
			"faces": {
				"north": {"uv": [7.25, 12.375, 7.375, 12.5], "texture": "#0"},
				"east": {"uv": [7.25, 12.375, 7.375, 12.5], "rotation": 270, "texture": "#0"},
				"south": {"uv": [7.25, 12.375, 7.375, 12.5], "rotation": 270, "texture": "#0"},
				"west": {"uv": [7.25, 12.375, 7.375, 12.5], "rotation": 270, "texture": "#0"},
				"up": {"uv": [7.25, 12.375, 7.375, 12.5], "rotation": 270, "texture": "#0"},
				"down": {"uv": [7.25, 12.375, 7.375, 12.5], "rotation": 270, "texture": "#0"}
			}
		},
		{
			"from": [12.55668, 11.90668, 3.3],
			"to": [12.95668, 12.40668, 3.6],
			"rotation": {"angle": 0, "axis": "y", "origin": [12.70668, 12.15668, 3.35]},
			"faces": {
				"north": {"uv": [7.25, 12.375, 7.375, 12.5], "rotation": 270, "texture": "#0"},
				"east": {"uv": [7.25, 12.375, 7.375, 12.5], "rotation": 270, "texture": "#0"},
				"south": {"uv": [7.25, 12.375, 7.375, 12.5], "rotation": 270, "texture": "#0"},
				"west": {"uv": [7.25, 12.375, 7.375, 12.5], "rotation": 270, "texture": "#0"},
				"up": {"uv": [7.25, 12.375, 7.375, 12.5], "rotation": 270, "texture": "#0"},
				"down": {"uv": [7.25, 12.375, 7.375, 12.5], "rotation": 270, "texture": "#0"}
			}
		},
		{
			"from": [11.96572, 12.05856, 3],
			"to": [12.26572, 12.35856, 4.3],
			"rotation": {"angle": -22.5, "axis": "z", "origin": [12.11572, 10.66572, 3.83]},
			"faces": {
				"north": {"uv": [6.375, 3.375, 6.5, 3.5], "texture": "#0"},
				"east": {"uv": [6.375, 3.375, 6.5, 3.5], "texture": "#0"},
				"south": {"uv": [6.375, 3.375, 6.5, 3.5], "texture": "#0"},
				"west": {"uv": [6.375, 3.375, 6.5, 3.5], "texture": "#0"},
				"up": {"uv": [6.375, 3.375, 6.5, 3.5], "texture": "#0"},
				"down": {"uv": [6.375, 3.375, 6.5, 3.5], "texture": "#0"}
			}
		},
		{
			"from": [11.96572, 8.65856, 4],
			"to": [12.26572, 12.35856, 4.3],
			"rotation": {"angle": -22.5, "axis": "z", "origin": [12.11572, 10.66572, 3.53]},
			"faces": {
				"north": {"uv": [6.375, 3.375, 6.5, 3.5], "texture": "#0"},
				"east": {"uv": [6.375, 3.375, 6.5, 3.5], "texture": "#0"},
				"south": {"uv": [6.375, 3.375, 6.5, 3.5], "texture": "#0"},
				"west": {"uv": [6.375, 3.375, 6.5, 3.5], "texture": "#0"},
				"up": {"uv": [6.375, 3.375, 6.5, 3.5], "texture": "#0"},
				"down": {"uv": [6.375, 3.375, 6.5, 3.5], "texture": "#0"}
			}
		},
		{
			"from": [12.06572, 11.35856, 4],
			"to": [12.56572, 11.65856, 4.4],
			"rotation": {"angle": -22.5, "axis": "z", "origin": [12.31572, 11.16572, 3.43]},
			"faces": {
				"north": {"uv": [7.25, 12.375, 7.375, 12.5], "texture": "#0"},
				"east": {"uv": [7.25, 12.375, 7.375, 12.5], "rotation": 270, "texture": "#0"},
				"south": {"uv": [7.25, 12.375, 7.375, 12.5], "rotation": 270, "texture": "#0"},
				"west": {"uv": [7.25, 12.375, 7.375, 12.5], "rotation": 270, "texture": "#0"},
				"up": {"uv": [7.25, 12.375, 7.375, 12.5], "rotation": 270, "texture": "#0"},
				"down": {"uv": [7.25, 12.375, 7.375, 12.5], "rotation": 270, "texture": "#0"}
			}
		},
		{
			"from": [11.2, 7.5, 4.1],
			"to": [13.2, 9.5, 4.6],
			"rotation": {"angle": 0, "axis": "y", "origin": [22.2, 3.5, 11.4]},
			"faces": {
				"north": {"uv": [7, 11.75, 7.25, 12.125], "texture": "#0"},
				"east": {"uv": [7, 11.75, 7.25, 12.125], "texture": "#0"},
				"south": {"uv": [7, 11.75, 7.25, 12.125], "texture": "#0"},
				"west": {"uv": [7, 11.75, 7.25, 12.125], "texture": "#0"},
				"up": {"uv": [7, 11.75, 7.25, 12.125], "texture": "#0"},
				"down": {"uv": [7, 11.75, 7.25, 12.125], "texture": "#0"}
			}
		},
		{
			"from": [11.175, 5.5, 4.1],
			"to": [12.175, 7.5, 4.6],
			"rotation": {"angle": 0, "axis": "y", "origin": [11.675, 6, 4.35]},
			"faces": {
				"north": {"uv": [13.875, 3.125, 14, 3.25], "texture": "#0"},
				"east": {"uv": [13.875, 3.125, 14, 3.25], "texture": "#0"},
				"south": {"uv": [13.875, 3.125, 14, 3.25], "texture": "#0"},
				"west": {"uv": [13.875, 3.125, 14, 3.25], "texture": "#0"},
				"up": {"uv": [13.875, 3.125, 14, 3.25], "texture": "#0"},
				"down": {"uv": [13.875, 3.125, 14, 3.25], "texture": "#0"}
			}
		},
		{
			"from": [12.225, 5.5, 4.1],
			"to": [13.225, 7.5, 4.6],
			"rotation": {"angle": 0, "axis": "y", "origin": [12.725, 6, 4.35]},
			"faces": {
				"north": {"uv": [13.875, 3.125, 14, 3.25], "texture": "#0"},
				"east": {"uv": [13.875, 3.125, 14, 3.25], "texture": "#0"},
				"south": {"uv": [13.875, 3.125, 14, 3.25], "texture": "#0"},
				"west": {"uv": [13.875, 3.125, 14, 3.25], "texture": "#0"},
				"up": {"uv": [13.875, 3.125, 14, 3.25], "texture": "#0"},
				"down": {"uv": [13.875, 3.125, 14, 3.25], "texture": "#0"}
			}
		},
		{
			"from": [7.85459, 9.05459, 4],
			"to": [9.55459, 9.35459, 4.3],
			"rotation": {"angle": -45, "axis": "z", "origin": [9.55459, 9.20459, 4.175]},
			"faces": {
				"north": {"uv": [6.375, 3.375, 6.5, 3.5], "rotation": 270, "texture": "#0"},
				"east": {"uv": [6.375, 3.375, 6.5, 3.5], "rotation": 90, "texture": "#0"},
				"south": {"uv": [6.375, 3.375, 6.5, 3.5], "rotation": 90, "texture": "#0"},
				"west": {"uv": [6.375, 3.375, 6.5, 3.5], "rotation": 90, "texture": "#0"},
				"up": {"uv": [6.375, 3.375, 6.5, 3.5], "rotation": 90, "texture": "#0"},
				"down": {"uv": [6.375, 3.375, 6.5, 3.5], "rotation": 90, "texture": "#0"}
			}
		},
		{
			"from": [9.36997, 9.06421, 4],
			"to": [9.66997, 9.56421, 4.4],
			"rotation": {"angle": -22.5, "axis": "z", "origin": [9.51997, 9.31421, 4.2]},
			"faces": {
				"north": {"uv": [7.25, 12.375, 7.375, 12.5], "rotation": 270, "texture": "#0"},
				"east": {"uv": [7.25, 12.375, 7.375, 12.5], "rotation": 270, "texture": "#0"},
				"south": {"uv": [7.25, 12.375, 7.375, 12.5], "rotation": 270, "texture": "#0"},
				"west": {"uv": [7.25, 12.375, 7.375, 12.5], "rotation": 270, "texture": "#0"},
				"up": {"uv": [7.25, 12.375, 7.375, 12.5], "rotation": 270, "texture": "#0"},
				"down": {"uv": [7.25, 12.375, 7.375, 12.5], "rotation": 270, "texture": "#0"}
			}
		},
		{
			"from": [7.5, 10.6, 6],
			"to": [8.5, 10.8, 8.2],
			"rotation": {"angle": 0, "axis": "y", "origin": [8, 10.35, 6]},
			"faces": {
				"north": {"uv": [2.875, 3.375, 3, 3.5], "texture": "#0"},
				"east": {"uv": [2.875, 3.375, 3, 3.5], "texture": "#0"},
				"south": {"uv": [2.875, 3.375, 3, 3.5], "texture": "#0"},
				"west": {"uv": [2.875, 3.375, 3, 3.5], "rotation": 270, "texture": "#0"},
				"up": {"uv": [2.875, 3.375, 3, 3.5], "texture": "#0"},
				"down": {"uv": [2.875, 3.375, 3, 3.5], "texture": "#0"}
			}
		},
		{
			"from": [7.8, 10.8, 6.9],
			"to": [8.2, 11.1, 7.3],
			"rotation": {"angle": -45, "axis": "y", "origin": [8, 10.95, 7.1]},
			"faces": {
				"north": {"uv": [14, 9.625, 14.125, 9.75], "texture": "#0"},
				"east": {"uv": [14, 9.625, 14.125, 9.75], "texture": "#0"},
				"south": {"uv": [14, 9.625, 14.125, 9.75], "texture": "#0"},
				"west": {"uv": [14, 9.625, 14.125, 9.75], "texture": "#0"},
				"up": {"uv": [14, 9.625, 14.125, 9.75], "texture": "#0"},
				"down": {"uv": [14, 9.625, 14.125, 9.75], "texture": "#0"}
			}
		},
		{
			"from": [11.15548, 9.93044, 2.7],
			"to": [12.15548, 10.23044, 3],
			"rotation": {"angle": 22.5, "axis": "z", "origin": [11.15548, 10.08044, 2.85]},
			"faces": {
				"north": {"uv": [6.375, 3.375, 6.5, 3.5], "rotation": 270, "texture": "#0"},
				"east": {"uv": [6.375, 3.375, 6.5, 3.5], "rotation": 90, "texture": "#0"},
				"south": {"uv": [6.375, 3.375, 6.5, 3.5], "rotation": 90, "texture": "#0"},
				"west": {"uv": [6.375, 3.375, 6.5, 3.5], "rotation": 90, "texture": "#0"},
				"up": {"uv": [6.375, 3.375, 6.5, 3.5], "rotation": 90, "texture": "#0"},
				"down": {"uv": [6.375, 3.375, 6.5, 3.5], "rotation": 90, "texture": "#0"}
			}
		},
		{
			"from": [9.44853, 9.09853, 4],
			"to": [11.34853, 9.39853, 4.3],
			"rotation": {"angle": 0, "axis": "y", "origin": [10.29853, 9.24853, 4.15]},
			"faces": {
				"north": {"uv": [6.375, 3.375, 6.5, 3.5], "rotation": 270, "texture": "#0"},
				"east": {"uv": [6.375, 3.375, 6.5, 3.5], "rotation": 90, "texture": "#0"},
				"south": {"uv": [6.375, 3.375, 6.5, 3.5], "rotation": 90, "texture": "#0"},
				"west": {"uv": [6.375, 3.375, 6.5, 3.5], "rotation": 90, "texture": "#0"},
				"up": {"uv": [6.375, 3.375, 6.5, 3.5], "rotation": 90, "texture": "#0"},
				"down": {"uv": [6.375, 3.375, 6.5, 3.5], "rotation": 90, "texture": "#0"}
			}
		}
	],
	"display": {
		"thirdperson_righthand": {
			"rotation": [0, -90, 0],
			"translation": [-1.5, -2, 2.5]
		},
		"fixed": {
			"translation": [0, 0, 2.5]
		}
	}
}