{
	"credit": "Made with Blockbench",
	"textures": {
		"0": "gci:items/simple/texture",
		"1": "gci:items/simple/texture",
		"particle": "gci:items/simple/texture"
	},
	"elements": [
		{
			"from": [7.29289, 0, 6.87868],
			"to": [9.09289, 7, 11.22868],
			"rotation": {"angle": 0, "axis": "y", "origin": [8.29289, 2, 8.87868]},
			"faces": {
				"north": {"uv": [0, 0, 4.35, 7], "texture": "#0"},
				"east": {"uv": [0, 0, 4.35, 7], "texture": "#0"},
				"south": {"uv": [0, 0, 4.35, 7], "texture": "#0"},
				"west": {"uv": [0, 0, 4.35, 7], "texture": "#0"},
				"up": {"uv": [0, 0, 4.35, 7], "texture": "#0"},
				"down": {"uv": [0, 0, 4.35, 7], "texture": "#0"}
			}
		},
		{
			"from": [6.1383, 0, 8.24749],
			"to": [10.4883, 7, 10.04749],
			"rotation": {"angle": 45, "axis": "y", "origin": [8.1383, 2, 9.24749]},
			"faces": {
				"north": {"uv": [0, 0, 1.8, 7], "texture": "#0"},
				"east": {"uv": [0, 0, 1.8, 7], "texture": "#0"},
				"south": {"uv": [0, 0, 1.8, 7], "texture": "#0"},
				"west": {"uv": [0, 0, 1.8, 7], "texture": "#0"},
				"up": {"uv": [0, 0, 1.8, 7], "texture": "#0"},
				"down": {"uv": [0, 0, 1.8, 7], "texture": "#0"}
			}
		},
		{
			"from": [6.01569, 0, 8.15147],
			"to": [10.36569, 7, 9.95147],
			"rotation": {"angle": 0, "axis": "y", "origin": [8.01569, 2, 9.15147]},
			"faces": {
				"north": {"uv": [0, 0, 1.8, 7], "texture": "#0"},
				"east": {"uv": [0, 0, 1.8, 7], "texture": "#0"},
				"south": {"uv": [0, 0, 1.8, 7], "texture": "#0"},
				"west": {"uv": [0, 0, 1.8, 7], "texture": "#0"},
				"up": {"uv": [0, 0, 1.8, 7], "texture": "#0"},
				"down": {"uv": [0, 0, 1.8, 7], "texture": "#0"}
			}
		},
		{
			"from": [6, 0, 8],
			"to": [10.35, 7, 9.8],
			"rotation": {"angle": -45, "axis": "y", "origin": [8, 2, 9]},
			"faces": {
				"north": {"uv": [0, 0, 1.8, 7], "texture": "#0"},
				"east": {"uv": [0, 0, 1.8, 7], "texture": "#0"},
				"south": {"uv": [0, 0, 1.8, 7], "texture": "#0"},
				"west": {"uv": [0, 0, 1.8, 7], "texture": "#0"},
				"up": {"uv": [0, 0, 1.8, 7], "texture": "#0"},
				"down": {"uv": [0, 0, 1.8, 7], "texture": "#0"}
			}
		},
		{
			"from": [8, 7, 7.7],
			"to": [8.4, 8, 8.1],
			"rotation": {"angle": 0, "axis": "y", "origin": [16, 15, 15]},
			"faces": {
				"north": {"uv": [0, 0, 0.4, 1], "texture": "#1"},
				"east": {"uv": [0, 0, 0.4, 1], "texture": "#1"},
				"south": {"uv": [0, 0, 0.4, 1], "texture": "#1"},
				"west": {"uv": [0, 0, 0.4, 1], "texture": "#1"},
				"up": {"uv": [0, 0, 0.4, 1], "texture": "#1"},
				"down": {"uv": [0, 0, 0.4, 1], "texture": "#1"}
			}
		},
		{
			"from": [8, 7, 10],
			"to": [8.4, 8, 10.4],
			"rotation": {"angle": 0, "axis": "y", "origin": [16, 15, 17]},
			"faces": {
				"north": {"uv": [0, 0, 0.4, 1], "texture": "#1"},
				"east": {"uv": [0, 0, 0.4, 1], "texture": "#1"},
				"south": {"uv": [0, 0, 0.4, 1], "texture": "#1"},
				"west": {"uv": [0, 0, 0.4, 1], "texture": "#1"},
				"up": {"uv": [0, 0, 0.4, 1], "texture": "#1"},
				"down": {"uv": [0, 0, 0.4, 1], "texture": "#1"}
			}
		},
		{
			"from": [7.95, 8, 7.65],
			"to": [8.45, 8.2, 8.15],
			"rotation": {"angle": 0, "axis": "y", "origin": [16, 16, 15]},
			"faces": {
				"north": {"uv": [0, 0, 0.5, 0.2], "texture": "#1"},
				"east": {"uv": [0, 0, 0.5, 0.2], "texture": "#1"},
				"south": {"uv": [0, 0, 0.5, 0.2], "texture": "#1"},
				"west": {"uv": [0, 0, 0.5, 0.2], "texture": "#1"},
				"up": {"uv": [0, 0, 0.5, 0.2], "texture": "#1"},
				"down": {"uv": [0, 0, 0.5, 0.2], "texture": "#1"}
			}
		},
		{
			"from": [7.95, 8, 9.95],
			"to": [8.45, 8.2, 10.45],
			"rotation": {"angle": 0, "axis": "y", "origin": [16, 16, 17]},
			"faces": {
				"north": {"uv": [0, 0, 0.5, 0.2], "texture": "#1"},
				"east": {"uv": [0, 0, 0.5, 0.2], "texture": "#1"},
				"south": {"uv": [0, 0, 0.5, 0.2], "texture": "#1"},
				"west": {"uv": [0, 0, 0.5, 0.2], "texture": "#1"},
				"up": {"uv": [0, 0, 0.5, 0.2], "texture": "#1"},
				"down": {"uv": [0, 0, 0.5, 0.2], "texture": "#1"}
			}
		}
	],
	"groups": [
		{
			"name": "Bottom",
			"origin": [8, 8, 8],
			"children": [0, 1, 2, 3,
				{
					"name": "group",
					"origin": [8, 8, 8],
					"children": []
				}
			]
		},
		{
			"name": "group",
			"origin": [8, 8, 8],
			"children": [4, 5]
		},
		{
			"name": "group",
			"origin": [8, 8, 8],
			"children": [6, 7]
		}
	]
}