{
	"credit": "Made with Blockbench",
	"textures": {
		"0": "gci:items/brick/texture",
		"particle": "gci:items/brick/texture"
	},
	"elements": [
		{
			"from": [7, 3, 9.7],
			"to": [9.4, 4.3, 10],
			"rotation": {"angle": 0, "axis": "y", "origin": [18, 11, 19]},
			"faces": {
				"north": {"uv": [0, 0, 15.732, 15.965], "texture": "#0"},
				"east": {"uv": [0, 0, 5, 1.3], "texture": "#0"},
				"south": {"uv": [0, 0, 2.4, 1.3], "texture": "#0"},
				"west": {"uv": [0, 0, 16, 15.965], "texture": "#0"},
				"up": {"uv": [0.333, 5.666, 1.065, 6.664], "texture": "#0"},
				"down": {"uv": [0, 0, 2.4, 5], "texture": "#0"}
			}
		},
		{
			"from": [7, 3, 6],
			"to": [7.4, 4.3, 10],
			"rotation": {"angle": 0, "axis": "y", "origin": [18, 11, 19]},
			"faces": {
				"north": {"uv": [0, 0, 15.732, 15.965], "texture": "#0"},
				"east": {"uv": [0, 0, 5, 1.3], "texture": "#0"},
				"south": {"uv": [0, 0, 2.4, 1.3], "texture": "#0"},
				"west": {"uv": [0, 0, 16, 15.965], "texture": "#0"},
				"up": {"uv": [0.333, 5.666, 1.065, 6.664], "texture": "#0"},
				"down": {"uv": [0, 0, 2.4, 5], "texture": "#0"}
			}
		},
		{
			"from": [7, 3.4, 5.8],
			"to": [7.4, 4.2, 10],
			"rotation": {"angle": 0, "axis": "y", "origin": [18, 11.8, 19]},
			"faces": {
				"north": {"uv": [0, 0, 15.732, 15.965], "texture": "#0"},
				"east": {"uv": [0, 0, 5, 1.3], "texture": "#0"},
				"south": {"uv": [0, 0, 2.4, 1.3], "texture": "#0"},
				"west": {"uv": [0, 0, 16, 15.965], "texture": "#0"},
				"up": {"uv": [0.333, 5.666, 1.065, 6.664], "texture": "#0"},
				"down": {"uv": [0, 0, 2.4, 5], "texture": "#0"}
			}
		},
		{
			"from": [9, 3, 6.6],
			"to": [9.4, 4.3, 10],
			"rotation": {"angle": 0, "axis": "y", "origin": [18, 11, 19]},
			"faces": {
				"north": {"uv": [0, 0, 15.732, 15.965], "texture": "#0"},
				"east": {"uv": [0, 0, 5, 1.3], "texture": "#0"},
				"south": {"uv": [0, 0, 2.4, 1.3], "texture": "#0"},
				"west": {"uv": [0, 0, 16, 15.965], "texture": "#0"},
				"up": {"uv": [0.333, 5.666, 1.065, 6.664], "texture": "#0"},
				"down": {"uv": [0, 0, 2.4, 5], "texture": "#0"}
			}
		},
		{
			"from": [9, 3, 6.5],
			"to": [9.4, 3.9, 10],
			"rotation": {"angle": 0, "axis": "y", "origin": [18, 11, 19]},
			"faces": {
				"north": {"uv": [0, 0, 15.732, 15.965], "texture": "#0"},
				"east": {"uv": [0, 0, 5, 1.3], "texture": "#0"},
				"south": {"uv": [0, 0, 2.4, 1.3], "texture": "#0"},
				"west": {"uv": [0, 0, 16, 15.965], "texture": "#0"},
				"up": {"uv": [0.333, 5.666, 1.065, 6.664], "texture": "#0"},
				"down": {"uv": [0, 0, 2.4, 5], "texture": "#0"}
			}
		},
		{
			"from": [7, 3, 9.1],
			"to": [9.4, 4.3, 9.4],
			"rotation": {"angle": 0, "axis": "y", "origin": [18, 11, 18.4]},
			"faces": {
				"north": {"uv": [0, 0, 15.732, 15.965], "texture": "#0"},
				"east": {"uv": [0, 0, 5, 1.3], "texture": "#0"},
				"south": {"uv": [0, 0, 2.4, 1.3], "texture": "#0"},
				"west": {"uv": [0, 0, 16, 15.965], "texture": "#0"},
				"up": {"uv": [0.333, 5.666, 1.065, 6.664], "texture": "#0"},
				"down": {"uv": [0, 0, 2.4, 5], "texture": "#0"}
			}
		},
		{
			"from": [7, 3, 8.5],
			"to": [9.4, 4.3, 8.8],
			"rotation": {"angle": 0, "axis": "y", "origin": [18, 11, 17.8]},
			"faces": {
				"north": {"uv": [0, 0, 15.732, 15.965], "texture": "#0"},
				"east": {"uv": [0, 0, 5, 1.3], "texture": "#0"},
				"south": {"uv": [0, 0, 2.4, 1.3], "texture": "#0"},
				"west": {"uv": [0, 0, 16, 15.965], "texture": "#0"},
				"up": {"uv": [0.333, 5.666, 1.065, 6.664], "texture": "#0"},
				"down": {"uv": [0, 0, 2.4, 5], "texture": "#0"}
			}
		},
		{
			"from": [7, 3, 7.9],
			"to": [9.4, 4.3, 8.2],
			"rotation": {"angle": 0, "axis": "y", "origin": [18, 11, 17.2]},
			"faces": {
				"north": {"uv": [0, 0, 15.732, 15.965], "texture": "#0"},
				"east": {"uv": [0, 0, 5, 1.3], "texture": "#0"},
				"south": {"uv": [0, 0, 2.4, 1.3], "texture": "#0"},
				"west": {"uv": [0, 0, 16, 15.965], "texture": "#0"},
				"up": {"uv": [0.333, 5.666, 1.065, 6.664], "texture": "#0"},
				"down": {"uv": [0, 0, 2.4, 5], "texture": "#0"}
			}
		},
		{
			"from": [7, 3, 7.3],
			"to": [9.4, 4.3, 7.6],
			"rotation": {"angle": 0, "axis": "y", "origin": [18, 11, 16.6]},
			"faces": {
				"north": {"uv": [0, 0, 15.732, 15.965], "texture": "#0"},
				"east": {"uv": [0, 0, 5, 1.3], "texture": "#0"},
				"south": {"uv": [0, 0, 2.4, 1.3], "texture": "#0"},
				"west": {"uv": [0, 0, 16, 15.965], "texture": "#0"},
				"up": {"uv": [0.333, 5.666, 1.065, 6.664], "texture": "#0"},
				"down": {"uv": [0, 0, 2.4, 5], "texture": "#0"}
			}
		},
		{
			"from": [7, 3, 6.7],
			"to": [8.8, 4.3, 7],
			"rotation": {"angle": 0, "axis": "y", "origin": [18, 11, 16]},
			"faces": {
				"north": {"uv": [0, 0, 15.732, 15.965], "texture": "#0"},
				"east": {"uv": [0, 0, 5, 1.3], "texture": "#0"},
				"south": {"uv": [0, 0, 2.4, 1.3], "texture": "#0"},
				"west": {"uv": [0, 0, 16, 15.965], "texture": "#0"},
				"up": {"uv": [0.333, 5.666, 1.065, 6.664], "texture": "#0"},
				"down": {"uv": [0, 0, 2.4, 5], "texture": "#0"}
			}
		},
		{
			"from": [7, 3, 6.1],
			"to": [8, 4.3, 6.4],
			"rotation": {"angle": 0, "axis": "y", "origin": [18, 11, 15.4]},
			"faces": {
				"north": {"uv": [0, 0, 15.732, 15.965], "texture": "#0"},
				"east": {"uv": [0, 0, 5, 1.3], "texture": "#0"},
				"south": {"uv": [0, 0, 2.4, 1.3], "texture": "#0"},
				"west": {"uv": [0, 0, 16, 15.965], "texture": "#0"},
				"up": {"uv": [0.333, 5.666, 1.065, 6.664], "texture": "#0"},
				"down": {"uv": [0, 0, 2.4, 5], "texture": "#0"}
			}
		},
		{
			"from": [8.6, 3, 9.1],
			"to": [8.8, 4.3, 10],
			"rotation": {"angle": 0, "axis": "y", "origin": [17.4, 11, 19]},
			"faces": {
				"north": {"uv": [0, 0, 15.732, 15.965], "texture": "#0"},
				"east": {"uv": [0, 0, 5, 1.3], "texture": "#0"},
				"south": {"uv": [0, 0, 2.4, 1.3], "texture": "#0"},
				"west": {"uv": [0, 0, 16, 15.965], "texture": "#0"},
				"up": {"uv": [0.333, 5.666, 1.065, 6.664], "texture": "#0"},
				"down": {"uv": [0, 0, 2.4, 5], "texture": "#0"}
			}
		},
		{
			"from": [7.9, 3, 9.1],
			"to": [8.1, 4.3, 10],
			"rotation": {"angle": 0, "axis": "y", "origin": [16.7, 11, 19]},
			"faces": {
				"north": {"uv": [0, 0, 15.732, 15.965], "texture": "#0"},
				"east": {"uv": [0, 0, 5, 1.3], "texture": "#0"},
				"south": {"uv": [0, 0, 2.4, 1.3], "texture": "#0"},
				"west": {"uv": [0, 0, 16, 15.965], "texture": "#0"},
				"up": {"uv": [0.333, 5.666, 1.065, 6.664], "texture": "#0"},
				"down": {"uv": [0, 0, 2.4, 5], "texture": "#0"}
			}
		},
		{
			"from": [7.9, 3, 7.9],
			"to": [8.1, 4.3, 8.8],
			"rotation": {"angle": 0, "axis": "y", "origin": [16.7, 11, 17.8]},
			"faces": {
				"north": {"uv": [0, 0, 15.732, 15.965], "texture": "#0"},
				"east": {"uv": [0, 0, 5, 1.3], "texture": "#0"},
				"south": {"uv": [0, 0, 2.4, 1.3], "texture": "#0"},
				"west": {"uv": [0, 0, 16, 15.965], "texture": "#0"},
				"up": {"uv": [0.333, 5.666, 1.065, 6.664], "texture": "#0"},
				"down": {"uv": [0, 0, 2.4, 5], "texture": "#0"}
			}
		},
		{
			"from": [8.6, 3, 7.9],
			"to": [8.8, 4.3, 8.8],
			"rotation": {"angle": 0, "axis": "y", "origin": [17.4, 11, 17.8]},
			"faces": {
				"north": {"uv": [0, 0, 15.732, 15.965], "texture": "#0"},
				"east": {"uv": [0, 0, 5, 1.3], "texture": "#0"},
				"south": {"uv": [0, 0, 2.4, 1.3], "texture": "#0"},
				"west": {"uv": [0, 0, 16, 15.965], "texture": "#0"},
				"up": {"uv": [0.333, 5.666, 1.065, 6.664], "texture": "#0"},
				"down": {"uv": [0, 0, 2.4, 5], "texture": "#0"}
			}
		},
		{
			"from": [7.9, 3, 6.7],
			"to": [8.1, 4.3, 7.6],
			"rotation": {"angle": 0, "axis": "y", "origin": [16.7, 11, 16.6]},
			"faces": {
				"north": {"uv": [0, 0, 15.732, 15.965], "texture": "#0"},
				"east": {"uv": [0, 0, 5, 1.3], "texture": "#0"},
				"south": {"uv": [0, 0, 2.4, 1.3], "texture": "#0"},
				"west": {"uv": [0, 0, 16, 15.965], "texture": "#0"},
				"up": {"uv": [0.333, 5.666, 1.065, 6.664], "texture": "#0"},
				"down": {"uv": [0, 0, 2.4, 5], "texture": "#0"}
			}
		},
		{
			"from": [8.6, 3, 6.7],
			"to": [8.8, 4.3, 7.6],
			"rotation": {"angle": 0, "axis": "y", "origin": [17.4, 11, 16.6]},
			"faces": {
				"north": {"uv": [0, 0, 15.732, 15.965], "texture": "#0"},
				"east": {"uv": [0, 0, 5, 1.3], "texture": "#0"},
				"south": {"uv": [0, 0, 2.4, 1.3], "texture": "#0"},
				"west": {"uv": [0, 0, 16, 15.965], "texture": "#0"},
				"up": {"uv": [0.333, 5.666, 1.065, 6.664], "texture": "#0"},
				"down": {"uv": [0, 0, 2.4, 5], "texture": "#0"}
			}
		},
		{
			"from": [7.9, 3, 6.2],
			"to": [8.1, 4.3, 6.8],
			"rotation": {"angle": 0, "axis": "y", "origin": [16.7, 11, 15.4]},
			"faces": {
				"north": {"uv": [0, 0, 15.732, 15.965], "texture": "#0"},
				"east": {"uv": [0, 0, 5, 1.3], "texture": "#0"},
				"south": {"uv": [0, 0, 2.4, 1.3], "texture": "#0"},
				"west": {"uv": [0, 0, 16, 15.965], "texture": "#0"},
				"up": {"uv": [0.333, 5.666, 1.065, 6.664], "texture": "#0"},
				"down": {"uv": [0, 0, 2.4, 5], "texture": "#0"}
			}
		},
		{
			"from": [7.6, 3, 8.5],
			"to": [7.8, 4.3, 9.4],
			"rotation": {"angle": 0, "axis": "y", "origin": [16.4, 11, 18.4]},
			"faces": {
				"north": {"uv": [0, 0, 15.732, 15.965], "texture": "#0"},
				"east": {"uv": [0, 0, 5, 1.3], "texture": "#0"},
				"south": {"uv": [0, 0, 2.4, 1.3], "texture": "#0"},
				"west": {"uv": [0, 0, 16, 15.965], "texture": "#0"},
				"up": {"uv": [0.333, 5.666, 1.065, 6.664], "texture": "#0"},
				"down": {"uv": [0, 0, 2.4, 5], "texture": "#0"}
			}
		},
		{
			"from": [8.3, 3, 8.5],
			"to": [8.5, 4.3, 9.4],
			"rotation": {"angle": 0, "axis": "y", "origin": [17.1, 11, 18.4]},
			"faces": {
				"north": {"uv": [0, 0, 15.732, 15.965], "texture": "#0"},
				"east": {"uv": [0, 0, 5, 1.3], "texture": "#0"},
				"south": {"uv": [0, 0, 2.4, 1.3], "texture": "#0"},
				"west": {"uv": [0, 0, 16, 15.965], "texture": "#0"},
				"up": {"uv": [0.333, 5.666, 1.065, 6.664], "texture": "#0"},
				"down": {"uv": [0, 0, 2.4, 5], "texture": "#0"}
			}
		},
		{
			"from": [7.6, 3, 7.3],
			"to": [7.8, 4.3, 8.2],
			"rotation": {"angle": 0, "axis": "y", "origin": [16.4, 11, 17.2]},
			"faces": {
				"north": {"uv": [0, 0, 15.732, 15.965], "texture": "#0"},
				"east": {"uv": [0, 0, 5, 1.3], "texture": "#0"},
				"south": {"uv": [0, 0, 2.4, 1.3], "texture": "#0"},
				"west": {"uv": [0, 0, 16, 15.965], "texture": "#0"},
				"up": {"uv": [0.333, 5.666, 1.065, 6.664], "texture": "#0"},
				"down": {"uv": [0, 0, 2.4, 5], "texture": "#0"}
			}
		},
		{
			"from": [8.3, 3, 7.3],
			"to": [8.5, 4.3, 8.2],
			"rotation": {"angle": 0, "axis": "y", "origin": [17.1, 11, 17.2]},
			"faces": {
				"north": {"uv": [0, 0, 15.732, 15.965], "texture": "#0"},
				"east": {"uv": [0, 0, 5, 1.3], "texture": "#0"},
				"south": {"uv": [0, 0, 2.4, 1.3], "texture": "#0"},
				"west": {"uv": [0, 0, 16, 15.965], "texture": "#0"},
				"up": {"uv": [0.333, 5.666, 1.065, 6.664], "texture": "#0"},
				"down": {"uv": [0, 0, 2.4, 5], "texture": "#0"}
			}
		},
		{
			"from": [7.6, 3, 6],
			"to": [7.8, 4.3, 7],
			"rotation": {"angle": 0, "axis": "y", "origin": [16.4, 11, 16]},
			"faces": {
				"north": {"uv": [0, 0, 15.732, 15.965], "texture": "#0"},
				"east": {"uv": [0, 0, 5, 1.3], "texture": "#0"},
				"south": {"uv": [0, 0, 2.4, 1.3], "texture": "#0"},
				"west": {"uv": [0, 0, 16, 15.965], "texture": "#0"},
				"up": {"uv": [0.333, 5.666, 1.065, 6.664], "texture": "#0"},
				"down": {"uv": [0, 0, 2.4, 5], "texture": "#0"}
			}
		},
		{
			"from": [8.3, 3, 6.6],
			"to": [8.5, 4.3, 7],
			"rotation": {"angle": 0, "axis": "y", "origin": [17.1, 11, 16]},
			"faces": {
				"north": {"uv": [0, 0, 15.732, 15.965], "texture": "#0"},
				"east": {"uv": [0, 0, 5, 1.3], "texture": "#0"},
				"south": {"uv": [0, 0, 2.4, 1.3], "texture": "#0"},
				"west": {"uv": [0, 0, 16, 15.965], "texture": "#0"},
				"up": {"uv": [0.333, 5.666, 1.065, 6.664], "texture": "#0"},
				"down": {"uv": [0, 0, 2.4, 5], "texture": "#0"}
			}
		},
		{
			"from": [8.9, 3, 6.7],
			"to": [9.4, 4.3, 7],
			"rotation": {"angle": 0, "axis": "y", "origin": [18, 11, 16]},
			"faces": {
				"north": {"uv": [0, 0, 15.732, 15.965], "texture": "#0"},
				"east": {"uv": [0, 0, 5, 1.3], "texture": "#0"},
				"south": {"uv": [0, 0, 2.4, 1.3], "texture": "#0"},
				"west": {"uv": [0, 0, 16, 15.965], "texture": "#0"},
				"up": {"uv": [0.333, 5.666, 1.065, 6.664], "texture": "#0"},
				"down": {"uv": [0, 0, 2.4, 5], "texture": "#0"}
			}
		},
		{
			"from": [8.3, 3.4, 6.5],
			"to": [8.5, 4, 7],
			"rotation": {"angle": 0, "axis": "y", "origin": [17.1, 11, 16]},
			"faces": {
				"north": {"uv": [0, 0, 15.732, 15.965], "texture": "#0"},
				"east": {"uv": [0, 0, 5, 1.3], "texture": "#0"},
				"south": {"uv": [0, 0, 2.4, 1.3], "texture": "#0"},
				"west": {"uv": [0, 0, 16, 15.965], "texture": "#0"},
				"up": {"uv": [0.333, 5.666, 1.065, 6.664], "texture": "#0"},
				"down": {"uv": [0, 0, 2.4, 5], "texture": "#0"}
			}
		},
		{
			"from": [7.9, 3, 6.2],
			"to": [8.2, 3.5, 6.4],
			"rotation": {"angle": 0, "axis": "y", "origin": [16.7, 11, 15.4]},
			"faces": {
				"north": {"uv": [0, 0, 15.732, 15.965], "texture": "#0"},
				"east": {"uv": [0, 0, 5, 1.3], "texture": "#0"},
				"south": {"uv": [0, 0, 2.4, 1.3], "texture": "#0"},
				"west": {"uv": [0, 0, 16, 15.965], "texture": "#0"},
				"up": {"uv": [0.333, 5.666, 1.065, 6.664], "texture": "#0"},
				"down": {"uv": [0, 0, 2.4, 5], "texture": "#0"}
			}
		}
	],
	"display": {
		"thirdperson_righthand": {
			"rotation": [95, 0, -90],
			"translation": [5.75, -1.75, -0.25],
			"scale": [1.35, 1.35, 1.35]
		},
		"thirdperson_lefthand": {
			"rotation": [95, 0, 90],
			"translation": [-6, -1.25, -0.25],
			"scale": [1.35, 1.35, 1.35]
		},
		"firstperson_righthand": {
			"rotation": [105, 2.75, -121],
			"translation": [4, 3.25, -0.25],
			"scale": [1.35, 1.35, 1.35]
		},
		"firstperson_lefthand": {
			"rotation": [105, 2.75, -121],
			"translation": [4, 3.25, -0.25],
			"scale": [1.35, 1.35, 1.35]
		},
		"ground": {
			"translation": [0, 6, 0],
			"scale": [1.7, 1.7, 1.7]
		},
		"gui": {
			"rotation": [38.75, 135.5, 0.75],
			"translation": [0.25, 10, 0],
			"scale": [3, 3, 3]
		},
		"head": {
			"rotation": [61.25, 0, -75.75],
			"translation": [11, 8, -4.5],
			"scale": [2.5, 2.5, 2.5]
		},
		"fixed": {
			"rotation": [0, 90, 0],
			"translation": [2.25, 6, 0],
			"scale": [3, 3, 3]
		}
	}
}
