{
	"credit": "Made with Blockbench",
	"textures": {
		"0": "gci:items/common/all_in_one",
		"1": "gci:items/brick/texture",
		"particle": "gci:items/common/all_in_one"
	},
	"elements": [
		{
			"from": [11.31, 2.79, 8.6],
			"to": [11.91, 6.79, 13.2],
			"rotation": {"angle": 0, "axis": "y", "origin": [9.5, 5.29, 9.3125]},
			"faces": {
				"north": {"uv": [6, 9.75, 6.25, 9.85], "rotation": 270, "texture": "#0"},
				"east": {"uv": [5.875, 9.75, 6.375, 10.25], "rotation": 90, "texture": "#0"},
				"south": {"uv": [5.625, 9.625, 5.875, 9.725], "rotation": 90, "texture": "#0"},
				"west": {"uv": [5.5, 9.625, 6, 10], "rotation": 90, "texture": "#0"},
				"up": {"uv": [5.5, 9.625, 5.875, 9.85], "rotation": 90, "texture": "#0"},
				"down": {"uv": [5.625, 9.5, 5.75, 9.6], "rotation": 90, "texture": "#0"}
			}
		},
		{
			"from": [8.79, 6.79, 9.7],
			"to": [11.89, 6.94, 10.4],
			"rotation": {"angle": 0, "axis": "y", "origin": [9.5, 5.29, 10.3125]},
			"faces": {
				"north": {"uv": [9.625, 12.375, 10.125, 12.524], "texture": "#0"},
				"east": {"uv": [9.125, 12, 9.649, 12.024], "texture": "#0"},
				"south": {"uv": [9.75, 12.125, 10, 12.399], "texture": "#0"},
				"west": {"uv": [9, 11.75, 9.524, 12.024], "texture": "#0"},
				"up": {"uv": [9.5, 12.5, 9.75, 12.774], "texture": "#0"},
				"down": {"uv": [9, 12.75, 9.5, 13.274], "texture": "#0"}
			}
		},
		{
			"from": [8.79, 2.64, 9.7],
			"to": [11.89, 2.79, 10.4],
			"rotation": {"angle": 0, "axis": "y", "origin": [9.5, 5.79, 10.3125]},
			"faces": {
				"north": {"uv": [9.625, 12.375, 10.125, 12.524], "texture": "#0"},
				"east": {"uv": [9.125, 12, 9.649, 12.024], "texture": "#0"},
				"south": {"uv": [9.75, 12.125, 10, 12.399], "texture": "#0"},
				"west": {"uv": [9, 11.75, 9.524, 12.024], "texture": "#0"},
				"up": {"uv": [9.5, 12.5, 9.75, 12.774], "texture": "#0"},
				"down": {"uv": [9, 12.75, 9.5, 13.274], "texture": "#0"}
			}
		},
		{
			"from": [8.41, 2.49, 9.65],
			"to": [9.21, 7.09, 10.45],
			"rotation": {"angle": -45, "axis": "y", "origin": [8.81, 5.24, 10.05]},
			"faces": {
				"north": {"uv": [0.25, 0.75, 0.5, 1], "rotation": 270, "texture": "#0"},
				"east": {"uv": [0.125, 0.625, 0.375, 0.875], "rotation": 90, "texture": "#0"},
				"south": {"uv": [0.125, 0.125, 0.375, 0.375], "rotation": 90, "texture": "#0"},
				"west": {"uv": [0.125, 0.75, 0.35, 1.047], "rotation": 90, "texture": "#0"},
				"up": {"uv": [0, 0, 0.175, 0.125], "rotation": 90, "texture": "#0"},
				"down": {"uv": [0, 0, 0.3, 0.3], "rotation": 90, "texture": "#0"}
			}
		},
		{
			"from": [7.49, 6.79, 11.7],
			"to": [11.99, 6.94, 13.1],
			"rotation": {"angle": 0, "axis": "y", "origin": [9.6, 5.29, 12.7125]},
			"faces": {
				"north": {"uv": [9.625, 12.375, 10.125, 12.524], "texture": "#0"},
				"east": {"uv": [9.125, 12, 9.649, 12.024], "texture": "#0"},
				"south": {"uv": [9.75, 12.125, 10, 12.399], "texture": "#0"},
				"west": {"uv": [9, 11.75, 9.524, 12.024], "texture": "#0"},
				"up": {"uv": [9.5, 12.5, 9.75, 12.774], "texture": "#0"},
				"down": {"uv": [9, 12.75, 9.5, 13.274], "texture": "#0"}
			}
		},
		{
			"from": [7.49, 2.64, 11.7],
			"to": [11.99, 2.79, 13.1],
			"rotation": {"angle": 0, "axis": "y", "origin": [9.6, 5.79, 12.7125]},
			"faces": {
				"north": {"uv": [9.625, 12.375, 10.125, 12.524], "texture": "#0"},
				"east": {"uv": [9.125, 12, 9.649, 12.024], "texture": "#0"},
				"south": {"uv": [9.75, 12.125, 10, 12.399], "texture": "#0"},
				"west": {"uv": [9, 11.75, 9.524, 12.024], "texture": "#0"},
				"up": {"uv": [9.5, 12.5, 9.75, 12.774], "texture": "#0"},
				"down": {"uv": [9, 12.125, 9.25, 12.648], "texture": "#0"}
			}
		},
		{
			"from": [11.9, 2.64, 11.7],
			"to": [12.05, 6.94, 13.1],
			"rotation": {"angle": 0, "axis": "y", "origin": [8.9, 4.89, 12.7125]},
			"faces": {
				"north": {"uv": [9.75, 12.75, 10.423, 12.899], "rotation": 90, "texture": "#0"},
				"east": {"uv": [9.5, 12.375, 9.673, 12.375], "rotation": 270, "texture": "#0"},
				"south": {"uv": [9.5, 12.5, 10.048, 12.774], "rotation": 270, "texture": "#0"},
				"west": {"uv": [9.125, 11.25, 9.673, 11.399], "rotation": 270, "texture": "#0"},
				"up": {"uv": [9.375, 12.375, 9.399, 12.399], "rotation": 270, "texture": "#0"},
				"down": {"uv": [9.625, 12.375, 9.899, 12.399], "rotation": 270, "texture": "#0"}
			}
		},
		{
			"from": [7.4, 2.64, 11.7],
			"to": [7.55, 6.94, 13.1],
			"rotation": {"angle": 0, "axis": "y", "origin": [4.4, 4.89, 12.7125]},
			"faces": {
				"north": {"uv": [9.625, 12.375, 10.125, 12.524], "rotation": 90, "texture": "#0"},
				"east": {"uv": [9.125, 12, 9.649, 12.024], "rotation": 270, "texture": "#0"},
				"south": {"uv": [9.75, 12.125, 10, 12.399], "rotation": 270, "texture": "#0"},
				"west": {"uv": [9, 11.75, 9.524, 12.024], "rotation": 270, "texture": "#0"},
				"up": {"uv": [9.5, 12.5, 9.75, 12.774], "rotation": 270, "texture": "#0"},
				"down": {"uv": [9, 12.75, 9.5, 13.274], "rotation": 270, "texture": "#0"}
			}
		},
		{
			"from": [11.49, 3.19, 8.5],
			"to": [12.19, 3.54, 10.6],
			"rotation": {"angle": 0, "axis": "y", "origin": [11.74, 3.365, 9.05]},
			"faces": {
				"north": {"uv": [3.5, 9.5, 3.95, 9.85], "texture": "#0"},
				"east": {"uv": [4.75, 9.625, 5, 9.85], "texture": "#0"},
				"south": {"uv": [3.875, 9.75, 4.075, 9.85], "texture": "#0"},
				"west": {"uv": [3.75, 9.375, 4.125, 9.725], "texture": "#0"},
				"up": {"uv": [3.625, 9.5, 4, 9.95], "rotation": 90, "texture": "#0"},
				"down": {"uv": [3.875, 9.75, 4.125, 9.95], "rotation": 270, "texture": "#0"}
			}
		},
		{
			"from": [11.51, 3.24, 10.1],
			"to": [12.21, 3.49, 10.35],
			"rotation": {"angle": 0, "axis": "y", "origin": [11.74, 3.365, 8.95]},
			"faces": {
				"north": {"uv": [14.25, 6.375, 14.45, 6.625], "texture": "#0"},
				"east": {"uv": [14.375, 6.125, 14.625, 6.825], "texture": "#0"},
				"south": {"uv": [14.375, 6.5, 14.7, 6.75], "texture": "#0"},
				"west": {"uv": [14.25, 6.125, 14.5, 6.825], "texture": "#0"},
				"up": {"uv": [14.25, 6.5, 14.5, 6.75], "rotation": 90, "texture": "#0"},
				"down": {"uv": [14.25, 6.375, 14.5, 6.625], "rotation": 270, "texture": "#0"}
			}
		},
		{
			"from": [11.51, 3.24, 8.8],
			"to": [12.21, 3.49, 9.05],
			"rotation": {"angle": 0, "axis": "y", "origin": [11.74, 3.365, 7.65]},
			"faces": {
				"north": {"uv": [14.25, 6.375, 14.45, 6.625], "texture": "#0"},
				"east": {"uv": [14.375, 6.125, 14.625, 6.825], "texture": "#0"},
				"south": {"uv": [14.375, 6.5, 14.7, 6.75], "texture": "#0"},
				"west": {"uv": [14.25, 6.125, 14.5, 6.825], "texture": "#0"},
				"up": {"uv": [14.25, 6.5, 14.5, 6.75], "rotation": 90, "texture": "#0"},
				"down": {"uv": [14.25, 6.375, 14.5, 6.625], "rotation": 270, "texture": "#0"}
			}
		},
		{
			"from": [11.51, 6.14, 8.8],
			"to": [12.21, 6.39, 9.05],
			"rotation": {"angle": 0, "axis": "y", "origin": [11.74, 6.265, 7.65]},
			"faces": {
				"north": {"uv": [14.25, 6.375, 14.45, 6.625], "texture": "#0"},
				"east": {"uv": [14.375, 6.125, 14.625, 6.825], "texture": "#0"},
				"south": {"uv": [14.375, 6.5, 14.7, 6.75], "texture": "#0"},
				"west": {"uv": [14.25, 6.125, 14.5, 6.825], "texture": "#0"},
				"up": {"uv": [14.25, 6.5, 14.5, 6.75], "rotation": 90, "texture": "#0"},
				"down": {"uv": [14.25, 6.375, 14.5, 6.625], "rotation": 270, "texture": "#0"}
			}
		},
		{
			"from": [11.51, 6.14, 10.1],
			"to": [12.21, 6.39, 10.35],
			"rotation": {"angle": 0, "axis": "y", "origin": [11.86, 6.265, 10.225]},
			"faces": {
				"north": {"uv": [14.25, 6.375, 14.45, 6.625], "texture": "#0"},
				"east": {"uv": [14.375, 6.125, 14.625, 6.825], "texture": "#0"},
				"south": {"uv": [14.375, 6.5, 14.7, 6.75], "texture": "#0"},
				"west": {"uv": [14.25, 6.125, 14.5, 6.825], "texture": "#0"},
				"up": {"uv": [14.25, 6.5, 14.5, 6.75], "rotation": 90, "texture": "#0"},
				"down": {"uv": [14.25, 6.375, 14.5, 6.625], "rotation": 270, "texture": "#0"}
			}
		},
		{
			"from": [11.49, 6.09, 8.5],
			"to": [12.19, 6.44, 10.6],
			"rotation": {"angle": 0, "axis": "y", "origin": [11.74, 6.265, 9.05]},
			"faces": {
				"north": {"uv": [3.5, 9.5, 3.95, 9.85], "texture": "#0"},
				"east": {"uv": [4.75, 9.625, 5, 9.85], "texture": "#0"},
				"south": {"uv": [3.875, 9.75, 4.075, 9.85], "texture": "#0"},
				"west": {"uv": [3.75, 9.375, 4.125, 9.725], "texture": "#0"},
				"up": {"uv": [3.625, 9.5, 4, 9.95], "rotation": 90, "texture": "#0"},
				"down": {"uv": [3.875, 9.75, 4.125, 9.95], "rotation": 270, "texture": "#0"}
			}
		},
		{
			"from": [11.535, 2.58, 9.925],
			"to": [11.785, 3.28, 10.175],
			"rotation": {"angle": -45, "axis": "y", "origin": [11.66, 2.93, 10.05]},
			"faces": {
				"north": {"uv": [14.25, 6.375, 14.45, 6.625], "rotation": 90, "texture": "#0"},
				"east": {"uv": [14.375, 6.125, 14.625, 6.825], "rotation": 180, "texture": "#0"},
				"south": {"uv": [14.375, 6.5, 14.7, 6.75], "rotation": 270, "texture": "#0"},
				"west": {"uv": [14.25, 6.125, 14.5, 6.825], "texture": "#0"},
				"up": {"uv": [14.25, 6.5, 14.5, 6.75], "rotation": 270, "texture": "#0"},
				"down": {"uv": [14.25, 6.375, 14.5, 6.625], "rotation": 270, "texture": "#0"}
			}
		},
		{
			"from": [11.535, 6.315, 9.925],
			"to": [11.785, 7.015, 10.175],
			"rotation": {"angle": 45, "axis": "y", "origin": [11.66, 6.665, 10.05]},
			"faces": {
				"north": {"uv": [14.25, 6.375, 14.45, 6.625], "rotation": 90, "texture": "#0"},
				"east": {"uv": [14.375, 6.125, 14.625, 6.825], "rotation": 180, "texture": "#0"},
				"south": {"uv": [14.375, 6.5, 14.7, 6.75], "rotation": 270, "texture": "#0"},
				"west": {"uv": [14.25, 6.125, 14.5, 6.825], "texture": "#0"},
				"up": {"uv": [14.25, 6.5, 14.5, 6.75], "rotation": 270, "texture": "#0"},
				"down": {"uv": [14.25, 6.375, 14.5, 6.625], "rotation": 270, "texture": "#0"}
			}
		},
		{
			"from": [8.66, 6.45, 9.95],
			"to": [8.91, 7.15, 10.2],
			"rotation": {"angle": 45, "axis": "y", "origin": [8.76, 6.765, 10.05]},
			"faces": {
				"north": {"uv": [14.25, 6.375, 14.45, 6.625], "rotation": 90, "texture": "#0"},
				"east": {"uv": [14.375, 6.125, 14.625, 6.825], "rotation": 180, "texture": "#0"},
				"south": {"uv": [14.375, 6.5, 14.7, 6.75], "rotation": 270, "texture": "#0"},
				"west": {"uv": [14.25, 6.125, 14.5, 6.825], "texture": "#0"},
				"up": {"uv": [14.25, 6.5, 14.5, 6.75], "rotation": 270, "texture": "#0"},
				"down": {"uv": [14.25, 6.375, 14.5, 6.625], "rotation": 270, "texture": "#0"}
			}
		},
		{
			"from": [8.66, 2.415, 9.95],
			"to": [8.91, 3.115, 10.2],
			"rotation": {"angle": 45, "axis": "y", "origin": [8.76, 2.765, 10.05]},
			"faces": {
				"north": {"uv": [14.25, 6.375, 14.45, 6.625], "rotation": 90, "texture": "#0"},
				"east": {"uv": [14.375, 6.125, 14.625, 6.825], "rotation": 180, "texture": "#0"},
				"south": {"uv": [14.375, 6.5, 14.7, 6.75], "rotation": 270, "texture": "#0"},
				"west": {"uv": [14.25, 6.125, 14.5, 6.825], "texture": "#0"},
				"up": {"uv": [14.25, 6.5, 14.5, 6.75], "rotation": 270, "texture": "#0"},
				"down": {"uv": [14.25, 6.375, 14.5, 6.625], "rotation": 270, "texture": "#0"}
			}
		},
		{
			"from": [11.535, 2.58, 11.825],
			"to": [11.785, 3.28, 12.075],
			"rotation": {"angle": -45, "axis": "y", "origin": [11.66, 2.93, 11.95]},
			"faces": {
				"north": {"uv": [14.25, 6.375, 14.45, 6.625], "rotation": 90, "texture": "#0"},
				"east": {"uv": [14.375, 6.125, 14.625, 6.825], "rotation": 180, "texture": "#0"},
				"south": {"uv": [14.375, 6.5, 14.7, 6.75], "rotation": 270, "texture": "#0"},
				"west": {"uv": [14.25, 6.125, 14.5, 6.825], "texture": "#0"},
				"up": {"uv": [14.25, 6.5, 14.5, 6.75], "rotation": 270, "texture": "#0"},
				"down": {"uv": [14.25, 6.375, 14.5, 6.625], "rotation": 270, "texture": "#0"}
			}
		},
		{
			"from": [11.535, 2.58, 12.725],
			"to": [11.785, 3.28, 12.975],
			"rotation": {"angle": -45, "axis": "y", "origin": [11.66, 2.93, 12.85]},
			"faces": {
				"north": {"uv": [14.25, 6.375, 14.45, 6.625], "rotation": 90, "texture": "#0"},
				"east": {"uv": [14.375, 6.125, 14.625, 6.825], "rotation": 180, "texture": "#0"},
				"south": {"uv": [14.375, 6.5, 14.7, 6.75], "rotation": 270, "texture": "#0"},
				"west": {"uv": [14.25, 6.125, 14.5, 6.825], "texture": "#0"},
				"up": {"uv": [14.25, 6.5, 14.5, 6.75], "rotation": 270, "texture": "#0"},
				"down": {"uv": [14.25, 6.375, 14.5, 6.625], "rotation": 270, "texture": "#0"}
			}
		},
		{
			"from": [11.535, 6.315, 11.825],
			"to": [11.785, 7.015, 12.075],
			"rotation": {"angle": 45, "axis": "y", "origin": [11.66, 6.665, 11.95]},
			"faces": {
				"north": {"uv": [14.25, 6.375, 14.45, 6.625], "rotation": 90, "texture": "#0"},
				"east": {"uv": [14.375, 6.125, 14.625, 6.825], "rotation": 180, "texture": "#0"},
				"south": {"uv": [14.375, 6.5, 14.7, 6.75], "rotation": 270, "texture": "#0"},
				"west": {"uv": [14.25, 6.125, 14.5, 6.825], "texture": "#0"},
				"up": {"uv": [14.25, 6.5, 14.5, 6.75], "rotation": 270, "texture": "#0"},
				"down": {"uv": [14.25, 6.375, 14.5, 6.625], "rotation": 270, "texture": "#0"}
			}
		},
		{
			"from": [11.535, 6.315, 12.725],
			"to": [11.785, 7.015, 12.975],
			"rotation": {"angle": 45, "axis": "y", "origin": [11.66, 6.665, 12.85]},
			"faces": {
				"north": {"uv": [14.25, 6.375, 14.45, 6.625], "rotation": 90, "texture": "#0"},
				"east": {"uv": [14.375, 6.125, 14.625, 6.825], "rotation": 180, "texture": "#0"},
				"south": {"uv": [14.375, 6.5, 14.7, 6.75], "rotation": 270, "texture": "#0"},
				"west": {"uv": [14.25, 6.125, 14.5, 6.825], "texture": "#0"},
				"up": {"uv": [14.25, 6.5, 14.5, 6.75], "rotation": 270, "texture": "#0"},
				"down": {"uv": [14.25, 6.375, 14.5, 6.625], "rotation": 270, "texture": "#0"}
			}
		},
		{
			"from": [11.41, 6.2, 12.325],
			"to": [12.11, 6.6, 12.725],
			"rotation": {"angle": -45, "axis": "x", "origin": [11.76, 6.265, 12.45]},
			"faces": {
				"north": {"uv": [14.25, 6.375, 14.45, 6.625], "texture": "#0"},
				"east": {"uv": [14.375, 6.125, 14.625, 6.825], "texture": "#0"},
				"south": {"uv": [14.375, 6.5, 14.7, 6.75], "texture": "#0"},
				"west": {"uv": [14.25, 6.125, 14.5, 6.825], "texture": "#0"},
				"up": {"uv": [14.25, 6.5, 14.5, 6.75], "rotation": 90, "texture": "#0"},
				"down": {"uv": [14.25, 6.375, 14.5, 6.625], "rotation": 270, "texture": "#0"}
			}
		},
		{
			"from": [11.41, 3, 12.325],
			"to": [12.11, 3.4, 12.725],
			"rotation": {"angle": -45, "axis": "x", "origin": [11.76, 3.065, 12.45]},
			"faces": {
				"north": {"uv": [14.25, 6.375, 14.45, 6.625], "texture": "#0"},
				"east": {"uv": [14.375, 6.125, 14.625, 6.825], "texture": "#0"},
				"south": {"uv": [14.375, 6.5, 14.7, 6.75], "texture": "#0"},
				"west": {"uv": [14.25, 6.125, 14.5, 6.825], "texture": "#0"},
				"up": {"uv": [14.25, 6.5, 14.5, 6.75], "rotation": 90, "texture": "#0"},
				"down": {"uv": [14.25, 6.375, 14.5, 6.625], "rotation": 270, "texture": "#0"}
			}
		},
		{
			"from": [11.41, 4.1, 12.325],
			"to": [12.11, 4.5, 12.725],
			"rotation": {"angle": -45, "axis": "x", "origin": [11.76, 4.165, 12.45]},
			"faces": {
				"north": {"uv": [14.25, 6.375, 14.45, 6.625], "texture": "#0"},
				"east": {"uv": [14.375, 6.125, 14.625, 6.825], "texture": "#0"},
				"south": {"uv": [14.375, 6.5, 14.7, 6.75], "texture": "#0"},
				"west": {"uv": [14.25, 6.125, 14.5, 6.825], "texture": "#0"},
				"up": {"uv": [14.25, 6.5, 14.5, 6.75], "rotation": 90, "texture": "#0"},
				"down": {"uv": [14.25, 6.375, 14.5, 6.625], "rotation": 270, "texture": "#0"}
			}
		},
		{
			"from": [11.41, 5.1, 12.325],
			"to": [12.11, 5.5, 12.725],
			"rotation": {"angle": -45, "axis": "x", "origin": [11.76, 5.165, 12.45]},
			"faces": {
				"north": {"uv": [14.25, 6.375, 14.45, 6.625], "texture": "#0"},
				"east": {"uv": [14.375, 6.125, 14.625, 6.825], "texture": "#0"},
				"south": {"uv": [14.375, 6.5, 14.7, 6.75], "texture": "#0"},
				"west": {"uv": [14.25, 6.125, 14.5, 6.825], "texture": "#0"},
				"up": {"uv": [14.25, 6.5, 14.5, 6.75], "rotation": 90, "texture": "#0"},
				"down": {"uv": [14.25, 6.375, 14.5, 6.625], "rotation": 270, "texture": "#0"}
			}
		},
		{
			"from": [11.29, 3.29, 4.25],
			"to": [11.59, 3.44, 4.95],
			"rotation": {"angle": 22.5, "axis": "y", "origin": [11.44, 3.365, 4.6]},
			"faces": {
				"north": {"uv": [1.875, 9.625, 2.05, 9.773], "texture": "#0"},
				"east": {"uv": [1.75, 9.75, 1.95, 9.898], "texture": "#0"},
				"south": {"uv": [1.75, 9.375, 2.05, 9.524], "texture": "#0"},
				"west": {"uv": [0.875, 9.625, 1.075, 9.773], "texture": "#1"},
				"up": {"uv": [2, 9.625, 2.2, 9.825], "texture": "#0"},
				"down": {"uv": [1.75, 9.625, 1.925, 9.7], "texture": "#0"}
			}
		},
		{
			"from": [11.615, 3.29, 4.1],
			"to": [11.915, 3.44, 5.02],
			"rotation": {"angle": 45, "axis": "y", "origin": [11.74, 3.365, 4.7]},
			"faces": {
				"north": {"uv": [1.875, 9.625, 2.05, 9.773], "texture": "#0"},
				"east": {"uv": [1.75, 9.75, 1.95, 9.898], "texture": "#0"},
				"south": {"uv": [1.75, 9.375, 2.05, 9.524], "texture": "#0"},
				"west": {"uv": [2, 9.625, 2.2, 9.774], "texture": "#0"},
				"up": {"uv": [2, 9.625, 2.2, 9.825], "texture": "#0"},
				"down": {"uv": [1.75, 9.625, 1.925, 9.7], "texture": "#0"}
			}
		},
		{
			"from": [11.1225, 3.29, 3.7],
			"to": [11.2225, 3.44, 4.32],
			"rotation": {"angle": 22.5, "axis": "y", "origin": [11.24655, 3.365, 4.20048]},
			"faces": {
				"north": {"uv": [1.875, 9.625, 2.05, 9.773], "texture": "#0"},
				"east": {"uv": [1.75, 9.75, 1.95, 9.898], "texture": "#0"},
				"south": {"uv": [1.75, 9.375, 2.05, 9.524], "texture": "#0"},
				"west": {"uv": [0.875, 9.625, 1.075, 9.773], "texture": "#1"},
				"up": {"uv": [2, 9.625, 2.2, 9.825], "texture": "#0"},
				"down": {"uv": [1.75, 9.625, 1.925, 9.7], "texture": "#0"}
			}
		},
		{
			"from": [11.305, 3.29, 3.63523],
			"to": [11.405, 3.44, 4.35523],
			"rotation": {"angle": 45, "axis": "y", "origin": [11.34351, 3.365, 4.14523]},
			"faces": {
				"north": {"uv": [1.875, 9.625, 2.05, 9.773], "texture": "#0"},
				"east": {"uv": [1.75, 9.75, 1.95, 9.898], "texture": "#0"},
				"south": {"uv": [1.75, 9.375, 2.05, 9.524], "texture": "#0"},
				"west": {"uv": [2, 9.625, 2.2, 9.774], "texture": "#0"},
				"up": {"uv": [2, 9.625, 2.2, 9.825], "texture": "#0"},
				"down": {"uv": [1.75, 9.625, 1.925, 9.7], "texture": "#0"}
			}
		},
		{
			"from": [11.315, 3.29, 3.4],
			"to": [11.335, 3.44, 3.92],
			"rotation": {"angle": 45, "axis": "y", "origin": [11.34351, 3.365, 4.04523]},
			"faces": {
				"north": {"uv": [1.875, 9.625, 2.05, 9.773], "texture": "#0"},
				"east": {"uv": [1.75, 9.75, 1.95, 9.898], "texture": "#0"},
				"south": {"uv": [1.75, 9.375, 2.05, 9.524], "texture": "#0"},
				"west": {"uv": [2, 9.625, 2.2, 9.774], "texture": "#0"},
				"up": {"uv": [2, 9.625, 2.2, 9.825], "texture": "#0"},
				"down": {"uv": [1.75, 9.625, 1.925, 9.7], "texture": "#0"}
			}
		},
		{
			"from": [10.96, 3.29, 3.575],
			"to": [10.98, 3.44, 3.995],
			"rotation": {"angle": 22.5, "axis": "y", "origin": [10.99338, 3.365, 3.82127]},
			"faces": {
				"north": {"uv": [1.875, 9.625, 2.05, 9.773], "texture": "#0"},
				"east": {"uv": [1.75, 9.75, 1.95, 9.898], "texture": "#0"},
				"south": {"uv": [1.75, 9.375, 2.05, 9.524], "texture": "#0"},
				"west": {"uv": [0.875, 9.625, 1.075, 9.773], "texture": "#1"},
				"up": {"uv": [2, 9.625, 2.2, 9.825], "texture": "#0"},
				"down": {"uv": [1.75, 9.625, 1.925, 9.7], "texture": "#0"}
			}
		},
		{
			"from": [11.35524, 3.29, 3.94284],
			"to": [11.55524, 3.44, 4.66284],
			"rotation": {"angle": 45, "axis": "y", "origin": [11.40524, 3.365, 4.35284]},
			"faces": {
				"north": {"uv": [1.875, 9.625, 2.05, 9.773], "texture": "#0"},
				"east": {"uv": [1.75, 9.75, 1.95, 9.898], "texture": "#0"},
				"south": {"uv": [1.75, 9.375, 2.05, 9.524], "texture": "#0"},
				"west": {"uv": [2, 9.625, 2.2, 9.774], "texture": "#0"},
				"up": {"uv": [2, 9.625, 2.2, 9.825], "texture": "#0"},
				"down": {"uv": [1.75, 9.625, 1.925, 9.7], "texture": "#0"}
			}
		},
		{
			"from": [11.15524, 3.29, 4.34284],
			"to": [11.25524, 3.44, 4.56284],
			"rotation": {"angle": 45, "axis": "y", "origin": [11.10524, 3.365, 4.25284]},
			"faces": {
				"north": {"uv": [1.875, 9.625, 2.05, 9.773], "texture": "#0"},
				"east": {"uv": [1.75, 9.75, 1.95, 9.898], "texture": "#0"},
				"south": {"uv": [1.75, 9.375, 2.05, 9.524], "texture": "#0"},
				"west": {"uv": [2, 9.625, 2.2, 9.774], "texture": "#0"},
				"up": {"uv": [2, 9.625, 2.2, 9.825], "texture": "#0"},
				"down": {"uv": [1.75, 9.625, 1.925, 9.7], "texture": "#0"}
			}
		},
		{
			"from": [11.05524, 3.29, 4.04284],
			"to": [11.15524, 3.44, 4.26284],
			"rotation": {"angle": 45, "axis": "y", "origin": [11.00524, 3.365, 3.95284]},
			"faces": {
				"north": {"uv": [1.875, 9.625, 2.05, 9.773], "texture": "#0"},
				"east": {"uv": [1.75, 9.75, 1.95, 9.898], "texture": "#0"},
				"south": {"uv": [1.75, 9.375, 2.05, 9.524], "texture": "#0"},
				"west": {"uv": [2, 9.625, 2.2, 9.774], "texture": "#0"},
				"up": {"uv": [2, 9.625, 2.2, 9.825], "texture": "#0"},
				"down": {"uv": [1.75, 9.625, 1.925, 9.7], "texture": "#0"}
			}
		},
		{
			"from": [10.96, 3.29, 3.675],
			"to": [11.01, 3.44, 3.795],
			"rotation": {"angle": 22.5, "axis": "y", "origin": [10.99338, 3.365, 3.82127]},
			"faces": {
				"north": {"uv": [1.875, 9.625, 2.05, 9.773], "texture": "#0"},
				"east": {"uv": [1.75, 9.75, 1.95, 9.898], "texture": "#0"},
				"south": {"uv": [1.75, 9.375, 2.05, 9.524], "texture": "#0"},
				"west": {"uv": [0.875, 9.625, 1.075, 9.773], "texture": "#1"},
				"up": {"uv": [2, 9.625, 2.2, 9.825], "texture": "#0"},
				"down": {"uv": [1.75, 9.625, 1.925, 9.7], "texture": "#0"}
			}
		},
		{
			"from": [10.95, 3.29, 3.66],
			"to": [11, 3.44, 3.78],
			"rotation": {"angle": 45, "axis": "y", "origin": [10.98958, 3.365, 3.72947]},
			"faces": {
				"north": {"uv": [1.875, 9.625, 2.05, 9.773], "texture": "#0"},
				"east": {"uv": [1.75, 9.75, 1.95, 9.898], "texture": "#0"},
				"south": {"uv": [1.75, 9.375, 2.05, 9.524], "texture": "#0"},
				"west": {"uv": [2, 9.625, 2.2, 9.774], "texture": "#0"},
				"up": {"uv": [2, 9.625, 2.2, 9.825], "texture": "#0"},
				"down": {"uv": [1.75, 9.625, 1.925, 9.7], "texture": "#0"}
			}
		},
		{
			"from": [10.9735, 3.29, 3.61],
			"to": [10.9985, 3.44, 3.68],
			"rotation": {"angle": 45, "axis": "y", "origin": [10.98958, 3.365, 3.72947]},
			"faces": {
				"north": {"uv": [1.875, 9.625, 2.05, 9.773], "texture": "#0"},
				"east": {"uv": [1.75, 9.75, 1.95, 9.898], "texture": "#0"},
				"south": {"uv": [1.75, 9.375, 2.05, 9.524], "texture": "#0"},
				"west": {"uv": [2, 9.625, 2.2, 9.774], "texture": "#0"},
				"up": {"uv": [2, 9.625, 2.2, 9.825], "texture": "#0"},
				"down": {"uv": [1.75, 9.625, 1.925, 9.7], "texture": "#0"}
			}
		},
		{
			"from": [10.9735, 6.19, 3.61],
			"to": [10.9985, 6.34, 3.68],
			"rotation": {"angle": 45, "axis": "y", "origin": [10.98958, 6.265, 3.72947]},
			"faces": {
				"north": {"uv": [1.875, 9.625, 2.05, 9.773], "texture": "#0"},
				"east": {"uv": [1.75, 9.75, 1.95, 9.898], "texture": "#0"},
				"south": {"uv": [1.75, 9.375, 2.05, 9.524], "texture": "#0"},
				"west": {"uv": [2, 9.625, 2.2, 9.774], "texture": "#0"},
				"up": {"uv": [2, 9.625, 2.2, 9.825], "texture": "#0"},
				"down": {"uv": [1.75, 9.625, 1.925, 9.7], "texture": "#0"}
			}
		},
		{
			"from": [10.95, 6.19, 3.66],
			"to": [11, 6.34, 3.78],
			"rotation": {"angle": 45, "axis": "y", "origin": [10.98958, 6.265, 3.72947]},
			"faces": {
				"north": {"uv": [1.875, 9.625, 2.05, 9.773], "texture": "#0"},
				"east": {"uv": [1.75, 9.75, 1.95, 9.898], "texture": "#0"},
				"south": {"uv": [1.75, 9.375, 2.05, 9.524], "texture": "#0"},
				"west": {"uv": [2, 9.625, 2.2, 9.774], "texture": "#0"},
				"up": {"uv": [2, 9.625, 2.2, 9.825], "texture": "#0"},
				"down": {"uv": [1.75, 9.625, 1.925, 9.7], "texture": "#0"}
			}
		},
		{
			"from": [10.96, 6.19, 3.675],
			"to": [11.01, 6.34, 3.795],
			"rotation": {"angle": 22.5, "axis": "y", "origin": [10.99338, 6.265, 3.82127]},
			"faces": {
				"north": {"uv": [1.875, 9.625, 2.05, 9.773], "texture": "#0"},
				"east": {"uv": [1.75, 9.75, 1.95, 9.898], "texture": "#0"},
				"south": {"uv": [1.75, 9.375, 2.05, 9.524], "texture": "#0"},
				"west": {"uv": [0.875, 9.625, 1.075, 9.773], "texture": "#1"},
				"up": {"uv": [2, 9.625, 2.2, 9.825], "texture": "#0"},
				"down": {"uv": [1.75, 9.625, 1.925, 9.7], "texture": "#0"}
			}
		},
		{
			"from": [11.05524, 6.19, 4.04284],
			"to": [11.15524, 6.34, 4.26284],
			"rotation": {"angle": 45, "axis": "y", "origin": [11.00524, 6.265, 3.95284]},
			"faces": {
				"north": {"uv": [1.875, 9.625, 2.05, 9.773], "texture": "#0"},
				"east": {"uv": [1.75, 9.75, 1.95, 9.898], "texture": "#0"},
				"south": {"uv": [1.75, 9.375, 2.05, 9.524], "texture": "#0"},
				"west": {"uv": [2, 9.625, 2.2, 9.774], "texture": "#0"},
				"up": {"uv": [2, 9.625, 2.2, 9.825], "texture": "#0"},
				"down": {"uv": [1.75, 9.625, 1.925, 9.7], "texture": "#0"}
			}
		},
		{
			"from": [11.15524, 6.19, 4.34284],
			"to": [11.25524, 6.34, 4.56284],
			"rotation": {"angle": 45, "axis": "y", "origin": [11.10524, 6.265, 4.25284]},
			"faces": {
				"north": {"uv": [1.875, 9.625, 2.05, 9.773], "texture": "#0"},
				"east": {"uv": [1.75, 9.75, 1.95, 9.898], "texture": "#0"},
				"south": {"uv": [1.75, 9.375, 2.05, 9.524], "texture": "#0"},
				"west": {"uv": [2, 9.625, 2.2, 9.774], "texture": "#0"},
				"up": {"uv": [2, 9.625, 2.2, 9.825], "texture": "#0"},
				"down": {"uv": [1.75, 9.625, 1.925, 9.7], "texture": "#0"}
			}
		},
		{
			"from": [11.35524, 6.19, 3.94284],
			"to": [11.55524, 6.34, 4.66284],
			"rotation": {"angle": 45, "axis": "y", "origin": [11.40524, 6.265, 4.35284]},
			"faces": {
				"north": {"uv": [1.875, 9.625, 2.05, 9.773], "texture": "#0"},
				"east": {"uv": [1.75, 9.75, 1.95, 9.898], "texture": "#0"},
				"south": {"uv": [1.75, 9.375, 2.05, 9.524], "texture": "#0"},
				"west": {"uv": [2, 9.625, 2.2, 9.774], "texture": "#0"},
				"up": {"uv": [2, 9.625, 2.2, 9.825], "texture": "#0"},
				"down": {"uv": [1.75, 9.625, 1.925, 9.7], "texture": "#0"}
			}
		},
		{
			"from": [10.96, 6.19, 3.575],
			"to": [10.98, 6.34, 3.995],
			"rotation": {"angle": 22.5, "axis": "y", "origin": [10.99338, 6.265, 3.82127]},
			"faces": {
				"north": {"uv": [1.875, 9.625, 2.05, 9.773], "texture": "#0"},
				"east": {"uv": [1.75, 9.75, 1.95, 9.898], "texture": "#0"},
				"south": {"uv": [1.75, 9.375, 2.05, 9.524], "texture": "#0"},
				"west": {"uv": [0.875, 9.625, 1.075, 9.773], "texture": "#1"},
				"up": {"uv": [2, 9.625, 2.2, 9.825], "texture": "#0"},
				"down": {"uv": [1.75, 9.625, 1.925, 9.7], "texture": "#0"}
			}
		},
		{
			"from": [11.315, 6.19, 3.4],
			"to": [11.335, 6.34, 3.92],
			"rotation": {"angle": 45, "axis": "y", "origin": [11.34351, 6.265, 4.04523]},
			"faces": {
				"north": {"uv": [1.875, 9.625, 2.05, 9.773], "texture": "#0"},
				"east": {"uv": [1.75, 9.75, 1.95, 9.898], "texture": "#0"},
				"south": {"uv": [1.75, 9.375, 2.05, 9.524], "texture": "#0"},
				"west": {"uv": [2, 9.625, 2.2, 9.774], "texture": "#0"},
				"up": {"uv": [2, 9.625, 2.2, 9.825], "texture": "#0"},
				"down": {"uv": [1.75, 9.625, 1.925, 9.7], "texture": "#0"}
			}
		},
		{
			"from": [11.305, 6.19, 3.63523],
			"to": [11.405, 6.34, 4.35523],
			"rotation": {"angle": 45, "axis": "y", "origin": [11.34351, 6.265, 4.14523]},
			"faces": {
				"north": {"uv": [1.875, 9.625, 2.05, 9.773], "texture": "#0"},
				"east": {"uv": [1.75, 9.75, 1.95, 9.898], "texture": "#0"},
				"south": {"uv": [1.75, 9.375, 2.05, 9.524], "texture": "#0"},
				"west": {"uv": [2, 9.625, 2.2, 9.774], "texture": "#0"},
				"up": {"uv": [2, 9.625, 2.2, 9.825], "texture": "#0"},
				"down": {"uv": [1.75, 9.625, 1.925, 9.7], "texture": "#0"}
			}
		},
		{
			"from": [11.1225, 6.19, 3.7],
			"to": [11.2225, 6.34, 4.32],
			"rotation": {"angle": 22.5, "axis": "y", "origin": [11.24655, 6.265, 4.20048]},
			"faces": {
				"north": {"uv": [1.875, 9.625, 2.05, 9.773], "texture": "#0"},
				"east": {"uv": [1.75, 9.75, 1.95, 9.898], "texture": "#0"},
				"south": {"uv": [1.75, 9.375, 2.05, 9.524], "texture": "#0"},
				"west": {"uv": [0.875, 9.625, 1.075, 9.773], "texture": "#1"},
				"up": {"uv": [2, 9.625, 2.2, 9.825], "texture": "#0"},
				"down": {"uv": [1.75, 9.625, 1.925, 9.7], "texture": "#0"}
			}
		},
		{
			"from": [11.615, 6.19, 4.1],
			"to": [11.915, 6.34, 5.02],
			"rotation": {"angle": 45, "axis": "y", "origin": [11.74, 6.265, 4.7]},
			"faces": {
				"north": {"uv": [1.875, 9.625, 2.05, 9.773], "texture": "#0"},
				"east": {"uv": [1.75, 9.75, 1.95, 9.898], "texture": "#0"},
				"south": {"uv": [1.75, 9.375, 2.05, 9.524], "texture": "#0"},
				"west": {"uv": [2, 9.625, 2.2, 9.774], "texture": "#0"},
				"up": {"uv": [2, 9.625, 2.2, 9.825], "texture": "#0"},
				"down": {"uv": [1.75, 9.625, 1.925, 9.7], "texture": "#0"}
			}
		},
		{
			"from": [11.29, 6.19, 4.25],
			"to": [11.59, 6.34, 4.95],
			"rotation": {"angle": 22.5, "axis": "y", "origin": [11.44, 6.265, 4.6]},
			"faces": {
				"north": {"uv": [1.875, 9.625, 2.05, 9.773], "texture": "#0"},
				"east": {"uv": [1.75, 9.75, 1.95, 9.898], "texture": "#0"},
				"south": {"uv": [1.75, 9.375, 2.05, 9.524], "texture": "#0"},
				"west": {"uv": [0.875, 9.625, 1.075, 9.773], "texture": "#1"},
				"up": {"uv": [2, 9.625, 2.2, 9.825], "texture": "#0"},
				"down": {"uv": [1.75, 9.625, 1.925, 9.7], "texture": "#0"}
			}
		},
		{
			"from": [11.39, 6.19, 4.8],
			"to": [12.09, 6.34, 10.5],
			"rotation": {"angle": 0, "axis": "y", "origin": [11.74, 6.265, 8.95]},
			"faces": {
				"north": {"uv": [1.875, 9.625, 2.05, 9.773], "texture": "#0"},
				"east": {"uv": [1.75, 9.75, 1.95, 9.898], "texture": "#0"},
				"south": {"uv": [1.75, 9.375, 2.05, 9.524], "texture": "#0"},
				"west": {"uv": [6, 8, 6.2, 8.148], "texture": "#1"},
				"up": {"uv": [2, 9.625, 2.2, 9.825], "rotation": 90, "texture": "#0"},
				"down": {"uv": [1.75, 9.625, 1.925, 9.7], "rotation": 270, "texture": "#0"}
			}
		},
		{
			"from": [11.39, 3.29, 4.8],
			"to": [12.09, 3.44, 10.5],
			"rotation": {"angle": 0, "axis": "y", "origin": [11.74, 3.365, 8.95]},
			"faces": {
				"north": {"uv": [1.875, 9.625, 2.05, 9.773], "texture": "#0"},
				"east": {"uv": [1.75, 9.75, 1.95, 9.898], "texture": "#0"},
				"south": {"uv": [1.75, 9.375, 2.05, 9.524], "texture": "#0"},
				"west": {"uv": [0.875, 9.625, 1.075, 9.773], "texture": "#1"},
				"up": {"uv": [2, 9.625, 2.2, 9.825], "rotation": 90, "texture": "#0"},
				"down": {"uv": [1.75, 9.625, 1.925, 9.7], "rotation": 270, "texture": "#0"}
			}
		}
	],
	"display": {
		"thirdperson_righthand": {
			"translation": [-1.5, 1.25, -1]
		},
		"thirdperson_lefthand": {
			"rotation": [-180, -180, 0],
			"translation": [-1.5, -5.25, -1]
		},
		"firstperson_righthand": {
			"rotation": [33.5, 0, 73.25],
			"translation": [1.25, 0.75, -5.5]
		},
		"firstperson_lefthand": {
			"rotation": [33.5, 0, 242.75],
			"translation": [4.75, -1, -5.5]
		},
		"ground": {
			"translation": [0, 3.75, 0]
		},
		"gui": {
			"rotation": [163.75, 48.5, -51.25],
			"translation": [-0.25, -4.25, 0],
			"scale": [1.6, 1.6, 1.6]
		},
		"head": {
			"translation": [0, 10.75, 0]
		},
		"fixed": {
			"rotation": [0, 90, 0],
			"translation": [-0.5, 4.5, 5.25],
			"scale": [2, 2, 2]
		}
	},
	"groups": [0, 1, 2, 3, 4, 5, 6, 7, 8, 9, 10, 11, 12, 13, 14, 15, 16, 17, 18, 19, 20, 21, 22, 23, 24, 25,
		{
			"name": "group",
			"origin": [11.74, 3.365, 8.95],
			"children": [26, 27, 28, 29, 30, 31, 32, 33, 34, 35, 36, 37, 38, 39, 40, 41, 42, 43, 44, 45, 46, 47, 48, 49, 50, 51]
		}
	]
}
