{
	"credit": "Made with Blockbench",
	"textures": {
		"0": "gci:items/common/mpz",
		"particle": "gci:items/common/mpz"
	},
	"elements": [
		{
			"name": "cube3",
			"from": [7.3, 2, 7],
			"to": [7.7, 17.5, 7.2],
			"rotation": {"angle": 0, "axis": "y", "origin": [7.5, 5, 7.5]},
			"faces": {
				"north": {"uv": [3.333, 8.667, 4, 10], "texture": "#0"},
				"east": {"uv": [3.333, 8.667, 4, 10], "texture": "#0"},
				"south": {"uv": [3.333, 8.667, 4, 10], "texture": "#0"},
				"west": {"uv": [3.333, 8.667, 4, 10], "texture": "#0"},
				"up": {"uv": [3.333, 8.667, 4, 10], "texture": "#0"},
				"down": {"uv": [3.333, 8.667, 4, 10], "texture": "#0"}
			}
		},
		{
			"name": "cube4",
			"from": [7.3, 2, 7.76569],
			"to": [7.7, 17.5, 7.96569],
			"rotation": {"angle": 0, "axis": "y", "origin": [7.5, 5, 14.26569]},
			"faces": {
				"north": {"uv": [3.333, 8.667, 4, 10], "texture": "#0"},
				"east": {"uv": [3.333, 8.667, 4, 10], "texture": "#0"},
				"south": {"uv": [3.333, 8.667, 4, 10], "texture": "#0"},
				"west": {"uv": [3.333, 8.667, 4, 10], "texture": "#0"},
				"up": {"uv": [3.333, 8.667, 4, 10], "texture": "#0"},
				"down": {"uv": [3.333, 8.667, 4, 10], "texture": "#0"}
			}
		},
		{
			"name": "cube4",
			"from": [7.85355, 2, 7.5364],
			"to": [8.25355, 17.5, 7.7364],
			"rotation": {"angle": 45, "axis": "y", "origin": [8.05355, 5, 8.0364]},
			"faces": {
				"north": {"uv": [3.333, 8.667, 4, 10], "texture": "#0"},
				"east": {"uv": [3.333, 8.667, 4, 10], "texture": "#0"},
				"south": {"uv": [3.333, 8.667, 4, 10], "texture": "#0"},
				"west": {"uv": [3.333, 8.667, 4, 10], "texture": "#0"},
				"up": {"uv": [3.333, 8.667, 4, 10], "texture": "#0"},
				"down": {"uv": [3.333, 8.667, 4, 10], "texture": "#0"}
			}
		},
		{
			"name": "cube5",
			"from": [7.31213, 2, 6.99497],
			"to": [7.71213, 17.5, 7.19497],
			"rotation": {"angle": 45, "axis": "y", "origin": [7.51213, 5, 7.49497]},
			"faces": {
				"north": {"uv": [3.333, 8.667, 4, 10], "texture": "#0"},
				"east": {"uv": [3.333, 8.667, 4, 10], "texture": "#0"},
				"south": {"uv": [3.333, 8.667, 4, 10], "texture": "#0"},
				"west": {"uv": [3.333, 8.667, 4, 10], "texture": "#0"},
				"up": {"uv": [3.333, 8.667, 4, 10], "texture": "#0"},
				"down": {"uv": [3.333, 8.667, 4, 10], "texture": "#0"}
			}
		},
		{
			"name": "cube4",
			"from": [7.78284, 2, 7.28284],
			"to": [7.98284, 17.5, 7.68284],
			"rotation": {"angle": 0, "axis": "y", "origin": [7.48284, 5, 7.48284]},
			"faces": {
				"north": {"uv": [3.333, 8.667, 4, 10], "texture": "#0"},
				"east": {"uv": [3.333, 8.667, 4, 10], "texture": "#0"},
				"south": {"uv": [3.333, 8.667, 4, 10], "texture": "#0"},
				"west": {"uv": [3.333, 8.667, 4, 10], "texture": "#0"},
				"up": {"uv": [3.333, 8.667, 4, 10], "rotation": 90, "texture": "#0"},
				"down": {"uv": [3.333, 8.667, 4, 10], "rotation": 270, "texture": "#0"}
			}
		},
		{
			"name": "cube5",
			"from": [7.01716, 2, 7.28284],
			"to": [7.21716, 17.5, 7.68284],
			"rotation": {"angle": 0, "axis": "y", "origin": [6.71716, 5, 7.48284]},
			"faces": {
				"north": {"uv": [3.333, 8.667, 4, 10], "texture": "#0"},
				"east": {"uv": [3.333, 8.667, 4, 10], "texture": "#0"},
				"south": {"uv": [3.333, 8.667, 4, 10], "texture": "#0"},
				"west": {"uv": [3.333, 8.667, 4, 10], "texture": "#0"},
				"up": {"uv": [3.333, 8.667, 4, 10], "rotation": 90, "texture": "#0"},
				"down": {"uv": [3.333, 8.667, 4, 10], "rotation": 270, "texture": "#0"}
			}
		},
		{
			"name": "cube4",
			"from": [7.28787, 2, 6.99497],
			"to": [7.68787, 17.5, 7.19497],
			"rotation": {"angle": -45, "axis": "y", "origin": [7.48787, 5, 7.49497]},
			"faces": {
				"north": {"uv": [3.333, 8.667, 4, 10], "texture": "#0"},
				"east": {"uv": [3.333, 8.667, 4, 10], "texture": "#0"},
				"south": {"uv": [3.333, 8.667, 4, 10], "texture": "#0"},
				"west": {"uv": [3.333, 8.667, 4, 10], "texture": "#0"},
				"up": {"uv": [3.333, 8.667, 4, 10], "texture": "#0"},
				"down": {"uv": [3.333, 8.667, 4, 10], "texture": "#0"}
			}
		},
		{
			"name": "cube5",
			"from": [6.74645, 2, 7.5364],
			"to": [7.14645, 17.5, 7.7364],
			"rotation": {"angle": -45, "axis": "y", "origin": [6.94645, 5, 8.0364]},
			"faces": {
				"north": {"uv": [3.333, 8.667, 4, 10], "texture": "#0"},
				"east": {"uv": [3.333, 8.667, 4, 10], "texture": "#0"},
				"south": {"uv": [3.333, 8.667, 4, 10], "texture": "#0"},
				"west": {"uv": [3.333, 8.667, 4, 10], "texture": "#0"},
				"up": {"uv": [3.333, 8.667, 4, 10], "texture": "#0"},
				"down": {"uv": [3.333, 8.667, 4, 10], "texture": "#0"}
			}
		},
		{
			"name": "cube12",
			"from": [7.21653, 2.3, 7.90635],
			"to": [7.80654, 3, 8.20136],
			"rotation": {"angle": 45, "axis": "y", "origin": [7.51154, 2.7, 7.48916]},
			"faces": {
				"north": {"uv": [0.333, 3.333, 1.999, 5], "texture": "#0"},
				"east": {"uv": [0.333, 3.333, 1.999, 5], "texture": "#0"},
				"south": {"uv": [0.333, 3.333, 1.999, 5], "rotation": 90, "texture": "#0"},
				"west": {"uv": [0.333, 3.333, 1.999, 5], "texture": "#0"},
				"up": {"uv": [0.333, 3.333, 1.999, 5], "texture": "#0"},
				"down": {"uv": [0.333, 3.333, 1.999, 5], "texture": "#0"}
			}
		},
		{
			"name": "cube13",
			"from": [7.16647, 15.5, 7.85629],
			"to": [7.61487, 16.2, 8.15129],
			"rotation": {"angle": 45, "axis": "y", "origin": [7.39067, 15.85, 7.43909]},
			"faces": {
				"north": {"uv": [0.333, 3.333, 1.999, 5], "texture": "#0"},
				"east": {"uv": [0.333, 3.333, 1.999, 5], "texture": "#0"},
				"south": {"uv": [0.333, 3.333, 1.999, 5], "rotation": 90, "texture": "#0"},
				"west": {"uv": [0.333, 3.333, 1.999, 5], "texture": "#0"},
				"up": {"uv": [0.333, 3.333, 1.999, 5], "texture": "#0"},
				"down": {"uv": [0.333, 3.333, 1.999, 5], "texture": "#0"}
			}
		},
		{
			"name": "cube12",
			"from": [7.21653, 2.3, 7.90635],
			"to": [7.80654, 3, 8.20136],
			"rotation": {"angle": 0, "axis": "y", "origin": [7.51154, 2.7, 7.48916]},
			"faces": {
				"north": {"uv": [0.333, 3.333, 1.999, 5], "texture": "#0"},
				"east": {"uv": [0.333, 3.333, 1.999, 5], "texture": "#0"},
				"south": {"uv": [0.333, 3.333, 1.999, 5], "rotation": 90, "texture": "#0"},
				"west": {"uv": [0.333, 3.333, 1.999, 5], "texture": "#0"},
				"up": {"uv": [0.333, 3.333, 1.999, 5], "texture": "#0"},
				"down": {"uv": [0.333, 3.333, 1.999, 5], "texture": "#0"}
			}
		},
		{
			"name": "cube13",
			"from": [7.28733, 15.5, 7.80622],
			"to": [7.73574, 16.2, 8.10123],
			"rotation": {"angle": 0, "axis": "y", "origin": [7.51154, 15.85, 7.38903]},
			"faces": {
				"north": {"uv": [0.333, 3.333, 1.999, 5], "texture": "#0"},
				"east": {"uv": [0.333, 3.333, 1.999, 5], "texture": "#0"},
				"south": {"uv": [0.333, 3.333, 1.999, 5], "rotation": 90, "texture": "#0"},
				"west": {"uv": [0.333, 3.333, 1.999, 5], "texture": "#0"},
				"up": {"uv": [0.333, 3.333, 1.999, 5], "texture": "#0"},
				"down": {"uv": [0.333, 3.333, 1.999, 5], "texture": "#0"}
			}
		},
		{
			"name": "cube13",
			"from": [7.21653, 2.3, 7.90635],
			"to": [7.80654, 3, 8.20136],
			"rotation": {"angle": -45, "axis": "y", "origin": [7.51154, 2.7, 7.48916]},
			"faces": {
				"north": {"uv": [0.333, 3.333, 1.999, 5], "texture": "#0"},
				"east": {"uv": [0.333, 3.333, 1.999, 5], "texture": "#0"},
				"south": {"uv": [0.333, 3.333, 1.999, 5], "rotation": 90, "texture": "#0"},
				"west": {"uv": [0.333, 3.333, 1.999, 5], "texture": "#0"},
				"up": {"uv": [0.333, 3.333, 1.999, 5], "texture": "#0"},
				"down": {"uv": [0.333, 3.333, 1.999, 5], "texture": "#0"}
			}
		},
		{
			"name": "cube14",
			"from": [7.4082, 15.5, 7.85629],
			"to": [7.8566, 16.2, 8.15129],
			"rotation": {"angle": -45, "axis": "y", "origin": [7.6324, 15.85, 7.43909]},
			"faces": {
				"north": {"uv": [0.333, 3.333, 1.999, 5], "texture": "#0"},
				"east": {"uv": [0.333, 3.333, 1.999, 5], "texture": "#0"},
				"south": {"uv": [0.333, 3.333, 1.999, 5], "rotation": 90, "texture": "#0"},
				"west": {"uv": [0.333, 3.333, 1.999, 5], "texture": "#0"},
				"up": {"uv": [0.333, 3.333, 1.999, 5], "texture": "#0"},
				"down": {"uv": [0.333, 3.333, 1.999, 5], "texture": "#0"}
			}
		},
		{
			"name": "cube13",
			"from": [6.79934, 2.3, 7.19415],
			"to": [7.09434, 3, 7.78416],
			"rotation": {"angle": 0, "axis": "y", "origin": [7.51154, 2.7, 7.48916]},
			"faces": {
				"north": {"uv": [0.333, 3.333, 1.999, 5], "rotation": 90, "texture": "#0"},
				"east": {"uv": [0.333, 3.333, 1.999, 5], "rotation": 90, "texture": "#0"},
				"south": {"uv": [0.333, 3.333, 1.999, 5], "rotation": 90, "texture": "#0"},
				"west": {"uv": [0.333, 3.333, 1.999, 5], "rotation": 90, "texture": "#0"},
				"up": {"uv": [0.333, 3.333, 1.999, 5], "rotation": 90, "texture": "#0"},
				"down": {"uv": [0.333, 3.333, 1.999, 5], "rotation": 90, "texture": "#0"}
			}
		},
		{
			"name": "cube14",
			"from": [6.97026, 15.5, 7.19415],
			"to": [7.19447, 16.2, 7.78416],
			"rotation": {"angle": 0, "axis": "y", "origin": [7.51154, 15.85, 7.48916]},
			"faces": {
				"north": {"uv": [0.333, 3.333, 1.999, 5], "rotation": 90, "texture": "#0"},
				"east": {"uv": [0.333, 3.333, 1.999, 5], "rotation": 90, "texture": "#0"},
				"south": {"uv": [0.333, 3.333, 1.999, 5], "rotation": 90, "texture": "#0"},
				"west": {"uv": [0.333, 3.333, 1.999, 5], "rotation": 90, "texture": "#0"},
				"up": {"uv": [0.333, 3.333, 1.999, 5], "rotation": 90, "texture": "#0"},
				"down": {"uv": [0.333, 3.333, 1.999, 5], "rotation": 90, "texture": "#0"}
			}
		},
		{
			"name": "cube13",
			"from": [7.21653, 2.3, 6.77695],
			"to": [7.80654, 3, 7.07196],
			"rotation": {"angle": 45, "axis": "y", "origin": [7.51154, 2.7, 7.48916]},
			"faces": {
				"north": {"uv": [0.333, 3.333, 1.999, 5], "texture": "#0"},
				"east": {"uv": [0.333, 3.333, 1.999, 5], "texture": "#0"},
				"south": {"uv": [0.333, 3.333, 1.999, 5], "rotation": 90, "texture": "#0"},
				"west": {"uv": [0.333, 3.333, 1.999, 5], "texture": "#0"},
				"up": {"uv": [0.333, 3.333, 1.999, 5], "texture": "#0"},
				"down": {"uv": [0.333, 3.333, 1.999, 5], "texture": "#0"}
			}
		},
		{
			"name": "cube14",
			"from": [7.4082, 15.5, 6.82702],
			"to": [7.8566, 16.2, 7.12202],
			"rotation": {"angle": 45, "axis": "y", "origin": [7.6324, 15.85, 7.53922]},
			"faces": {
				"north": {"uv": [0.333, 3.333, 1.999, 5], "texture": "#0"},
				"east": {"uv": [0.333, 3.333, 1.999, 5], "texture": "#0"},
				"south": {"uv": [0.333, 3.333, 1.999, 5], "rotation": 90, "texture": "#0"},
				"west": {"uv": [0.333, 3.333, 1.999, 5], "texture": "#0"},
				"up": {"uv": [0.333, 3.333, 1.999, 5], "texture": "#0"},
				"down": {"uv": [0.333, 3.333, 1.999, 5], "texture": "#0"}
			}
		},
		{
			"name": "cube11",
			"from": [7.21653, 2.3, 6.77695],
			"to": [7.80654, 3, 7.07196],
			"rotation": {"angle": 0, "axis": "y", "origin": [7.51154, 2.7, 7.48916]},
			"faces": {
				"north": {"uv": [0.333, 3.333, 1.999, 5], "texture": "#0"},
				"east": {"uv": [0.333, 3.333, 1.999, 5], "texture": "#0"},
				"south": {"uv": [0.333, 3.333, 1.999, 5], "rotation": 90, "texture": "#0"},
				"west": {"uv": [0.333, 3.333, 1.999, 5], "texture": "#0"},
				"up": {"uv": [0.333, 3.333, 1.999, 5], "texture": "#0"},
				"down": {"uv": [0.333, 3.333, 1.999, 5], "texture": "#0"}
			}
		},
		{
			"name": "cube12",
			"from": [7.28733, 15.5, 6.87708],
			"to": [7.73574, 16.2, 7.17209],
			"rotation": {"angle": 0, "axis": "y", "origin": [7.51154, 15.85, 7.58928]},
			"faces": {
				"north": {"uv": [0.333, 3.333, 1.999, 5], "texture": "#0"},
				"east": {"uv": [0.333, 3.333, 1.999, 5], "texture": "#0"},
				"south": {"uv": [0.333, 3.333, 1.999, 5], "rotation": 90, "texture": "#0"},
				"west": {"uv": [0.333, 3.333, 1.999, 5], "texture": "#0"},
				"up": {"uv": [0.333, 3.333, 1.999, 5], "texture": "#0"},
				"down": {"uv": [0.333, 3.333, 1.999, 5], "texture": "#0"}
			}
		},
		{
			"name": "cube12",
			"from": [7.21653, 16.2, 6.12695],
			"to": [7.80654, 17.1, 8.82695],
			"rotation": {"angle": 0, "axis": "y", "origin": [7.51154, 1.8, 7.23916]},
			"faces": {
				"north": {"uv": [0.333, 3.333, 1.999, 5], "texture": "#0"},
				"east": {"uv": [0.333, 3.333, 1.999, 5], "texture": "#0"},
				"south": {"uv": [0.333, 3.333, 1.999, 5], "texture": "#0"},
				"west": {"uv": [0.333, 3.333, 1.999, 5], "texture": "#0"},
				"up": {"uv": [0.333, 3.333, 1.999, 5], "texture": "#0"},
				"down": {"uv": [0.333, 3.333, 1.999, 5], "texture": "#0"}
			}
		},
		{
			"name": "cube13",
			"from": [7.21653, 16.41213, 8.82809],
			"to": [7.80654, 16.88713, 9.03909],
			"rotation": {"angle": 0, "axis": "y", "origin": [7.51154, 1.81213, 7.29029]},
			"faces": {
				"north": {"uv": [0.333, 3.333, 1.999, 5], "texture": "#0"},
				"east": {"uv": [0.333, 3.333, 1.999, 5], "texture": "#0"},
				"south": {"uv": [0.333, 3.333, 1.999, 5], "texture": "#0"},
				"west": {"uv": [0.333, 3.333, 1.999, 5], "texture": "#0"},
				"up": {"uv": [0.333, 3.333, 1.999, 5], "texture": "#0"},
				"down": {"uv": [0.333, 3.333, 1.999, 5], "texture": "#0"}
			}
		},
		{
			"name": "cube14",
			"from": [7.21653, 16.57381, 9.00606],
			"to": [7.80654, 16.72781, 9.10606],
			"rotation": {"angle": 0, "axis": "y", "origin": [7.51154, 1.87381, 7.26826]},
			"faces": {
				"north": {"uv": [0.333, 3.333, 1.999, 5], "texture": "#0"},
				"east": {"uv": [0.333, 3.333, 1.999, 5], "texture": "#0"},
				"south": {"uv": [0.333, 3.333, 1.999, 5], "texture": "#0"},
				"west": {"uv": [0.333, 3.333, 1.999, 5], "texture": "#0"},
				"up": {"uv": [0.333, 3.333, 1.999, 5], "texture": "#0"},
				"down": {"uv": [0.333, 3.333, 1.999, 5], "texture": "#0"}
			}
		},
		{
			"name": "cube15",
			"from": [7.21653, 16.69848, 8.96676],
			"to": [7.80654, 16.87348, 9.07676],
			"rotation": {"angle": -22.5, "axis": "x", "origin": [7.51154, 16.78598, 9.02176]},
			"faces": {
				"north": {"uv": [0.333, 3.333, 1.999, 5], "texture": "#0"},
				"east": {"uv": [0.333, 3.333, 1.999, 5], "texture": "#0"},
				"south": {"uv": [0.333, 3.333, 1.999, 5], "texture": "#0"},
				"west": {"uv": [0.333, 3.333, 1.999, 5], "texture": "#0"},
				"up": {"uv": [0.333, 3.333, 1.999, 5], "texture": "#0"},
				"down": {"uv": [0.333, 3.333, 1.999, 5], "texture": "#0"}
			}
		},
		{
			"name": "cube16",
			"from": [7.21653, 16.42652, 8.96676],
			"to": [7.80654, 16.60152, 9.07676],
			"rotation": {"angle": 22.5, "axis": "x", "origin": [7.51154, 16.51402, 9.02176]},
			"faces": {
				"north": {"uv": [0.333, 3.333, 1.999, 5], "texture": "#0"},
				"east": {"uv": [0.333, 3.333, 1.999, 5], "texture": "#0"},
				"south": {"uv": [0.333, 3.333, 1.999, 5], "texture": "#0"},
				"west": {"uv": [0.333, 3.333, 1.999, 5], "texture": "#0"},
				"up": {"uv": [0.333, 3.333, 1.999, 5], "texture": "#0"},
				"down": {"uv": [0.333, 3.333, 1.999, 5], "texture": "#0"}
			}
		},
		{
			"name": "cube14",
			"from": [7.21653, 16.77322, 8.76231],
			"to": [7.80654, 17.07322, 8.96231],
			"rotation": {"angle": -45, "axis": "x", "origin": [7.51154, 16.92322, 8.86231]},
			"faces": {
				"north": {"uv": [0.333, 3.333, 1.999, 5], "texture": "#0"},
				"east": {"uv": [0.333, 3.333, 1.999, 5], "texture": "#0"},
				"south": {"uv": [0.333, 3.333, 1.999, 5], "texture": "#0"},
				"west": {"uv": [0.333, 3.333, 1.999, 5], "texture": "#0"},
				"up": {"uv": [0.333, 3.333, 1.999, 5], "texture": "#0"},
				"down": {"uv": [0.333, 3.333, 1.999, 5], "texture": "#0"}
			}
		},
		{
			"name": "cube15",
			"from": [7.21653, 16.27678, 8.71231],
			"to": [7.80654, 16.47678, 9.01231],
			"rotation": {"angle": -45, "axis": "x", "origin": [7.51154, 16.37678, 8.86231]},
			"faces": {
				"north": {"uv": [0.333, 3.333, 1.999, 5], "rotation": 180, "texture": "#0"},
				"east": {"uv": [0.333, 3.333, 1.999, 5], "rotation": 90, "texture": "#0"},
				"south": {"uv": [0.333, 3.333, 1.999, 5], "texture": "#0"},
				"west": {"uv": [0.333, 3.333, 1.999, 5], "rotation": 270, "texture": "#0"},
				"up": {"uv": [0.333, 3.333, 1.999, 5], "texture": "#0"},
				"down": {"uv": [0.333, 3.333, 1.999, 5], "rotation": 180, "texture": "#0"}
			}
		},
		{
			"name": "cube14",
			"from": [7.21653, 16.15454, 4.69567],
			"to": [7.80654, 16.95454, 6.19567],
			"rotation": {"angle": -22.5, "axis": "x", "origin": [7.51154, 16.85454, 5.79567]},
			"faces": {
				"north": {"uv": [0.333, 3.333, 1.999, 5], "texture": "#0"},
				"east": {"uv": [0.333, 3.333, 1.999, 5], "texture": "#0"},
				"south": {"uv": [0.333, 3.333, 1.999, 5], "texture": "#0"},
				"west": {"uv": [0.333, 3.333, 1.999, 5], "texture": "#0"},
				"up": {"uv": [0.333, 3.333, 1.999, 5], "texture": "#0"},
				"down": {"uv": [0.333, 3.333, 1.999, 5], "texture": "#0"}
			}
		},
		{
			"name": "cube15",
			"from": [7.21653, 16.28455, 3.14114],
			"to": [7.80654, 16.48455, 4.84114],
			"rotation": {"angle": -45, "axis": "x", "origin": [7.51154, 16.38455, 4.74114]},
			"faces": {
				"north": {"uv": [0.333, 3.333, 1.999, 5], "texture": "#0"},
				"east": {"uv": [0.333, 3.333, 1.999, 5], "texture": "#0"},
				"south": {"uv": [0.333, 3.333, 1.999, 5], "texture": "#0"},
				"west": {"uv": [0.333, 3.333, 1.999, 5], "texture": "#0"},
				"up": {"uv": [0.333, 3.333, 1.999, 5], "texture": "#0"},
				"down": {"uv": [0.333, 3.333, 1.999, 5], "texture": "#0"}
			}
		},
		{
			"name": "cube16",
			"from": [7.21653, 15.61573, 4.23465],
			"to": [7.80654, 16.11573, 5.03465],
			"rotation": {"angle": -22.5, "axis": "x", "origin": [7.51154, 15.86573, 4.63465]},
			"faces": {
				"north": {"uv": [0.333, 3.333, 1.999, 5], "texture": "#0"},
				"east": {"uv": [0.333, 3.333, 1.999, 5], "texture": "#0"},
				"south": {"uv": [0.333, 3.333, 1.999, 5], "texture": "#0"},
				"west": {"uv": [0.333, 3.333, 1.999, 5], "texture": "#0"},
				"up": {"uv": [0.333, 3.333, 1.999, 5], "texture": "#0"},
				"down": {"uv": [0.333, 3.333, 1.999, 5], "texture": "#0"}
			}
		},
		{
			"name": "cube17",
			"from": [7.21653, 15.91573, 3.83465],
			"to": [7.80654, 16.21573, 5.13465],
			"rotation": {"angle": -45, "axis": "x", "origin": [7.51154, 15.86573, 4.63465]},
			"faces": {
				"north": {"uv": [0.333, 3.333, 1.999, 5], "texture": "#0"},
				"east": {"uv": [0.333, 3.333, 1.999, 5], "texture": "#0"},
				"south": {"uv": [0.333, 3.333, 1.999, 5], "texture": "#0"},
				"west": {"uv": [0.333, 3.333, 1.999, 5], "texture": "#0"},
				"up": {"uv": [0.333, 3.333, 1.999, 5], "texture": "#0"},
				"down": {"uv": [0.333, 3.333, 1.999, 5], "texture": "#0"}
			}
		},
		{
			"name": "cube18",
			"from": [7.21653, 15.55108, 3.53716],
			"to": [7.80654, 15.75108, 4.23716],
			"rotation": {"angle": -22.5, "axis": "x", "origin": [7.51154, 15.90108, 4.38716]},
			"faces": {
				"north": {"uv": [0.333, 3.333, 1.999, 5], "texture": "#0"},
				"east": {"uv": [0.333, 3.333, 1.999, 5], "texture": "#0"},
				"south": {"uv": [0.333, 3.333, 1.999, 5], "texture": "#0"},
				"west": {"uv": [0.333, 3.333, 1.999, 5], "texture": "#0"},
				"up": {"uv": [0.333, 3.333, 1.999, 5], "texture": "#0"},
				"down": {"uv": [0.333, 3.333, 1.999, 5], "texture": "#0"}
			}
		},
		{
			"name": "cube15",
			"from": [7.21653, 15.92451, 3.5],
			"to": [7.80654, 16.02451, 6.2],
			"rotation": {"angle": -22.5, "axis": "x", "origin": [7.51154, 16.02451, 5.44197]},
			"faces": {
				"north": {"uv": [0.333, 3.333, 1.999, 5], "texture": "#0"},
				"east": {"uv": [0.333, 3.333, 1.999, 5], "texture": "#0"},
				"south": {"uv": [0.333, 3.333, 1.999, 5], "texture": "#0"},
				"west": {"uv": [0.333, 3.333, 1.999, 5], "texture": "#0"},
				"up": {"uv": [0.333, 3.333, 1.999, 5], "texture": "#0"},
				"down": {"uv": [0.333, 3.333, 1.999, 5], "texture": "#0"}
			}
		},
		{
			"name": "cube16",
			"from": [7.21653, 16.32786, 3.1],
			"to": [7.80654, 16.52786, 3.15],
			"rotation": {"angle": -45, "axis": "x", "origin": [7.51154, 16.42286, 4.78564]},
			"faces": {
				"north": {"uv": [0.333, 3.333, 1.999, 5], "texture": "#0"},
				"east": {"uv": [0.333, 3.333, 1.999, 5], "texture": "#0"},
				"south": {"uv": [0.333, 3.333, 1.999, 5], "texture": "#0"},
				"west": {"uv": [0.333, 3.333, 1.999, 5], "texture": "#0"},
				"up": {"uv": [0.333, 3.333, 1.999, 5], "texture": "#0"},
				"down": {"uv": [0.333, 3.333, 1.999, 5], "texture": "#0"}
			}
		},
		{
			"name": "cube13",
			"from": [7.08208, 16.2, 8.15101],
			"to": [7.37208, 17.1, 8.79601],
			"rotation": {"angle": 22.5, "axis": "y", "origin": [7.22708, 16.75, 8.47351]},
			"faces": {
				"north": {"uv": [0.333, 3.333, 1.999, 5], "texture": "#0"},
				"east": {"uv": [0.333, 3.333, 1.999, 5], "texture": "#0"},
				"south": {"uv": [0.333, 3.333, 1.999, 5], "texture": "#0"},
				"west": {"uv": [0.333, 3.333, 1.999, 5], "texture": "#0"},
				"up": {"uv": [0.333, 3.333, 1.999, 5], "texture": "#0"},
				"down": {"uv": [0.333, 3.333, 1.999, 5], "texture": "#0"}
			}
		},
		{
			"name": "cube14",
			"from": [7.65099, 16.2, 8.15101],
			"to": [7.94099, 17.1, 8.79601],
			"rotation": {"angle": -22.5, "axis": "y", "origin": [7.79599, 16.75, 8.47351]},
			"faces": {
				"north": {"uv": [0.333, 3.333, 1.999, 5], "texture": "#0"},
				"east": {"uv": [0.333, 3.333, 1.999, 5], "texture": "#0"},
				"south": {"uv": [0.333, 3.333, 1.999, 5], "texture": "#0"},
				"west": {"uv": [0.333, 3.333, 1.999, 5], "texture": "#0"},
				"up": {"uv": [0.333, 3.333, 1.999, 5], "texture": "#0"},
				"down": {"uv": [0.333, 3.333, 1.999, 5], "texture": "#0"}
			}
		},
		{
			"name": "cube14",
			"from": [7.65099, 16.2, 6.1579],
			"to": [7.94099, 17.1, 6.8029],
			"rotation": {"angle": 22.5, "axis": "y", "origin": [7.79599, 16.75, 6.4804]},
			"faces": {
				"north": {"uv": [0.333, 3.333, 1.999, 5], "texture": "#0"},
				"east": {"uv": [0.333, 3.333, 1.999, 5], "texture": "#0"},
				"south": {"uv": [0.333, 3.333, 1.999, 5], "texture": "#0"},
				"west": {"uv": [0.333, 3.333, 1.999, 5], "texture": "#0"},
				"up": {"uv": [0.333, 3.333, 1.999, 5], "texture": "#0"},
				"down": {"uv": [0.333, 3.333, 1.999, 5], "texture": "#0"}
			}
		},
		{
			"name": "cube15",
			"from": [7.08208, 16.2, 6.1579],
			"to": [7.37208, 17.1, 6.8029],
			"rotation": {"angle": -22.5, "axis": "y", "origin": [7.22708, 16.75, 6.4804]},
			"faces": {
				"north": {"uv": [0.333, 3.333, 1.999, 5], "texture": "#0"},
				"east": {"uv": [0.333, 3.333, 1.999, 5], "texture": "#0"},
				"south": {"uv": [0.333, 3.333, 1.999, 5], "texture": "#0"},
				"west": {"uv": [0.333, 3.333, 1.999, 5], "texture": "#0"},
				"up": {"uv": [0.333, 3.333, 1.999, 5], "texture": "#0"},
				"down": {"uv": [0.333, 3.333, 1.999, 5], "texture": "#0"}
			}
		},
		{
			"name": "cube13",
			"from": [6.9697, 16.2, 6.72286],
			"to": [8.0547, 17.1, 8.23286],
			"rotation": {"angle": 0, "axis": "y", "origin": [7.3922, 16.75, 7.56786]},
			"faces": {
				"north": {"uv": [0.333, 3.333, 1.999, 5], "texture": "#0"},
				"east": {"uv": [0.333, 3.333, 1.999, 5], "texture": "#0"},
				"south": {"uv": [0.333, 3.333, 1.999, 5], "texture": "#0"},
				"west": {"uv": [0.333, 3.333, 1.999, 5], "texture": "#0"},
				"up": {"uv": [0.333, 3.333, 1.999, 5], "rotation": 90, "texture": "#0"},
				"down": {"uv": [0.333, 3.333, 1.999, 5], "rotation": 270, "texture": "#0"}
			}
		},
		{
			"name": "cube12",
			"from": [7.21653, 2.3, 6.77695],
			"to": [7.80654, 3, 7.07196],
			"rotation": {"angle": -45, "axis": "y", "origin": [7.51154, 2.7, 7.48916]},
			"faces": {
				"north": {"uv": [0.333, 3.333, 1.999, 5], "texture": "#0"},
				"east": {"uv": [0.333, 3.333, 1.999, 5], "texture": "#0"},
				"south": {"uv": [0.333, 3.333, 1.999, 5], "rotation": 90, "texture": "#0"},
				"west": {"uv": [0.333, 3.333, 1.999, 5], "texture": "#0"},
				"up": {"uv": [0.333, 3.333, 1.999, 5], "texture": "#0"},
				"down": {"uv": [0.333, 3.333, 1.999, 5], "texture": "#0"}
			}
		},
		{
			"name": "cube13",
			"from": [7.16647, 15.5, 6.82702],
			"to": [7.61487, 16.2, 7.12202],
			"rotation": {"angle": -45, "axis": "y", "origin": [7.39067, 15.85, 7.53922]},
			"faces": {
				"north": {"uv": [0.333, 3.333, 1.999, 5], "texture": "#0"},
				"east": {"uv": [0.333, 3.333, 1.999, 5], "texture": "#0"},
				"south": {"uv": [0.333, 3.333, 1.999, 5], "rotation": 90, "texture": "#0"},
				"west": {"uv": [0.333, 3.333, 1.999, 5], "texture": "#0"},
				"up": {"uv": [0.333, 3.333, 1.999, 5], "texture": "#0"},
				"down": {"uv": [0.333, 3.333, 1.999, 5], "texture": "#0"}
			}
		},
		{
			"name": "cube12",
			"from": [7.92873, 2.3, 7.19415],
			"to": [8.22374, 3, 7.78416],
			"rotation": {"angle": 0, "axis": "y", "origin": [7.51154, 2.7, 7.48916]},
			"faces": {
				"north": {"uv": [0.333, 3.333, 1.999, 5], "rotation": 90, "texture": "#0"},
				"east": {"uv": [0.333, 3.333, 1.999, 5], "rotation": 90, "texture": "#0"},
				"south": {"uv": [0.333, 3.333, 1.999, 5], "rotation": 90, "texture": "#0"},
				"west": {"uv": [0.333, 3.333, 1.999, 5], "rotation": 90, "texture": "#0"},
				"up": {"uv": [0.333, 3.333, 1.999, 5], "rotation": 90, "texture": "#0"},
				"down": {"uv": [0.333, 3.333, 1.999, 5], "rotation": 90, "texture": "#0"}
			}
		},
		{
			"name": "cube13",
			"from": [7.82861, 15.5, 7.19415],
			"to": [8.05281, 16.2, 7.78416],
			"rotation": {"angle": 0, "axis": "y", "origin": [7.51154, 15.85, 7.48916]},
			"faces": {
				"north": {"uv": [0.333, 3.333, 1.999, 5], "rotation": 90, "texture": "#0"},
				"east": {"uv": [0.333, 3.333, 1.999, 5], "rotation": 90, "texture": "#0"},
				"south": {"uv": [0.333, 3.333, 1.999, 5], "rotation": 90, "texture": "#0"},
				"west": {"uv": [0.333, 3.333, 1.999, 5], "rotation": 90, "texture": "#0"},
				"up": {"uv": [0.333, 3.333, 1.999, 5], "rotation": 90, "texture": "#0"},
				"down": {"uv": [0.333, 3.333, 1.999, 5], "rotation": 90, "texture": "#0"}
			}
		},
		{
			"name": "cube4",
			"from": [7.18, 2.055, 7.18],
			"to": [7.82, 17.5, 7.82],
			"rotation": {"angle": 0, "axis": "y", "origin": [8, 8, 8]},
			"faces": {
				"north": {"uv": [3.667, 8.333, 4.666, 9.333], "texture": "#0"},
				"east": {"uv": [3.667, 8.333, 4.666, 9.333], "texture": "#0"},
				"south": {"uv": [3.667, 8.333, 4.666, 9.333], "texture": "#0"},
				"west": {"uv": [3.667, 8.333, 4.666, 9.333], "texture": "#0"},
				"up": {"uv": [3.667, 8.333, 4.666, 9.333], "texture": "#0"},
				"down": {"uv": [3.667, 8.333, 4.666, 9.333], "texture": "#0"}
			}
		},
		{
			"name": "cube5",
			"from": [7.27968, 14, 6.95094],
			"to": [7.72032, 14.5, 8.01494],
			"rotation": {"angle": 45, "axis": "y", "origin": [7.5, 14.25, 7.48284]},
			"faces": {
				"north": {"uv": [14.33333, 0.66667, 15.00033, 1.99967], "texture": "#0"},
				"east": {"uv": [14.33333, 0.66667, 15.00033, 1.99967], "texture": "#0"},
				"south": {"uv": [14.33333, 0.66667, 15.00033, 1.99967], "texture": "#0"},
				"west": {"uv": [14.33333, 0.66667, 15.00033, 1.99967], "texture": "#0"},
				"up": {"uv": [14.33333, 0.66667, 15.00033, 1.99967], "texture": "#0"},
				"down": {"uv": [14.33333, 0.66667, 15.00033, 1.99967], "texture": "#0"}
			}
		},
		{
			"name": "cube6",
			"from": [7.27968, 7.9, 6.95094],
			"to": [7.72032, 8.4, 8.01494],
			"rotation": {"angle": 45, "axis": "y", "origin": [7.5, 8.15, 7.48284]},
			"faces": {
				"north": {"uv": [14.33333, 0.66667, 15.00033, 1.99967], "texture": "#0"},
				"east": {"uv": [14.33333, 0.66667, 15.00033, 1.99967], "texture": "#0"},
				"south": {"uv": [14.33333, 0.66667, 15.00033, 1.99967], "texture": "#0"},
				"west": {"uv": [14.33333, 0.66667, 15.00033, 1.99967], "texture": "#0"},
				"up": {"uv": [14.33333, 0.66667, 15.00033, 1.99967], "texture": "#0"},
				"down": {"uv": [14.33333, 0.66667, 15.00033, 1.99967], "texture": "#0"}
			}
		},
		{
			"name": "cube4",
			"from": [7.27968, 14, 6.95094],
			"to": [7.72032, 14.5, 8.01494],
			"rotation": {"angle": 0, "axis": "y", "origin": [7.5, 14.25, 7.88936]},
			"faces": {
				"north": {"uv": [14.33333, 0.66667, 15.00033, 1.99967], "texture": "#0"},
				"east": {"uv": [14.33333, 0.66667, 15.00033, 1.99967], "texture": "#0"},
				"south": {"uv": [14.33333, 0.66667, 15.00033, 1.99967], "texture": "#0"},
				"west": {"uv": [14.33333, 0.66667, 15.00033, 1.99967], "texture": "#0"},
				"up": {"uv": [14.33333, 0.66667, 15.00033, 1.99967], "texture": "#0"},
				"down": {"uv": [14.33333, 0.66667, 15.00033, 1.99967], "texture": "#0"}
			}
		},
		{
			"name": "cube5",
			"from": [7.27968, 7.9, 6.95094],
			"to": [7.72032, 8.4, 8.01494],
			"rotation": {"angle": 0, "axis": "y", "origin": [7.5, 8.15, 7.88936]},
			"faces": {
				"north": {"uv": [14.33333, 0.66667, 15.00033, 1.99967], "texture": "#0"},
				"east": {"uv": [14.33333, 0.66667, 15.00033, 1.99967], "texture": "#0"},
				"south": {"uv": [14.33333, 0.66667, 15.00033, 1.99967], "texture": "#0"},
				"west": {"uv": [14.33333, 0.66667, 15.00033, 1.99967], "texture": "#0"},
				"up": {"uv": [14.33333, 0.66667, 15.00033, 1.99967], "texture": "#0"},
				"down": {"uv": [14.33333, 0.66667, 15.00033, 1.99967], "texture": "#0"}
			}
		},
		{
			"name": "cube5",
			"from": [7.1692, 14, 6.9051],
			"to": [7.60984, 14.5, 7.9691],
			"rotation": {"angle": -45, "axis": "y", "origin": [7.38952, 14.25, 7.59352]},
			"faces": {
				"north": {"uv": [14.33333, 0.66667, 15.00033, 1.99967], "texture": "#0"},
				"east": {"uv": [14.33333, 0.66667, 15.00033, 1.99967], "texture": "#0"},
				"south": {"uv": [14.33333, 0.66667, 15.00033, 1.99967], "texture": "#0"},
				"west": {"uv": [14.33333, 0.66667, 15.00033, 1.99967], "texture": "#0"},
				"up": {"uv": [14.33333, 0.66667, 15.00033, 1.99967], "texture": "#0"},
				"down": {"uv": [14.33333, 0.66667, 15.00033, 1.99967], "texture": "#0"}
			}
		},
		{
			"name": "cube6",
			"from": [7.1692, 7.9, 6.9051],
			"to": [7.60984, 8.4, 7.9691],
			"rotation": {"angle": -45, "axis": "y", "origin": [7.38952, 8.15, 7.59352]},
			"faces": {
				"north": {"uv": [14.33333, 0.66667, 15.00033, 1.99967], "texture": "#0"},
				"east": {"uv": [14.33333, 0.66667, 15.00033, 1.99967], "texture": "#0"},
				"south": {"uv": [14.33333, 0.66667, 15.00033, 1.99967], "texture": "#0"},
				"west": {"uv": [14.33333, 0.66667, 15.00033, 1.99967], "texture": "#0"},
				"up": {"uv": [14.33333, 0.66667, 15.00033, 1.99967], "texture": "#0"},
				"down": {"uv": [14.33333, 0.66667, 15.00033, 1.99967], "texture": "#0"}
			}
		},
		{
			"name": "cube5",
			"from": [6.9681, 14, 7.26252],
			"to": [8.0321, 14.5, 7.70312],
			"rotation": {"angle": 0, "axis": "y", "origin": [7.5, 14.25, 7.48284]},
			"faces": {
				"north": {"uv": [14.33333, 0.66667, 15.00033, 1.99967], "rotation": 90, "texture": "#0"},
				"east": {"uv": [14.33333, 0.66667, 15.00033, 1.99967], "rotation": 90, "texture": "#0"},
				"south": {"uv": [14.33333, 0.66667, 15.00033, 1.99967], "rotation": 90, "texture": "#0"},
				"west": {"uv": [14.33333, 0.66667, 15.00033, 1.99967], "rotation": 90, "texture": "#0"},
				"up": {"uv": [14.33333, 0.66667, 15.00033, 1.99967], "rotation": 90, "texture": "#0"},
				"down": {"uv": [14.33333, 0.66667, 15.00033, 1.99967], "rotation": 90, "texture": "#0"}
			}
		},
		{
			"name": "cube6",
			"from": [6.94682, 13.965, 7.442],
			"to": [8.05338, 14.215, 7.692],
			"rotation": {"angle": 45, "axis": "x", "origin": [7.5001, 14.15, 7.41252]},
			"faces": {
				"north": {"uv": [9, 3.33333, 9.667, 4.66633], "rotation": 90, "texture": "#0"},
				"east": {"uv": [9, 3.33333, 9.667, 4.66633], "rotation": 90, "texture": "#0"},
				"south": {"uv": [9, 3.33333, 9.667, 4.66633], "rotation": 90, "texture": "#0"},
				"west": {"uv": [9, 3.33333, 9.667, 4.66633], "rotation": 90, "texture": "#0"},
				"up": {"uv": [9, 3.33333, 9.667, 4.66633], "rotation": 90, "texture": "#0"},
				"down": {"uv": [9, 3.33333, 9.667, 4.66633], "rotation": 90, "texture": "#0"}
			}
		},
		{
			"name": "cube7",
			"from": [6.96895, 11.78143, 6.68852],
			"to": [8.03125, 12.03143, 6.93852],
			"rotation": {"angle": 45, "axis": "x", "origin": [7.5001, 11.23143, 7.48852]},
			"faces": {
				"north": {"uv": [9, 3.33333, 9.667, 4.66633], "rotation": 90, "texture": "#0"},
				"east": {"uv": [9, 3.33333, 9.667, 4.66633], "rotation": 90, "texture": "#0"},
				"south": {"uv": [9, 3.33333, 9.667, 4.66633], "rotation": 90, "texture": "#0"},
				"west": {"uv": [9, 3.33333, 9.667, 4.66633], "rotation": 90, "texture": "#0"},
				"up": {"uv": [9, 3.33333, 9.667, 4.66633], "rotation": 90, "texture": "#0"},
				"down": {"uv": [9, 3.33333, 9.667, 4.66633], "rotation": 90, "texture": "#0"}
			}
		},
		{
			"name": "cube8",
			"from": [6.96895, 10.43143, 8.03852],
			"to": [8.03125, 10.68143, 8.28852],
			"rotation": {"angle": 45, "axis": "x", "origin": [7.5001, 11.23143, 7.48852]},
			"faces": {
				"north": {"uv": [9, 3.33333, 9.667, 4.66633], "rotation": 90, "texture": "#0"},
				"east": {"uv": [9, 3.33333, 9.667, 4.66633], "rotation": 90, "texture": "#0"},
				"south": {"uv": [9, 3.33333, 9.667, 4.66633], "rotation": 90, "texture": "#0"},
				"west": {"uv": [9, 3.33333, 9.667, 4.66633], "rotation": 90, "texture": "#0"},
				"up": {"uv": [9, 3.33333, 9.667, 4.66633], "rotation": 90, "texture": "#0"},
				"down": {"uv": [9, 3.33333, 9.667, 4.66633], "rotation": 90, "texture": "#0"}
			}
		},
		{
			"name": "cube7",
			"from": [6.94682, 10, 11.4],
			"to": [8.05338, 10.25, 11.65],
			"rotation": {"angle": 45, "axis": "x", "origin": [7.5001, 14.15, 7.41252]},
			"faces": {
				"north": {"uv": [9, 3.33333, 9.667, 4.66633], "rotation": 90, "texture": "#0"},
				"east": {"uv": [9, 3.33333, 9.667, 4.66633], "rotation": 90, "texture": "#0"},
				"south": {"uv": [9, 3.33333, 9.667, 4.66633], "rotation": 90, "texture": "#0"},
				"west": {"uv": [9, 3.33333, 9.667, 4.66633], "rotation": 90, "texture": "#0"},
				"up": {"uv": [9, 3.33333, 9.667, 4.66633], "rotation": 90, "texture": "#0"},
				"down": {"uv": [9, 3.33333, 9.667, 4.66633], "rotation": 90, "texture": "#0"}
			}
		},
		{
			"name": "cube6",
			"from": [6.9681, 7.9, 7.26252],
			"to": [8.0321, 8.4, 7.70312],
			"rotation": {"angle": 0, "axis": "y", "origin": [7.5, 8.15, 7.48284]},
			"faces": {
				"north": {"uv": [14.33333, 0.66667, 15.00033, 1.99967], "rotation": 90, "texture": "#0"},
				"east": {"uv": [14.33333, 0.66667, 15.00033, 1.99967], "rotation": 90, "texture": "#0"},
				"south": {"uv": [14.33333, 0.66667, 15.00033, 1.99967], "rotation": 90, "texture": "#0"},
				"west": {"uv": [14.33333, 0.66667, 15.00033, 1.99967], "rotation": 90, "texture": "#0"},
				"up": {"uv": [14.33333, 0.66667, 15.00033, 1.99967], "rotation": 90, "texture": "#0"},
				"down": {"uv": [14.33333, 0.66667, 15.00033, 1.99967], "rotation": 90, "texture": "#0"}
			}
		},
		{
			"name": "cube6",
			"from": [7.00002, 12.77515, 8.43077],
			"to": [8.00018, 13.87515, 8.77137],
			"rotation": {"angle": -22.5, "axis": "x", "origin": [7.5001, 11.25234, 7.48282]},
			"faces": {
				"north": {"uv": [14.33333, 0.66667, 15.00033, 1.99967], "rotation": 90, "texture": "#0"},
				"east": {"uv": [14.33333, 0.66667, 15.00033, 1.99967], "rotation": 90, "texture": "#0"},
				"south": {"uv": [14.33333, 0.66667, 15.00033, 1.99967], "rotation": 90, "texture": "#0"},
				"west": {"uv": [14.33333, 0.66667, 15.00033, 1.99967], "rotation": 90, "texture": "#0"},
				"up": {"uv": [14.33333, 0.66667, 15.00033, 1.99967], "rotation": 90, "texture": "#0"},
				"down": {"uv": [14.33333, 0.66667, 15.00033, 1.99967], "rotation": 90, "texture": "#0"}
			}
		},
		{
			"name": "cube7",
			"from": [7.00002, 11.01978, 7.70368],
			"to": [8.00018, 12.11978, 8.04428],
			"rotation": {"angle": -22.5, "axis": "x", "origin": [7.5001, 11.25234, 7.48282]},
			"faces": {
				"north": {"uv": [14.33333, 0.66667, 15.00033, 1.99967], "rotation": 90, "texture": "#0"},
				"east": {"uv": [14.33333, 0.66667, 15.00033, 1.99967], "rotation": 90, "texture": "#0"},
				"south": {"uv": [14.33333, 0.66667, 15.00033, 1.99967], "rotation": 90, "texture": "#0"},
				"west": {"uv": [14.33333, 0.66667, 15.00033, 1.99967], "rotation": 90, "texture": "#0"},
				"up": {"uv": [14.33333, 0.66667, 15.00033, 1.99967], "rotation": 90, "texture": "#0"},
				"down": {"uv": [14.33333, 0.66667, 15.00033, 1.99967], "rotation": 90, "texture": "#0"}
			}
		},
		{
			"name": "cube8",
			"from": [7.00002, 9.26441, 6.97658],
			"to": [8.00018, 10.36441, 7.31718],
			"rotation": {"angle": -22.5, "axis": "x", "origin": [7.5001, 11.25234, 7.48282]},
			"faces": {
				"north": {"uv": [14.33333, 0.66667, 15.00033, 1.99967], "rotation": 90, "texture": "#0"},
				"east": {"uv": [14.33333, 0.66667, 15.00033, 1.99967], "rotation": 90, "texture": "#0"},
				"south": {"uv": [14.33333, 0.66667, 15.00033, 1.99967], "rotation": 90, "texture": "#0"},
				"west": {"uv": [14.33333, 0.66667, 15.00033, 1.99967], "rotation": 90, "texture": "#0"},
				"up": {"uv": [14.33333, 0.66667, 15.00033, 1.99967], "rotation": 90, "texture": "#0"},
				"down": {"uv": [14.33333, 0.66667, 15.00033, 1.99967], "rotation": 90, "texture": "#0"}
			}
		},
		{
			"name": "cube7",
			"from": [7.00002, 12.04028, 7.64847],
			"to": [8.00018, 13.24028, 7.98907],
			"rotation": {"angle": -22.5, "axis": "x", "origin": [7.5001, 11.25234, 7.48282]},
			"faces": {
				"north": {"uv": [14.33333, 0.66667, 15.00033, 1.99967], "rotation": 90, "texture": "#0"},
				"east": {"uv": [14.33333, 0.66667, 15.00033, 1.99967], "rotation": 90, "texture": "#0"},
				"south": {"uv": [14.33333, 0.66667, 15.00033, 1.99967], "rotation": 90, "texture": "#0"},
				"west": {"uv": [14.33333, 0.66667, 15.00033, 1.99967], "rotation": 90, "texture": "#0"},
				"up": {"uv": [14.33333, 0.66667, 15.00033, 1.99967], "rotation": 90, "texture": "#0"},
				"down": {"uv": [14.33333, 0.66667, 15.00033, 1.99967], "rotation": 90, "texture": "#0"}
			}
		},
		{
			"name": "cube8",
			"from": [7.00002, 10.2849, 6.92137],
			"to": [8.00018, 11.4849, 7.26197],
			"rotation": {"angle": -22.5, "axis": "x", "origin": [7.5001, 11.25234, 7.48282]},
			"faces": {
				"north": {"uv": [14.33333, 0.66667, 15.00033, 1.99967], "rotation": 90, "texture": "#0"},
				"east": {"uv": [14.33333, 0.66667, 15.00033, 1.99967], "rotation": 90, "texture": "#0"},
				"south": {"uv": [14.33333, 0.66667, 15.00033, 1.99967], "rotation": 90, "texture": "#0"},
				"west": {"uv": [14.33333, 0.66667, 15.00033, 1.99967], "rotation": 90, "texture": "#0"},
				"up": {"uv": [14.33333, 0.66667, 15.00033, 1.99967], "rotation": 90, "texture": "#0"},
				"down": {"uv": [14.33333, 0.66667, 15.00033, 1.99967], "rotation": 90, "texture": "#0"}
			}
		},
		{
			"name": "cube9",
			"from": [7.00002, 8.52953, 6.19427],
			"to": [8.00018, 9.72953, 6.53487],
			"rotation": {"angle": -22.5, "axis": "x", "origin": [7.5001, 11.25234, 7.48282]},
			"faces": {
				"north": {"uv": [14.33333, 0.66667, 15.00033, 1.99967], "rotation": 90, "texture": "#0"},
				"east": {"uv": [14.33333, 0.66667, 15.00033, 1.99967], "rotation": 90, "texture": "#0"},
				"south": {"uv": [14.33333, 0.66667, 15.00033, 1.99967], "rotation": 90, "texture": "#0"},
				"west": {"uv": [14.33333, 0.66667, 15.00033, 1.99967], "rotation": 90, "texture": "#0"},
				"up": {"uv": [14.33333, 0.66667, 15.00033, 1.99967], "rotation": 90, "texture": "#0"},
				"down": {"uv": [14.33333, 0.66667, 15.00033, 1.99967], "rotation": 90, "texture": "#0"}
			}
		},
		{
			"name": "cube7",
			"from": [7.00002, 12.77515, 6.19427],
			"to": [8.00018, 13.87515, 6.53487],
			"rotation": {"angle": 22.5, "axis": "x", "origin": [7.5001, 11.25234, 7.48282]},
			"faces": {
				"north": {"uv": [14.33333, 0.66667, 15.00033, 1.99967], "rotation": 90, "texture": "#0"},
				"east": {"uv": [14.33333, 0.66667, 15.00033, 1.99967], "rotation": 90, "texture": "#0"},
				"south": {"uv": [14.33333, 0.66667, 15.00033, 1.99967], "rotation": 90, "texture": "#0"},
				"west": {"uv": [14.33333, 0.66667, 15.00033, 1.99967], "rotation": 90, "texture": "#0"},
				"up": {"uv": [14.33333, 0.66667, 15.00033, 1.99967], "rotation": 90, "texture": "#0"},
				"down": {"uv": [14.33333, 0.66667, 15.00033, 1.99967], "rotation": 90, "texture": "#0"}
			}
		},
		{
			"name": "cube8",
			"from": [7.00002, 11.01978, 6.92137],
			"to": [8.00018, 12.11978, 7.26197],
			"rotation": {"angle": 22.5, "axis": "x", "origin": [7.5001, 11.25234, 7.48282]},
			"faces": {
				"north": {"uv": [14.33333, 0.66667, 15.00033, 1.99967], "rotation": 90, "texture": "#0"},
				"east": {"uv": [14.33333, 0.66667, 15.00033, 1.99967], "rotation": 90, "texture": "#0"},
				"south": {"uv": [14.33333, 0.66667, 15.00033, 1.99967], "rotation": 90, "texture": "#0"},
				"west": {"uv": [14.33333, 0.66667, 15.00033, 1.99967], "rotation": 90, "texture": "#0"},
				"up": {"uv": [14.33333, 0.66667, 15.00033, 1.99967], "rotation": 90, "texture": "#0"},
				"down": {"uv": [14.33333, 0.66667, 15.00033, 1.99967], "rotation": 90, "texture": "#0"}
			}
		},
		{
			"name": "cube9",
			"from": [7.00002, 9.26441, 7.64847],
			"to": [8.00018, 10.36441, 7.98907],
			"rotation": {"angle": 22.5, "axis": "x", "origin": [7.5001, 11.25234, 7.48282]},
			"faces": {
				"north": {"uv": [14.33333, 0.66667, 15.00033, 1.99967], "rotation": 90, "texture": "#0"},
				"east": {"uv": [14.33333, 0.66667, 15.00033, 1.99967], "rotation": 90, "texture": "#0"},
				"south": {"uv": [14.33333, 0.66667, 15.00033, 1.99967], "rotation": 90, "texture": "#0"},
				"west": {"uv": [14.33333, 0.66667, 15.00033, 1.99967], "rotation": 90, "texture": "#0"},
				"up": {"uv": [14.33333, 0.66667, 15.00033, 1.99967], "rotation": 90, "texture": "#0"},
				"down": {"uv": [14.33333, 0.66667, 15.00033, 1.99967], "rotation": 90, "texture": "#0"}
			}
		},
		{
			"name": "cube8",
			"from": [7.00002, 12.04028, 6.97658],
			"to": [8.00018, 13.24028, 7.31718],
			"rotation": {"angle": 22.5, "axis": "x", "origin": [7.5001, 11.25234, 7.48282]},
			"faces": {
				"north": {"uv": [14.33333, 0.66667, 15.00033, 1.99967], "rotation": 90, "texture": "#0"},
				"east": {"uv": [14.33333, 0.66667, 15.00033, 1.99967], "rotation": 90, "texture": "#0"},
				"south": {"uv": [14.33333, 0.66667, 15.00033, 1.99967], "rotation": 90, "texture": "#0"},
				"west": {"uv": [14.33333, 0.66667, 15.00033, 1.99967], "rotation": 90, "texture": "#0"},
				"up": {"uv": [14.33333, 0.66667, 15.00033, 1.99967], "rotation": 90, "texture": "#0"},
				"down": {"uv": [14.33333, 0.66667, 15.00033, 1.99967], "rotation": 90, "texture": "#0"}
			}
		},
		{
			"name": "cube9",
			"from": [7.00002, 10.2849, 7.70368],
			"to": [8.00018, 11.4849, 8.04428],
			"rotation": {"angle": 22.5, "axis": "x", "origin": [7.5001, 11.25234, 7.48282]},
			"faces": {
				"north": {"uv": [14.33333, 0.66667, 15.00033, 1.99967], "rotation": 90, "texture": "#0"},
				"east": {"uv": [14.33333, 0.66667, 15.00033, 1.99967], "rotation": 90, "texture": "#0"},
				"south": {"uv": [14.33333, 0.66667, 15.00033, 1.99967], "rotation": 90, "texture": "#0"},
				"west": {"uv": [14.33333, 0.66667, 15.00033, 1.99967], "rotation": 90, "texture": "#0"},
				"up": {"uv": [14.33333, 0.66667, 15.00033, 1.99967], "rotation": 90, "texture": "#0"},
				"down": {"uv": [14.33333, 0.66667, 15.00033, 1.99967], "rotation": 90, "texture": "#0"}
			}
		},
		{
			"name": "cube10",
			"from": [7.00002, 8.52953, 8.43077],
			"to": [8.00018, 9.72953, 8.77137],
			"rotation": {"angle": 22.5, "axis": "x", "origin": [7.5001, 11.25234, 7.48282]},
			"faces": {
				"north": {"uv": [14.33333, 0.66667, 15.00033, 1.99967], "rotation": 90, "texture": "#0"},
				"east": {"uv": [14.33333, 0.66667, 15.00033, 1.99967], "rotation": 90, "texture": "#0"},
				"south": {"uv": [14.33333, 0.66667, 15.00033, 1.99967], "rotation": 90, "texture": "#0"},
				"west": {"uv": [14.33333, 0.66667, 15.00033, 1.99967], "rotation": 90, "texture": "#0"},
				"up": {"uv": [14.33333, 0.66667, 15.00033, 1.99967], "rotation": 90, "texture": "#0"},
				"down": {"uv": [14.33333, 0.66667, 15.00033, 1.99967], "rotation": 90, "texture": "#0"}
			}
		},
		{
			"name": "cube13",
			"from": [7.05, 16.18, 8.25101],
			"to": [7.24001, 17.12, 8.69601],
			"rotation": {"angle": 22.5, "axis": "y", "origin": [7.22708, 16.75, 8.47351]},
			"faces": {
				"north": {"uv": [13.66667, 0.66667, 15.33267, 2.33367], "texture": "#0"},
				"east": {"uv": [13.66667, 0.66667, 15.33267, 2.33367], "texture": "#0"},
				"south": {"uv": [13.66667, 0.66667, 15.33267, 2.33367], "texture": "#0"},
				"west": {"uv": [13.66667, 0.66667, 15.33267, 2.33367], "texture": "#0"},
				"up": {"uv": [13.66667, 0.66667, 15.33267, 2.33367], "texture": "#0"},
				"down": {"uv": [13.66667, 0.66667, 15.33267, 2.33367], "texture": "#0"}
			}
		},
		{
			"name": "cube14",
			"from": [7.15387, 16.18, 8.263],
			"to": [7.88387, 17.12, 8.708],
			"rotation": {"angle": 0, "axis": "y", "origin": [7.33096, 16.75, 8.4855]},
			"faces": {
				"north": {"uv": [13.66667, 0.66667, 15.33267, 2.33367], "texture": "#0"},
				"east": {"uv": [13.66667, 0.66667, 15.33267, 2.33367], "texture": "#0"},
				"south": {"uv": [13.66667, 0.66667, 15.33267, 2.33367], "texture": "#0"},
				"west": {"uv": [13.66667, 0.66667, 15.33267, 2.33367], "texture": "#0"},
				"up": {"uv": [13.66667, 0.66667, 15.33267, 2.33367], "texture": "#0"},
				"down": {"uv": [13.66667, 0.66667, 15.33267, 2.33367], "texture": "#0"}
			}
		},
		{
			"name": "cube14",
			"from": [7.75853, 16.18, 8.03073],
			"to": [7.94854, 17.12, 8.47573],
			"rotation": {"angle": -22.5, "axis": "y", "origin": [7.23561, 16.75, 8.45323]},
			"faces": {
				"north": {"uv": [13.66667, 0.66667, 15.33267, 2.33367], "texture": "#0"},
				"east": {"uv": [13.66667, 0.66667, 15.33267, 2.33367], "texture": "#0"},
				"south": {"uv": [13.66667, 0.66667, 15.33267, 2.33367], "texture": "#0"},
				"west": {"uv": [13.66667, 0.66667, 15.33267, 2.33367], "texture": "#0"},
				"up": {"uv": [13.66667, 0.66667, 15.33267, 2.33367], "texture": "#0"},
				"down": {"uv": [13.66667, 0.66667, 15.33267, 2.33367], "texture": "#0"}
			}
		}
	],
	"display": {
		"thirdperson_righthand": {
			"translation": [0.5, 0.75, 1.5]
		},
		"thirdperson_lefthand": {
			"rotation": [2, 0, 0],
			"translation": [0, 0, 1.75]
		},
		"firstperson_righthand": {
			"rotation": [-16, 0, 0],
			"scale": [1.2, 1.2, 1.2]
		},
		"firstperson_lefthand": {
			"rotation": [-16, 0, 0],
			"scale": [1.2, 1.2, 1.2]
		},
		"gui": {
			"rotation": [90, 45, -90],
			"translation": [-1.25, -3, 0],
			"scale": [1.2, 1.2, 1.2]
		},
		"fixed": {
			"rotation": [-90, 45, 90],
			"translation": [0, 2.5, -2]
		}
	},
	"groups": [
		{
			"name": "base",
			"origin": [8, 10, 8],
			"color": 0,
			"children": [0, 1, 2, 3, 4, 5, 6, 7, 8, 9, 10, 11, 12, 13, 14, 15, 16, 17, 18, 19, 20, 21, 22, 23, 24, 25, 26, 27, 28, 29, 30, 31, 32, 33, 34, 35, 36, 37, 38, 39, 40, 41, 42, 43]
		},
		{
			"name": "deadpeopletea",
			"origin": [8, 8, 8],
			"color": 0,
			"children": [44, 45, 46, 47, 48, 49, 50, 51, 52, 53, 54, 55, 56, 57, 58, 59, 60, 61, 62, 63, 64, 65, 66, 67, 68, 69, 70]
		}
	]
}