{
	"credit": "Made with Blockbench",
	"textures": {
		"0": "gci:items/common/mpz",
		"particle": "gci:items/common/mpz"
	},
	"elements": [
		{
			"name": "hexadecagon",
			"from": [7.90054, 4.5, 7.5],
			"to": [8.09946, 18.5, 8.5],
			"rotation": {"angle": -45, "axis": "y", "origin": [8, 9, 8]},
			"faces": {
				"north": {"uv": [8.33333, 11.33333, 10, 13], "texture": "#0"},
				"east": {"uv": [8.33333, 11.33333, 10, 13], "texture": "#0"},
				"south": {"uv": [8.33333, 11.33333, 10, 13], "texture": "#0"},
				"west": {"uv": [8.33333, 11.33333, 10, 13], "texture": "#0"},
				"up": {"uv": [8.33333, 11.33333, 10, 13], "texture": "#0"},
				"down": {"uv": [8.33333, 11.33333, 10, 13], "texture": "#0"}
			}
		},
		{
			"name": "hexadecagon",
			"from": [7.90054, 4.5, 7.5],
			"to": [8.09946, 18.5, 8.5],
			"rotation": {"angle": -22.5, "axis": "y", "origin": [8, 6, 8]},
			"faces": {
				"north": {"uv": [8.33333, 11.33333, 10, 13], "texture": "#0"},
				"east": {"uv": [8.33333, 11.33333, 10, 13], "texture": "#0"},
				"south": {"uv": [8.33333, 11.33333, 10, 13], "texture": "#0"},
				"west": {"uv": [8.33333, 11.33333, 10, 13], "texture": "#0"},
				"up": {"uv": [8.33333, 11.33333, 10, 13], "texture": "#0"},
				"down": {"uv": [8.33333, 11.33333, 10, 13], "texture": "#0"}
			}
		},
		{
			"name": "hexadecagon",
			"from": [7.90054, 3.5, 7.5],
			"to": [8.09946, 18.5, 8.5],
			"rotation": {"angle": 0, "axis": "y", "origin": [8, 5, 8]},
			"faces": {
				"north": {"uv": [8.33333, 11.33333, 10, 13], "texture": "#0"},
				"east": {"uv": [8.33333, 11.33333, 10, 13], "texture": "#0"},
				"south": {"uv": [8.33333, 11.33333, 10, 13], "texture": "#0"},
				"west": {"uv": [8.33333, 11.33333, 10, 13], "texture": "#0"},
				"up": {"uv": [8.33333, 11.33333, 10, 13], "texture": "#0"},
				"down": {"uv": [8.33333, 11.33333, 10, 13], "texture": "#0"}
			}
		},
		{
			"name": "hexadecagon",
			"from": [7.90054, 7.5, 7.5],
			"to": [8.09946, 18.5, 8.5],
			"rotation": {"angle": 0, "axis": "y", "origin": [8, 9, 8]},
			"faces": {
				"north": {"uv": [8.33333, 11.33333, 10, 13], "texture": "#0"},
				"east": {"uv": [8.33333, 11.33333, 10, 13], "texture": "#0"},
				"south": {"uv": [8.33333, 11.33333, 10, 13], "texture": "#0"},
				"west": {"uv": [8.33333, 11.33333, 10, 13], "texture": "#0"},
				"up": {"uv": [8.33333, 11.33333, 10, 13], "texture": "#0"},
				"down": {"uv": [8.33333, 11.33333, 10, 13], "texture": "#0"}
			}
		},
		{
			"name": "hexadecagon",
			"from": [7.90054, 4.5, 7.5],
			"to": [8.09946, 18.5, 8.5],
			"rotation": {"angle": 22.5, "axis": "y", "origin": [8, 9, 8]},
			"faces": {
				"north": {"uv": [8.33333, 11.33333, 10, 13], "texture": "#0"},
				"east": {"uv": [8.33333, 11.33333, 10, 13], "texture": "#0"},
				"south": {"uv": [8.33333, 11.33333, 10, 13], "texture": "#0"},
				"west": {"uv": [8.33333, 11.33333, 10, 13], "texture": "#0"},
				"up": {"uv": [8.33333, 11.33333, 10, 13], "texture": "#0"},
				"down": {"uv": [8.33333, 11.33333, 10, 13], "texture": "#0"}
			}
		},
		{
			"name": "hexadecagon",
			"from": [7.90054, 4.5, 7.5],
			"to": [8.09946, 18.5, 8.5],
			"rotation": {"angle": 45, "axis": "y", "origin": [8, 9, 8]},
			"faces": {
				"north": {"uv": [8.33333, 11.33333, 10, 13], "texture": "#0"},
				"east": {"uv": [8.33333, 11.33333, 10, 13], "texture": "#0"},
				"south": {"uv": [8.33333, 11.33333, 10, 13], "texture": "#0"},
				"west": {"uv": [8.33333, 11.33333, 10, 13], "texture": "#0"},
				"up": {"uv": [8.33333, 11.33333, 10, 13], "texture": "#0"},
				"down": {"uv": [8.33333, 11.33333, 10, 13], "texture": "#0"}
			}
		},
		{
			"name": "hexadecagon",
			"from": [7.5, 4.5, 7.90054],
			"to": [8.5, 18.5, 8.09946],
			"rotation": {"angle": -22.5, "axis": "y", "origin": [8, 9, 8]},
			"faces": {
				"north": {"uv": [8.33333, 11.33333, 10, 13], "texture": "#0"},
				"east": {"uv": [8.33333, 11.33333, 10, 13], "texture": "#0"},
				"south": {"uv": [8.33333, 11.33333, 10, 13], "texture": "#0"},
				"west": {"uv": [8.33333, 11.33333, 10, 13], "texture": "#0"},
				"up": {"uv": [8.33333, 11.33333, 10, 13], "texture": "#0"},
				"down": {"uv": [8.33333, 11.33333, 10, 13], "texture": "#0"}
			}
		},
		{
			"name": "hexadecagon",
			"from": [7.5, 4.5, 7.90054],
			"to": [8.5, 18.5, 8.09946],
			"rotation": {"angle": 0, "axis": "y", "origin": [8, 9, 8]},
			"faces": {
				"north": {"uv": [8.33333, 11.33333, 10, 13], "texture": "#0"},
				"east": {"uv": [8.33333, 11.33333, 10, 13], "texture": "#0"},
				"south": {"uv": [8.33333, 11.33333, 10, 13], "texture": "#0"},
				"west": {"uv": [8.33333, 11.33333, 10, 13], "texture": "#0"},
				"up": {"uv": [8.33333, 11.33333, 10, 13], "texture": "#0"},
				"down": {"uv": [8.33333, 11.33333, 10, 13], "texture": "#0"}
			}
		},
		{
			"name": "hexadecagon",
			"from": [7.5, 4.5, 7.90054],
			"to": [8.5, 18.5, 8.09946],
			"rotation": {"angle": 22.5, "axis": "y", "origin": [8, 9, 8]},
			"faces": {
				"north": {"uv": [8.33333, 11.33333, 10, 13], "texture": "#0"},
				"east": {"uv": [8.33333, 11.33333, 10, 13], "texture": "#0"},
				"south": {"uv": [8.33333, 11.33333, 10, 13], "texture": "#0"},
				"west": {"uv": [8.33333, 11.33333, 10, 13], "texture": "#0"},
				"up": {"uv": [8.33333, 11.33333, 10, 13], "texture": "#0"},
				"down": {"uv": [8.33333, 11.33333, 10, 13], "texture": "#0"}
			}
		},
		{
			"name": "hexadecagon",
			"from": [7.8906, 3.45, 7.45],
			"to": [8.1094, 4.55, 8.55],
			"rotation": {"angle": -45, "axis": "y", "origin": [8, 4, 8]},
			"faces": {
				"north": {"uv": [5.66667, 13.66667, 7.66667, 15.66667], "texture": "#0"},
				"east": {"uv": [5.66667, 13.66667, 7.66667, 15.66667], "texture": "#0"},
				"south": {"uv": [5.66667, 13.66667, 7.66667, 15.66667], "texture": "#0"},
				"west": {"uv": [5.66667, 13.66667, 7.66667, 15.66667], "texture": "#0"},
				"up": {"uv": [5.66667, 13.66667, 7.66667, 15.66667], "texture": "#0"},
				"down": {"uv": [5.66667, 13.66667, 7.66667, 15.66667], "texture": "#0"}
			}
		},
		{
			"name": "hexadecagon",
			"from": [7.8906, 3.45, 7.45],
			"to": [8.1094, 4.55, 8.55],
			"rotation": {"angle": -22.5, "axis": "y", "origin": [8, 4, 8]},
			"faces": {
				"north": {"uv": [5.66667, 13.66667, 7.66667, 15.66667], "texture": "#0"},
				"east": {"uv": [5.66667, 13.66667, 7.66667, 15.66667], "texture": "#0"},
				"south": {"uv": [5.66667, 13.66667, 7.66667, 15.66667], "texture": "#0"},
				"west": {"uv": [5.66667, 13.66667, 7.66667, 15.66667], "texture": "#0"},
				"up": {"uv": [5.66667, 13.66667, 7.66667, 15.66667], "texture": "#0"},
				"down": {"uv": [5.66667, 13.66667, 7.66667, 15.66667], "texture": "#0"}
			}
		},
		{
			"name": "hexadecagon",
			"from": [7.8906, 3.45, 7.45],
			"to": [8.1094, 4.55, 8.55],
			"rotation": {"angle": 0, "axis": "y", "origin": [8, 4, 8]},
			"faces": {
				"north": {"uv": [5.66667, 13.66667, 7.66667, 15.66667], "texture": "#0"},
				"east": {"uv": [5.66667, 13.66667, 7.66667, 15.66667], "texture": "#0"},
				"south": {"uv": [5.66667, 13.66667, 7.66667, 15.66667], "texture": "#0"},
				"west": {"uv": [5.66667, 13.66667, 7.66667, 15.66667], "texture": "#0"},
				"up": {"uv": [5.66667, 13.66667, 7.66667, 15.66667], "texture": "#0"},
				"down": {"uv": [5.66667, 13.66667, 7.66667, 15.66667], "texture": "#0"}
			}
		},
		{
			"name": "hexadecagon",
			"from": [7.8906, 4, 10.05],
			"to": [8.1094, 6.1, 10.55],
			"rotation": {"angle": 0, "axis": "y", "origin": [5, 5, 9]},
			"faces": {
				"north": {"uv": [5.66667, 3, 7.66667, 5], "rotation": 180, "texture": "#0"},
				"east": {"uv": [5.66667, 3, 7.66667, 5], "rotation": 90, "texture": "#0"},
				"south": {"uv": [5.66667, 3, 7.66667, 5], "texture": "#0"},
				"west": {"uv": [5.66667, 3, 7.66667, 5], "rotation": 270, "texture": "#0"},
				"up": {"uv": [5.66667, 3, 7.66667, 5], "texture": "#0"},
				"down": {"uv": [5.66667, 3, 7.66667, 5], "rotation": 180, "texture": "#0"}
			}
		},
		{
			"name": "hexadecagon",
			"from": [7.8906, 3.7, 8.45],
			"to": [8.1094, 4.2, 10.55],
			"rotation": {"angle": 0, "axis": "y", "origin": [5, 4, 9]},
			"faces": {
				"north": {"uv": [5.66667, 3, 7.66667, 5], "texture": "#0"},
				"east": {"uv": [5.66667, 3, 7.66667, 5], "texture": "#0"},
				"south": {"uv": [5.66667, 3, 7.66667, 5], "texture": "#0"},
				"west": {"uv": [5.66667, 3, 7.66667, 5], "texture": "#0"},
				"up": {"uv": [5.66667, 3, 7.66667, 5], "texture": "#0"},
				"down": {"uv": [5.66667, 3, 7.66667, 5], "texture": "#0"}
			}
		},
		{
			"name": "hexadecagon",
			"from": [8.1, 3.7, 8.45],
			"to": [8.3188, 4.2, 10.55],
			"rotation": {"angle": 0, "axis": "y", "origin": [5, 4, 9]},
			"faces": {
				"north": {"uv": [5.66667, 3, 7.66667, 5], "texture": "#0"},
				"east": {"uv": [5.66667, 3, 7.66667, 5], "texture": "#0"},
				"south": {"uv": [5.66667, 3, 7.66667, 5], "texture": "#0"},
				"west": {"uv": [5.66667, 3, 7.66667, 5], "texture": "#0"},
				"up": {"uv": [5.66667, 3, 7.66667, 5], "texture": "#0"},
				"down": {"uv": [5.66667, 3, 7.66667, 5], "texture": "#0"}
			}
		},
		{
			"name": "hexadecagon",
			"from": [8.1, 4, 10.05],
			"to": [8.3188, 6.1, 10.55],
			"rotation": {"angle": 0, "axis": "y", "origin": [5, 5, 8]},
			"faces": {
				"north": {"uv": [5.66667, 3, 7.66667, 5], "rotation": 180, "texture": "#0"},
				"east": {"uv": [5.66667, 3, 7.66667, 5], "rotation": 90, "texture": "#0"},
				"south": {"uv": [5.66667, 3, 7.66667, 5], "texture": "#0"},
				"west": {"uv": [5.66667, 3, 7.66667, 5], "rotation": 270, "texture": "#0"},
				"up": {"uv": [5.66667, 3, 7.66667, 5], "texture": "#0"},
				"down": {"uv": [5.66667, 3, 7.66667, 5], "rotation": 180, "texture": "#0"}
			}
		},
		{
			"name": "hexadecagon",
			"from": [7.7, 3.7, 8.45],
			"to": [7.9188, 4.2, 10.55],
			"rotation": {"angle": 0, "axis": "y", "origin": [5, 4, 9]},
			"faces": {
				"north": {"uv": [5.66667, 3, 7.66667, 5], "texture": "#0"},
				"east": {"uv": [5.66667, 3, 7.66667, 5], "texture": "#0"},
				"south": {"uv": [5.66667, 3, 7.66667, 5], "texture": "#0"},
				"west": {"uv": [5.66667, 3, 7.66667, 5], "texture": "#0"},
				"up": {"uv": [5.66667, 3, 7.66667, 5], "texture": "#0"},
				"down": {"uv": [5.66667, 3, 7.66667, 5], "texture": "#0"}
			}
		},
		{
			"name": "hexadecagon",
			"from": [7.7, 4, 10.05],
			"to": [7.9188, 6.1, 10.55],
			"rotation": {"angle": 0, "axis": "y", "origin": [5, 5, 9]},
			"faces": {
				"north": {"uv": [5.66667, 3, 7.66667, 5], "rotation": 180, "texture": "#0"},
				"east": {"uv": [5.66667, 3, 7.66667, 5], "rotation": 90, "texture": "#0"},
				"south": {"uv": [5.66667, 3, 7.66667, 5], "texture": "#0"},
				"west": {"uv": [5.66667, 3, 7.66667, 5], "rotation": 270, "texture": "#0"},
				"up": {"uv": [5.66667, 3, 7.66667, 5], "texture": "#0"},
				"down": {"uv": [5.66667, 3, 7.66667, 5], "rotation": 180, "texture": "#0"}
			}
		},
		{
			"name": "hexadecagon",
			"from": [7.8906, 3.45, 7.45],
			"to": [8.1094, 4.55, 8.55],
			"rotation": {"angle": 22.5, "axis": "y", "origin": [8, 4, 8]},
			"faces": {
				"north": {"uv": [5.66667, 13.66667, 7.66667, 15.66667], "texture": "#0"},
				"east": {"uv": [5.66667, 13.66667, 7.66667, 15.66667], "texture": "#0"},
				"south": {"uv": [5.66667, 13.66667, 7.66667, 15.66667], "texture": "#0"},
				"west": {"uv": [5.66667, 13.66667, 7.66667, 15.66667], "texture": "#0"},
				"up": {"uv": [5.66667, 13.66667, 7.66667, 15.66667], "texture": "#0"},
				"down": {"uv": [5.66667, 13.66667, 7.66667, 15.66667], "texture": "#0"}
			}
		},
		{
			"name": "hexadecagon",
			"from": [7.8906, 3.45, 7.45],
			"to": [8.1094, 4.55, 8.55],
			"rotation": {"angle": 45, "axis": "y", "origin": [8, 4, 8]},
			"faces": {
				"north": {"uv": [5.66667, 13.66667, 7.66667, 15.66667], "texture": "#0"},
				"east": {"uv": [5.66667, 13.66667, 7.66667, 15.66667], "texture": "#0"},
				"south": {"uv": [5.66667, 13.66667, 7.66667, 15.66667], "texture": "#0"},
				"west": {"uv": [5.66667, 13.66667, 7.66667, 15.66667], "texture": "#0"},
				"up": {"uv": [5.66667, 13.66667, 7.66667, 15.66667], "texture": "#0"},
				"down": {"uv": [5.66667, 13.66667, 7.66667, 15.66667], "texture": "#0"}
			}
		},
		{
			"name": "hexadecagon",
			"from": [7.45, 3.45, 7.8906],
			"to": [8.55, 4.55, 8.1094],
			"rotation": {"angle": -22.5, "axis": "y", "origin": [8, 4, 8]},
			"faces": {
				"north": {"uv": [5.66667, 13.66667, 7.66667, 15.66667], "texture": "#0"},
				"east": {"uv": [5.66667, 13.66667, 7.66667, 15.66667], "texture": "#0"},
				"south": {"uv": [5.66667, 13.66667, 7.66667, 15.66667], "texture": "#0"},
				"west": {"uv": [5.66667, 13.66667, 7.66667, 15.66667], "texture": "#0"},
				"up": {"uv": [5.66667, 13.66667, 7.66667, 15.66667], "texture": "#0"},
				"down": {"uv": [5.66667, 13.66667, 7.66667, 15.66667], "texture": "#0"}
			}
		},
		{
			"name": "hexadecagon",
			"from": [7.45, 3.45, 7.8906],
			"to": [8.55, 4.55, 8.1094],
			"rotation": {"angle": 0, "axis": "y", "origin": [8, 4, 8]},
			"faces": {
				"north": {"uv": [5.66667, 13.66667, 7.66667, 15.66667], "texture": "#0"},
				"east": {"uv": [5.66667, 13.66667, 7.66667, 15.66667], "texture": "#0"},
				"south": {"uv": [5.66667, 13.66667, 7.66667, 15.66667], "texture": "#0"},
				"west": {"uv": [5.66667, 13.66667, 7.66667, 15.66667], "texture": "#0"},
				"up": {"uv": [5.66667, 13.66667, 7.66667, 15.66667], "texture": "#0"},
				"down": {"uv": [5.66667, 13.66667, 7.66667, 15.66667], "texture": "#0"}
			}
		},
		{
			"name": "hexadecagon",
			"from": [7.45, 3.45, 7.8906],
			"to": [8.55, 4.55, 8.1094],
			"rotation": {"angle": 22.5, "axis": "y", "origin": [8, 4, 8]},
			"faces": {
				"north": {"uv": [5.66667, 13.66667, 7.66667, 15.66667], "texture": "#0"},
				"east": {"uv": [5.66667, 13.66667, 7.66667, 15.66667], "texture": "#0"},
				"south": {"uv": [5.66667, 13.66667, 7.66667, 15.66667], "texture": "#0"},
				"west": {"uv": [5.66667, 13.66667, 7.66667, 15.66667], "texture": "#0"},
				"up": {"uv": [5.66667, 13.66667, 7.66667, 15.66667], "texture": "#0"},
				"down": {"uv": [5.66667, 13.66667, 7.66667, 15.66667], "texture": "#0"}
			}
		},
		{
			"name": "hexadecagon",
			"from": [7.8906, -0.55, 7.45],
			"to": [8.1094, 0.05, 8.55],
			"rotation": {"angle": -45, "axis": "y", "origin": [8, -0.5, 8]},
			"faces": {
				"north": {"uv": [8.33333, 11, 10.33333, 13], "texture": "#0"},
				"east": {"uv": [8.33333, 11, 10.33333, 13], "texture": "#0"},
				"south": {"uv": [8.33333, 11, 10.33333, 13], "texture": "#0"},
				"west": {"uv": [8.33333, 11, 10.33333, 13], "texture": "#0"},
				"up": {"uv": [8.33333, 11, 10.33333, 13], "texture": "#0"},
				"down": {"uv": [8.33333, 11, 10.33333, 13], "texture": "#0"}
			}
		},
		{
			"name": "hexadecagon",
			"from": [7.8906, -0.55, 7.45],
			"to": [8.1094, 0.05, 8.55],
			"rotation": {"angle": -22.5, "axis": "y", "origin": [8, -0.5, 8]},
			"faces": {
				"north": {"uv": [8.33333, 11, 10.33333, 13], "texture": "#0"},
				"east": {"uv": [8.33333, 11, 10.33333, 13], "texture": "#0"},
				"south": {"uv": [8.33333, 11, 10.33333, 13], "texture": "#0"},
				"west": {"uv": [8.33333, 11, 10.33333, 13], "texture": "#0"},
				"up": {"uv": [8.33333, 11, 10.33333, 13], "texture": "#0"},
				"down": {"uv": [8.33333, 11, 10.33333, 13], "texture": "#0"}
			}
		},
		{
			"name": "hexadecagon",
			"from": [7.8906, -0.55, 7.45],
			"to": [8.1094, 0.05, 8.55],
			"rotation": {"angle": 0, "axis": "y", "origin": [8, -0.5, 8]},
			"faces": {
				"north": {"uv": [8.33333, 11, 10.33333, 13], "texture": "#0"},
				"east": {"uv": [8.33333, 11, 10.33333, 13], "texture": "#0"},
				"south": {"uv": [8.33333, 11, 10.33333, 13], "texture": "#0"},
				"west": {"uv": [8.33333, 11, 10.33333, 13], "texture": "#0"},
				"up": {"uv": [8.33333, 11, 10.33333, 13], "texture": "#0"},
				"down": {"uv": [8.33333, 11, 10.33333, 13], "texture": "#0"}
			}
		},
		{
			"name": "hexadecagon",
			"from": [7.45, -0.55, 7.8906],
			"to": [8.55, 0.05, 8.1094],
			"rotation": {"angle": 22.5, "axis": "y", "origin": [8, -0.5, 8]},
			"faces": {
				"north": {"uv": [8.33333, 11, 10.33333, 13], "texture": "#0"},
				"east": {"uv": [8.33333, 11, 10.33333, 13], "texture": "#0"},
				"south": {"uv": [8.33333, 11, 10.33333, 13], "texture": "#0"},
				"west": {"uv": [8.33333, 11, 10.33333, 13], "texture": "#0"},
				"up": {"uv": [8.33333, 11, 10.33333, 13], "texture": "#0"},
				"down": {"uv": [8.33333, 11, 10.33333, 13], "texture": "#0"}
			}
		},
		{
			"name": "hexadecagon",
			"from": [7.45, -0.55, 7.8906],
			"to": [8.55, 0.05, 8.1094],
			"rotation": {"angle": 0, "axis": "y", "origin": [8, -0.5, 8]},
			"faces": {
				"north": {"uv": [8.33333, 11, 10.33333, 13], "texture": "#0"},
				"east": {"uv": [8.33333, 11, 10.33333, 13], "texture": "#0"},
				"south": {"uv": [8.33333, 11, 10.33333, 13], "texture": "#0"},
				"west": {"uv": [8.33333, 11, 10.33333, 13], "texture": "#0"},
				"up": {"uv": [8.33333, 11, 10.33333, 13], "texture": "#0"},
				"down": {"uv": [8.33333, 11, 10.33333, 13], "texture": "#0"}
			}
		},
		{
			"name": "hexadecagon",
			"from": [7.45, -0.55, 7.8906],
			"to": [8.55, 0.05, 8.1094],
			"rotation": {"angle": -22.5, "axis": "y", "origin": [8, -0.5, 8]},
			"faces": {
				"north": {"uv": [8.33333, 11, 10.33333, 13], "texture": "#0"},
				"east": {"uv": [8.33333, 11, 10.33333, 13], "texture": "#0"},
				"south": {"uv": [8.33333, 11, 10.33333, 13], "texture": "#0"},
				"west": {"uv": [8.33333, 11, 10.33333, 13], "texture": "#0"},
				"up": {"uv": [8.33333, 11, 10.33333, 13], "texture": "#0"},
				"down": {"uv": [8.33333, 11, 10.33333, 13], "texture": "#0"}
			}
		},
		{
			"name": "hexadecagon",
			"from": [7.8906, -0.55, 7.45],
			"to": [8.1094, 0.05, 8.55],
			"rotation": {"angle": 45, "axis": "y", "origin": [8, -0.5, 8]},
			"faces": {
				"north": {"uv": [8.33333, 11, 10.33333, 13], "texture": "#0"},
				"east": {"uv": [8.33333, 11, 10.33333, 13], "texture": "#0"},
				"south": {"uv": [8.33333, 11, 10.33333, 13], "texture": "#0"},
				"west": {"uv": [8.33333, 11, 10.33333, 13], "texture": "#0"},
				"up": {"uv": [8.33333, 11, 10.33333, 13], "texture": "#0"},
				"down": {"uv": [8.33333, 11, 10.33333, 13], "texture": "#0"}
			}
		},
		{
			"name": "hexadecagon",
			"from": [7.8906, -0.55, 7.45],
			"to": [8.1094, 0.05, 8.55],
			"rotation": {"angle": 22.5, "axis": "y", "origin": [8, -0.5, 8]},
			"faces": {
				"north": {"uv": [8.33333, 11, 10.33333, 13], "texture": "#0"},
				"east": {"uv": [8.33333, 11, 10.33333, 13], "texture": "#0"},
				"south": {"uv": [8.33333, 11, 10.33333, 13], "texture": "#0"},
				"west": {"uv": [8.33333, 11, 10.33333, 13], "texture": "#0"},
				"up": {"uv": [8.33333, 11, 10.33333, 13], "texture": "#0"},
				"down": {"uv": [8.33333, 11, 10.33333, 13], "texture": "#0"}
			}
		},
		{
			"name": "hexadecagon",
			"from": [7.90054, -0.5, 7.5],
			"to": [8.09946, 3.5, 8.5],
			"rotation": {"angle": -22.5, "axis": "y", "origin": [8, -2, 8]},
			"faces": {
				"north": {"uv": [0.66667, 14, 2, 15.33333], "texture": "#0"},
				"east": {"uv": [0.66667, 14, 2, 15.33333], "texture": "#0"},
				"south": {"uv": [0.66667, 14, 2, 15.33333], "texture": "#0"},
				"west": {"uv": [0.66667, 15.33333, 2, 14.33333], "texture": "#0"},
				"up": {"uv": [0.66667, 14, 2, 15.33333], "texture": "#0"},
				"down": {"uv": [0.66667, 14, 2, 15.33333], "texture": "#0"}
			}
		},
		{
			"name": "hexadecagon",
			"from": [7.90054, -0.5, 7.5],
			"to": [8.09946, 3.5, 8.5],
			"rotation": {"angle": 0, "axis": "y", "origin": [8, 1, 8]},
			"faces": {
				"north": {"uv": [0.66667, 14, 2, 15.33333], "texture": "#0"},
				"east": {"uv": [0.66667, 14, 2, 15.33333], "texture": "#0"},
				"south": {"uv": [0.66667, 14, 2, 15.33333], "texture": "#0"},
				"west": {"uv": [0.66667, 15.33333, 2, 14.33333], "texture": "#0"},
				"up": {"uv": [0.66667, 14, 2, 15.33333], "texture": "#0"},
				"down": {"uv": [0.66667, 14, 2, 15.33333], "texture": "#0"}
			}
		},
		{
			"name": "hexadecagon",
			"from": [7.5, -0.5, 7.90054],
			"to": [8.5, 4.5, 8.09946],
			"rotation": {"angle": 0, "axis": "y", "origin": [8, 1, 8]},
			"faces": {
				"north": {"uv": [0.66667, 14, 2, 15.33333], "texture": "#0"},
				"east": {"uv": [0.66667, 14, 2, 15.33333], "texture": "#0"},
				"south": {"uv": [0.66667, 14, 2, 15.33333], "texture": "#0"},
				"west": {"uv": [0.66667, 15.33333, 2, 14.33333], "texture": "#0"},
				"up": {"uv": [0.66667, 14, 2, 15.33333], "texture": "#0"},
				"down": {"uv": [0.66667, 14, 2, 15.33333], "texture": "#0"}
			}
		},
		{
			"name": "hexadecagon",
			"from": [7.5, -0.5, 7.90054],
			"to": [8.5, 4.5, 8.09946],
			"rotation": {"angle": 22.5, "axis": "y", "origin": [8, 1, 8]},
			"faces": {
				"north": {"uv": [0.66667, 14, 2, 15.33333], "texture": "#0"},
				"east": {"uv": [0.66667, 14, 2, 15.33333], "texture": "#0"},
				"south": {"uv": [0.66667, 14, 2, 15.33333], "texture": "#0"},
				"west": {"uv": [0.66667, 15.33333, 2, 14.33333], "texture": "#0"},
				"up": {"uv": [0.66667, 14, 2, 15.33333], "texture": "#0"},
				"down": {"uv": [0.66667, 14, 2, 15.33333], "texture": "#0"}
			}
		},
		{
			"name": "hexadecagon",
			"from": [7.90054, -0.5, 7.5],
			"to": [8.09946, 3.5, 8.5],
			"rotation": {"angle": -45, "axis": "y", "origin": [8, 1, 8]},
			"faces": {
				"north": {"uv": [0.66667, 14, 2, 15.33333], "texture": "#0"},
				"east": {"uv": [0.66667, 14, 2, 15.33333], "texture": "#0"},
				"south": {"uv": [0.66667, 14, 2, 15.33333], "texture": "#0"},
				"west": {"uv": [0.66667, 15.33333, 2, 14.33333], "texture": "#0"},
				"up": {"uv": [0.66667, 14, 2, 15.33333], "texture": "#0"},
				"down": {"uv": [0.66667, 14, 2, 15.33333], "texture": "#0"}
			}
		},
		{
			"name": "hexadecagon",
			"from": [7.90054, -0.5, 7.5],
			"to": [8.09946, 3.5, 8.5],
			"rotation": {"angle": 22.5, "axis": "y", "origin": [8, 5, 8]},
			"faces": {
				"north": {"uv": [0.66667, 14, 2, 15.33333], "texture": "#0"},
				"east": {"uv": [0.66667, 14, 2, 15.33333], "texture": "#0"},
				"south": {"uv": [0.66667, 14, 2, 15.33333], "texture": "#0"},
				"west": {"uv": [0.66667, 15.33333, 2, 14.33333], "texture": "#0"},
				"up": {"uv": [0.66667, 14, 2, 15.33333], "texture": "#0"},
				"down": {"uv": [0.66667, 14, 2, 15.33333], "texture": "#0"}
			}
		},
		{
			"name": "hexadecagon",
			"from": [7.90054, -0.5, 7.5],
			"to": [8.09946, 4.5, 8.5],
			"rotation": {"angle": 45, "axis": "y", "origin": [8, 1, 8]},
			"faces": {
				"north": {"uv": [0.66667, 14, 2, 15.33333], "texture": "#0"},
				"east": {"uv": [0.66667, 14, 2, 15.33333], "texture": "#0"},
				"south": {"uv": [0.66667, 14, 2, 15.33333], "texture": "#0"},
				"west": {"uv": [0.66667, 15.33333, 2, 14.33333], "texture": "#0"},
				"up": {"uv": [0.66667, 14, 2, 15.33333], "texture": "#0"},
				"down": {"uv": [0.66667, 14, 2, 15.33333], "texture": "#0"}
			}
		},
		{
			"name": "hexadecagon",
			"from": [7.5, -0.5, 7.90054],
			"to": [8.5, 4.5, 8.09946],
			"rotation": {"angle": -22.5, "axis": "y", "origin": [8, -5, 8]},
			"faces": {
				"north": {"uv": [0.66667, 14, 2, 15.33333], "texture": "#0"},
				"east": {"uv": [0.66667, 14, 2, 15.33333], "texture": "#0"},
				"south": {"uv": [0.66667, 14, 2, 15.33333], "texture": "#0"},
				"west": {"uv": [0.66667, 15.33333, 2, 14.33333], "texture": "#0"},
				"up": {"uv": [0.66667, 14, 2, 15.33333], "texture": "#0"},
				"down": {"uv": [0.66667, 14, 2, 15.33333], "texture": "#0"}
			}
		}
	],
	"display": {
		"thirdperson_righthand": {
			"translation": [0, 5, 1]
		},
		"thirdperson_lefthand": {
			"rotation": [0, -180, 0],
			"translation": [0, 5.25, 1]
		},
		"firstperson_righthand": {
			"translation": [-1.25, 7.75, 2.25]
		},
		"firstperson_lefthand": {
			"translation": [-1.25, 7.75, 2.25]
		},
		"ground": {
			"rotation": [45, 0, 0],
			"translation": [0, 2.75, 2.75]
		},
		"gui": {
			"rotation": [1, -60, -59],
			"translation": [0, 0.5, 0.25],
			"scale": [1.06, 1.24, 1]
		},
		"head": {
			"translation": [0, -4.75, 0]
		},
		"fixed": {
			"rotation": [90, 45, 90],
			"translation": [0.5, 1.25, -1.25]
		}
	},
	"groups": [
		{
			"name": "Weapon",
			"origin": [8, 8, 8],
			"color": 0,
			"children": [
				{
					"name": "hexadecagon",
					"origin": [8, 8, 8],
					"color": 0,
					"children": [0, 1, 2, 3, 4, 5, 6, 7, 8]
				},
				{
					"name": "hexadecagon",
					"origin": [8, 8, 8],
					"color": 0,
					"children": [9, 10, 11, 12, 13, 14, 15, 16, 17, 18, 19, 20, 21, 22, 23, 24, 25, 26, 27, 28, 29, 30]
				},
				{
					"name": "haxadegadon2",
					"origin": [8, 8, 8],
					"color": 0,
					"children": [31, 32, 33, 34, 35, 36, 37, 38]
				}
			]
		}
	]
}