{
	"credit": "Made with Blockbench",
	"textures": {
		"0": "gci:items/common/mpz",
		"particle": "gci:items/common/mpz"
	},
	"elements": [
		{
			"from": [3.95, 5, 7.6],
			"to": [4.15, 5.2, 9.9],
			"rotation": {"angle": 0, "axis": "y", "origin": [4.1, 13.1, 11.9]},
			"faces": {
				"north": {"uv": [1, 14.66667, 1.66667, 15], "texture": "#0"},
				"east": {"uv": [1, 14.66667, 1.66667, 15], "texture": "#0"},
				"south": {"uv": [1, 14.66667, 1.66667, 15], "texture": "#0"},
				"west": {"uv": [1, 14.66667, 1.66667, 15], "texture": "#0"},
				"up": {"uv": [1, 14.66667, 1.66667, 15], "texture": "#0"},
				"down": {"uv": [1, 14.66667, 1.66667, 15], "texture": "#0"}
			}
		},
		{
			"from": [3.81464, 4.94393, 7.6],
			"to": [4.01464, 5.14393, 9.9],
			"rotation": {"angle": 45, "axis": "z", "origin": [3.91464, 5.09393, 8.65]},
			"faces": {
				"north": {"uv": [1, 14.66667, 1.66667, 15], "texture": "#0"},
				"east": {"uv": [1, 14.66667, 1.66667, 15], "texture": "#0"},
				"south": {"uv": [1, 14.66667, 1.66667, 15], "texture": "#0"},
				"west": {"uv": [1, 14.66667, 1.66667, 15], "texture": "#0"},
				"up": {"uv": [1, 14.66667, 1.66667, 15], "texture": "#0"},
				"down": {"uv": [1, 14.66667, 1.66667, 15], "texture": "#0"}
			}
		},
		{
			"from": [4.08536, 4.94393, 7.6],
			"to": [4.28536, 5.14393, 9.9],
			"rotation": {"angle": -45, "axis": "z", "origin": [4.18536, 5.09393, 8.65]},
			"faces": {
				"north": {"uv": [1, 14.66667, 1.66667, 15], "texture": "#0"},
				"east": {"uv": [1, 14.66667, 1.66667, 15], "texture": "#0"},
				"south": {"uv": [1, 14.66667, 1.66667, 15], "texture": "#0"},
				"west": {"uv": [1, 14.66667, 1.66667, 15], "texture": "#0"},
				"up": {"uv": [1, 14.66667, 1.66667, 15], "texture": "#0"},
				"down": {"uv": [1, 14.66667, 1.66667, 15], "texture": "#0"}
			}
		},
		{
			"from": [3.80858, 4.55858, 7.6],
			"to": [4.00858, 5.05858, 9.9],
			"rotation": {"angle": 0, "axis": "z", "origin": [3.85858, 4.95858, 8.65]},
			"faces": {
				"north": {"uv": [1, 14.66667, 1.66667, 15], "rotation": 90, "texture": "#0"},
				"east": {"uv": [1, 14.66667, 1.66667, 15], "rotation": 90, "texture": "#0"},
				"south": {"uv": [1, 14.66667, 1.66667, 15], "rotation": 90, "texture": "#0"},
				"west": {"uv": [1, 14.66667, 1.66667, 15], "rotation": 90, "texture": "#0"},
				"up": {"uv": [1, 14.66667, 1.66667, 15], "rotation": 90, "texture": "#0"},
				"down": {"uv": [1, 14.66667, 1.66667, 15], "rotation": 90, "texture": "#0"}
			}
		},
		{
			"from": [4.09142, 4.55858, 7.6],
			"to": [4.29142, 5.05858, 9.9],
			"rotation": {"angle": 0, "axis": "z", "origin": [4.24142, 4.95858, 8.65]},
			"faces": {
				"north": {"uv": [1, 14.66667, 1.66667, 15], "rotation": 270, "texture": "#0"},
				"east": {"uv": [1, 14.66667, 1.66667, 15], "rotation": 270, "texture": "#0"},
				"south": {"uv": [1, 14.66667, 1.66667, 15], "rotation": 270, "texture": "#0"},
				"west": {"uv": [1, 14.66667, 1.66667, 15], "rotation": 270, "texture": "#0"},
				"up": {"uv": [1, 14.66667, 1.66667, 15], "rotation": 270, "texture": "#0"},
				"down": {"uv": [1, 14.66667, 1.66667, 15], "rotation": 270, "texture": "#0"}
			}
		},
		{
			"from": [3.9175, 4.51346, 7.6],
			"to": [4.1175, 4.71346, 9.9],
			"rotation": {"angle": 45, "axis": "z", "origin": [4.05, 4.50453, 8.65]},
			"faces": {
				"north": {"uv": [1, 14.66667, 1.66667, 15], "rotation": 90, "texture": "#0"},
				"east": {"uv": [1, 14.66667, 1.66667, 15], "rotation": 90, "texture": "#0"},
				"south": {"uv": [1, 14.66667, 1.66667, 15], "rotation": 90, "texture": "#0"},
				"west": {"uv": [1, 14.66667, 1.66667, 15], "rotation": 90, "texture": "#0"},
				"up": {"uv": [1, 14.66667, 1.66667, 15], "rotation": 90, "texture": "#0"},
				"down": {"uv": [1, 14.66667, 1.66667, 15], "rotation": 90, "texture": "#0"}
			}
		},
		{
			"from": [3.95, 4.41716, 7.6],
			"to": [4.15, 4.61716, 9.9],
			"rotation": {"angle": 0, "axis": "z", "origin": [4.05, 4.50453, 8.65]},
			"faces": {
				"north": {"uv": [1, 14.66667, 1.66667, 15], "rotation": 180, "texture": "#0"},
				"east": {"uv": [1, 14.66667, 1.66667, 15], "rotation": 180, "texture": "#0"},
				"south": {"uv": [1, 14.66667, 1.66667, 15], "rotation": 180, "texture": "#0"},
				"west": {"uv": [1, 14.66667, 1.66667, 15], "rotation": 180, "texture": "#0"},
				"up": {"uv": [1, 14.66667, 1.66667, 15], "rotation": 180, "texture": "#0"},
				"down": {"uv": [1, 14.66667, 1.66667, 15], "rotation": 180, "texture": "#0"}
			}
		},
		{
			"from": [4.05893, 4.37204, 7.6],
			"to": [4.25893, 4.57204, 9.9],
			"rotation": {"angle": 45, "axis": "z", "origin": [4.05, 4.50453, 8.65]},
			"faces": {
				"north": {"uv": [1, 14.66667, 1.66667, 15], "rotation": 180, "texture": "#0"},
				"east": {"uv": [1, 14.66667, 1.66667, 15], "rotation": 180, "texture": "#0"},
				"south": {"uv": [1, 14.66667, 1.66667, 15], "rotation": 180, "texture": "#0"},
				"west": {"uv": [1, 14.66667, 1.66667, 15], "rotation": 180, "texture": "#0"},
				"up": {"uv": [1, 14.66667, 1.66667, 15], "rotation": 180, "texture": "#0"},
				"down": {"uv": [1, 14.66667, 1.66667, 15], "rotation": 180, "texture": "#0"}
			}
		},
		{
			"from": [3.95, 5.1, 9.9],
			"to": [4.15, 5.2, 10.1],
			"rotation": {"angle": 0, "axis": "y", "origin": [4.1, 13.1, 12.1]},
			"faces": {
				"north": {"uv": [0.66667, 15, 1.33333, 15.66667], "texture": "#0"},
				"east": {"uv": [0.66667, 15, 1.33333, 15.66667], "texture": "#0"},
				"south": {"uv": [0.66667, 15, 1.33333, 15.66667], "texture": "#0"},
				"west": {"uv": [0.66667, 15, 1.33333, 15.66667], "texture": "#0"},
				"up": {"uv": [0.66667, 15, 1.33333, 15.66667], "texture": "#0"},
				"down": {"uv": [0.66667, 15, 1.33333, 15.66667], "texture": "#0"}
			}
		},
		{
			"from": [3.81464, 4.84393, 9.9],
			"to": [4.01464, 5.14393, 10.1],
			"rotation": {"angle": 45, "axis": "z", "origin": [3.91464, 5.09393, 8.85]},
			"faces": {
				"north": {"uv": [0.66667, 15, 1.33333, 15.66667], "texture": "#0"},
				"east": {"uv": [0.66667, 15, 1.33333, 15.66667], "texture": "#0"},
				"south": {"uv": [0.66667, 15, 1.33333, 15.66667], "texture": "#0"},
				"west": {"uv": [0.66667, 15, 1.33333, 15.66667], "texture": "#0"},
				"up": {"uv": [0.66667, 15, 1.33333, 15.66667], "texture": "#0"},
				"down": {"uv": [0.66667, 15, 1.33333, 15.66667], "texture": "#0"}
			}
		},
		{
			"from": [4.08536, 4.84393, 9.9],
			"to": [4.28536, 5.14393, 10.1],
			"rotation": {"angle": -45, "axis": "z", "origin": [4.18536, 5.09393, 8.85]},
			"faces": {
				"north": {"uv": [0.66667, 15, 1.33333, 15.66667], "texture": "#0"},
				"east": {"uv": [0.66667, 15, 1.33333, 15.66667], "texture": "#0"},
				"south": {"uv": [0.66667, 15, 1.33333, 15.66667], "texture": "#0"},
				"west": {"uv": [0.66667, 15, 1.33333, 15.66667], "texture": "#0"},
				"up": {"uv": [0.66667, 15, 1.33333, 15.66667], "texture": "#0"},
				"down": {"uv": [0.66667, 15, 1.33333, 15.66667], "texture": "#0"}
			}
		},
		{
			"from": [3.80858, 4.55858, 9.9],
			"to": [4.00858, 5.05858, 10.1],
			"rotation": {"angle": 0, "axis": "z", "origin": [3.85858, 4.95858, 8.85]},
			"faces": {
				"north": {"uv": [0.66667, 15, 1.33333, 15.66667], "rotation": 90, "texture": "#0"},
				"east": {"uv": [0.66667, 15, 1.33333, 15.66667], "rotation": 90, "texture": "#0"},
				"south": {"uv": [0.66667, 15, 1.33333, 15.66667], "rotation": 90, "texture": "#0"},
				"west": {"uv": [0.66667, 15, 1.33333, 15.66667], "rotation": 90, "texture": "#0"},
				"up": {"uv": [0.66667, 15, 1.33333, 15.66667], "rotation": 90, "texture": "#0"},
				"down": {"uv": [0.66667, 15, 1.33333, 15.66667], "rotation": 90, "texture": "#0"}
			}
		},
		{
			"from": [3.99142, 4.55858, 9.9],
			"to": [4.29142, 5.05858, 10.1],
			"rotation": {"angle": 0, "axis": "z", "origin": [4.24142, 4.95858, 8.85]},
			"faces": {
				"north": {"uv": [0.66667, 15, 1.33333, 15.66667], "rotation": 270, "texture": "#0"},
				"east": {"uv": [0.66667, 15, 1.33333, 15.66667], "rotation": 270, "texture": "#0"},
				"south": {"uv": [0.66667, 15, 1.33333, 15.66667], "rotation": 270, "texture": "#0"},
				"west": {"uv": [0.66667, 15, 1.33333, 15.66667], "rotation": 270, "texture": "#0"},
				"up": {"uv": [0.66667, 15, 1.33333, 15.66667], "rotation": 270, "texture": "#0"},
				"down": {"uv": [0.66667, 15, 1.33333, 15.66667], "rotation": 270, "texture": "#0"}
			}
		},
		{
			"from": [3.9175, 4.51346, 9.9],
			"to": [4.2175, 4.71346, 10.1],
			"rotation": {"angle": 45, "axis": "z", "origin": [4.05, 4.50453, 8.85]},
			"faces": {
				"north": {"uv": [0.66667, 15, 1.33333, 15.66667], "rotation": 90, "texture": "#0"},
				"east": {"uv": [0.66667, 15, 1.33333, 15.66667], "rotation": 90, "texture": "#0"},
				"south": {"uv": [0.66667, 15, 1.33333, 15.66667], "rotation": 90, "texture": "#0"},
				"west": {"uv": [0.66667, 15, 1.33333, 15.66667], "rotation": 90, "texture": "#0"},
				"up": {"uv": [0.66667, 15, 1.33333, 15.66667], "rotation": 90, "texture": "#0"},
				"down": {"uv": [0.66667, 15, 1.33333, 15.66667], "rotation": 90, "texture": "#0"}
			}
		},
		{
			"from": [3.95, 4.41716, 9.9],
			"to": [4.15, 4.61716, 10.1],
			"rotation": {"angle": 0, "axis": "z", "origin": [4.05, 4.50453, 8.85]},
			"faces": {
				"north": {"uv": [0.66667, 15, 1.33333, 15.66667], "rotation": 180, "texture": "#0"},
				"east": {"uv": [0.66667, 15, 1.33333, 15.66667], "rotation": 180, "texture": "#0"},
				"south": {"uv": [0.66667, 15, 1.33333, 15.66667], "rotation": 180, "texture": "#0"},
				"west": {"uv": [0.66667, 15, 1.33333, 15.66667], "rotation": 180, "texture": "#0"},
				"up": {"uv": [0.66667, 15, 1.33333, 15.66667], "rotation": 180, "texture": "#0"},
				"down": {"uv": [0.66667, 15, 1.33333, 15.66667], "rotation": 180, "texture": "#0"}
			}
		},
		{
			"from": [4.05893, 4.37204, 9.9],
			"to": [4.25893, 4.67204, 10.1],
			"rotation": {"angle": 45, "axis": "z", "origin": [4.05, 4.50453, 8.85]},
			"faces": {
				"north": {"uv": [0.66667, 15, 1.33333, 15.66667], "rotation": 180, "texture": "#0"},
				"east": {"uv": [0.66667, 15, 1.33333, 15.66667], "rotation": 180, "texture": "#0"},
				"south": {"uv": [0.66667, 15, 1.33333, 15.66667], "rotation": 180, "texture": "#0"},
				"west": {"uv": [0.66667, 15, 1.33333, 15.66667], "rotation": 180, "texture": "#0"},
				"up": {"uv": [0.66667, 15, 1.33333, 15.66667], "rotation": 180, "texture": "#0"},
				"down": {"uv": [0.66667, 15, 1.33333, 15.66667], "rotation": 180, "texture": "#0"}
			}
		},
		{
			"from": [3.95, 5.1, 7.4],
			"to": [4.15, 5.2, 7.6],
			"rotation": {"angle": 0, "axis": "y", "origin": [4.1, 13.1, 9.6]},
			"faces": {
				"north": {"uv": [1, 9, 1.66667, 9.66667], "texture": "#0"},
				"east": {"uv": [1, 9, 1.66667, 9.66667], "texture": "#0"},
				"south": {"uv": [1, 9, 1.66667, 9.66667], "texture": "#0"},
				"west": {"uv": [1, 9, 1.66667, 9.66667], "texture": "#0"},
				"up": {"uv": [1, 9, 1.66667, 9.66667], "texture": "#0"},
				"down": {"uv": [1, 9, 1.66667, 9.66667], "texture": "#0"}
			}
		},
		{
			"from": [3.81464, 4.84393, 7.4],
			"to": [4.01464, 5.14393, 7.6],
			"rotation": {"angle": 45, "axis": "z", "origin": [3.91464, 5.09393, 6.35]},
			"faces": {
				"north": {"uv": [1, 9, 1.66667, 9.66667], "texture": "#0"},
				"east": {"uv": [1, 9, 1.66667, 9.66667], "texture": "#0"},
				"south": {"uv": [1, 9, 1.66667, 9.66667], "texture": "#0"},
				"west": {"uv": [1, 9, 1.66667, 9.66667], "texture": "#0"},
				"up": {"uv": [1, 9, 1.66667, 9.66667], "texture": "#0"},
				"down": {"uv": [1, 9, 1.66667, 9.66667], "texture": "#0"}
			}
		},
		{
			"from": [4.08536, 4.84393, 7.4],
			"to": [4.28536, 5.14393, 7.6],
			"rotation": {"angle": -45, "axis": "z", "origin": [4.18536, 5.09393, 6.35]},
			"faces": {
				"north": {"uv": [1, 9, 1.66667, 9.66667], "texture": "#0"},
				"east": {"uv": [1, 9, 1.66667, 9.66667], "texture": "#0"},
				"south": {"uv": [1, 9, 1.66667, 9.66667], "texture": "#0"},
				"west": {"uv": [1, 9, 1.66667, 9.66667], "texture": "#0"},
				"up": {"uv": [1, 9, 1.66667, 9.66667], "texture": "#0"},
				"down": {"uv": [1, 9, 1.66667, 9.66667], "texture": "#0"}
			}
		},
		{
			"from": [3.80858, 4.55858, 7.4],
			"to": [4.00858, 5.05858, 7.6],
			"rotation": {"angle": 0, "axis": "z", "origin": [3.85858, 4.95858, 6.35]},
			"faces": {
				"north": {"uv": [1, 9, 1.66667, 9.66667], "rotation": 90, "texture": "#0"},
				"east": {"uv": [1, 9, 1.66667, 9.66667], "rotation": 90, "texture": "#0"},
				"south": {"uv": [1, 9, 1.66667, 9.66667], "rotation": 90, "texture": "#0"},
				"west": {"uv": [1, 9, 1.66667, 9.66667], "rotation": 90, "texture": "#0"},
				"up": {"uv": [1, 9, 1.66667, 9.66667], "rotation": 90, "texture": "#0"},
				"down": {"uv": [1, 9, 1.66667, 9.66667], "rotation": 90, "texture": "#0"}
			}
		},
		{
			"from": [3.99142, 4.55858, 7.4],
			"to": [4.29142, 5.05858, 7.6],
			"rotation": {"angle": 0, "axis": "z", "origin": [4.24142, 4.95858, 6.35]},
			"faces": {
				"north": {"uv": [1, 9, 1.66667, 9.66667], "rotation": 270, "texture": "#0"},
				"east": {"uv": [1, 9, 1.66667, 9.66667], "rotation": 270, "texture": "#0"},
				"south": {"uv": [1, 9, 1.66667, 9.66667], "rotation": 270, "texture": "#0"},
				"west": {"uv": [1, 9, 1.66667, 9.66667], "rotation": 270, "texture": "#0"},
				"up": {"uv": [1, 9, 1.66667, 9.66667], "rotation": 270, "texture": "#0"},
				"down": {"uv": [1, 9, 1.66667, 9.66667], "rotation": 270, "texture": "#0"}
			}
		},
		{
			"from": [3.9175, 4.51346, 7.4],
			"to": [4.2175, 4.71346, 7.6],
			"rotation": {"angle": 45, "axis": "z", "origin": [4.05, 4.50453, 6.35]},
			"faces": {
				"north": {"uv": [1, 9, 1.66667, 9.66667], "rotation": 90, "texture": "#0"},
				"east": {"uv": [1, 9, 1.66667, 9.66667], "rotation": 90, "texture": "#0"},
				"south": {"uv": [1, 9, 1.66667, 9.66667], "rotation": 90, "texture": "#0"},
				"west": {"uv": [1, 9, 1.66667, 9.66667], "rotation": 90, "texture": "#0"},
				"up": {"uv": [1, 9, 1.66667, 9.66667], "rotation": 90, "texture": "#0"},
				"down": {"uv": [1, 9, 1.66667, 9.66667], "rotation": 90, "texture": "#0"}
			}
		},
		{
			"from": [3.95, 4.41716, 7.4],
			"to": [4.15, 4.61716, 7.6],
			"rotation": {"angle": 0, "axis": "z", "origin": [4.05, 4.50453, 6.35]},
			"faces": {
				"north": {"uv": [1, 9, 1.66667, 9.66667], "rotation": 180, "texture": "#0"},
				"east": {"uv": [1, 9, 1.66667, 9.66667], "rotation": 180, "texture": "#0"},
				"south": {"uv": [1, 9, 1.66667, 9.66667], "rotation": 180, "texture": "#0"},
				"west": {"uv": [1, 9, 1.66667, 9.66667], "rotation": 180, "texture": "#0"},
				"up": {"uv": [1, 9, 1.66667, 9.66667], "rotation": 180, "texture": "#0"},
				"down": {"uv": [1, 9, 1.66667, 9.66667], "rotation": 180, "texture": "#0"}
			}
		},
		{
			"from": [4.05893, 4.37204, 7.4],
			"to": [4.25893, 4.67204, 7.6],
			"rotation": {"angle": 45, "axis": "z", "origin": [4.05, 4.50453, 6.35]},
			"faces": {
				"north": {"uv": [1, 9, 1.66667, 9.66667], "rotation": 180, "texture": "#0"},
				"east": {"uv": [1, 9, 1.66667, 9.66667], "rotation": 180, "texture": "#0"},
				"south": {"uv": [1, 9, 1.66667, 9.66667], "rotation": 180, "texture": "#0"},
				"west": {"uv": [1, 9, 1.66667, 9.66667], "rotation": 180, "texture": "#0"},
				"up": {"uv": [1, 9, 1.66667, 9.66667], "rotation": 180, "texture": "#0"},
				"down": {"uv": [1, 9, 1.66667, 9.66667], "rotation": 180, "texture": "#0"}
			}
		},
		{
			"from": [4, 4.95, 4.02071],
			"to": [4.1, 5.09, 4.62071],
			"rotation": {"angle": 45, "axis": "x", "origin": [4.05, 5, 4.07071]},
			"faces": {
				"north": {"uv": [9, 4, 9.66667, 4.66667], "texture": "#0"},
				"east": {"uv": [9, 4, 9.66667, 4.66667], "texture": "#0"},
				"south": {"uv": [9, 4, 9.66667, 4.66667], "texture": "#0"},
				"west": {"uv": [9, 4, 9.66667, 4.66667], "texture": "#0"},
				"up": {"uv": [9, 4, 9.66667, 4.66667], "texture": "#0"},
				"down": {"uv": [9, 4, 9.66667, 4.66667], "texture": "#0"}
			}
		},
		{
			"from": [4, 4.57574, 4.42426],
			"to": [4.1, 4.67574, 7.42426],
			"rotation": {"angle": 0, "axis": "x", "origin": [4.05, 4.62574, 4.47426]},
			"faces": {
				"north": {"uv": [9, 4, 9.66667, 4.66667], "texture": "#0"},
				"east": {"uv": [9, 4, 9.66667, 4.66667], "texture": "#0"},
				"south": {"uv": [9, 4, 9.66667, 4.66667], "texture": "#0"},
				"west": {"uv": [9, 4, 9.66667, 4.66667], "texture": "#0"},
				"up": {"uv": [9, 4, 9.66667, 4.66667], "texture": "#0"},
				"down": {"uv": [9, 4, 9.66667, 4.66667], "texture": "#0"}
			}
		},
		{
			"from": [3.95, 5, 4.1],
			"to": [4.15, 5.1, 7.4],
			"rotation": {"angle": 0, "axis": "y", "origin": [4.1, 13, 12.1]},
			"faces": {
				"north": {"uv": [1.33333, 4, 2, 4.66667], "texture": "#0"},
				"east": {"uv": [1.33333, 4, 2, 4.66667], "texture": "#0"},
				"south": {"uv": [1.33333, 4, 2, 4.66667], "texture": "#0"},
				"west": {"uv": [1.33333, 4, 2, 4.66667], "texture": "#0"},
				"up": {"uv": [1.33333, 4, 2, 4.66667], "texture": "#0"},
				"down": {"uv": [1.33333, 4, 2, 4.66667], "texture": "#0"}
			}
		},
		{
			"from": [3.95, 4.9, 4.2],
			"to": [4.15, 5, 7.4],
			"rotation": {"angle": 0, "axis": "y", "origin": [4.1, 12.9, 12.1]},
			"faces": {
				"north": {"uv": [1.33333, 4, 2, 4.66667], "texture": "#0"},
				"east": {"uv": [1.33333, 4, 2, 4.66667], "texture": "#0"},
				"south": {"uv": [1.33333, 4, 2, 4.66667], "texture": "#0"},
				"west": {"uv": [1.33333, 4, 2, 4.66667], "texture": "#0"},
				"up": {"uv": [1.33333, 4, 2, 4.66667], "texture": "#0"},
				"down": {"uv": [1.33333, 4, 2, 4.66667], "texture": "#0"}
			}
		},
		{
			"from": [3.95, 4.8, 4.3],
			"to": [4.15, 4.9, 7.4],
			"rotation": {"angle": 0, "axis": "y", "origin": [4.1, 12.8, 12.1]},
			"faces": {
				"north": {"uv": [1.33333, 4, 2, 4.66667], "texture": "#0"},
				"east": {"uv": [1.33333, 4, 2, 4.66667], "texture": "#0"},
				"south": {"uv": [1.33333, 4, 2, 4.66667], "texture": "#0"},
				"west": {"uv": [1.33333, 4, 2, 4.66667], "texture": "#0"},
				"up": {"uv": [1.33333, 4, 2, 4.66667], "texture": "#0"},
				"down": {"uv": [1.33333, 4, 2, 4.66667], "texture": "#0"}
			}
		},
		{
			"from": [3.95, 4.7, 4.4],
			"to": [4.15, 4.8, 7.4],
			"rotation": {"angle": 0, "axis": "y", "origin": [4.1, 12.7, 12.1]},
			"faces": {
				"north": {"uv": [1.33333, 4, 2, 4.66667], "texture": "#0"},
				"east": {"uv": [1.33333, 4, 2, 4.66667], "texture": "#0"},
				"south": {"uv": [1.33333, 4, 2, 4.66667], "texture": "#0"},
				"west": {"uv": [1.33333, 4, 2, 4.66667], "texture": "#0"},
				"up": {"uv": [1.33333, 4, 2, 4.66667], "texture": "#0"},
				"down": {"uv": [1.33333, 4, 2, 4.66667], "texture": "#0"}
			}
		},
		{
			"from": [3.95, 4.95, 4.12071],
			"to": [4.15, 5.05, 4.62071],
			"rotation": {"angle": 45, "axis": "x", "origin": [4.05, 5, 4.17071]},
			"faces": {
				"north": {"uv": [1.33333, 4, 2, 4.66667], "texture": "#0"},
				"east": {"uv": [1.33333, 4, 2, 4.66667], "texture": "#0"},
				"south": {"uv": [1.33333, 4, 2, 4.66667], "texture": "#0"},
				"west": {"uv": [1.33333, 4, 2, 4.66667], "texture": "#0"},
				"up": {"uv": [1.33333, 4, 2, 4.66667], "texture": "#0"},
				"down": {"uv": [1.33333, 4, 2, 4.66667], "texture": "#0"}
			}
		},
		{
			"from": [3.95, 4.64645, 4.45355],
			"to": [4.15, 4.74645, 7.45355],
			"rotation": {"angle": 0, "axis": "x", "origin": [4.05, 4.69645, 4.50355]},
			"faces": {
				"north": {"uv": [1.33333, 4, 2, 4.66667], "texture": "#0"},
				"east": {"uv": [1.33333, 4, 2, 4.66667], "texture": "#0"},
				"south": {"uv": [1.33333, 4, 2, 4.66667], "texture": "#0"},
				"west": {"uv": [1.33333, 4, 2, 4.66667], "texture": "#0"},
				"up": {"uv": [1.33333, 4, 2, 4.66667], "texture": "#0"},
				"down": {"uv": [1.33333, 4, 2, 4.66667], "texture": "#0"}
			}
		}
	],
	"display": {
		"thirdperson_righthand": {
			"rotation": [90, 0, 0],
			"translation": [6, -0.75, 6],
			"scale": [1.5, 1.5, 1.5]
		},
		"thirdperson_lefthand": {
			"rotation": [90, 0, 0],
			"translation": [-6, -0.75, 6],
			"scale": [1.5, 1.5, 1.5]
		},
		"firstperson_righthand": {
			"rotation": [45, -6, -2],
			"translation": [2, 3.75, 3.5],
			"scale": [1.5, 1.5, 1.5]
		},
		"firstperson_lefthand": {
			"rotation": [45, -6, -2],
			"translation": [-8, 4, 3],
			"scale": [1.5, 1.5, 1.5]
		},
		"ground": {
			"rotation": [46, 0, 0],
			"translation": [6.75, 4.75, 3.5],
			"scale": [1.5, 1.5, 1.5]
		},
		"gui": {
			"rotation": [58, 43, -50],
			"translation": [12.25, 6, 0],
			"scale": [3, 3, 3]
		},
		"head": {
			"rotation": [46, -180, 0],
			"translation": [-12.75, -21.75, 3.25],
			"scale": [1.5, 1.5, 1.5]
		},
		"fixed": {
			"rotation": [90, 135, -90],
			"translation": [-2, 4.5, -7.5],
			"scale": [1.5, 1.5, 1.5]
		}
	},
	"groups": [
		{
			"name": "base",
			"origin": [8, 8, 8],
			"children": [
				{
					"name": "Grip",
					"origin": [8, 8, 8],
					"children": [
						{
							"name": "Handle",
							"origin": [4.1, 13, 12.3],
							"children": [0, 1, 2, 3, 4, 5, 6, 7]
						},
						{
							"name": "Back",
							"origin": [4.1, 13, 12.3],
							"children": [8, 9, 10, 11, 12, 13, 14, 15]
						},
						{
							"name": "Front",
							"origin": [4.1, 13, 12.3],
							"children": [16, 17, 18, 19, 20, 21, 22, 23]
						}
					]
				},
				{
					"name": "Steel",
					"origin": [8, 8, 8],
					"children": [
						{
							"name": "Razor",
							"origin": [4.1, 13, 12],
							"children": [24, 25]
						},
						{
							"name": "Blade",
							"origin": [4.1, 13, 12.1],
							"children": [26, 27, 28, 29, 30, 31]
						}
					]
				}
			]
		}
	]
}