{
	"credit": "Made with Blockbench",
	"textures": {
		"1": "gci:items/common/vsmelee",
		"particle": "gci:items/common/vsmelee"
	},
	"elements": [
		{
			"from": [8.5845, 0.91008, 17.57691],
			"to": [9.1595, 1.73508, 21.06191],
			"rotation": {"angle": 0, "axis": "y", "origin": [8.872, 1.32258, 18.87141]},
			"faces": {
				"north": {"uv": [4.89583, 0.03125, 5.61458, 1.07292], "rotation": 90, "texture": "#1"},
				"east": {"uv": [4.89583, 0.03125, 5.61458, 1.07292], "rotation": 90, "texture": "#1"},
				"south": {"uv": [3.86458, 12.15625, 5.86458, 13.82292], "texture": "#1"},
				"west": {"uv": [4.89583, 0.03125, 5.61458, 1.07292], "rotation": 90, "texture": "#1"},
				"up": {"uv": [5.11458, 0, 4.89583, 1.07292], "texture": "#1"},
				"down": {"uv": [5.55208, 1.07292, 5.39583, 0], "texture": "#1"}
			}
		},
		{
			"from": [8.5845, 0.91008, 21.06191],
			"to": [9.1595, 1.73508, 22.65891],
			"rotation": {"angle": 0, "axis": "x", "origin": [8.872, 1.31401, 22.4858]},
			"faces": {
				"north": {"uv": [3.61458, 14.25, 5.61458, 15.91667], "texture": "#1"},
				"east": {"uv": [4.89583, 0.03125, 5.61458, 1.07292], "rotation": 90, "texture": "#1"},
				"south": {"uv": [3.86458, 12.15625, 5.86458, 13.82292], "texture": "#1"},
				"west": {"uv": [4.89583, 0.03125, 5.56658, 0.32492], "rotation": 90, "texture": "#1"},
				"up": {"uv": [5.05208, 0, 4.89583, 0.47917], "texture": "#1"},
				"down": {"uv": [5.61458, 2.10417, 5.39583, 0], "texture": "#1"}
			}
		},
		{
			"from": [8.4885, 0.86604, 22.23909],
			"to": [9.2555, 1.74304, 23.11209],
			"rotation": {"angle": 0, "axis": "x", "origin": [8.872, 1.31401, 22.4858]},
			"faces": {
				"north": {"uv": [0.45833, 0.875, 2.45833, 1.26042], "rotation": 90, "texture": "#1"},
				"east": {"uv": [0.45833, 0.875, 2.45833, 1.26042], "rotation": 90, "texture": "#1"},
				"south": {"uv": [1.73958, 2.03125, 2.77083, 2.04167], "texture": "#1"},
				"west": {"uv": [0.45833, 0.875, 2.45833, 1.26042], "rotation": 90, "texture": "#1"},
				"up": {"uv": [2.45833, 0.875, 0.45833, 1.26042], "rotation": 180, "texture": "#1"},
				"down": {"uv": [2.45833, 1.26042, 0.45833, 0.875], "rotation": 180, "texture": "#1"}
			}
		},
		{
			"from": [8.5205, 1.44011, 22.62274],
			"to": [9.2235, 2.06024, 23.24542],
			"rotation": {"angle": 45, "axis": "x", "origin": [8.872, 1.31401, 22.4858]},
			"faces": {
				"north": {"uv": [2.45833, 0.875, 0.45833, 1.26042], "texture": "#1"},
				"east": {"uv": [0.45833, 0.875, 2.45833, 1.26042], "rotation": 180, "texture": "#1"},
				"south": {"uv": [2.45833, 1.26042, 0.45833, 0.875], "rotation": 180, "texture": "#1"},
				"west": {"uv": [0.45833, 0.875, 2.45833, 1.26042], "texture": "#1"},
				"up": {"uv": [2.45833, 1.26042, 0.45833, 0.875], "rotation": 180, "texture": "#1"},
				"down": {"uv": [0.45833, 0.875, 2.45833, 1.26042], "rotation": 270, "texture": "#1"}
			}
		},
		{
			"from": [8.5845, 1.83808, 17.57691],
			"to": [9.1595, 2.66308, 21.06191],
			"rotation": {"angle": 0, "axis": "x", "origin": [8.872, 2.24156, 21.2153]},
			"faces": {
				"north": {"uv": [4.89583, 0.03125, 5.61458, 1.07292], "rotation": 90, "texture": "#1"},
				"east": {"uv": [4.89583, 0.03125, 5.61458, 1.07292], "rotation": 90, "texture": "#1"},
				"south": {"uv": [3.86458, 12.15625, 5.86458, 13.82292], "texture": "#1"},
				"west": {"uv": [4.89583, 0.03125, 5.61458, 1.07292], "rotation": 90, "texture": "#1"},
				"up": {"uv": [5.11458, 0, 4.89583, 1.07292], "texture": "#1"},
				"down": {"uv": [5.55208, 1.07292, 5.39583, 0], "texture": "#1"}
			}
		},
		{
			"from": [8.5845, 1.83808, 21.06191],
			"to": [9.1595, 2.66308, 22.65891],
			"rotation": {"angle": 0, "axis": "x", "origin": [8.872, 2.24156, 21.2153]},
			"faces": {
				"north": {"uv": [3.61458, 14.25, 5.61458, 15.91667], "texture": "#1"},
				"east": {"uv": [4.89583, 0.03125, 5.61458, 1.07292], "rotation": 90, "texture": "#1"},
				"south": {"uv": [3.86458, 12.15625, 5.86458, 13.82292], "texture": "#1"},
				"west": {"uv": [4.89583, 0.03125, 5.56658, 0.32492], "rotation": 90, "texture": "#1"},
				"up": {"uv": [5.05208, 0, 4.89583, 0.47917], "texture": "#1"},
				"down": {"uv": [5.61458, 2.10417, 5.39583, 0], "texture": "#1"}
			}
		},
		{
			"from": [8.4885, 1.79404, 22.23909],
			"to": [9.2555, 2.67104, 23.11209],
			"rotation": {"angle": 0, "axis": "x", "origin": [8.872, 2.24156, 21.2153]},
			"faces": {
				"north": {"uv": [0.45833, 0.875, 2.45833, 1.26042], "rotation": 90, "texture": "#1"},
				"east": {"uv": [0.45833, 0.875, 2.45833, 1.26042], "rotation": 90, "texture": "#1"},
				"south": {"uv": [1.73958, 2.03125, 2.77083, 2.04167], "texture": "#1"},
				"west": {"uv": [0.45833, 0.875, 2.45833, 1.26042], "rotation": 90, "texture": "#1"},
				"up": {"uv": [2.45833, 0.875, 0.45833, 1.26042], "rotation": 180, "texture": "#1"},
				"down": {"uv": [2.45833, 1.26042, 0.45833, 0.875], "rotation": 180, "texture": "#1"}
			}
		},
		{
			"from": [8.5205, 3.26636, 22.2503],
			"to": [9.2235, 3.88649, 22.87298],
			"rotation": {"angle": 45, "axis": "x", "origin": [8.872, 2.24156, 21.2153]},
			"faces": {
				"north": {"uv": [2.45833, 0.875, 0.45833, 1.26042], "texture": "#1"},
				"east": {"uv": [0.45833, 0.875, 2.45833, 1.26042], "rotation": 180, "texture": "#1"},
				"south": {"uv": [2.45833, 1.26042, 0.45833, 0.875], "rotation": 180, "texture": "#1"},
				"west": {"uv": [0.45833, 0.875, 2.45833, 1.26042], "texture": "#1"},
				"up": {"uv": [2.45833, 1.26042, 0.45833, 0.875], "rotation": 180, "texture": "#1"},
				"down": {"uv": [0.45833, 0.875, 2.45833, 1.26042], "rotation": 270, "texture": "#1"}
			}
		},
		{
			"from": [8.76, 1.224, 12.694],
			"to": [8.995, 2.468, 17.184],
			"rotation": {"angle": 0, "axis": "y", "origin": [8.875, 1.43, 8.412]},
			"faces": {
				"north": {"uv": [2.47917, 2.89583, 2.41667, 3.23958], "texture": "#1"},
				"east": {"uv": [2.41667, 8.11458, 2.57292, 2.89583], "rotation": 90, "texture": "#1"},
				"south": {"uv": [2.41667, 2.89583, 2.57292, 6.95833], "rotation": 90, "texture": "#1"},
				"west": {"uv": [2.41667, 2.89583, 2.57292, 6.95833], "rotation": 90, "texture": "#1"},
				"up": {"uv": [2.41667, 2.89583, 2.41667, 8.11458], "texture": "#1"},
				"down": {"uv": [2.41667, 2.89583, 2.79167, 4.55208], "texture": "#1"}
			}
		},
		{
			"from": [8.664, 1.224, 16.598],
			"to": [9.091, 2.5, 18.336],
			"rotation": {"angle": 0, "axis": "y", "origin": [8.875, 1.43, 9.564]},
			"faces": {
				"north": {"uv": [2.47917, 2.89583, 2.41667, 3.23958], "texture": "#1"},
				"east": {"uv": [2.41667, 2.89583, 2.51042, 3.30208], "rotation": 90, "texture": "#1"},
				"south": {"uv": [2.41667, 2.89583, 2.57292, 6.95833], "rotation": 90, "texture": "#1"},
				"west": {"uv": [2.41667, 2.89583, 2.51042, 3.30208], "rotation": 90, "texture": "#1"},
				"up": {"uv": [2.41667, 2.89583, 2.41667, 8.11458], "texture": "#1"},
				"down": {"uv": [2.41667, 2.89583, 2.79167, 4.55208], "texture": "#1"}
			}
		},
		{
			"from": [8.6, 1.665, 16.957],
			"to": [9.155, 2.109, 17.401],
			"rotation": {"angle": -45, "axis": "x", "origin": [8.8775, 1.862, 17.179]},
			"faces": {
				"north": {"uv": [0.57292, 3.36458, 0.66667, 3.77083], "rotation": 180, "texture": "#1"},
				"east": {"uv": [0.57292, 3.36458, 0.66667, 3.77083], "rotation": 180, "texture": "#1"},
				"south": {"uv": [0.57292, 3.36458, 0.66667, 3.77083], "rotation": 180, "texture": "#1"},
				"west": {"uv": [0.57292, 3.36458, 0.66667, 3.77083], "rotation": 180, "texture": "#1"},
				"up": {"uv": [0.57292, 3.36458, 0.66667, 3.77083], "rotation": 180, "texture": "#1"},
				"down": {"uv": [0.57292, 3.36458, 0.66667, 3.77083], "rotation": 180, "texture": "#1"}
			}
		},
		{
			"from": [8.76, 1.608, 11.638],
			"to": [8.995, 2.468, 12.704],
			"rotation": {"angle": 0, "axis": "y", "origin": [8.875, 1.43, 21.436]},
			"faces": {
				"north": {"uv": [2.47917, 2.89583, 2.41667, 3.23958], "texture": "#1"},
				"east": {"uv": [2.41667, 2.89583, 2.41667, 2.92708], "rotation": 90, "texture": "#1"},
				"south": {"uv": [13.66667, 0.33333, 15.66667, 2.33333], "texture": "#1"},
				"west": {"uv": [2.41667, 2.89583, 2.41667, 2.92708], "rotation": 90, "texture": "#1"},
				"up": {"uv": [2.41667, 2.89583, 2.41667, 2.92708], "rotation": 90, "texture": "#1"},
				"down": {"uv": [2.41667, 2.89583, 2.79167, 4.55208], "texture": "#1"}
			}
		},
		{
			"from": [8.76, 1.992, 10.87],
			"to": [8.995, 2.468, 11.904],
			"rotation": {"angle": 0, "axis": "y", "origin": [8.875, 1.43, 20.636]},
			"faces": {
				"north": {"uv": [2.47917, 2.89583, 2.41667, 3.23958], "texture": "#1"},
				"east": {"uv": [2.41667, 2.89583, 2.41667, 2.92708], "rotation": 90, "texture": "#1"},
				"south": {"uv": [13.66667, 0.33333, 15.66667, 2.33333], "texture": "#1"},
				"west": {"uv": [2.41667, 2.89583, 2.41667, 2.92708], "rotation": 90, "texture": "#1"},
				"up": {"uv": [2.41667, 2.89583, 2.41667, 2.92708], "rotation": 90, "texture": "#1"},
				"down": {"uv": [2.41667, 2.89583, 2.79167, 4.55208], "texture": "#1"}
			}
		},
		{
			"from": [8.76, 1.576, 10.742],
			"to": [8.995, 1.892, 12.704],
			"rotation": {"angle": 22.5, "axis": "x", "origin": [8.875, 1.734, 12.107]},
			"faces": {
				"north": {"uv": [2.47917, 2.89583, 2.41667, 3.23958], "texture": "#1"},
				"east": {"uv": [2.41667, 2.89583, 2.41667, 2.92708], "rotation": 90, "texture": "#1"},
				"south": {"uv": [13.66667, 0.33333, 15.66667, 2.33333], "texture": "#1"},
				"west": {"uv": [2.41667, 2.89583, 2.41667, 2.92708], "rotation": 90, "texture": "#1"},
				"up": {"uv": [2.41667, 2.89583, 2.41667, 8.11458], "texture": "#1"},
				"down": {"uv": [2.41667, 2.89583, 2.79167, 4.55208], "texture": "#1"}
			}
		},
		{
			"from": [8.755, 1.206, 12.536],
			"to": [9, 1.572, 16.582],
			"rotation": {"angle": 0, "axis": "y", "origin": [8.875, 1.23147, 9.69067]},
			"faces": {
				"north": {"uv": [0.09375, 3.39583, 0.3125, 4.20833], "texture": "#1"},
				"east": {"uv": [0.09375, 3.39583, 0.3125, 4.20833], "texture": "#1"},
				"south": {"uv": [13.66667, 0.33333, 15.66667, 2.33333], "texture": "#1"},
				"west": {"uv": [0.09375, 3.39583, 0.3125, 4.20833], "texture": "#1"},
				"up": {"uv": [13.66667, 0.33333, 15.66667, 2.33333], "texture": "#1"},
				"down": {"uv": [0.09375, 3.39583, 0.3125, 4.20833], "texture": "#1"}
			}
		},
		{
			"from": [8.755, 4.44767, 12.19713],
			"to": [9, 5.00515, 12.53009],
			"rotation": {"angle": -45, "axis": "x", "origin": [8.875, 1.72313, 14.76119]},
			"faces": {
				"north": {"uv": [0.09375, 3.39583, 0.3125, 4.20833], "texture": "#1"},
				"east": {"uv": [0.09375, 3.39583, 0.3125, 4.20833], "texture": "#1"},
				"south": {"uv": [0.09375, 3.39583, 0.3125, 4.20833], "texture": "#1"},
				"west": {"uv": [0.09375, 3.39583, 0.3125, 4.20833], "texture": "#1"},
				"up": {"uv": [0.09375, 3.39583, 0.3125, 4.20833], "texture": "#1"},
				"down": {"uv": [0.09375, 3.39583, 0.3125, 4.20833], "texture": "#1"}
			}
		},
		{
			"from": [8.755, 4.54367, 12.10113],
			"to": [9, 5.13187, 12.26761],
			"rotation": {"angle": -45, "axis": "x", "origin": [8.875, 1.81913, 14.66519]},
			"faces": {
				"north": {"uv": [0.09375, 3.39583, 0.3125, 4.20833], "texture": "#1"},
				"east": {"uv": [0.09375, 3.39583, 0.3125, 4.20833], "texture": "#1"},
				"south": {"uv": [13.66667, 0.33333, 15.66667, 2.33333], "texture": "#1"},
				"west": {"uv": [0.09375, 3.39583, 0.3125, 4.20833], "texture": "#1"},
				"up": {"uv": [0.09375, 3.39583, 0.3125, 4.20833], "texture": "#1"},
				"down": {"uv": [0.09375, 3.39583, 0.3125, 4.20833], "texture": "#1"}
			}
		},
		{
			"from": [8.755, 2.2308, 10.62739],
			"to": [9, 2.46624, 10.86283],
			"rotation": {"angle": 0, "axis": "y", "origin": [8.875, 2.50955, 10.79387]},
			"faces": {
				"north": {"uv": [0.09375, 3.39583, 0.3125, 4.20833], "texture": "#1"},
				"east": {"uv": [0.09375, 3.39583, 0.3125, 4.20833], "texture": "#1"},
				"south": {"uv": [13.66667, 0.33333, 15.66667, 2.33333], "texture": "#1"},
				"west": {"uv": [0.09375, 3.39583, 0.3125, 4.20833], "texture": "#1"},
				"up": {"uv": [0.09375, 3.39583, 0.3125, 4.20833], "texture": "#1"},
				"down": {"uv": [0.09375, 3.39583, 0.3125, 4.20833], "texture": "#1"}
			}
		},
		{
			"from": [8.755, 2.34852, 10.50967],
			"to": [9, 2.46624, 10.73483],
			"rotation": {"angle": 0, "axis": "y", "origin": [8.875, 2.50955, 10.66587]},
			"faces": {
				"north": {"uv": [0.09375, 3.39583, 0.3125, 4.20833], "texture": "#1"},
				"east": {"uv": [0.09375, 3.39583, 0.3125, 4.20833], "texture": "#1"},
				"south": {"uv": [13.66667, 0.33333, 15.66667, 2.33333], "texture": "#1"},
				"west": {"uv": [0.09375, 3.39583, 0.3125, 4.20833], "texture": "#1"},
				"up": {"uv": [0.09375, 3.39583, 0.3125, 4.20833], "texture": "#1"},
				"down": {"uv": [0.09375, 3.39583, 0.3125, 4.20833], "texture": "#1"}
			}
		},
		{
			"from": [8.755, 1.85467, 11.05689],
			"to": [9, 2.20607, 12.70474],
			"rotation": {"angle": 22.5, "axis": "x", "origin": [8.871, 1.93437, 10.99381]},
			"faces": {
				"north": {"uv": [0.09375, 3.39583, 0.3125, 4.20833], "rotation": 180, "texture": "#1"},
				"east": {"uv": [0.09375, 3.39583, 0.3125, 4.20833], "rotation": 90, "texture": "#1"},
				"south": {"uv": [0.09375, 3.39583, 0.3125, 4.20833], "texture": "#1"},
				"west": {"uv": [0.09375, 3.39583, 0.3125, 4.20833], "rotation": 270, "texture": "#1"},
				"up": {"uv": [13.66667, 0.33333, 15.66667, 2.33333], "texture": "#1"},
				"down": {"uv": [0.09375, 3.39583, 0.3125, 4.20833], "rotation": 180, "texture": "#1"}
			}
		}
	],
	"display": {
		"thirdperson_righthand": {
			"rotation": [90, 0, 0],
			"translation": [0, 9, 7.25]
		},
		"thirdperson_lefthand": {
			"rotation": [90, 0, 0],
			"translation": [1.5, 9, 7.25]
		},
		"firstperson_righthand": {
			"rotation": [45, 0, 0],
			"translation": [-1.5, 13, 0]
		},
		"firstperson_lefthand": {
			"rotation": [45, 0, 0],
			"translation": [-1.5, 13, 0]
		},
		"ground": {
			"translation": [0, 4.75, 0],
			"scale": [1, 0.65, 1]
		},
		"gui": {
			"rotation": [69, 46, 90],
			"translation": [-11.75, 1.75, 0],
			"scale": [0.99, 1.15, 1.33]
		},
		"fixed": {
			"rotation": [90, 135, 90],
			"translation": [-0.75, -9.5, -2.25]
		}
	},
	"groups": [
		{
			"name": "handle",
			"origin": [8.875, 2.09547, 2.71467],
			"color": 0,
			"children": [
				{
					"name": "handle",
					"origin": [8.875, 1.725, 16.375],
					"color": 0,
					"children": [0, 1, 2, 3, 4, 5, 6, 7]
				}
			]
		},
		{
			"name": "blade",
			"origin": [8.875, 2.73782, -3.29063],
			"color": 0,
			"children": [
				8,
				9,
				10,
				11,
				12,
				13,
				14,
				15,
				16,
				17,
				18,
				19,
				{
					"name": "group",
					"origin": [8.875, 1.99837, 10.86181],
					"color": 0,
					"children": []
				},
				{
					"name": "group",
					"origin": [8.875, 1.99837, 10.86181],
					"color": 0,
					"children": []
				}
			]
		}
	]
}