{
	"credit": "Made with Blockbench",
	"textures": {
		"1": "gci:items/common/vsmelee",
		"particle": "gci:items/common/vsmelee"
	},
	"elements": [
		{
			"from": [8.5845, 1.06688, 16.43271],
			"to": [9.1595, 1.89188, 19.91771],
			"rotation": {"angle": 0, "axis": "x", "origin": [8.87475, 1.85596, 18.5182]},
			"faces": {
				"north": {"uv": [4.89583, 0.03125, 5.61458, 1.07292], "rotation": 90, "texture": "#1"},
				"east": {"uv": [4.89583, 0.03125, 5.61458, 1.07292], "rotation": 90, "texture": "#1"},
				"south": {"uv": [3.86458, 12.15625, 5.86458, 13.82292], "texture": "#1"},
				"west": {"uv": [4.89583, 0.03125, 5.61458, 1.07292], "rotation": 90, "texture": "#1"},
				"up": {"uv": [5.11458, 0, 4.89583, 1.07292], "texture": "#1"},
				"down": {"uv": [5.55208, 1.07292, 5.39583, 0], "texture": "#1"}
			}
		},
		{
			"from": [8.5845, 1.06688, 19.91771],
			"to": [9.1595, 1.89188, 21.51471],
			"rotation": {"angle": 0, "axis": "x", "origin": [8.87475, 1.85596, 18.5182]},
			"faces": {
				"north": {"uv": [3.61458, 14.25, 5.61458, 15.91667], "texture": "#1"},
				"east": {"uv": [4.89583, 0.03125, 5.61458, 1.07292], "rotation": 90, "texture": "#1"},
				"south": {"uv": [3.86458, 12.15625, 5.86458, 13.82292], "texture": "#1"},
				"west": {"uv": [4.89583, 0.03125, 5.56658, 0.32492], "rotation": 90, "texture": "#1"},
				"up": {"uv": [5.05208, 0, 4.89583, 0.47917], "texture": "#1"},
				"down": {"uv": [5.61458, 2.10417, 5.39583, 0], "texture": "#1"}
			}
		},
		{
			"from": [8.4885, 1.02284, 21.0949],
			"to": [9.2555, 1.89984, 21.9679],
			"rotation": {"angle": 0, "axis": "x", "origin": [8.87475, 1.85596, 18.5182]},
			"faces": {
				"north": {"uv": [0.45833, 0.875, 2.45833, 1.26042], "rotation": 90, "texture": "#1"},
				"east": {"uv": [0.45833, 0.875, 2.45833, 1.26042], "rotation": 90, "texture": "#1"},
				"south": {"uv": [1.73958, 2.03125, 2.77083, 2.04167], "texture": "#1"},
				"west": {"uv": [0.45833, 0.875, 2.45833, 1.26042], "rotation": 90, "texture": "#1"},
				"up": {"uv": [2.45833, 0.875, 0.45833, 1.26042], "rotation": 180, "texture": "#1"},
				"down": {"uv": [2.45833, 1.26042, 0.45833, 0.875], "rotation": 180, "texture": "#1"}
			}
		},
		{
			"from": [8.5205, 3.70616, 20.92393],
			"to": [9.2235, 4.3263, 21.54661],
			"rotation": {"angle": 45, "axis": "x", "origin": [8.87475, 1.85596, 18.5182]},
			"faces": {
				"north": {"uv": [2.45833, 0.875, 0.45833, 1.26042], "texture": "#1"},
				"east": {"uv": [0.45833, 0.875, 2.45833, 1.26042], "rotation": 180, "texture": "#1"},
				"south": {"uv": [2.45833, 1.26042, 0.45833, 0.875], "rotation": 180, "texture": "#1"},
				"west": {"uv": [0.45833, 0.875, 2.45833, 1.26042], "texture": "#1"},
				"up": {"uv": [2.45833, 1.26042, 0.45833, 0.875], "rotation": 180, "texture": "#1"},
				"down": {"uv": [0.45833, 0.875, 2.45833, 1.26042], "rotation": 270, "texture": "#1"}
			}
		},
		{
			"from": [8.5845, 1.99488, 16.43271],
			"to": [9.1595, 2.81988, 19.91771],
			"rotation": {"angle": 0, "axis": "x", "origin": [8.87475, 1.85596, 18.5182]},
			"faces": {
				"north": {"uv": [4.89583, 0.03125, 5.61458, 1.07292], "rotation": 90, "texture": "#1"},
				"east": {"uv": [4.89583, 0.03125, 5.61458, 1.07292], "rotation": 90, "texture": "#1"},
				"south": {"uv": [3.86458, 12.15625, 5.86458, 13.82292], "texture": "#1"},
				"west": {"uv": [4.89583, 0.03125, 5.61458, 1.07292], "rotation": 90, "texture": "#1"},
				"up": {"uv": [5.11458, 0, 4.89583, 1.07292], "texture": "#1"},
				"down": {"uv": [5.55208, 1.07292, 5.39583, 0], "texture": "#1"}
			}
		},
		{
			"from": [8.5845, 1.99488, 19.91771],
			"to": [9.1595, 2.81988, 21.51471],
			"rotation": {"angle": 0, "axis": "x", "origin": [8.87475, 1.85596, 18.5182]},
			"faces": {
				"north": {"uv": [3.61458, 14.25, 5.61458, 15.91667], "texture": "#1"},
				"east": {"uv": [4.89583, 0.03125, 5.61458, 1.07292], "rotation": 90, "texture": "#1"},
				"south": {"uv": [3.86458, 12.15625, 5.86458, 13.82292], "texture": "#1"},
				"west": {"uv": [4.89583, 0.03125, 5.56658, 0.32492], "rotation": 90, "texture": "#1"},
				"up": {"uv": [5.05208, 0, 4.89583, 0.47917], "texture": "#1"},
				"down": {"uv": [5.61458, 2.10417, 5.39583, 0], "texture": "#1"}
			}
		},
		{
			"from": [8.4885, 1.95084, 21.0949],
			"to": [9.2555, 2.82784, 21.9679],
			"rotation": {"angle": 0, "axis": "x", "origin": [8.87475, 1.85596, 18.5182]},
			"faces": {
				"north": {"uv": [0.45833, 0.875, 2.45833, 1.26042], "rotation": 90, "texture": "#1"},
				"east": {"uv": [0.45833, 0.875, 2.45833, 1.26042], "rotation": 90, "texture": "#1"},
				"south": {"uv": [1.73958, 2.03125, 2.77083, 2.04167], "texture": "#1"},
				"west": {"uv": [0.45833, 0.875, 2.45833, 1.26042], "rotation": 90, "texture": "#1"},
				"up": {"uv": [2.45833, 0.875, 0.45833, 1.26042], "rotation": 180, "texture": "#1"},
				"down": {"uv": [2.45833, 1.26042, 0.45833, 0.875], "rotation": 180, "texture": "#1"}
			}
		},
		{
			"from": [8.5205, 4.36236, 20.26774],
			"to": [9.2235, 4.98249, 20.89042],
			"rotation": {"angle": 45, "axis": "x", "origin": [8.87475, 1.85596, 18.5182]},
			"faces": {
				"north": {"uv": [2.45833, 0.875, 0.45833, 1.26042], "texture": "#1"},
				"east": {"uv": [0.45833, 0.875, 2.45833, 1.26042], "rotation": 180, "texture": "#1"},
				"south": {"uv": [2.45833, 1.26042, 0.45833, 0.875], "rotation": 180, "texture": "#1"},
				"west": {"uv": [0.45833, 0.875, 2.45833, 1.26042], "texture": "#1"},
				"up": {"uv": [2.45833, 1.26042, 0.45833, 0.875], "rotation": 180, "texture": "#1"},
				"down": {"uv": [0.45833, 0.875, 2.45833, 1.26042], "rotation": 270, "texture": "#1"}
			}
		},
		{
			"from": [8.76, 1.24393, 15.35241],
			"to": [8.995, 2.48793, 19.84241],
			"rotation": {"angle": 0, "axis": "x", "origin": [8.87475, 1.85596, 18.5182]},
			"faces": {
				"north": {"uv": [2.41667, 2.89583, 2.57292, 6.95833], "rotation": 270, "texture": "#1"},
				"east": {"uv": [2.41667, 8.11458, 2.57292, 2.89583], "rotation": 270, "texture": "#1"},
				"south": {"uv": [2.47917, 2.89583, 2.41667, 3.23958], "rotation": 180, "texture": "#1"},
				"west": {"uv": [2.41667, 2.89583, 2.57292, 6.95833], "rotation": 270, "texture": "#1"},
				"up": {"uv": [2.41667, 2.89583, 2.79167, 4.55208], "texture": "#1"},
				"down": {"uv": [2.41667, 2.89583, 2.41667, 8.11458], "texture": "#1"}
			}
		},
		{
			"from": [8.664, 1.21193, 14.20041],
			"to": [9.091, 2.48793, 15.93841],
			"rotation": {"angle": 0, "axis": "x", "origin": [8.87475, 1.85596, 18.5182]},
			"faces": {
				"north": {"uv": [2.41667, 2.89583, 2.57292, 6.95833], "rotation": 270, "texture": "#1"},
				"east": {"uv": [2.41667, 2.89583, 2.51042, 3.30208], "rotation": 270, "texture": "#1"},
				"south": {"uv": [2.47917, 2.89583, 2.41667, 3.23958], "rotation": 180, "texture": "#1"},
				"west": {"uv": [2.41667, 2.89583, 2.51042, 3.30208], "rotation": 270, "texture": "#1"},
				"up": {"uv": [2.41667, 2.89583, 2.79167, 4.55208], "texture": "#1"},
				"down": {"uv": [2.41667, 2.89583, 2.41667, 8.11458], "texture": "#1"}
			}
		},
		{
			"from": [8.6, -0.60533, 16.09045],
			"to": [9.155, -0.16133, 16.53445],
			"rotation": {"angle": 45, "axis": "x", "origin": [8.87475, 1.85596, 18.5182]},
			"faces": {
				"north": {"uv": [0.57292, 3.36458, 0.66667, 3.77083], "texture": "#1"},
				"east": {"uv": [0.57292, 3.36458, 0.66667, 3.77083], "rotation": 90, "texture": "#1"},
				"south": {"uv": [0.57292, 3.36458, 0.66667, 3.77083], "rotation": 180, "texture": "#1"},
				"west": {"uv": [0.57292, 3.36458, 0.66667, 3.77083], "rotation": 270, "texture": "#1"},
				"up": {"uv": [0.57292, 3.36458, 0.66667, 3.77083], "texture": "#1"},
				"down": {"uv": [0.57292, 3.36458, 0.66667, 3.77083], "rotation": 180, "texture": "#1"}
			}
		},
		{
			"from": [8.76, 1.24393, 19.83241],
			"to": [8.995, 2.10393, 20.89841],
			"rotation": {"angle": 0, "axis": "x", "origin": [8.87475, 1.85596, 18.5182]},
			"faces": {
				"north": {"uv": [13.66667, 0.33333, 15.66667, 2.33333], "rotation": 180, "texture": "#1"},
				"east": {"uv": [2.41667, 2.89583, 2.41667, 2.92708], "rotation": 270, "texture": "#1"},
				"south": {"uv": [2.47917, 2.89583, 2.41667, 3.23958], "rotation": 180, "texture": "#1"},
				"west": {"uv": [2.41667, 2.89583, 2.41667, 2.92708], "rotation": 270, "texture": "#1"},
				"up": {"uv": [2.41667, 2.89583, 2.79167, 4.55208], "texture": "#1"},
				"down": {"uv": [2.41667, 2.89583, 2.41667, 2.92708], "rotation": 90, "texture": "#1"}
			}
		},
		{
			"from": [8.76, 1.24393, 20.63241],
			"to": [8.995, 1.71993, 21.66641],
			"rotation": {"angle": 0, "axis": "x", "origin": [8.87475, 1.85596, 18.5182]},
			"faces": {
				"north": {"uv": [13.66667, 0.33333, 15.66667, 2.33333], "rotation": 180, "texture": "#1"},
				"east": {"uv": [2.41667, 2.89583, 2.41667, 2.92708], "rotation": 270, "texture": "#1"},
				"south": {"uv": [2.47917, 2.89583, 2.41667, 3.23958], "rotation": 180, "texture": "#1"},
				"west": {"uv": [2.41667, 2.89583, 2.41667, 2.92708], "rotation": 270, "texture": "#1"},
				"up": {"uv": [2.41667, 2.89583, 2.79167, 4.55208], "texture": "#1"},
				"down": {"uv": [2.41667, 2.89583, 2.41667, 2.92708], "rotation": 90, "texture": "#1"}
			}
		},
		{
			"from": [8.76, 2.54203, 19.64025],
			"to": [8.995, 2.85803, 21.60225],
			"rotation": {"angle": 22.5, "axis": "x", "origin": [8.87475, 1.85596, 18.5182]},
			"faces": {
				"north": {"uv": [13.66667, 0.33333, 15.66667, 2.33333], "rotation": 180, "texture": "#1"},
				"east": {"uv": [2.41667, 2.89583, 2.41667, 2.92708], "rotation": 270, "texture": "#1"},
				"south": {"uv": [2.47917, 2.89583, 2.41667, 3.23958], "rotation": 180, "texture": "#1"},
				"west": {"uv": [2.41667, 2.89583, 2.41667, 2.92708], "rotation": 270, "texture": "#1"},
				"up": {"uv": [2.41667, 2.89583, 2.79167, 4.55208], "texture": "#1"},
				"down": {"uv": [2.41667, 2.89583, 2.41667, 8.11458], "texture": "#1"}
			}
		},
		{
			"from": [8.755, 2.13993, 15.95441],
			"to": [9, 2.50593, 20.00041],
			"rotation": {"angle": 0, "axis": "x", "origin": [8.87475, 1.85596, 18.5182]},
			"faces": {
				"north": {"uv": [13.66667, 0.33333, 15.66667, 2.33333], "rotation": 180, "texture": "#1"},
				"east": {"uv": [0.09375, 3.39583, 0.3125, 4.20833], "rotation": 180, "texture": "#1"},
				"south": {"uv": [0.09375, 3.39583, 0.3125, 4.20833], "rotation": 180, "texture": "#1"},
				"west": {"uv": [0.09375, 3.39583, 0.3125, 4.20833], "rotation": 180, "texture": "#1"},
				"up": {"uv": [0.09375, 3.39583, 0.3125, 4.20833], "texture": "#1"},
				"down": {"uv": [13.66667, 0.33333, 15.66667, 2.33333], "texture": "#1"}
			}
		},
		{
			"from": [8.755, 3.65562, 20.62343],
			"to": [9, 3.98858, 21.18092],
			"rotation": {"angle": 45, "axis": "x", "origin": [8.87475, 1.85596, 18.5182]},
			"faces": {
				"north": {"uv": [0.09375, 3.39583, 0.3125, 4.20833], "rotation": 180, "texture": "#1"},
				"east": {"uv": [0.09375, 3.39583, 0.3125, 4.20833], "rotation": 270, "texture": "#1"},
				"south": {"uv": [0.09375, 3.39583, 0.3125, 4.20833], "texture": "#1"},
				"west": {"uv": [0.09375, 3.39583, 0.3125, 4.20833], "rotation": 90, "texture": "#1"},
				"up": {"uv": [0.09375, 3.39583, 0.3125, 4.20833], "rotation": 180, "texture": "#1"},
				"down": {"uv": [0.09375, 3.39583, 0.3125, 4.20833], "texture": "#1"}
			}
		},
		{
			"from": [8.755, 3.8221, 20.7592],
			"to": [9, 3.98858, 21.3474],
			"rotation": {"angle": 45, "axis": "x", "origin": [8.87475, 1.85596, 18.5182]},
			"faces": {
				"north": {"uv": [0.09375, 3.39583, 0.3125, 4.20833], "rotation": 180, "texture": "#1"},
				"east": {"uv": [0.09375, 3.39583, 0.3125, 4.20833], "rotation": 270, "texture": "#1"},
				"south": {"uv": [0.09375, 3.39583, 0.3125, 4.20833], "texture": "#1"},
				"west": {"uv": [0.09375, 3.39583, 0.3125, 4.20833], "rotation": 90, "texture": "#1"},
				"up": {"uv": [0.09375, 3.39583, 0.3125, 4.20833], "rotation": 180, "texture": "#1"},
				"down": {"uv": [13.66667, 0.33333, 15.66667, 2.33333], "texture": "#1"}
			}
		},
		{
			"from": [8.755, 1.24568, 21.67358],
			"to": [9, 1.48112, 21.90902],
			"rotation": {"angle": 0, "axis": "x", "origin": [8.87475, 1.85596, 18.5182]},
			"faces": {
				"north": {"uv": [13.66667, 0.33333, 15.66667, 2.33333], "rotation": 180, "texture": "#1"},
				"east": {"uv": [0.09375, 3.39583, 0.3125, 4.20833], "rotation": 180, "texture": "#1"},
				"south": {"uv": [0.09375, 3.39583, 0.3125, 4.20833], "rotation": 180, "texture": "#1"},
				"west": {"uv": [0.09375, 3.39583, 0.3125, 4.20833], "rotation": 180, "texture": "#1"},
				"up": {"uv": [0.09375, 3.39583, 0.3125, 4.20833], "texture": "#1"},
				"down": {"uv": [0.09375, 3.39583, 0.3125, 4.20833], "texture": "#1"}
			}
		},
		{
			"from": [8.755, 1.24568, 21.80158],
			"to": [9, 1.3634, 22.02673],
			"rotation": {"angle": 0, "axis": "x", "origin": [8.87475, 1.85596, 18.5182]},
			"faces": {
				"north": {"uv": [13.66667, 0.33333, 15.66667, 2.33333], "rotation": 180, "texture": "#1"},
				"east": {"uv": [0.09375, 3.39583, 0.3125, 4.20833], "rotation": 180, "texture": "#1"},
				"south": {"uv": [0.09375, 3.39583, 0.3125, 4.20833], "rotation": 180, "texture": "#1"},
				"west": {"uv": [0.09375, 3.39583, 0.3125, 4.20833], "rotation": 180, "texture": "#1"},
				"up": {"uv": [0.09375, 3.39583, 0.3125, 4.20833], "texture": "#1"},
				"down": {"uv": [0.09375, 3.39583, 0.3125, 4.20833], "texture": "#1"}
			}
		},
		{
			"from": [8.755, 2.66921, 19.63146],
			"to": [9, 3.0206, 21.2793],
			"rotation": {"angle": 22.5, "axis": "x", "origin": [8.87475, 1.85596, 18.5182]},
			"faces": {
				"north": {"uv": [0.09375, 3.39583, 0.3125, 4.20833], "rotation": 180, "texture": "#1"},
				"east": {"uv": [0.09375, 3.39583, 0.3125, 4.20833], "rotation": 270, "texture": "#1"},
				"south": {"uv": [0.09375, 3.39583, 0.3125, 4.20833], "texture": "#1"},
				"west": {"uv": [0.09375, 3.39583, 0.3125, 4.20833], "rotation": 90, "texture": "#1"},
				"up": {"uv": [0.09375, 3.39583, 0.3125, 4.20833], "rotation": 180, "texture": "#1"},
				"down": {"uv": [13.66667, 0.33333, 15.66667, 2.33333], "texture": "#1"}
			}
		}
	],
	"display": {
		"thirdperson_righthand": {
			"rotation": [90, 0, 0],
			"translation": [0, 9, 7.25]
		},
		"thirdperson_lefthand": {
			"rotation": [90, 0, 0],
			"translation": [1.5, 9, 7.25]
		},
		"firstperson_righthand": {
			"rotation": [45, 0, 0],
			"translation": [-1.5, 13, 0]
		},
		"firstperson_lefthand": {
			"rotation": [45, 0, 0],
			"translation": [-1.5, 13, 0]
		},
		"ground": {
			"translation": [0, 4.75, 0],
			"scale": [1, 0.65, 1]
		},
		"gui": {
			"rotation": [69, 46, 90],
			"translation": [-11.75, 1.75, 0],
			"scale": [0.99, 1.15, 1.33]
		},
		"fixed": {
			"rotation": [90, 135, 90],
			"translation": [-0.75, -9.5, -2.25]
		}
	},
	"groups": [
		{
			"name": "handle",
			"origin": [8.875, 2.09547, 2.71467],
			"color": 0,
			"children": [
				{
					"name": "handle",
					"origin": [8.875, 1.725, 16.375],
					"color": 0,
					"children": [0, 1, 2, 3, 4, 5, 6, 7]
				}
			]
		},
		{
			"name": "blade",
			"origin": [8.875, 2.73782, -3.29063],
			"color": 0,
			"children": [
				8,
				9,
				10,
				11,
				12,
				13,
				14,
				15,
				16,
				17,
				18,
				19,
				{
					"name": "group",
					"origin": [8.875, 1.99837, 10.86181],
					"color": 0,
					"children": []
				},
				{
					"name": "group",
					"origin": [8.875, 1.99837, 10.86181],
					"color": 0,
					"children": []
				}
			]
		}
	]
}