{
    "textures": {
        "6": "gci:items/common/all_in_one",
        "particle": "gci:items/common/mpz"
    },
    "elements": [
        {
            "from": [
                7.749,
                11.261,
                6.6
            ],
            "to": [
                8.249,
                11.411,
                7.55
            ],
            "rotation": {
                "angle": 0,
                "axis": "y",
                "origin": [
                    15.749,
                    19.211,
                    14.9
                ]
            },
            "color": 4,
            "faces": {
                "north": {
                    "uv": [
                        10.33333,
                        0.66667,
                        8.33333,
                        1.66667
                    ],
                    "texture": "#missing"
                },
                "east": {
                    "uv": [
                        10.33333,
                        0.66667,
                        8.33333,
                        1.66667
                    ],
                    "texture": "#missing"
                },
                "south": {
                    "uv": [
                        10.33333,
                        0.66667,
                        8.33333,
                        1.66667
                    ],
                    "texture": "#missing"
                },
                "west": {
                    "uv": [
                        10.33333,
                        0.66667,
                        8.33333,
                        1.66667
                    ],
                    "texture": "#missing"
                },
                "up": {
                    "uv": [
                        10.33333,
                        0.66667,
                        8.33333,
                        1.66667
                    ],
                    "texture": "#missing"
                },
                "down": {
                    "uv": [
                        10.33333,
                        0.66667,
                        8.33333,
                        1.66667
                    ],
                    "texture": "#missing"
                }
            }
        },
        {
            "from": [
                7.749,
                11.411,
                6.6
            ],
            "to": [
                8.249,
                11.511,
                6.9
            ],
            "rotation": {
                "angle": 0,
                "axis": "y",
                "origin": [
                    15.749,
                    19.211,
                    14.9
                ]
            },
            "color": 1,
            "faces": {
                "north": {
                    "uv": [
                        10.33333,
                        0.66667,
                        8.33333,
                        1.66667
                    ],
                    "texture": "#missing"
                },
                "east": {
                    "uv": [
                        10.33333,
                        0.66667,
                        8.33333,
                        1.66667
                    ],
                    "texture": "#missing"
                },
                "south": {
                    "uv": [
                        10.33333,
                        0.66667,
                        8.33333,
                        1.66667
                    ],
                    "texture": "#missing"
                },
                "west": {
                    "uv": [
                        10.33333,
                        0.66667,
                        8.33333,
                        1.66667
                    ],
                    "texture": "#missing"
                },
                "up": {
                    "uv": [
                        10.33333,
                        0.66667,
                        8.33333,
                        1.66667
                    ],
                    "texture": "#missing"
                },
                "down": {
                    "uv": [
                        10.33333,
                        0.66667,
                        8.33333,
                        1.66667
                    ],
                    "texture": "#missing"
                }
            }
        },
        {
            "from": [
                7.974,
                11.336,
                6.55
            ],
            "to": [
                8.024,
                11.386,
                6.65
            ],
            "rotation": {
                "angle": -45,
                "axis": "z",
                "origin": [
                    7.974,
                    11.336,
                    6.55
                ]
            },
            "color": 1,
            "faces": {
                "north": {
                    "uv": [
                        10.33333,
                        0.66667,
                        8.33333,
                        1.66667
                    ],
                    "texture": "#missing"
                },
                "east": {
                    "uv": [
                        10.33333,
                        0.66667,
                        8.33333,
                        1.66667
                    ],
                    "texture": "#missing"
                },
                "south": {
                    "uv": [
                        10.33333,
                        0.66667,
                        8.33333,
                        1.66667
                    ],
                    "texture": "#missing"
                },
                "west": {
                    "uv": [
                        10.33333,
                        0.66667,
                        8.33333,
                        1.66667
                    ],
                    "texture": "#missing"
                },
                "up": {
                    "uv": [
                        10.33333,
                        0.66667,
                        8.33333,
                        1.66667
                    ],
                    "texture": "#missing"
                },
                "down": {
                    "uv": [
                        10.33333,
                        0.66667,
                        8.33333,
                        1.66667
                    ],
                    "texture": "#missing"
                }
            }
        },
        {
            "from": [
                8.149,
                11.461,
                6.65
            ],
            "to": [
                8.199,
                11.661,
                6.8
            ],
            "rotation": {
                "angle": 0,
                "axis": "y",
                "origin": [
                    3.31971,
                    8.04029,
                    -4.55
                ]
            },
            "color": 0,
            "faces": {
                "north": {
                    "uv": [
                        10.33333,
                        0.66667,
                        8.33333,
                        1.66667
                    ],
                    "texture": "#missing"
                },
                "east": {
                    "uv": [
                        10.33333,
                        0.66667,
                        8.33333,
                        1.66667
                    ],
                    "texture": "#missing"
                },
                "south": {
                    "uv": [
                        10.33333,
                        0.66667,
                        8.33333,
                        1.66667
                    ],
                    "texture": "#missing"
                },
                "west": {
                    "uv": [
                        10.33333,
                        0.66667,
                        8.33333,
                        1.66667
                    ],
                    "texture": "#missing"
                },
                "up": {
                    "uv": [
                        10.33333,
                        0.66667,
                        8.33333,
                        1.66667
                    ],
                    "texture": "#missing"
                },
                "down": {
                    "uv": [
                        10.33333,
                        0.66667,
                        8.33333,
                        1.66667
                    ],
                    "texture": "#missing"
                }
            }
        },
        {
            "from": [
                7.799,
                11.461,
                6.65
            ],
            "to": [
                7.849,
                11.661,
                6.8
            ],
            "rotation": {
                "angle": 0,
                "axis": "y",
                "origin": [
                    3.31971,
                    8.04029,
                    -4.55
                ]
            },
            "color": 5,
            "faces": {
                "north": {
                    "uv": [
                        10.33333,
                        0.66667,
                        8.33333,
                        1.66667
                    ],
                    "texture": "#missing"
                },
                "east": {
                    "uv": [
                        10.33333,
                        0.66667,
                        8.33333,
                        1.66667
                    ],
                    "texture": "#missing"
                },
                "south": {
                    "uv": [
                        10.33333,
                        0.66667,
                        8.33333,
                        1.66667
                    ],
                    "texture": "#missing"
                },
                "west": {
                    "uv": [
                        10.33333,
                        0.66667,
                        8.33333,
                        1.66667
                    ],
                    "texture": "#missing"
                },
                "up": {
                    "uv": [
                        10.33333,
                        0.66667,
                        8.33333,
                        1.66667
                    ],
                    "texture": "#missing"
                },
                "down": {
                    "uv": [
                        10.33333,
                        0.66667,
                        8.33333,
                        1.66667
                    ],
                    "texture": "#missing"
                }
            }
        },
        {
            "from": [
                7.699,
                11.211,
                7
            ],
            "to": [
                7.749,
                11.411,
                7.15
            ],
            "rotation": {
                "angle": 0,
                "axis": "y",
                "origin": [
                    3.31971,
                    8.04029,
                    -4.55
                ]
            },
            "color": 7,
            "faces": {
                "north": {
                    "uv": [
                        10.33333,
                        0.66667,
                        8.33333,
                        1.66667
                    ],
                    "texture": "#missing"
                },
                "east": {
                    "uv": [
                        10.33333,
                        0.66667,
                        8.33333,
                        1.66667
                    ],
                    "texture": "#missing"
                },
                "south": {
                    "uv": [
                        10.33333,
                        0.66667,
                        8.33333,
                        1.66667
                    ],
                    "texture": "#missing"
                },
                "west": {
                    "uv": [
                        10.33333,
                        0.66667,
                        8.33333,
                        1.66667
                    ],
                    "texture": "#missing"
                },
                "up": {
                    "uv": [
                        10.33333,
                        0.66667,
                        8.33333,
                        1.66667
                    ],
                    "texture": "#missing"
                },
                "down": {
                    "uv": [
                        10.33333,
                        0.66667,
                        8.33333,
                        1.66667
                    ],
                    "texture": "#missing"
                }
            }
        },
        {
            "from": [
                7.699,
                11.211,
                6.62
            ],
            "to": [
                7.749,
                11.411,
                6.77
            ],
            "rotation": {
                "angle": 0,
                "axis": "y",
                "origin": [
                    3.31971,
                    8.04029,
                    -4.55
                ]
            },
            "color": 1,
            "faces": {
                "north": {
                    "uv": [
                        10.33333,
                        0.66667,
                        8.33333,
                        1.66667
                    ],
                    "texture": "#missing"
                },
                "east": {
                    "uv": [
                        10.33333,
                        0.66667,
                        8.33333,
                        1.66667
                    ],
                    "texture": "#missing"
                },
                "south": {
                    "uv": [
                        10.33333,
                        0.66667,
                        8.33333,
                        1.66667
                    ],
                    "texture": "#missing"
                },
                "west": {
                    "uv": [
                        10.33333,
                        0.66667,
                        8.33333,
                        1.66667
                    ],
                    "texture": "#missing"
                },
                "up": {
                    "uv": [
                        10.33333,
                        0.66667,
                        8.33333,
                        1.66667
                    ],
                    "texture": "#missing"
                },
                "down": {
                    "uv": [
                        10.33333,
                        0.66667,
                        8.33333,
                        1.66667
                    ],
                    "texture": "#missing"
                }
            }
        },
        {
            "from": [
                8.249,
                11.211,
                6.62
            ],
            "to": [
                8.299,
                11.411,
                6.77
            ],
            "rotation": {
                "angle": 0,
                "axis": "y",
                "origin": [
                    4.31971,
                    8.04029,
                    -4.55
                ]
            },
            "color": 2,
            "faces": {
                "north": {
                    "uv": [
                        10.33333,
                        0.66667,
                        8.33333,
                        1.66667
                    ],
                    "texture": "#missing"
                },
                "east": {
                    "uv": [
                        10.33333,
                        0.66667,
                        8.33333,
                        1.66667
                    ],
                    "texture": "#missing"
                },
                "south": {
                    "uv": [
                        10.33333,
                        0.66667,
                        8.33333,
                        1.66667
                    ],
                    "texture": "#missing"
                },
                "west": {
                    "uv": [
                        10.33333,
                        0.66667,
                        8.33333,
                        1.66667
                    ],
                    "texture": "#missing"
                },
                "up": {
                    "uv": [
                        10.33333,
                        0.66667,
                        8.33333,
                        1.66667
                    ],
                    "texture": "#missing"
                },
                "down": {
                    "uv": [
                        10.33333,
                        0.66667,
                        8.33333,
                        1.66667
                    ],
                    "texture": "#missing"
                }
            }
        },
        {
            "from": [
                8.249,
                11.211,
                7
            ],
            "to": [
                8.299,
                11.411,
                7.15
            ],
            "rotation": {
                "angle": 0,
                "axis": "y",
                "origin": [
                    4.31971,
                    8.04029,
                    -4.55
                ]
            },
            "color": 0,
            "faces": {
                "north": {
                    "uv": [
                        10.33333,
                        0.66667,
                        8.33333,
                        1.66667
                    ],
                    "texture": "#missing"
                },
                "east": {
                    "uv": [
                        10.33333,
                        0.66667,
                        8.33333,
                        1.66667
                    ],
                    "texture": "#missing"
                },
                "south": {
                    "uv": [
                        10.33333,
                        0.66667,
                        8.33333,
                        1.66667
                    ],
                    "texture": "#missing"
                },
                "west": {
                    "uv": [
                        10.33333,
                        0.66667,
                        8.33333,
                        1.66667
                    ],
                    "texture": "#missing"
                },
                "up": {
                    "uv": [
                        10.33333,
                        0.66667,
                        8.33333,
                        1.66667
                    ],
                    "texture": "#missing"
                },
                "down": {
                    "uv": [
                        10.33333,
                        0.66667,
                        8.33333,
                        1.66667
                    ],
                    "texture": "#missing"
                }
            }
        },
        {
            "from": [
                6.05575,
                16.09384,
                6.65
            ],
            "to": [
                6.10575,
                16.24384,
                6.8
            ],
            "rotation": {
                "angle": -45,
                "axis": "z",
                "origin": [
                    1.57646,
                    11.77313,
                    -4.55
                ]
            },
            "color": 7,
            "faces": {
                "north": {
                    "uv": [
                        10.33333,
                        0.66667,
                        8.33333,
                        1.66667
                    ],
                    "texture": "#missing"
                },
                "east": {
                    "uv": [
                        10.33333,
                        0.66667,
                        8.33333,
                        1.66667
                    ],
                    "texture": "#missing"
                },
                "south": {
                    "uv": [
                        10.33333,
                        0.66667,
                        8.33333,
                        1.66667
                    ],
                    "texture": "#missing"
                },
                "west": {
                    "uv": [
                        10.33333,
                        0.66667,
                        8.33333,
                        1.66667
                    ],
                    "texture": "#missing"
                },
                "up": {
                    "uv": [
                        10.33333,
                        0.66667,
                        8.33333,
                        1.66667
                    ],
                    "texture": "#missing"
                },
                "down": {
                    "uv": [
                        10.33333,
                        0.66667,
                        8.33333,
                        1.66667
                    ],
                    "texture": "#missing"
                }
            }
        },
        {
            "from": [
                12.5308,
                9.72382,
                6.65
            ],
            "to": [
                12.5808,
                9.87382,
                6.8
            ],
            "rotation": {
                "angle": 45,
                "axis": "z",
                "origin": [
                    8.05151,
                    5.4031,
                    -4.55
                ]
            },
            "color": 2,
            "faces": {
                "north": {
                    "uv": [
                        10.33333,
                        0.66667,
                        8.33333,
                        1.66667
                    ],
                    "texture": "#missing"
                },
                "east": {
                    "uv": [
                        10.33333,
                        0.66667,
                        8.33333,
                        1.66667
                    ],
                    "texture": "#missing"
                },
                "south": {
                    "uv": [
                        10.33333,
                        0.66667,
                        8.33333,
                        1.66667
                    ],
                    "texture": "#missing"
                },
                "west": {
                    "uv": [
                        10.33333,
                        0.66667,
                        8.33333,
                        1.66667
                    ],
                    "texture": "#missing"
                },
                "up": {
                    "uv": [
                        10.33333,
                        0.66667,
                        8.33333,
                        1.66667
                    ],
                    "texture": "#missing"
                },
                "down": {
                    "uv": [
                        10.33333,
                        0.66667,
                        8.33333,
                        1.66667
                    ],
                    "texture": "#missing"
                }
            }
        },
        {
            "from": [
                7.90293,
                11.71707,
                6.65
            ],
            "to": [
                8.09293,
                11.76707,
                6.8
            ],
            "rotation": {
                "angle": 0,
                "axis": "y",
                "origin": [
                    12.37364,
                    7.23778,
                    -4.55
                ]
            },
            "color": 4,
            "faces": {
                "north": {
                    "uv": [
                        10.33333,
                        0.66667,
                        8.33333,
                        1.66667
                    ],
                    "texture": "#missing"
                },
                "east": {
                    "uv": [
                        10.33333,
                        0.66667,
                        8.33333,
                        1.66667
                    ],
                    "texture": "#missing"
                },
                "south": {
                    "uv": [
                        10.33333,
                        0.66667,
                        8.33333,
                        1.66667
                    ],
                    "texture": "#missing"
                },
                "west": {
                    "uv": [
                        10.33333,
                        0.66667,
                        8.33333,
                        1.66667
                    ],
                    "texture": "#missing"
                },
                "up": {
                    "uv": [
                        10.33333,
                        0.66667,
                        8.33333,
                        1.66667
                    ],
                    "texture": "#missing"
                },
                "down": {
                    "uv": [
                        10.33333,
                        0.66667,
                        8.33333,
                        1.66667
                    ],
                    "texture": "#missing"
                }
            }
        },
        {
            "from": [
                7.97793,
                11.59207,
                6.7
            ],
            "to": [
                8.01793,
                11.63207,
                6.701
            ],
            "rotation": {
                "angle": 0,
                "axis": "y",
                "origin": [
                    12.37364,
                    7.11278,
                    -4.55
                ]
            },
            "color": 4,
            "faces": {
                "north": {
                    "uv": [
                        7.66667,
                        14,
                        5.66667,
                        15.33333
                    ],
                    "texture": "#missing"
                },
                "east": {
                    "uv": [
                        7.66667,
                        14,
                        5.66667,
                        15.33333
                    ],
                    "texture": "#missing"
                },
                "south": {
                    "uv": [
                        7.66667,
                        14,
                        5.66667,
                        15.33333
                    ],
                    "texture": "#missing"
                },
                "west": {
                    "uv": [
                        7.66667,
                        14,
                        5.66667,
                        15.33333
                    ],
                    "texture": "#missing"
                },
                "up": {
                    "uv": [
                        7.66667,
                        14,
                        5.66667,
                        15.33333
                    ],
                    "texture": "#missing"
                },
                "down": {
                    "uv": [
                        7.66667,
                        14,
                        5.66667,
                        15.33333
                    ],
                    "texture": "#missing"
                }
            }
        }
    ],
    "display": {
        "thirdperson_righthand": {
            "translation": [
                0,
                -2.75,
                2.5
            ],
            "scale": [
                1.6,
                1.6,
                1.6
            ]
        },
        "thirdperson_lefthand": {
            "translation": [
                0,
                -2.75,
                2.5
            ],
            "scale": [
                1.6,
                1.6,
                1.6
            ]
        },
        "firstperson_righthand": {
            "translation": [
                3,
                -2,
                -0.75
            ],
            "scale": [
                2,
                2,
                2
            ]
        },
        "firstperson_lefthand": {
            "translation": [
                3,
                -2,
                -0.75
            ],
            "scale": [
                2,
                2,
                2
            ]
        },
        "ground": {
            "rotation": [
                0,
                0,
                -90
            ],
            "translation": [
                -2.75,
                -1.5,
                2.75
            ],
            "scale": [
                2,
                2,
                2
            ]
        },
        "gui": {
            "rotation": [
                8,
                123,
                3
            ],
            "translation": [
                3.25,
                -3.75,
                0
            ],
            "scale": [
                2.3,
                2.3,
                2.3
            ]
        },
        "head": {
            "rotation": [
                0,
                90,
                90
            ],
            "translation": [
                6,
                7.25,
                -4
            ],
            "scale": [
                3,
                3,
                3
            ]
        },
        "fixed": {
            "rotation": [
                90,
                45,
                -90
            ],
            "translation": [
                -0.5,
                -4,
                -1.5
            ],
            "scale": [
                1.6,
                1.6,
                1.6
            ]
        }
    }
}