{
    "textures": {
        "6": "gci:items/common/all_in_one",
        "particle": "gci:items/common/mpz"
    },
    "elements": [
        {
            "from": [
                7.81,
                11.357,
                6.61
            ],
            "to": [
                8.21,
                11.507,
                8
            ],
            "rotation": {
                "angle": 0,
                "axis": "y",
                "origin": [
                    7.82,
                    11.3631,
                    6.805
                ]
            },
            "color": 2,
            "faces": {
                "north": {
                    "uv": [
                        9,
                        0.66667,
                        10.33333,
                        2
                    ],
                    "rotation": 180,
                    "texture": "#missing"
                },
                "east": {
                    "uv": [
                        9,
                        0.66667,
                        10.33333,
                        2
                    ],
                    "rotation": 180,
                    "texture": "#missing"
                },
                "south": {
                    "uv": [
                        9,
                        0.66667,
                        10.33333,
                        2
                    ],
                    "rotation": 180,
                    "texture": "#missing"
                },
                "west": {
                    "uv": [
                        9,
                        0.66667,
                        10.33333,
                        2
                    ],
                    "rotation": 180,
                    "texture": "#missing"
                },
                "up": {
                    "uv": [
                        9,
                        0.66667,
                        10.33333,
                        2
                    ],
                    "rotation": 180,
                    "texture": "#missing"
                },
                "down": {
                    "uv": [
                        9,
                        0.66667,
                        10.33333,
                        2
                    ],
                    "rotation": 180,
                    "texture": "#missing"
                }
            }
        },
        {
            "from": [
                7.81,
                11.46307,
                6.71607
            ],
            "to": [
                8.21,
                11.61307,
                8.00607
            ],
            "rotation": {
                "angle": 0,
                "axis": "y",
                "origin": [
                    7.82,
                    11.46917,
                    6.81107
                ]
            },
            "color": 1,
            "faces": {
                "north": {
                    "uv": [
                        9,
                        0.66667,
                        10.33333,
                        2
                    ],
                    "rotation": 180,
                    "texture": "#missing"
                },
                "east": {
                    "uv": [
                        9,
                        0.66667,
                        10.33333,
                        2
                    ],
                    "rotation": 180,
                    "texture": "#missing"
                },
                "south": {
                    "uv": [
                        9,
                        0.66667,
                        10.33333,
                        2
                    ],
                    "rotation": 180,
                    "texture": "#missing"
                },
                "west": {
                    "uv": [
                        9,
                        0.66667,
                        10.33333,
                        2
                    ],
                    "rotation": 180,
                    "texture": "#missing"
                },
                "up": {
                    "uv": [
                        9,
                        0.66667,
                        10.33333,
                        2
                    ],
                    "rotation": 180,
                    "texture": "#missing"
                },
                "down": {
                    "uv": [
                        9,
                        0.66667,
                        10.33333,
                        2
                    ],
                    "rotation": 180,
                    "texture": "#missing"
                }
            }
        },
        {
            "from": [
                7.81,
                11.432,
                6.64107
            ],
            "to": [
                8.21,
                11.582,
                6.79107
            ],
            "rotation": {
                "angle": 45,
                "axis": "x",
                "origin": [
                    8.01,
                    11.507,
                    6.71607
                ]
            },
            "color": 2,
            "faces": {
                "north": {
                    "uv": [
                        9,
                        0.66667,
                        10.33333,
                        2
                    ],
                    "rotation": 180,
                    "texture": "#missing"
                },
                "east": {
                    "uv": [
                        9,
                        0.66667,
                        10.33333,
                        2
                    ],
                    "rotation": 180,
                    "texture": "#missing"
                },
                "south": {
                    "uv": [
                        9,
                        0.66667,
                        10.33333,
                        2
                    ],
                    "rotation": 180,
                    "texture": "#missing"
                },
                "west": {
                    "uv": [
                        9,
                        0.66667,
                        10.33333,
                        2
                    ],
                    "rotation": 180,
                    "texture": "#missing"
                },
                "up": {
                    "uv": [
                        9,
                        0.66667,
                        10.33333,
                        2
                    ],
                    "rotation": 180,
                    "texture": "#missing"
                },
                "down": {
                    "uv": [
                        9,
                        0.66667,
                        10.33333,
                        2
                    ],
                    "rotation": 180,
                    "texture": "#missing"
                }
            }
        },
        {
            "from": [
                7.81,
                11.34993,
                7.20707
            ],
            "to": [
                7.82,
                11.89993,
                7.50707
            ],
            "rotation": {
                "angle": 45,
                "axis": "x",
                "origin": [
                    7.815,
                    11.62493,
                    7.36207
                ]
            },
            "color": 6,
            "faces": {
                "north": {
                    "uv": [
                        9,
                        0.66667,
                        10.33333,
                        2
                    ],
                    "rotation": 180,
                    "texture": "#missing"
                },
                "east": {
                    "uv": [
                        9,
                        0.66667,
                        10.33333,
                        2
                    ],
                    "rotation": 180,
                    "texture": "#missing"
                },
                "south": {
                    "uv": [
                        9,
                        0.66667,
                        10.33333,
                        2
                    ],
                    "rotation": 180,
                    "texture": "#missing"
                },
                "west": {
                    "uv": [
                        9,
                        0.66667,
                        10.33333,
                        2
                    ],
                    "rotation": 180,
                    "texture": "#missing"
                },
                "up": {
                    "uv": [
                        9,
                        0.66667,
                        10.33333,
                        2
                    ],
                    "rotation": 180,
                    "texture": "#missing"
                },
                "down": {
                    "uv": [
                        9,
                        0.66667,
                        10.33333,
                        2
                    ],
                    "rotation": 180,
                    "texture": "#missing"
                }
            }
        },
        {
            "from": [
                7.81,
                11.37898,
                7.44692
            ],
            "to": [
                7.82,
                11.92898,
                7.73692
            ],
            "rotation": {
                "angle": 0,
                "axis": "y",
                "origin": [
                    7.815,
                    11.65398,
                    7.59192
                ]
            },
            "color": 1,
            "faces": {
                "north": {
                    "uv": [
                        9,
                        0.66667,
                        10.33333,
                        2
                    ],
                    "rotation": 180,
                    "texture": "#missing"
                },
                "east": {
                    "uv": [
                        9,
                        0.66667,
                        10.33333,
                        2
                    ],
                    "rotation": 180,
                    "texture": "#missing"
                },
                "south": {
                    "uv": [
                        9,
                        0.66667,
                        10.33333,
                        2
                    ],
                    "rotation": 180,
                    "texture": "#missing"
                },
                "west": {
                    "uv": [
                        9,
                        0.66667,
                        10.33333,
                        2
                    ],
                    "rotation": 180,
                    "texture": "#missing"
                },
                "up": {
                    "uv": [
                        9,
                        0.66667,
                        10.33333,
                        2
                    ],
                    "rotation": 180,
                    "texture": "#missing"
                },
                "down": {
                    "uv": [
                        9,
                        0.66667,
                        10.33333,
                        2
                    ],
                    "rotation": 180,
                    "texture": "#missing"
                }
            }
        },
        {
            "from": [
                8.2,
                11.37898,
                7.44692
            ],
            "to": [
                8.21,
                11.92898,
                7.73692
            ],
            "rotation": {
                "angle": 0,
                "axis": "y",
                "origin": [
                    8.205,
                    11.65398,
                    7.59192
                ]
            },
            "color": 3,
            "faces": {
                "north": {
                    "uv": [
                        9,
                        0.66667,
                        10.33333,
                        2
                    ],
                    "rotation": 180,
                    "texture": "#missing"
                },
                "east": {
                    "uv": [
                        9,
                        0.66667,
                        10.33333,
                        2
                    ],
                    "rotation": 180,
                    "texture": "#missing"
                },
                "south": {
                    "uv": [
                        9,
                        0.66667,
                        10.33333,
                        2
                    ],
                    "rotation": 180,
                    "texture": "#missing"
                },
                "west": {
                    "uv": [
                        9,
                        0.66667,
                        10.33333,
                        2
                    ],
                    "rotation": 180,
                    "texture": "#missing"
                },
                "up": {
                    "uv": [
                        9,
                        0.66667,
                        10.33333,
                        2
                    ],
                    "rotation": 180,
                    "texture": "#missing"
                },
                "down": {
                    "uv": [
                        9,
                        0.66667,
                        10.33333,
                        2
                    ],
                    "rotation": 180,
                    "texture": "#missing"
                }
            }
        },
        {
            "from": [
                7.81,
                11.91898,
                7.44692
            ],
            "to": [
                8.2,
                11.92898,
                7.73692
            ],
            "rotation": {
                "angle": 0,
                "axis": "y",
                "origin": [
                    7.815,
                    12.19398,
                    7.59192
                ]
            },
            "color": 6,
            "faces": {
                "north": {
                    "uv": [
                        9,
                        0.66667,
                        10.33333,
                        2
                    ],
                    "rotation": 180,
                    "texture": "#missing"
                },
                "east": {
                    "uv": [
                        9,
                        0.66667,
                        10.33333,
                        2
                    ],
                    "rotation": 180,
                    "texture": "#missing"
                },
                "south": {
                    "uv": [
                        9,
                        0.66667,
                        10.33333,
                        2
                    ],
                    "rotation": 180,
                    "texture": "#missing"
                },
                "west": {
                    "uv": [
                        9,
                        0.66667,
                        10.33333,
                        2
                    ],
                    "rotation": 180,
                    "texture": "#missing"
                },
                "up": {
                    "uv": [
                        9,
                        0.66667,
                        10.33333,
                        2
                    ],
                    "rotation": 180,
                    "texture": "#missing"
                },
                "down": {
                    "uv": [
                        9,
                        0.66667,
                        10.33333,
                        2
                    ],
                    "rotation": 180,
                    "texture": "#missing"
                }
            }
        },
        {
            "from": [
                7.81,
                11.44008,
                7.05802
            ],
            "to": [
                7.82,
                11.54008,
                7.34802
            ],
            "rotation": {
                "angle": 0,
                "axis": "y",
                "origin": [
                    7.815,
                    11.71508,
                    7.20302
                ]
            },
            "color": 5,
            "faces": {
                "north": {
                    "uv": [
                        9,
                        0.66667,
                        10.33333,
                        2
                    ],
                    "rotation": 180,
                    "texture": "#missing"
                },
                "east": {
                    "uv": [
                        9,
                        0.66667,
                        10.33333,
                        2
                    ],
                    "rotation": 180,
                    "texture": "#missing"
                },
                "south": {
                    "uv": [
                        9,
                        0.66667,
                        10.33333,
                        2
                    ],
                    "rotation": 180,
                    "texture": "#missing"
                },
                "west": {
                    "uv": [
                        9,
                        0.66667,
                        10.33333,
                        2
                    ],
                    "rotation": 180,
                    "texture": "#missing"
                },
                "up": {
                    "uv": [
                        9,
                        0.66667,
                        10.33333,
                        2
                    ],
                    "rotation": 180,
                    "texture": "#missing"
                },
                "down": {
                    "uv": [
                        9,
                        0.66667,
                        10.33333,
                        2
                    ],
                    "rotation": 180,
                    "texture": "#missing"
                }
            }
        },
        {
            "from": [
                8.2,
                11.44008,
                7.05802
            ],
            "to": [
                8.21,
                11.54008,
                7.34802
            ],
            "rotation": {
                "angle": 0,
                "axis": "y",
                "origin": [
                    8.205,
                    11.71508,
                    7.20302
                ]
            },
            "color": 5,
            "faces": {
                "north": {
                    "uv": [
                        9,
                        0.66667,
                        10.33333,
                        2
                    ],
                    "rotation": 180,
                    "texture": "#missing"
                },
                "east": {
                    "uv": [
                        9,
                        0.66667,
                        10.33333,
                        2
                    ],
                    "rotation": 180,
                    "texture": "#missing"
                },
                "south": {
                    "uv": [
                        9,
                        0.66667,
                        10.33333,
                        2
                    ],
                    "rotation": 180,
                    "texture": "#missing"
                },
                "west": {
                    "uv": [
                        9,
                        0.66667,
                        10.33333,
                        2
                    ],
                    "rotation": 180,
                    "texture": "#missing"
                },
                "up": {
                    "uv": [
                        9,
                        0.66667,
                        10.33333,
                        2
                    ],
                    "rotation": 180,
                    "texture": "#missing"
                },
                "down": {
                    "uv": [
                        9,
                        0.66667,
                        10.33333,
                        2
                    ],
                    "rotation": 180,
                    "texture": "#missing"
                }
            }
        },
        {
            "from": [
                8.2,
                11.34993,
                7.20707
            ],
            "to": [
                8.21,
                11.89993,
                7.50707
            ],
            "rotation": {
                "angle": 45,
                "axis": "x",
                "origin": [
                    8.215,
                    11.62493,
                    7.36207
                ]
            },
            "color": 7,
            "faces": {
                "north": {
                    "uv": [
                        9,
                        0.66667,
                        10.33333,
                        2
                    ],
                    "rotation": 180,
                    "texture": "#missing"
                },
                "east": {
                    "uv": [
                        9,
                        0.66667,
                        10.33333,
                        2
                    ],
                    "rotation": 180,
                    "texture": "#missing"
                },
                "south": {
                    "uv": [
                        9,
                        0.66667,
                        10.33333,
                        2
                    ],
                    "rotation": 180,
                    "texture": "#missing"
                },
                "west": {
                    "uv": [
                        9,
                        0.66667,
                        10.33333,
                        2
                    ],
                    "rotation": 180,
                    "texture": "#missing"
                },
                "up": {
                    "uv": [
                        9,
                        0.66667,
                        10.33333,
                        2
                    ],
                    "rotation": 180,
                    "texture": "#missing"
                },
                "down": {
                    "uv": [
                        9,
                        0.66667,
                        10.33333,
                        2
                    ],
                    "rotation": 180,
                    "texture": "#missing"
                }
            }
        },
        {
            "from": [
                7.79226,
                11.35865,
                6.61
            ],
            "to": [
                7.87226,
                11.43865,
                8
            ],
            "rotation": {
                "angle": -22.5,
                "axis": "z",
                "origin": [
                    7.83226,
                    11.39865,
                    7.305
                ]
            },
            "color": 5,
            "faces": {
                "north": {
                    "uv": [
                        9,
                        0.66667,
                        10.33333,
                        2
                    ],
                    "rotation": 180,
                    "texture": "#missing"
                },
                "east": {
                    "uv": [
                        9,
                        0.66667,
                        10.33333,
                        2
                    ],
                    "rotation": 180,
                    "texture": "#missing"
                },
                "south": {
                    "uv": [
                        9,
                        0.66667,
                        10.33333,
                        2
                    ],
                    "rotation": 180,
                    "texture": "#missing"
                },
                "west": {
                    "uv": [
                        9,
                        0.66667,
                        10.33333,
                        2
                    ],
                    "rotation": 180,
                    "texture": "#missing"
                },
                "up": {
                    "uv": [
                        9,
                        0.66667,
                        10.33333,
                        2
                    ],
                    "rotation": 180,
                    "texture": "#missing"
                },
                "down": {
                    "uv": [
                        9,
                        0.66667,
                        10.33333,
                        2
                    ],
                    "rotation": 180,
                    "texture": "#missing"
                }
            }
        },
        {
            "from": [
                7.81,
                11.377,
                6.61
            ],
            "to": [
                8.21,
                11.457,
                8
            ],
            "rotation": {
                "angle": 0,
                "axis": "y",
                "origin": [
                    7.82,
                    11.3831,
                    6.805
                ]
            },
            "color": 3,
            "faces": {
                "north": {
                    "uv": [
                        9,
                        0.66667,
                        10.33333,
                        2
                    ],
                    "rotation": 180,
                    "texture": "#missing"
                },
                "east": {
                    "uv": [
                        9,
                        0.66667,
                        10.33333,
                        2
                    ],
                    "rotation": 180,
                    "texture": "#missing"
                },
                "south": {
                    "uv": [
                        9,
                        0.66667,
                        10.33333,
                        2
                    ],
                    "rotation": 180,
                    "texture": "#missing"
                },
                "west": {
                    "uv": [
                        9,
                        0.66667,
                        10.33333,
                        2
                    ],
                    "rotation": 180,
                    "texture": "#missing"
                },
                "up": {
                    "uv": [
                        9,
                        0.66667,
                        10.33333,
                        2
                    ],
                    "rotation": 180,
                    "texture": "#missing"
                },
                "down": {
                    "uv": [
                        9,
                        0.66667,
                        10.33333,
                        2
                    ],
                    "rotation": 180,
                    "texture": "#missing"
                }
            }
        },
        {
            "from": [
                7.78,
                11.277,
                6.61
            ],
            "to": [
                8.24,
                11.377,
                8
            ],
            "rotation": {
                "angle": 0,
                "axis": "y",
                "origin": [
                    7.82,
                    11.2831,
                    6.805
                ]
            },
            "color": 0,
            "faces": {
                "north": {
                    "uv": [
                        9,
                        0.66667,
                        10.33333,
                        2
                    ],
                    "rotation": 180,
                    "texture": "#missing"
                },
                "east": {
                    "uv": [
                        9,
                        0.66667,
                        10.33333,
                        2
                    ],
                    "rotation": 180,
                    "texture": "#missing"
                },
                "south": {
                    "uv": [
                        9,
                        0.66667,
                        10.33333,
                        2
                    ],
                    "rotation": 180,
                    "texture": "#missing"
                },
                "west": {
                    "uv": [
                        9,
                        0.66667,
                        10.33333,
                        2
                    ],
                    "rotation": 180,
                    "texture": "#missing"
                },
                "up": {
                    "uv": [
                        9,
                        0.66667,
                        10.33333,
                        2
                    ],
                    "rotation": 180,
                    "texture": "#missing"
                },
                "down": {
                    "uv": [
                        9,
                        0.66667,
                        10.33333,
                        2
                    ],
                    "rotation": 180,
                    "texture": "#missing"
                }
            }
        },
        {
            "from": [
                8.14774,
                11.35865,
                6.61
            ],
            "to": [
                8.22774,
                11.43865,
                8
            ],
            "rotation": {
                "angle": 22.5,
                "axis": "z",
                "origin": [
                    8.18774,
                    11.39865,
                    7.305
                ]
            },
            "color": 5,
            "faces": {
                "north": {
                    "uv": [
                        9,
                        0.66667,
                        10.33333,
                        2
                    ],
                    "rotation": 180,
                    "texture": "#missing"
                },
                "east": {
                    "uv": [
                        9,
                        0.66667,
                        10.33333,
                        2
                    ],
                    "rotation": 180,
                    "texture": "#missing"
                },
                "south": {
                    "uv": [
                        9,
                        0.66667,
                        10.33333,
                        2
                    ],
                    "rotation": 180,
                    "texture": "#missing"
                },
                "west": {
                    "uv": [
                        9,
                        0.66667,
                        10.33333,
                        2
                    ],
                    "rotation": 180,
                    "texture": "#missing"
                },
                "up": {
                    "uv": [
                        9,
                        0.66667,
                        10.33333,
                        2
                    ],
                    "rotation": 180,
                    "texture": "#missing"
                },
                "down": {
                    "uv": [
                        9,
                        0.66667,
                        10.33333,
                        2
                    ],
                    "rotation": 180,
                    "texture": "#missing"
                }
            }
        },
        {
            "from": [
                8.01,
                11.447,
                6.588
            ],
            "to": [
                8.02,
                11.457,
                6.688
            ],
            "rotation": {
                "angle": 0,
                "axis": "y",
                "origin": [
                    7.9957,
                    11.42771,
                    6.60056
                ]
            },
            "color": 4,
            "faces": {
                "north": {
                    "uv": [
                        9,
                        0.66667,
                        10.33333,
                        2
                    ],
                    "rotation": 180,
                    "texture": "#missing"
                },
                "east": {
                    "uv": [
                        9,
                        0.66667,
                        10.33333,
                        2
                    ],
                    "rotation": 180,
                    "texture": "#missing"
                },
                "south": {
                    "uv": [
                        9,
                        0.66667,
                        10.33333,
                        2
                    ],
                    "rotation": 180,
                    "texture": "#missing"
                },
                "west": {
                    "uv": [
                        9,
                        0.66667,
                        10.33333,
                        2
                    ],
                    "rotation": 180,
                    "texture": "#missing"
                },
                "up": {
                    "uv": [
                        9,
                        0.66667,
                        10.33333,
                        2
                    ],
                    "rotation": 180,
                    "texture": "#missing"
                },
                "down": {
                    "uv": [
                        9,
                        0.66667,
                        10.33333,
                        2
                    ],
                    "rotation": 180,
                    "texture": "#missing"
                }
            }
        },
        {
            "from": [
                7.99,
                11.76,
                7.578
            ],
            "to": [
                8.025,
                11.795,
                7.578
            ],
            "rotation": {
                "angle": 0,
                "axis": "y",
                "origin": [
                    7.9957,
                    11.72771,
                    7.50056
                ]
            },
            "color": 3,
            "faces": {
                "north": {
                    "uv": [
                        6,
                        15,
                        6.66667,
                        13.66667
                    ],
                    "rotation": 90,
                    "texture": "#missing"
                },
                "east": {
                    "uv": [
                        6,
                        15,
                        6.66667,
                        13.66667
                    ],
                    "rotation": 90,
                    "texture": "#missing"
                },
                "south": {
                    "uv": [
                        6,
                        15,
                        6.66667,
                        13.66667
                    ],
                    "rotation": 90,
                    "texture": "#missing"
                },
                "west": {
                    "uv": [
                        6,
                        15,
                        6.66667,
                        13.66667
                    ],
                    "rotation": 90,
                    "texture": "#missing"
                },
                "up": {
                    "uv": [
                        6,
                        15,
                        6.66667,
                        13.66667
                    ],
                    "rotation": 90,
                    "texture": "#missing"
                },
                "down": {
                    "uv": [
                        6,
                        15,
                        6.66667,
                        13.66667
                    ],
                    "rotation": 90,
                    "texture": "#missing"
                }
            }
        },
        {
            "from": [
                7.71,
                11.2431,
                7.71
            ],
            "to": [
                8.31,
                11.3231,
                7.9
            ],
            "rotation": {
                "angle": 0,
                "axis": "y",
                "origin": [
                    7.82,
                    11.2831,
                    7.805
                ]
            },
            "color": 2,
            "faces": {
                "north": {
                    "uv": [
                        6,
                        0.66667,
                        7.66667,
                        1.66667
                    ],
                    "rotation": 90,
                    "texture": "#missing"
                },
                "east": {
                    "uv": [
                        6,
                        0.66667,
                        7.66667,
                        1.66667
                    ],
                    "rotation": 90,
                    "texture": "#missing"
                },
                "south": {
                    "uv": [
                        6,
                        0.66667,
                        7.66667,
                        1.66667
                    ],
                    "rotation": 90,
                    "texture": "#missing"
                },
                "west": {
                    "uv": [
                        6,
                        0.66667,
                        7.66667,
                        1.66667
                    ],
                    "rotation": 90,
                    "texture": "#missing"
                },
                "up": {
                    "uv": [
                        6,
                        0.66667,
                        7.66667,
                        1.66667
                    ],
                    "rotation": 90,
                    "texture": "#missing"
                },
                "down": {
                    "uv": [
                        6,
                        0.66667,
                        7.66667,
                        1.66667
                    ],
                    "rotation": 90,
                    "texture": "#missing"
                }
            }
        },
        {
            "from": [
                7.71,
                11.1881,
                7.765
            ],
            "to": [
                8.31,
                11.3781,
                7.845
            ],
            "rotation": {
                "angle": 45,
                "axis": "x",
                "origin": [
                    7.82,
                    11.2831,
                    7.805
                ]
            },
            "color": 5,
            "faces": {
                "north": {
                    "uv": [
                        6,
                        0.66667,
                        7.66667,
                        1.66667
                    ],
                    "rotation": 90,
                    "texture": "#missing"
                },
                "east": {
                    "uv": [
                        6,
                        0.66667,
                        7.66667,
                        1.66667
                    ],
                    "rotation": 90,
                    "texture": "#missing"
                },
                "south": {
                    "uv": [
                        6,
                        0.66667,
                        7.66667,
                        1.66667
                    ],
                    "rotation": 90,
                    "texture": "#missing"
                },
                "west": {
                    "uv": [
                        6,
                        0.66667,
                        7.66667,
                        1.66667
                    ],
                    "rotation": 90,
                    "texture": "#missing"
                },
                "up": {
                    "uv": [
                        6,
                        0.66667,
                        7.66667,
                        1.66667
                    ],
                    "rotation": 90,
                    "texture": "#missing"
                },
                "down": {
                    "uv": [
                        6,
                        0.66667,
                        7.66667,
                        1.66667
                    ],
                    "rotation": 90,
                    "texture": "#missing"
                }
            }
        },
        {
            "from": [
                7.71,
                11.1881,
                7.765
            ],
            "to": [
                8.31,
                11.3781,
                7.845
            ],
            "rotation": {
                "angle": -45,
                "axis": "x",
                "origin": [
                    7.82,
                    11.2831,
                    7.805
                ]
            },
            "color": 6,
            "faces": {
                "north": {
                    "uv": [
                        6,
                        0.66667,
                        7.66667,
                        1.66667
                    ],
                    "rotation": 90,
                    "texture": "#missing"
                },
                "east": {
                    "uv": [
                        6,
                        0.66667,
                        7.66667,
                        1.66667
                    ],
                    "rotation": 90,
                    "texture": "#missing"
                },
                "south": {
                    "uv": [
                        6,
                        0.66667,
                        7.66667,
                        1.66667
                    ],
                    "rotation": 90,
                    "texture": "#missing"
                },
                "west": {
                    "uv": [
                        6,
                        0.66667,
                        7.66667,
                        1.66667
                    ],
                    "rotation": 90,
                    "texture": "#missing"
                },
                "up": {
                    "uv": [
                        6,
                        0.66667,
                        7.66667,
                        1.66667
                    ],
                    "rotation": 90,
                    "texture": "#missing"
                },
                "down": {
                    "uv": [
                        6,
                        0.66667,
                        7.66667,
                        1.66667
                    ],
                    "rotation": 90,
                    "texture": "#missing"
                }
            }
        },
        {
            "from": [
                7.71,
                11.1881,
                7.765
            ],
            "to": [
                8.31,
                11.3781,
                7.845
            ],
            "rotation": {
                "angle": 0,
                "axis": "y",
                "origin": [
                    7.82,
                    11.2831,
                    7.805
                ]
            },
            "color": 3,
            "faces": {
                "north": {
                    "uv": [
                        6,
                        0.66667,
                        7.66667,
                        1.66667
                    ],
                    "rotation": 90,
                    "texture": "#missing"
                },
                "east": {
                    "uv": [
                        6,
                        0.66667,
                        7.66667,
                        1.66667
                    ],
                    "rotation": 90,
                    "texture": "#missing"
                },
                "south": {
                    "uv": [
                        6,
                        0.66667,
                        7.66667,
                        1.66667
                    ],
                    "rotation": 90,
                    "texture": "#missing"
                },
                "west": {
                    "uv": [
                        6,
                        0.66667,
                        7.66667,
                        1.66667
                    ],
                    "rotation": 90,
                    "texture": "#missing"
                },
                "up": {
                    "uv": [
                        6,
                        0.66667,
                        7.66667,
                        1.66667
                    ],
                    "rotation": 90,
                    "texture": "#missing"
                },
                "down": {
                    "uv": [
                        6,
                        0.66667,
                        7.66667,
                        1.66667
                    ],
                    "rotation": 90,
                    "texture": "#missing"
                }
            }
        },
        {
            "from": [
                7.71,
                11.1881,
                6.765
            ],
            "to": [
                8.31,
                11.3781,
                6.845
            ],
            "rotation": {
                "angle": -45,
                "axis": "x",
                "origin": [
                    7.82,
                    11.2831,
                    6.805
                ]
            },
            "color": 3,
            "faces": {
                "north": {
                    "uv": [
                        6,
                        0.66667,
                        7.66667,
                        1.66667
                    ],
                    "rotation": 90,
                    "texture": "#missing"
                },
                "east": {
                    "uv": [
                        6,
                        0.66667,
                        7.66667,
                        1.66667
                    ],
                    "rotation": 90,
                    "texture": "#missing"
                },
                "south": {
                    "uv": [
                        6,
                        0.66667,
                        7.66667,
                        1.66667
                    ],
                    "rotation": 90,
                    "texture": "#missing"
                },
                "west": {
                    "uv": [
                        6,
                        0.66667,
                        7.66667,
                        1.66667
                    ],
                    "rotation": 90,
                    "texture": "#missing"
                },
                "up": {
                    "uv": [
                        6,
                        0.66667,
                        7.66667,
                        1.66667
                    ],
                    "rotation": 90,
                    "texture": "#missing"
                },
                "down": {
                    "uv": [
                        6,
                        0.66667,
                        7.66667,
                        1.66667
                    ],
                    "rotation": 90,
                    "texture": "#missing"
                }
            }
        },
        {
            "from": [
                7.71,
                11.2431,
                6.71
            ],
            "to": [
                8.31,
                11.3231,
                6.9
            ],
            "rotation": {
                "angle": 0,
                "axis": "y",
                "origin": [
                    7.82,
                    11.2831,
                    6.805
                ]
            },
            "color": 7,
            "faces": {
                "north": {
                    "uv": [
                        6,
                        0.66667,
                        7.66667,
                        1.66667
                    ],
                    "rotation": 90,
                    "texture": "#missing"
                },
                "east": {
                    "uv": [
                        6,
                        0.66667,
                        7.66667,
                        1.66667
                    ],
                    "rotation": 90,
                    "texture": "#missing"
                },
                "south": {
                    "uv": [
                        6,
                        0.66667,
                        7.66667,
                        1.66667
                    ],
                    "rotation": 90,
                    "texture": "#missing"
                },
                "west": {
                    "uv": [
                        6,
                        0.66667,
                        7.66667,
                        1.66667
                    ],
                    "rotation": 90,
                    "texture": "#missing"
                },
                "up": {
                    "uv": [
                        6,
                        0.66667,
                        7.66667,
                        1.66667
                    ],
                    "rotation": 90,
                    "texture": "#missing"
                },
                "down": {
                    "uv": [
                        6,
                        0.66667,
                        7.66667,
                        1.66667
                    ],
                    "rotation": 90,
                    "texture": "#missing"
                }
            }
        },
        {
            "from": [
                7.71,
                11.1881,
                6.765
            ],
            "to": [
                8.31,
                11.3781,
                6.845
            ],
            "rotation": {
                "angle": 45,
                "axis": "x",
                "origin": [
                    7.82,
                    11.2831,
                    6.805
                ]
            },
            "color": 6,
            "faces": {
                "north": {
                    "uv": [
                        6,
                        0.66667,
                        7.66667,
                        1.66667
                    ],
                    "rotation": 90,
                    "texture": "#missing"
                },
                "east": {
                    "uv": [
                        6,
                        0.66667,
                        7.66667,
                        1.66667
                    ],
                    "rotation": 90,
                    "texture": "#missing"
                },
                "south": {
                    "uv": [
                        6,
                        0.66667,
                        7.66667,
                        1.66667
                    ],
                    "rotation": 90,
                    "texture": "#missing"
                },
                "west": {
                    "uv": [
                        6,
                        0.66667,
                        7.66667,
                        1.66667
                    ],
                    "rotation": 90,
                    "texture": "#missing"
                },
                "up": {
                    "uv": [
                        6,
                        0.66667,
                        7.66667,
                        1.66667
                    ],
                    "rotation": 90,
                    "texture": "#missing"
                },
                "down": {
                    "uv": [
                        6,
                        0.66667,
                        7.66667,
                        1.66667
                    ],
                    "rotation": 90,
                    "texture": "#missing"
                }
            }
        },
        {
            "from": [
                7.71,
                11.1881,
                6.765
            ],
            "to": [
                8.31,
                11.3781,
                6.845
            ],
            "rotation": {
                "angle": 0,
                "axis": "y",
                "origin": [
                    7.82,
                    11.2831,
                    6.805
                ]
            },
            "color": 0,
            "faces": {
                "north": {
                    "uv": [
                        6,
                        0.66667,
                        7.66667,
                        1.66667
                    ],
                    "rotation": 90,
                    "texture": "#missing"
                },
                "east": {
                    "uv": [
                        6,
                        0.66667,
                        7.66667,
                        1.66667
                    ],
                    "rotation": 90,
                    "texture": "#missing"
                },
                "south": {
                    "uv": [
                        6,
                        0.66667,
                        7.66667,
                        1.66667
                    ],
                    "rotation": 90,
                    "texture": "#missing"
                },
                "west": {
                    "uv": [
                        6,
                        0.66667,
                        7.66667,
                        1.66667
                    ],
                    "rotation": 90,
                    "texture": "#missing"
                },
                "up": {
                    "uv": [
                        6,
                        0.66667,
                        7.66667,
                        1.66667
                    ],
                    "rotation": 90,
                    "texture": "#missing"
                },
                "down": {
                    "uv": [
                        6,
                        0.66667,
                        7.66667,
                        1.66667
                    ],
                    "rotation": 90,
                    "texture": "#missing"
                }
            }
        }
    ],
    "display": {
        "thirdperson_righthand": {
            "translation": [
                0,
                -2.75,
                2.5
            ],
            "scale": [
                1.6,
                1.6,
                1.6
            ]
        },
        "thirdperson_lefthand": {
            "translation": [
                0,
                -2.75,
                2.5
            ],
            "scale": [
                1.6,
                1.6,
                1.6
            ]
        },
        "firstperson_righthand": {
            "translation": [
                3,
                -2,
                -0.75
            ],
            "scale": [
                2,
                2,
                2
            ]
        },
        "firstperson_lefthand": {
            "translation": [
                3,
                -2,
                -0.75
            ],
            "scale": [
                2,
                2,
                2
            ]
        },
        "ground": {
            "rotation": [
                0,
                0,
                -90
            ],
            "translation": [
                -2.75,
                -1.5,
                2.75
            ],
            "scale": [
                2,
                2,
                2
            ]
        },
        "gui": {
            "rotation": [
                8,
                123,
                3
            ],
            "translation": [
                3.25,
                -3.75,
                0
            ],
            "scale": [
                2.3,
                2.3,
                2.3
            ]
        },
        "head": {
            "rotation": [
                0,
                90,
                90
            ],
            "translation": [
                6,
                7.25,
                -4
            ],
            "scale": [
                3,
                3,
                3
            ]
        },
        "fixed": {
            "rotation": [
                90,
                45,
                -90
            ],
            "translation": [
                -0.5,
                -4,
                -1.5
            ],
            "scale": [
                1.6,
                1.6,
                1.6
            ]
        }
    }
}