{
    "textures": {
        "0": "gci:items/common/mpz",
        "1": "gci:items/common/all_in_one",
        "particle": "gci:items/common/mpz"
    },
    "elements": [
        {
            "from": [
                7.2047,
                7.9354,
                -9.6679
            ],
            "to": [
                7.4047,
                8.0679,
                -5.3679
            ],
            "rotation": {
                "angle": 0,
                "axis": "y",
                "origin": [
                    7.5172,
                    8.0354,
                    -6.4179
                ]
            },
            "faces": {
                "north": {
                    "uv": [
                        3,
                        5,
                        4.66667,
                        3
                    ],
                    "rotation": 90,
                    "texture": "#0"
                },
                "east": {
                    "uv": [
                        3,
                        5,
                        4.66667,
                        3
                    ],
                    "rotation": 90,
                    "texture": "#0"
                },
                "south": {
                    "uv": [
                        3,
                        5,
                        4.66667,
                        3
                    ],
                    "rotation": 90,
                    "texture": "#0"
                },
                "west": {
                    "uv": [
                        3,
                        5,
                        4.66667,
                        3
                    ],
                    "rotation": 90,
                    "texture": "#0"
                },
                "up": {
                    "uv": [
                        3,
                        5,
                        4.66667,
                        3
                    ],
                    "rotation": 90,
                    "texture": "#0"
                },
                "down": {
                    "uv": [
                        3,
                        5,
                        4.66667,
                        3
                    ],
                    "rotation": 90,
                    "texture": "#0"
                }
            }
        },
        {
            "from": [
                7.0047,
                7.9354,
                -7.4679
            ],
            "to": [
                7.2047,
                8.0679,
                -5.3679
            ],
            "rotation": {
                "angle": 0,
                "axis": "y",
                "origin": [
                    7.3172,
                    8.0354,
                    -6.4179
                ]
            },
            "faces": {
                "north": {
                    "uv": [
                        13.66667,
                        2,
                        15.33333,
                        0
                    ],
                    "rotation": 90,
                    "texture": "#0"
                },
                "east": {
                    "uv": [
                        13.66667,
                        2,
                        15.33333,
                        0
                    ],
                    "rotation": 90,
                    "texture": "#0"
                },
                "south": {
                    "uv": [
                        13.66667,
                        2,
                        15.33333,
                        0
                    ],
                    "rotation": 90,
                    "texture": "#0"
                },
                "west": {
                    "uv": [
                        13.66667,
                        2,
                        15.33333,
                        0
                    ],
                    "rotation": 90,
                    "texture": "#0"
                },
                "up": {
                    "uv": [
                        13.66667,
                        2,
                        15.33333,
                        0
                    ],
                    "rotation": 90,
                    "texture": "#0"
                },
                "down": {
                    "uv": [
                        13.66667,
                        2,
                        15.33333,
                        0
                    ],
                    "rotation": 90,
                    "texture": "#0"
                }
            }
        },
        {
            "from": [
                6.8047,
                7.9354,
                -9.6679
            ],
            "to": [
                7.0047,
                8.0679,
                -5.3679
            ],
            "rotation": {
                "angle": 0,
                "axis": "y",
                "origin": [
                    7.1172,
                    8.0354,
                    -6.4179
                ]
            },
            "faces": {
                "north": {
                    "uv": [
                        3,
                        5,
                        4.66667,
                        3
                    ],
                    "rotation": 90,
                    "texture": "#0"
                },
                "east": {
                    "uv": [
                        3,
                        5,
                        4.66667,
                        3
                    ],
                    "rotation": 90,
                    "texture": "#0"
                },
                "south": {
                    "uv": [
                        3,
                        5,
                        4.66667,
                        3
                    ],
                    "rotation": 90,
                    "texture": "#0"
                },
                "west": {
                    "uv": [
                        3,
                        5,
                        4.66667,
                        3
                    ],
                    "rotation": 90,
                    "texture": "#0"
                },
                "up": {
                    "uv": [
                        3,
                        5,
                        4.66667,
                        3
                    ],
                    "rotation": 90,
                    "texture": "#0"
                },
                "down": {
                    "uv": [
                        3,
                        5,
                        4.66667,
                        3
                    ],
                    "rotation": 90,
                    "texture": "#0"
                }
            }
        },
        {
            "from": [
                7.0047,
                7.9504,
                -9.8679
            ],
            "to": [
                7.2047,
                8.0504,
                -7.4679
            ],
            "rotation": {
                "angle": 0,
                "axis": "y",
                "origin": [
                    7.3172,
                    8.0354,
                    -6.4179
                ]
            },
            "faces": {
                "north": {
                    "uv": [
                        6,
                        4.66667,
                        7.66667,
                        2.66667
                    ],
                    "rotation": 90,
                    "texture": "#0"
                },
                "east": {
                    "uv": [
                        6,
                        4.66667,
                        7.66667,
                        2.66667
                    ],
                    "rotation": 90,
                    "texture": "#0"
                },
                "south": {
                    "uv": [
                        6,
                        4.66667,
                        7.66667,
                        2.66667
                    ],
                    "rotation": 90,
                    "texture": "#0"
                },
                "west": {
                    "uv": [
                        6,
                        4.66667,
                        7.66667,
                        2.66667
                    ],
                    "rotation": 90,
                    "texture": "#0"
                },
                "up": {
                    "uv": [
                        6,
                        4.66667,
                        7.66667,
                        2.66667
                    ],
                    "rotation": 90,
                    "texture": "#0"
                },
                "down": {
                    "uv": [
                        6,
                        4.66667,
                        7.66667,
                        2.66667
                    ],
                    "rotation": 90,
                    "texture": "#0"
                }
            }
        },
        {
            "from": [
                7.09751,
                7.9354,
                -10.1068
            ],
            "to": [
                7.29751,
                8.0679,
                -9.6068
            ],
            "rotation": {
                "angle": 22.5,
                "axis": "y",
                "origin": [
                    7.19751,
                    8.00165,
                    -9.9068
                ]
            },
            "faces": {
                "north": {
                    "uv": [
                        3,
                        5,
                        4.66667,
                        3
                    ],
                    "rotation": 90,
                    "texture": "#0"
                },
                "east": {
                    "uv": [
                        3,
                        5,
                        4.66667,
                        3
                    ],
                    "rotation": 90,
                    "texture": "#0"
                },
                "south": {
                    "uv": [
                        3,
                        5,
                        4.66667,
                        3
                    ],
                    "rotation": 90,
                    "texture": "#0"
                },
                "west": {
                    "uv": [
                        3,
                        5,
                        4.66667,
                        3
                    ],
                    "rotation": 90,
                    "texture": "#0"
                },
                "up": {
                    "uv": [
                        3,
                        5,
                        4.66667,
                        3
                    ],
                    "rotation": 90,
                    "texture": "#0"
                },
                "down": {
                    "uv": [
                        3,
                        5,
                        4.66667,
                        3
                    ],
                    "rotation": 90,
                    "texture": "#0"
                }
            }
        },
        {
            "from": [
                6.91189,
                7.9354,
                -10.1068
            ],
            "to": [
                7.11189,
                8.0679,
                -9.6068
            ],
            "rotation": {
                "angle": -22.5,
                "axis": "y",
                "origin": [
                    7.01189,
                    8.00165,
                    -9.9068
                ]
            },
            "faces": {
                "north": {
                    "uv": [
                        3,
                        5,
                        4.66667,
                        3
                    ],
                    "rotation": 90,
                    "texture": "#0"
                },
                "east": {
                    "uv": [
                        3,
                        5,
                        4.66667,
                        3
                    ],
                    "rotation": 90,
                    "texture": "#0"
                },
                "south": {
                    "uv": [
                        3,
                        5,
                        4.66667,
                        3
                    ],
                    "rotation": 90,
                    "texture": "#0"
                },
                "west": {
                    "uv": [
                        3,
                        5,
                        4.66667,
                        3
                    ],
                    "rotation": 90,
                    "texture": "#0"
                },
                "up": {
                    "uv": [
                        3,
                        5,
                        4.66667,
                        3
                    ],
                    "rotation": 90,
                    "texture": "#0"
                },
                "down": {
                    "uv": [
                        3,
                        5,
                        4.66667,
                        3
                    ],
                    "rotation": 90,
                    "texture": "#0"
                }
            }
        },
        {
            "from": [
                6.8984,
                7.9354,
                -10.17243
            ],
            "to": [
                7.0524,
                8.0679,
                -10.01843
            ],
            "rotation": {
                "angle": 45,
                "axis": "y",
                "origin": [
                    6.9984,
                    8.00165,
                    -10.26843
                ]
            },
            "faces": {
                "north": {
                    "uv": [
                        3,
                        5,
                        4.66667,
                        3
                    ],
                    "rotation": 90,
                    "texture": "#0"
                },
                "east": {
                    "uv": [
                        3,
                        5,
                        4.66667,
                        3
                    ],
                    "rotation": 90,
                    "texture": "#0"
                },
                "south": {
                    "uv": [
                        3,
                        5,
                        4.66667,
                        3
                    ],
                    "rotation": 90,
                    "texture": "#0"
                },
                "west": {
                    "uv": [
                        3,
                        5,
                        4.66667,
                        3
                    ],
                    "rotation": 90,
                    "texture": "#0"
                },
                "up": {
                    "uv": [
                        3,
                        5,
                        4.66667,
                        3
                    ],
                    "rotation": 90,
                    "texture": "#0"
                },
                "down": {
                    "uv": [
                        3,
                        5,
                        4.66667,
                        3
                    ],
                    "rotation": 90,
                    "texture": "#0"
                }
            }
        },
        {
            "from": [
                6.8047,
                7.8354,
                -5.2679
            ],
            "to": [
                7.3297,
                8.1679,
                -2.9679
            ],
            "rotation": {
                "angle": 0,
                "axis": "y",
                "origin": [
                    7.4172,
                    8.0354,
                    -4.0179
                ]
            },
            "faces": {
                "north": {
                    "uv": [
                        5.66667,
                        2.33333,
                        7.33333,
                        0.33333
                    ],
                    "rotation": 90,
                    "texture": "#0"
                },
                "east": {
                    "uv": [
                        5.66667,
                        2.33333,
                        7.33333,
                        0.33333
                    ],
                    "rotation": 90,
                    "texture": "#0"
                },
                "south": {
                    "uv": [
                        5.66667,
                        2.33333,
                        7.33333,
                        0.33333
                    ],
                    "rotation": 90,
                    "texture": "#0"
                },
                "west": {
                    "uv": [
                        5.66667,
                        2.33333,
                        7.33333,
                        0.33333
                    ],
                    "rotation": 90,
                    "texture": "#0"
                },
                "up": {
                    "uv": [
                        5.66667,
                        2.33333,
                        7.33333,
                        0.33333
                    ],
                    "rotation": 90,
                    "texture": "#0"
                },
                "down": {
                    "uv": [
                        5.66667,
                        2.33333,
                        7.33333,
                        0.33333
                    ],
                    "rotation": 90,
                    "texture": "#0"
                }
            }
        },
        {
            "from": [
                6.8047,
                8.04719,
                -3.0179
            ],
            "to": [
                7.3297,
                8.14719,
                -2.9179
            ],
            "rotation": {
                "angle": -45,
                "axis": "x",
                "origin": [
                    7.0672,
                    8.09719,
                    -2.9679
                ]
            },
            "faces": {
                "north": {
                    "uv": [
                        5.66667,
                        2.33333,
                        7.33333,
                        0.33333
                    ],
                    "rotation": 90,
                    "texture": "#0"
                },
                "east": {
                    "uv": [
                        5.66667,
                        2.33333,
                        7.33333,
                        0.33333
                    ],
                    "rotation": 90,
                    "texture": "#0"
                },
                "south": {
                    "uv": [
                        5.66667,
                        2.33333,
                        7.33333,
                        0.33333
                    ],
                    "rotation": 90,
                    "texture": "#0"
                },
                "west": {
                    "uv": [
                        5.66667,
                        2.33333,
                        7.33333,
                        0.33333
                    ],
                    "rotation": 90,
                    "texture": "#0"
                },
                "up": {
                    "uv": [
                        5.66667,
                        2.33333,
                        7.33333,
                        0.33333
                    ],
                    "rotation": 90,
                    "texture": "#0"
                },
                "down": {
                    "uv": [
                        5.66667,
                        2.33333,
                        7.33333,
                        0.33333
                    ],
                    "rotation": 90,
                    "texture": "#0"
                }
            }
        },
        {
            "from": [
                6.8047,
                7.85611,
                -3.0179
            ],
            "to": [
                7.3297,
                7.95611,
                -2.9179
            ],
            "rotation": {
                "angle": -45,
                "axis": "x",
                "origin": [
                    7.0672,
                    7.90611,
                    -2.9679
                ]
            },
            "faces": {
                "north": {
                    "uv": [
                        5.66667,
                        2.33333,
                        7.33333,
                        0.33333
                    ],
                    "rotation": 90,
                    "texture": "#0"
                },
                "east": {
                    "uv": [
                        5.66667,
                        2.33333,
                        7.33333,
                        0.33333
                    ],
                    "rotation": 90,
                    "texture": "#0"
                },
                "south": {
                    "uv": [
                        5.66667,
                        2.33333,
                        7.33333,
                        0.33333
                    ],
                    "rotation": 90,
                    "texture": "#0"
                },
                "west": {
                    "uv": [
                        5.66667,
                        2.33333,
                        7.33333,
                        0.33333
                    ],
                    "rotation": 90,
                    "texture": "#0"
                },
                "up": {
                    "uv": [
                        5.66667,
                        2.33333,
                        7.33333,
                        0.33333
                    ],
                    "rotation": 90,
                    "texture": "#0"
                },
                "down": {
                    "uv": [
                        5.66667,
                        2.33333,
                        7.33333,
                        0.33333
                    ],
                    "rotation": 90,
                    "texture": "#0"
                }
            }
        },
        {
            "from": [
                7.2547,
                7.86647,
                -5.2679
            ],
            "to": [
                7.3547,
                7.96647,
                -2.9679
            ],
            "rotation": {
                "angle": 45,
                "axis": "z",
                "origin": [
                    7.3297,
                    7.94147,
                    -4.1179
                ]
            },
            "faces": {
                "north": {
                    "uv": [
                        5.66667,
                        2.33333,
                        7.33333,
                        0.33333
                    ],
                    "rotation": 90,
                    "texture": "#0"
                },
                "east": {
                    "uv": [
                        5.66667,
                        2.33333,
                        7.33333,
                        0.33333
                    ],
                    "rotation": 90,
                    "texture": "#0"
                },
                "south": {
                    "uv": [
                        5.66667,
                        2.33333,
                        7.33333,
                        0.33333
                    ],
                    "rotation": 90,
                    "texture": "#0"
                },
                "west": {
                    "uv": [
                        5.66667,
                        2.33333,
                        7.33333,
                        0.33333
                    ],
                    "rotation": 90,
                    "texture": "#0"
                },
                "up": {
                    "uv": [
                        5.66667,
                        2.33333,
                        7.33333,
                        0.33333
                    ],
                    "rotation": 90,
                    "texture": "#0"
                },
                "down": {
                    "uv": [
                        5.66667,
                        2.33333,
                        7.33333,
                        0.33333
                    ],
                    "rotation": 90,
                    "texture": "#0"
                }
            }
        },
        {
            "from": [
                7.30041,
                7.90611,
                -5.2679
            ],
            "to": [
                7.40041,
                8.09611,
                -2.9679
            ],
            "rotation": {
                "angle": 0,
                "axis": "y",
                "origin": [
                    7.35041,
                    7.95611,
                    -4.1179
                ]
            },
            "faces": {
                "north": {
                    "uv": [
                        5.66667,
                        2.33333,
                        7.33333,
                        0.33333
                    ],
                    "rotation": 270,
                    "texture": "#0"
                },
                "east": {
                    "uv": [
                        5.66667,
                        2.33333,
                        7.33333,
                        0.33333
                    ],
                    "rotation": 270,
                    "texture": "#0"
                },
                "south": {
                    "uv": [
                        5.66667,
                        2.33333,
                        7.33333,
                        0.33333
                    ],
                    "rotation": 270,
                    "texture": "#0"
                },
                "west": {
                    "uv": [
                        5.66667,
                        2.33333,
                        7.33333,
                        0.33333
                    ],
                    "rotation": 270,
                    "texture": "#0"
                },
                "up": {
                    "uv": [
                        5.66667,
                        2.33333,
                        7.33333,
                        0.33333
                    ],
                    "rotation": 270,
                    "texture": "#0"
                },
                "down": {
                    "uv": [
                        5.66667,
                        2.33333,
                        7.33333,
                        0.33333
                    ],
                    "rotation": 270,
                    "texture": "#0"
                }
            }
        },
        {
            "from": [
                6.8047,
                7.90719,
                -2.99719
            ],
            "to": [
                7.3297,
                8.09719,
                -2.89719
            ],
            "rotation": {
                "angle": 0,
                "axis": "y",
                "origin": [
                    7.2547,
                    7.95719,
                    -4.04719
                ]
            },
            "faces": {
                "north": {
                    "uv": [
                        5.66667,
                        2.33333,
                        7.33333,
                        0.33333
                    ],
                    "rotation": 270,
                    "texture": "#0"
                },
                "east": {
                    "uv": [
                        5.66667,
                        2.33333,
                        7.33333,
                        0.33333
                    ],
                    "rotation": 270,
                    "texture": "#0"
                },
                "south": {
                    "uv": [
                        5.66667,
                        2.33333,
                        7.33333,
                        0.33333
                    ],
                    "rotation": 270,
                    "texture": "#0"
                },
                "west": {
                    "uv": [
                        5.66667,
                        2.33333,
                        7.33333,
                        0.33333
                    ],
                    "rotation": 270,
                    "texture": "#0"
                },
                "up": {
                    "uv": [
                        5.66667,
                        2.33333,
                        7.33333,
                        0.33333
                    ],
                    "rotation": 270,
                    "texture": "#0"
                },
                "down": {
                    "uv": [
                        5.66667,
                        2.33333,
                        7.33333,
                        0.33333
                    ],
                    "rotation": 270,
                    "texture": "#0"
                }
            }
        },
        {
            "from": [
                7.2797,
                7.90611,
                -3.0179
            ],
            "to": [
                7.3797,
                8.09611,
                -2.9179
            ],
            "rotation": {
                "angle": 45,
                "axis": "y",
                "origin": [
                    7.3297,
                    8.00111,
                    -2.9679
                ]
            },
            "faces": {
                "north": {
                    "uv": [
                        5.66667,
                        2.33333,
                        7.33333,
                        0.33333
                    ],
                    "rotation": 270,
                    "texture": "#0"
                },
                "east": {
                    "uv": [
                        5.66667,
                        2.33333,
                        7.33333,
                        0.33333
                    ],
                    "rotation": 270,
                    "texture": "#0"
                },
                "south": {
                    "uv": [
                        5.66667,
                        2.33333,
                        7.33333,
                        0.33333
                    ],
                    "rotation": 270,
                    "texture": "#0"
                },
                "west": {
                    "uv": [
                        5.66667,
                        2.33333,
                        7.33333,
                        0.33333
                    ],
                    "rotation": 270,
                    "texture": "#0"
                },
                "up": {
                    "uv": [
                        5.66667,
                        2.33333,
                        7.33333,
                        0.33333
                    ],
                    "rotation": 270,
                    "texture": "#0"
                },
                "down": {
                    "uv": [
                        5.66667,
                        2.33333,
                        7.33333,
                        0.33333
                    ],
                    "rotation": 270,
                    "texture": "#0"
                }
            }
        },
        {
            "from": [
                6.66441,
                7.71411,
                -4.5719
            ],
            "to": [
                7.92041,
                8.32011,
                -3.6399
            ],
            "rotation": {
                "angle": 0,
                "axis": "y",
                "origin": [
                    7.45041,
                    8.00111,
                    -3.7859
                ]
            },
            "faces": {
                "north": {
                    "uv": [
                        7.33333,
                        0.33333,
                        5.66667,
                        2.33333
                    ],
                    "rotation": 180,
                    "texture": "#0"
                },
                "east": {
                    "uv": [
                        7.33333,
                        0.33333,
                        5.66667,
                        2.33333
                    ],
                    "rotation": 180,
                    "texture": "#0"
                },
                "south": {
                    "uv": [
                        7.33333,
                        0.33333,
                        5.66667,
                        2.33333
                    ],
                    "rotation": 180,
                    "texture": "#0"
                },
                "west": {
                    "uv": [
                        7.33333,
                        0.33333,
                        5.66667,
                        2.33333
                    ],
                    "rotation": 180,
                    "texture": "#0"
                },
                "up": {
                    "uv": [
                        7.33333,
                        0.33333,
                        5.66667,
                        2.33333
                    ],
                    "rotation": 180,
                    "texture": "#0"
                },
                "down": {
                    "uv": [
                        7.33333,
                        0.33333,
                        5.66667,
                        2.33333
                    ],
                    "rotation": 180,
                    "texture": "#0"
                }
            }
        },
        {
            "from": [
                7.56041,
                7.68211,
                -4.5079
            ],
            "to": [
                7.66441,
                8.35211,
                -4.4079
            ],
            "rotation": {
                "angle": -45,
                "axis": "y",
                "origin": [
                    7.56441,
                    8.01711,
                    -4.4099
                ]
            },
            "faces": {
                "north": {
                    "uv": [
                        7.33333,
                        3,
                        5.66667,
                        5
                    ],
                    "rotation": 180,
                    "texture": "#0"
                },
                "east": {
                    "uv": [
                        7.33333,
                        3,
                        5.66667,
                        5
                    ],
                    "rotation": 180,
                    "texture": "#0"
                },
                "south": {
                    "uv": [
                        7.33333,
                        3,
                        5.66667,
                        5
                    ],
                    "rotation": 180,
                    "texture": "#0"
                },
                "west": {
                    "uv": [
                        7.33333,
                        3,
                        5.66667,
                        5
                    ],
                    "rotation": 180,
                    "texture": "#0"
                },
                "up": {
                    "uv": [
                        7.33333,
                        3,
                        5.66667,
                        5
                    ],
                    "rotation": 180,
                    "texture": "#0"
                },
                "down": {
                    "uv": [
                        7.33333,
                        3,
                        5.66667,
                        5
                    ],
                    "rotation": 180,
                    "texture": "#0"
                }
            }
        },
        {
            "from": [
                7.56041,
                7.68211,
                -3.8679
            ],
            "to": [
                7.66441,
                8.35211,
                -3.7679
            ],
            "rotation": {
                "angle": -45,
                "axis": "y",
                "origin": [
                    7.56441,
                    8.01711,
                    -3.7699
                ]
            },
            "faces": {
                "north": {
                    "uv": [
                        7.33333,
                        3,
                        5.66667,
                        5
                    ],
                    "rotation": 180,
                    "texture": "#0"
                },
                "east": {
                    "uv": [
                        7.33333,
                        3,
                        5.66667,
                        5
                    ],
                    "rotation": 180,
                    "texture": "#0"
                },
                "south": {
                    "uv": [
                        7.33333,
                        3,
                        5.66667,
                        5
                    ],
                    "rotation": 180,
                    "texture": "#0"
                },
                "west": {
                    "uv": [
                        7.33333,
                        3,
                        5.66667,
                        5
                    ],
                    "rotation": 180,
                    "texture": "#0"
                },
                "up": {
                    "uv": [
                        7.33333,
                        3,
                        5.66667,
                        5
                    ],
                    "rotation": 180,
                    "texture": "#0"
                },
                "down": {
                    "uv": [
                        7.33333,
                        3,
                        5.66667,
                        5
                    ],
                    "rotation": 180,
                    "texture": "#0"
                }
            }
        },
        {
            "from": [
                6.7547,
                7.90719,
                -3.0179
            ],
            "to": [
                6.8547,
                8.09719,
                -2.9179
            ],
            "rotation": {
                "angle": 45,
                "axis": "y",
                "origin": [
                    6.8047,
                    8.00219,
                    -2.9679
                ]
            },
            "faces": {
                "north": {
                    "uv": [
                        5.66667,
                        2.33333,
                        7.33333,
                        0.33333
                    ],
                    "rotation": 270,
                    "texture": "#0"
                },
                "east": {
                    "uv": [
                        5.66667,
                        2.33333,
                        7.33333,
                        0.33333
                    ],
                    "rotation": 270,
                    "texture": "#0"
                },
                "south": {
                    "uv": [
                        5.66667,
                        2.33333,
                        7.33333,
                        0.33333
                    ],
                    "rotation": 270,
                    "texture": "#0"
                },
                "west": {
                    "uv": [
                        5.66667,
                        2.33333,
                        7.33333,
                        0.33333
                    ],
                    "rotation": 270,
                    "texture": "#0"
                },
                "up": {
                    "uv": [
                        5.66667,
                        2.33333,
                        7.33333,
                        0.33333
                    ],
                    "rotation": 270,
                    "texture": "#0"
                },
                "down": {
                    "uv": [
                        5.66667,
                        2.33333,
                        7.33333,
                        0.33333
                    ],
                    "rotation": 270,
                    "texture": "#0"
                }
            }
        },
        {
            "from": [
                6.73399,
                7.90611,
                -5.2679
            ],
            "to": [
                6.83399,
                8.09611,
                -2.9679
            ],
            "rotation": {
                "angle": 0,
                "axis": "y",
                "origin": [
                    6.78399,
                    7.95611,
                    -4.1179
                ]
            },
            "faces": {
                "north": {
                    "uv": [
                        5.66667,
                        2.33333,
                        7.33333,
                        0.33333
                    ],
                    "rotation": 270,
                    "texture": "#0"
                },
                "east": {
                    "uv": [
                        5.66667,
                        2.33333,
                        7.33333,
                        0.33333
                    ],
                    "rotation": 270,
                    "texture": "#0"
                },
                "south": {
                    "uv": [
                        5.66667,
                        2.33333,
                        7.33333,
                        0.33333
                    ],
                    "rotation": 270,
                    "texture": "#0"
                },
                "west": {
                    "uv": [
                        5.66667,
                        2.33333,
                        7.33333,
                        0.33333
                    ],
                    "rotation": 270,
                    "texture": "#0"
                },
                "up": {
                    "uv": [
                        5.66667,
                        2.33333,
                        7.33333,
                        0.33333
                    ],
                    "rotation": 270,
                    "texture": "#0"
                },
                "down": {
                    "uv": [
                        5.66667,
                        2.33333,
                        7.33333,
                        0.33333
                    ],
                    "rotation": 270,
                    "texture": "#0"
                }
            }
        },
        {
            "from": [
                7.2547,
                8.05754,
                -5.2679
            ],
            "to": [
                7.3547,
                8.15754,
                -2.9679
            ],
            "rotation": {
                "angle": 45,
                "axis": "z",
                "origin": [
                    7.3297,
                    8.13254,
                    -4.1179
                ]
            },
            "faces": {
                "north": {
                    "uv": [
                        5.66667,
                        2.33333,
                        7.33333,
                        0.33333
                    ],
                    "rotation": 90,
                    "texture": "#0"
                },
                "east": {
                    "uv": [
                        5.66667,
                        2.33333,
                        7.33333,
                        0.33333
                    ],
                    "rotation": 90,
                    "texture": "#0"
                },
                "south": {
                    "uv": [
                        5.66667,
                        2.33333,
                        7.33333,
                        0.33333
                    ],
                    "rotation": 90,
                    "texture": "#0"
                },
                "west": {
                    "uv": [
                        5.66667,
                        2.33333,
                        7.33333,
                        0.33333
                    ],
                    "rotation": 90,
                    "texture": "#0"
                },
                "up": {
                    "uv": [
                        5.66667,
                        2.33333,
                        7.33333,
                        0.33333
                    ],
                    "rotation": 90,
                    "texture": "#0"
                },
                "down": {
                    "uv": [
                        5.66667,
                        2.33333,
                        7.33333,
                        0.33333
                    ],
                    "rotation": 90,
                    "texture": "#0"
                }
            }
        },
        {
            "from": [
                6.7297,
                8.05754,
                -5.2679
            ],
            "to": [
                6.8297,
                8.15754,
                -2.9679
            ],
            "rotation": {
                "angle": 45,
                "axis": "z",
                "origin": [
                    6.8047,
                    8.13254,
                    -4.1179
                ]
            },
            "faces": {
                "north": {
                    "uv": [
                        5.66667,
                        2.33333,
                        7.33333,
                        0.33333
                    ],
                    "rotation": 90,
                    "texture": "#0"
                },
                "east": {
                    "uv": [
                        5.66667,
                        2.33333,
                        7.33333,
                        0.33333
                    ],
                    "rotation": 90,
                    "texture": "#0"
                },
                "south": {
                    "uv": [
                        5.66667,
                        2.33333,
                        7.33333,
                        0.33333
                    ],
                    "rotation": 90,
                    "texture": "#0"
                },
                "west": {
                    "uv": [
                        5.66667,
                        2.33333,
                        7.33333,
                        0.33333
                    ],
                    "rotation": 90,
                    "texture": "#0"
                },
                "up": {
                    "uv": [
                        5.66667,
                        2.33333,
                        7.33333,
                        0.33333
                    ],
                    "rotation": 90,
                    "texture": "#0"
                },
                "down": {
                    "uv": [
                        5.66667,
                        2.33333,
                        7.33333,
                        0.33333
                    ],
                    "rotation": 90,
                    "texture": "#0"
                }
            }
        },
        {
            "from": [
                6.7297,
                7.86647,
                -5.2679
            ],
            "to": [
                6.8297,
                7.96647,
                -2.9679
            ],
            "rotation": {
                "angle": 45,
                "axis": "z",
                "origin": [
                    6.8047,
                    7.94147,
                    -4.1179
                ]
            },
            "faces": {
                "north": {
                    "uv": [
                        5.66667,
                        2.33333,
                        7.33333,
                        0.33333
                    ],
                    "rotation": 90,
                    "texture": "#0"
                },
                "east": {
                    "uv": [
                        5.66667,
                        2.33333,
                        7.33333,
                        0.33333
                    ],
                    "rotation": 90,
                    "texture": "#0"
                },
                "south": {
                    "uv": [
                        5.66667,
                        2.33333,
                        7.33333,
                        0.33333
                    ],
                    "rotation": 90,
                    "texture": "#0"
                },
                "west": {
                    "uv": [
                        5.66667,
                        2.33333,
                        7.33333,
                        0.33333
                    ],
                    "rotation": 90,
                    "texture": "#0"
                },
                "up": {
                    "uv": [
                        5.66667,
                        2.33333,
                        7.33333,
                        0.33333
                    ],
                    "rotation": 90,
                    "texture": "#0"
                },
                "down": {
                    "uv": [
                        5.66667,
                        2.33333,
                        7.33333,
                        0.33333
                    ],
                    "rotation": 90,
                    "texture": "#0"
                }
            }
        },
        {
            "from": [
                6.5538,
                7.7354,
                -5.3679
            ],
            "to": [
                7.4788,
                8.2679,
                -5.2679
            ],
            "rotation": {
                "angle": 0,
                "axis": "y",
                "origin": [
                    7.5172,
                    8.0354,
                    -6.3179
                ]
            },
            "faces": {
                "north": {
                    "uv": [
                        5.66667,
                        2.33333,
                        7.33333,
                        0.33333
                    ],
                    "rotation": 90,
                    "texture": "#0"
                },
                "east": {
                    "uv": [
                        5.66667,
                        2.33333,
                        7.33333,
                        0.33333
                    ],
                    "rotation": 90,
                    "texture": "#0"
                },
                "south": {
                    "uv": [
                        5.66667,
                        2.33333,
                        7.33333,
                        0.33333
                    ],
                    "rotation": 90,
                    "texture": "#0"
                },
                "west": {
                    "uv": [
                        5.66667,
                        2.33333,
                        7.33333,
                        0.33333
                    ],
                    "rotation": 90,
                    "texture": "#0"
                },
                "up": {
                    "uv": [
                        5.66667,
                        2.33333,
                        7.33333,
                        0.33333
                    ],
                    "rotation": 90,
                    "texture": "#0"
                },
                "down": {
                    "uv": [
                        5.66667,
                        2.33333,
                        7.33333,
                        0.33333
                    ],
                    "rotation": 90,
                    "texture": "#0"
                }
            }
        },
        {
            "from": [
                5.9498,
                7.7354,
                -5.3679
            ],
            "to": [
                6.5858,
                8.2679,
                -5.2679
            ],
            "rotation": {
                "angle": 0,
                "axis": "y",
                "origin": [
                    6.9132,
                    8.0354,
                    -6.3179
                ]
            },
            "faces": {
                "north": {
                    "uv": [
                        5.66667,
                        2.33333,
                        7.33333,
                        0.33333
                    ],
                    "rotation": 90,
                    "texture": "#0"
                },
                "east": {
                    "uv": [
                        5.66667,
                        2.33333,
                        7.33333,
                        0.33333
                    ],
                    "rotation": 90,
                    "texture": "#0"
                },
                "south": {
                    "uv": [
                        5.66667,
                        2.33333,
                        7.33333,
                        0.33333
                    ],
                    "rotation": 90,
                    "texture": "#0"
                },
                "west": {
                    "uv": [
                        5.66667,
                        2.33333,
                        7.33333,
                        0.33333
                    ],
                    "rotation": 90,
                    "texture": "#0"
                },
                "up": {
                    "uv": [
                        5.66667,
                        2.33333,
                        7.33333,
                        0.33333
                    ],
                    "rotation": 90,
                    "texture": "#0"
                },
                "down": {
                    "uv": [
                        5.66667,
                        2.33333,
                        7.33333,
                        0.33333
                    ],
                    "rotation": 90,
                    "texture": "#0"
                }
            }
        }
    ],
    "display": {
        "thirdperson_righthand": {
            "translation": [
                -0.75,
                0.75,
                -1
            ]
        },
        "thirdperson_lefthand": {
            "translation": [
                -0.75,
                0.75,
                -1
            ]
        },
        "firstperson_righthand": {
            "translation": [
                -4.5,
                6,
                4.25
            ]
        },
        "firstperson_lefthand": {
            "translation": [
                -4.5,
                6,
                4.25
            ]
        },
        "ground": {
            "translation": [
                -0.5,
                5,
                6.25
            ]
        },
        "gui": {
            "rotation": [
                29,
                41,
                -29
            ],
            "translation": [
                2,
                0.5,
                0
            ]
        },
        "head": {
            "translation": [
                0,
                8.25,
                0
            ]
        },
        "fixed": {
            "rotation": [
                90,
                45,
                -90
            ],
            "translation": [
                3.5,
                -1.25,
                -1.5
            ],
            "scale": [
                1.32,
                1.32,
                1.32
            ]
        }
    }
}