{
    "textures": {
        "0": "gci:items/common/mpz",
        "1": "gci:items/common/all_in_one",
        "particle": "gci:items/common/mpz"
    },
    "elements": [
        {
            "from": [
                7.91494,
                7.1148,
                -3.43068
            ],
            "to": [
                8.08594,
                7.1718,
                -2.63268
            ],
            "rotation": {
                "angle": 0,
                "axis": "y",
                "origin": [
                    7.94995,
                    7.1433,
                    -2.73236
                ]
            },
            "faces": {
                "north": {
                    "uv": [
                        6,
                        3.33333,
                        7,
                        4.66667
                    ],
                    "rotation": 90,
                    "texture": "#0"
                },
                "east": {
                    "uv": [
                        6,
                        3.33333,
                        7,
                        4.66667
                    ],
                    "rotation": 90,
                    "texture": "#0"
                },
                "south": {
                    "uv": [
                        6,
                        3.33333,
                        7,
                        4.66667
                    ],
                    "rotation": 90,
                    "texture": "#0"
                },
                "west": {
                    "uv": [
                        6,
                        3.33333,
                        7,
                        4.66667
                    ],
                    "rotation": 90,
                    "texture": "#0"
                },
                "up": {
                    "uv": [
                        6,
                        3.33333,
                        7,
                        4.66667
                    ],
                    "rotation": 90,
                    "texture": "#0"
                },
                "down": {
                    "uv": [
                        6,
                        3.33333,
                        7,
                        4.66667
                    ],
                    "rotation": 90,
                    "texture": "#0"
                }
            }
        },
        {
            "from": [
                7.89214,
                7.17178,
                -3.08868
            ],
            "to": [
                8.10874,
                7.22878,
                -2.97468
            ],
            "rotation": {
                "angle": 0,
                "axis": "y",
                "origin": [
                    7.94995,
                    7.1433,
                    -2.96036
                ]
            },
            "faces": {
                "north": {
                    "uv": [
                        6,
                        3.33333,
                        7,
                        4.66667
                    ],
                    "rotation": 90,
                    "texture": "#0"
                },
                "east": {
                    "uv": [
                        6,
                        3.33333,
                        7,
                        4.66667
                    ],
                    "rotation": 90,
                    "texture": "#0"
                },
                "south": {
                    "uv": [
                        6,
                        3.33333,
                        7,
                        4.66667
                    ],
                    "rotation": 90,
                    "texture": "#0"
                },
                "west": {
                    "uv": [
                        6,
                        3.33333,
                        7,
                        4.66667
                    ],
                    "rotation": 90,
                    "texture": "#0"
                },
                "up": {
                    "uv": [
                        6,
                        3.33333,
                        7,
                        4.66667
                    ],
                    "rotation": 90,
                    "texture": "#0"
                },
                "down": {
                    "uv": [
                        6,
                        3.33333,
                        7,
                        4.66667
                    ],
                    "rotation": 90,
                    "texture": "#0"
                }
            }
        },
        {
            "from": [
                7.89214,
                6.70586,
                -3.08868
            ],
            "to": [
                8.10874,
                6.76286,
                -2.97468
            ],
            "rotation": {
                "angle": 0,
                "axis": "y",
                "origin": [
                    7.94995,
                    6.67738,
                    -2.96036
                ]
            },
            "faces": {
                "north": {
                    "uv": [
                        6,
                        3.33333,
                        7,
                        4.66667
                    ],
                    "rotation": 90,
                    "texture": "#0"
                },
                "east": {
                    "uv": [
                        6,
                        3.33333,
                        7,
                        4.66667
                    ],
                    "rotation": 90,
                    "texture": "#0"
                },
                "south": {
                    "uv": [
                        6,
                        3.33333,
                        7,
                        4.66667
                    ],
                    "rotation": 90,
                    "texture": "#0"
                },
                "west": {
                    "uv": [
                        6,
                        3.33333,
                        7,
                        4.66667
                    ],
                    "rotation": 90,
                    "texture": "#0"
                },
                "up": {
                    "uv": [
                        6,
                        3.33333,
                        7,
                        4.66667
                    ],
                    "rotation": 90,
                    "texture": "#0"
                },
                "down": {
                    "uv": [
                        6,
                        3.33333,
                        7,
                        4.66667
                    ],
                    "rotation": 90,
                    "texture": "#0"
                }
            }
        },
        {
            "from": [
                8.2049,
                6.85902,
                -3.08868
            ],
            "to": [
                8.2619,
                7.07562,
                -2.97468
            ],
            "rotation": {
                "angle": 0,
                "axis": "y",
                "origin": [
                    8.29038,
                    6.91113,
                    -2.96036
                ]
            },
            "faces": {
                "north": {
                    "uv": [
                        6,
                        3.33333,
                        7,
                        4.66667
                    ],
                    "rotation": 180,
                    "texture": "#0"
                },
                "east": {
                    "uv": [
                        6,
                        3.33333,
                        7,
                        4.66667
                    ],
                    "rotation": 180,
                    "texture": "#0"
                },
                "south": {
                    "uv": [
                        6,
                        3.33333,
                        7,
                        4.66667
                    ],
                    "rotation": 180,
                    "texture": "#0"
                },
                "west": {
                    "uv": [
                        6,
                        3.33333,
                        7,
                        4.66667
                    ],
                    "rotation": 180,
                    "texture": "#0"
                },
                "up": {
                    "uv": [
                        6,
                        3.33333,
                        7,
                        4.66667
                    ],
                    "rotation": 180,
                    "texture": "#0"
                },
                "down": {
                    "uv": [
                        6,
                        3.33333,
                        7,
                        4.66667
                    ],
                    "rotation": 180,
                    "texture": "#0"
                }
            }
        },
        {
            "from": [
                7.73898,
                6.85902,
                -3.08868
            ],
            "to": [
                7.79598,
                7.07562,
                -2.97468
            ],
            "rotation": {
                "angle": 0,
                "axis": "y",
                "origin": [
                    7.82446,
                    6.91113,
                    -2.96036
                ]
            },
            "faces": {
                "north": {
                    "uv": [
                        6,
                        3.33333,
                        7,
                        4.66667
                    ],
                    "rotation": 180,
                    "texture": "#0"
                },
                "east": {
                    "uv": [
                        6,
                        3.33333,
                        7,
                        4.66667
                    ],
                    "rotation": 180,
                    "texture": "#0"
                },
                "south": {
                    "uv": [
                        6,
                        3.33333,
                        7,
                        4.66667
                    ],
                    "rotation": 180,
                    "texture": "#0"
                },
                "west": {
                    "uv": [
                        6,
                        3.33333,
                        7,
                        4.66667
                    ],
                    "rotation": 180,
                    "texture": "#0"
                },
                "up": {
                    "uv": [
                        6,
                        3.33333,
                        7,
                        4.66667
                    ],
                    "rotation": 180,
                    "texture": "#0"
                },
                "down": {
                    "uv": [
                        6,
                        3.33333,
                        7,
                        4.66667
                    ],
                    "rotation": 180,
                    "texture": "#0"
                }
            }
        },
        {
            "from": [
                7.78416,
                7.0805,
                -3.08868
            ],
            "to": [
                8.00076,
                7.1375,
                -2.97468
            ],
            "rotation": {
                "angle": 45,
                "axis": "z",
                "origin": [
                    7.83627,
                    7.05202,
                    -2.96036
                ]
            },
            "faces": {
                "north": {
                    "uv": [
                        6,
                        3.33333,
                        7,
                        4.66667
                    ],
                    "rotation": 90,
                    "texture": "#0"
                },
                "east": {
                    "uv": [
                        6,
                        3.33333,
                        7,
                        4.66667
                    ],
                    "rotation": 90,
                    "texture": "#0"
                },
                "south": {
                    "uv": [
                        6,
                        3.33333,
                        7,
                        4.66667
                    ],
                    "rotation": 90,
                    "texture": "#0"
                },
                "west": {
                    "uv": [
                        6,
                        3.33333,
                        7,
                        4.66667
                    ],
                    "rotation": 90,
                    "texture": "#0"
                },
                "up": {
                    "uv": [
                        6,
                        3.33333,
                        7,
                        4.66667
                    ],
                    "rotation": 90,
                    "texture": "#0"
                },
                "down": {
                    "uv": [
                        6,
                        3.33333,
                        7,
                        4.66667
                    ],
                    "rotation": 90,
                    "texture": "#0"
                }
            }
        },
        {
            "from": [
                8.11361,
                6.75105,
                -3.08868
            ],
            "to": [
                8.33021,
                6.80805,
                -2.97468
            ],
            "rotation": {
                "angle": 45,
                "axis": "z",
                "origin": [
                    8.16572,
                    6.72257,
                    -2.96036
                ]
            },
            "faces": {
                "north": {
                    "uv": [
                        6,
                        3.33333,
                        7,
                        4.66667
                    ],
                    "rotation": 90,
                    "texture": "#0"
                },
                "east": {
                    "uv": [
                        6,
                        3.33333,
                        7,
                        4.66667
                    ],
                    "rotation": 90,
                    "texture": "#0"
                },
                "south": {
                    "uv": [
                        6,
                        3.33333,
                        7,
                        4.66667
                    ],
                    "rotation": 90,
                    "texture": "#0"
                },
                "west": {
                    "uv": [
                        6,
                        3.33333,
                        7,
                        4.66667
                    ],
                    "rotation": 90,
                    "texture": "#0"
                },
                "up": {
                    "uv": [
                        6,
                        3.33333,
                        7,
                        4.66667
                    ],
                    "rotation": 90,
                    "texture": "#0"
                },
                "down": {
                    "uv": [
                        6,
                        3.33333,
                        7,
                        4.66667
                    ],
                    "rotation": 90,
                    "texture": "#0"
                }
            }
        },
        {
            "from": [
                8.03303,
                7.15997,
                -3.08868
            ],
            "to": [
                8.24963,
                7.21697,
                -2.97468
            ],
            "rotation": {
                "angle": -45,
                "axis": "z",
                "origin": [
                    8.08514,
                    7.13149,
                    -2.96036
                ]
            },
            "faces": {
                "north": {
                    "uv": [
                        6,
                        3.33333,
                        7,
                        4.66667
                    ],
                    "rotation": 90,
                    "texture": "#0"
                },
                "east": {
                    "uv": [
                        6,
                        3.33333,
                        7,
                        4.66667
                    ],
                    "rotation": 90,
                    "texture": "#0"
                },
                "south": {
                    "uv": [
                        6,
                        3.33333,
                        7,
                        4.66667
                    ],
                    "rotation": 90,
                    "texture": "#0"
                },
                "west": {
                    "uv": [
                        6,
                        3.33333,
                        7,
                        4.66667
                    ],
                    "rotation": 90,
                    "texture": "#0"
                },
                "up": {
                    "uv": [
                        6,
                        3.33333,
                        7,
                        4.66667
                    ],
                    "rotation": 90,
                    "texture": "#0"
                },
                "down": {
                    "uv": [
                        6,
                        3.33333,
                        7,
                        4.66667
                    ],
                    "rotation": 90,
                    "texture": "#0"
                }
            }
        },
        {
            "from": [
                7.70359,
                6.83051,
                -3.08868
            ],
            "to": [
                7.92019,
                6.88751,
                -2.97468
            ],
            "rotation": {
                "angle": -45,
                "axis": "z",
                "origin": [
                    7.7557,
                    6.80203,
                    -2.96036
                ]
            },
            "faces": {
                "north": {
                    "uv": [
                        6,
                        3.33333,
                        7,
                        4.66667
                    ],
                    "rotation": 90,
                    "texture": "#0"
                },
                "east": {
                    "uv": [
                        6,
                        3.33333,
                        7,
                        4.66667
                    ],
                    "rotation": 90,
                    "texture": "#0"
                },
                "south": {
                    "uv": [
                        6,
                        3.33333,
                        7,
                        4.66667
                    ],
                    "rotation": 90,
                    "texture": "#0"
                },
                "west": {
                    "uv": [
                        6,
                        3.33333,
                        7,
                        4.66667
                    ],
                    "rotation": 90,
                    "texture": "#0"
                },
                "up": {
                    "uv": [
                        6,
                        3.33333,
                        7,
                        4.66667
                    ],
                    "rotation": 90,
                    "texture": "#0"
                },
                "down": {
                    "uv": [
                        6,
                        3.33333,
                        7,
                        4.66667
                    ],
                    "rotation": 90,
                    "texture": "#0"
                }
            }
        },
        {
            "from": [
                7.79749,
                7.04254,
                -3.43068
            ],
            "to": [
                7.96849,
                7.09954,
                -2.63268
            ],
            "rotation": {
                "angle": 45,
                "axis": "z",
                "origin": [
                    7.85449,
                    7.07104,
                    -2.68968
                ]
            },
            "faces": {
                "north": {
                    "uv": [
                        6,
                        3.33333,
                        7,
                        4.66667
                    ],
                    "rotation": 90,
                    "texture": "#0"
                },
                "east": {
                    "uv": [
                        6,
                        3.33333,
                        7,
                        4.66667
                    ],
                    "rotation": 90,
                    "texture": "#0"
                },
                "south": {
                    "uv": [
                        6,
                        3.33333,
                        7,
                        4.66667
                    ],
                    "rotation": 90,
                    "texture": "#0"
                },
                "west": {
                    "uv": [
                        6,
                        3.33333,
                        7,
                        4.66667
                    ],
                    "rotation": 90,
                    "texture": "#0"
                },
                "up": {
                    "uv": [
                        6,
                        3.33333,
                        7,
                        4.66667
                    ],
                    "rotation": 90,
                    "texture": "#0"
                },
                "down": {
                    "uv": [
                        6,
                        3.33333,
                        7,
                        4.66667
                    ],
                    "rotation": 90,
                    "texture": "#0"
                }
            }
        },
        {
            "from": [
                7.79402,
                6.87989,
                -3.43068
            ],
            "to": [
                7.85102,
                7.05089,
                -2.63268
            ],
            "rotation": {
                "angle": 0,
                "axis": "y",
                "origin": [
                    8.18162,
                    7.31129,
                    -2.98608
                ]
            },
            "faces": {
                "north": {
                    "uv": [
                        6,
                        3.33333,
                        7,
                        4.66667
                    ],
                    "rotation": 270,
                    "texture": "#0"
                },
                "east": {
                    "uv": [
                        6,
                        3.33333,
                        7,
                        4.66667
                    ],
                    "rotation": 270,
                    "texture": "#0"
                },
                "south": {
                    "uv": [
                        6,
                        3.33333,
                        7,
                        4.66667
                    ],
                    "rotation": 270,
                    "texture": "#0"
                },
                "west": {
                    "uv": [
                        6,
                        3.33333,
                        7,
                        4.66667
                    ],
                    "rotation": 270,
                    "texture": "#0"
                },
                "up": {
                    "uv": [
                        6,
                        3.33333,
                        7,
                        4.66667
                    ],
                    "rotation": 270,
                    "texture": "#0"
                },
                "down": {
                    "uv": [
                        6,
                        3.33333,
                        7,
                        4.66667
                    ],
                    "rotation": 270,
                    "texture": "#0"
                }
            }
        },
        {
            "from": [
                7.86629,
                6.76243,
                -3.43068
            ],
            "to": [
                7.92329,
                6.93343,
                -2.63268
            ],
            "rotation": {
                "angle": 45,
                "axis": "z",
                "origin": [
                    7.89479,
                    6.81943,
                    -2.68968
                ]
            },
            "faces": {
                "north": {
                    "uv": [
                        6,
                        3.33333,
                        7,
                        4.66667
                    ],
                    "rotation": 270,
                    "texture": "#0"
                },
                "east": {
                    "uv": [
                        6,
                        3.33333,
                        7,
                        4.66667
                    ],
                    "rotation": 270,
                    "texture": "#0"
                },
                "south": {
                    "uv": [
                        6,
                        3.33333,
                        7,
                        4.66667
                    ],
                    "rotation": 270,
                    "texture": "#0"
                },
                "west": {
                    "uv": [
                        6,
                        3.33333,
                        7,
                        4.66667
                    ],
                    "rotation": 270,
                    "texture": "#0"
                },
                "up": {
                    "uv": [
                        6,
                        3.33333,
                        7,
                        4.66667
                    ],
                    "rotation": 270,
                    "texture": "#0"
                },
                "down": {
                    "uv": [
                        6,
                        3.33333,
                        7,
                        4.66667
                    ],
                    "rotation": 270,
                    "texture": "#0"
                }
            }
        },
        {
            "from": [
                8.1179,
                7.01404,
                -3.43068
            ],
            "to": [
                8.1749,
                7.18504,
                -2.63268
            ],
            "rotation": {
                "angle": 45,
                "axis": "z",
                "origin": [
                    8.1464,
                    7.07104,
                    -2.68968
                ]
            },
            "faces": {
                "north": {
                    "uv": [
                        6,
                        3.33333,
                        7,
                        4.66667
                    ],
                    "rotation": 270,
                    "texture": "#0"
                },
                "east": {
                    "uv": [
                        6,
                        3.33333,
                        7,
                        4.66667
                    ],
                    "rotation": 270,
                    "texture": "#0"
                },
                "south": {
                    "uv": [
                        6,
                        3.33333,
                        7,
                        4.66667
                    ],
                    "rotation": 270,
                    "texture": "#0"
                },
                "west": {
                    "uv": [
                        6,
                        3.33333,
                        7,
                        4.66667
                    ],
                    "rotation": 270,
                    "texture": "#0"
                },
                "up": {
                    "uv": [
                        6,
                        3.33333,
                        7,
                        4.66667
                    ],
                    "rotation": 270,
                    "texture": "#0"
                },
                "down": {
                    "uv": [
                        6,
                        3.33333,
                        7,
                        4.66667
                    ],
                    "rotation": 270,
                    "texture": "#0"
                }
            }
        },
        {
            "from": [
                8.14986,
                6.87989,
                -3.43068
            ],
            "to": [
                8.20686,
                7.05089,
                -2.63268
            ],
            "rotation": {
                "angle": 0,
                "axis": "y",
                "origin": [
                    8.46907,
                    7.08329,
                    -2.98608
                ]
            },
            "faces": {
                "north": {
                    "uv": [
                        6,
                        3.33333,
                        7,
                        4.66667
                    ],
                    "rotation": 270,
                    "texture": "#0"
                },
                "east": {
                    "uv": [
                        6,
                        3.33333,
                        7,
                        4.66667
                    ],
                    "rotation": 270,
                    "texture": "#0"
                },
                "south": {
                    "uv": [
                        6,
                        3.33333,
                        7,
                        4.66667
                    ],
                    "rotation": 270,
                    "texture": "#0"
                },
                "west": {
                    "uv": [
                        6,
                        3.33333,
                        7,
                        4.66667
                    ],
                    "rotation": 270,
                    "texture": "#0"
                },
                "up": {
                    "uv": [
                        6,
                        3.33333,
                        7,
                        4.66667
                    ],
                    "rotation": 270,
                    "texture": "#0"
                },
                "down": {
                    "uv": [
                        6,
                        3.33333,
                        7,
                        4.66667
                    ],
                    "rotation": 270,
                    "texture": "#0"
                }
            }
        },
        {
            "from": [
                8.0491,
                6.79093,
                -3.43068
            ],
            "to": [
                8.2201,
                6.84793,
                -2.63268
            ],
            "rotation": {
                "angle": 45,
                "axis": "z",
                "origin": [
                    8.1061,
                    6.81943,
                    -2.68968
                ]
            },
            "faces": {
                "north": {
                    "uv": [
                        6,
                        3.33333,
                        7,
                        4.66667
                    ],
                    "rotation": 90,
                    "texture": "#0"
                },
                "east": {
                    "uv": [
                        6,
                        3.33333,
                        7,
                        4.66667
                    ],
                    "rotation": 90,
                    "texture": "#0"
                },
                "south": {
                    "uv": [
                        6,
                        3.33333,
                        7,
                        4.66667
                    ],
                    "rotation": 90,
                    "texture": "#0"
                },
                "west": {
                    "uv": [
                        6,
                        3.33333,
                        7,
                        4.66667
                    ],
                    "rotation": 90,
                    "texture": "#0"
                },
                "up": {
                    "uv": [
                        6,
                        3.33333,
                        7,
                        4.66667
                    ],
                    "rotation": 90,
                    "texture": "#0"
                },
                "down": {
                    "uv": [
                        6,
                        3.33333,
                        7,
                        4.66667
                    ],
                    "rotation": 90,
                    "texture": "#0"
                }
            }
        },
        {
            "from": [
                7.91494,
                6.75897,
                -3.43068
            ],
            "to": [
                8.08594,
                6.81597,
                -2.63268
            ],
            "rotation": {
                "angle": 0,
                "axis": "y",
                "origin": [
                    7.97844,
                    6.78747,
                    -2.73236
                ]
            },
            "faces": {
                "north": {
                    "uv": [
                        6,
                        3.33333,
                        7,
                        4.66667
                    ],
                    "rotation": 90,
                    "texture": "#0"
                },
                "east": {
                    "uv": [
                        6,
                        3.33333,
                        7,
                        4.66667
                    ],
                    "rotation": 90,
                    "texture": "#0"
                },
                "south": {
                    "uv": [
                        6,
                        3.33333,
                        7,
                        4.66667
                    ],
                    "rotation": 90,
                    "texture": "#0"
                },
                "west": {
                    "uv": [
                        6,
                        3.33333,
                        7,
                        4.66667
                    ],
                    "rotation": 90,
                    "texture": "#0"
                },
                "up": {
                    "uv": [
                        6,
                        3.33333,
                        7,
                        4.66667
                    ],
                    "rotation": 90,
                    "texture": "#0"
                },
                "down": {
                    "uv": [
                        6,
                        3.33333,
                        7,
                        4.66667
                    ],
                    "rotation": 90,
                    "texture": "#0"
                }
            }
        },
        {
            "from": [
                7.65844,
                6.58308,
                -2.60988
            ],
            "to": [
                8.34244,
                6.81108,
                0.01212
            ],
            "rotation": {
                "angle": 0,
                "axis": "y",
                "origin": [
                    8.00044,
                    7.53512,
                    3.87332
                ]
            },
            "faces": {
                "north": {
                    "uv": [
                        0,
                        0,
                        2.33333,
                        2.33333
                    ],
                    "texture": "#0"
                },
                "east": {
                    "uv": [
                        0,
                        0,
                        2.33333,
                        2.33333
                    ],
                    "texture": "#0"
                },
                "south": {
                    "uv": [
                        0,
                        0,
                        2.33333,
                        2.33333
                    ],
                    "texture": "#0"
                },
                "west": {
                    "uv": [
                        0,
                        0,
                        2.33333,
                        2.33333
                    ],
                    "texture": "#0"
                },
                "up": {
                    "uv": [
                        0,
                        0,
                        2.33333,
                        2.33333
                    ],
                    "texture": "#0"
                },
                "down": {
                    "uv": [
                        0,
                        0,
                        2.33333,
                        2.33333
                    ],
                    "texture": "#0"
                }
            }
        },
        {
            "from": [
                7.77244,
                6.81108,
                -2.60988
            ],
            "to": [
                8.34244,
                7.15308,
                0.12612
            ],
            "rotation": {
                "angle": 0,
                "axis": "y",
                "origin": [
                    8.11444,
                    7.76312,
                    3.87332
                ]
            },
            "faces": {
                "north": {
                    "uv": [
                        0,
                        0,
                        2.33333,
                        2.33333
                    ],
                    "texture": "#0"
                },
                "east": {
                    "uv": [
                        0,
                        0,
                        2.33333,
                        2.33333
                    ],
                    "texture": "#0"
                },
                "south": {
                    "uv": [
                        0,
                        0,
                        2.33333,
                        2.33333
                    ],
                    "texture": "#0"
                },
                "west": {
                    "uv": [
                        0,
                        0,
                        2.33333,
                        2.33333
                    ],
                    "texture": "#0"
                },
                "up": {
                    "uv": [
                        0,
                        0,
                        2.33333,
                        2.33333
                    ],
                    "texture": "#0"
                },
                "down": {
                    "uv": [
                        0,
                        0,
                        2.33333,
                        2.33333
                    ],
                    "texture": "#0"
                }
            }
        },
        {
            "from": [
                7.65844,
                6.81108,
                -2.60988
            ],
            "to": [
                7.77244,
                7.15308,
                -2.38188
            ],
            "rotation": {
                "angle": 0,
                "axis": "y",
                "origin": [
                    8.00044,
                    7.76312,
                    3.87332
                ]
            },
            "faces": {
                "north": {
                    "uv": [
                        0,
                        0,
                        3.032,
                        2.394
                    ],
                    "texture": "#0"
                },
                "east": {
                    "uv": [
                        0,
                        0,
                        3.032,
                        2.394
                    ],
                    "texture": "#0"
                },
                "south": {
                    "uv": [
                        0,
                        0,
                        3.032,
                        2.394
                    ],
                    "texture": "#0"
                },
                "west": {
                    "uv": [
                        0,
                        0,
                        3.032,
                        2.394
                    ],
                    "texture": "#0"
                },
                "up": {
                    "uv": [
                        0,
                        0,
                        3.032,
                        2.394
                    ],
                    "rotation": 270,
                    "texture": "#0"
                },
                "down": {
                    "uv": [
                        0,
                        0,
                        3.032,
                        2.394
                    ],
                    "rotation": 90,
                    "texture": "#0"
                }
            }
        },
        {
            "from": [
                7.62424,
                7.26708,
                0.24012
            ],
            "to": [
                7.74044,
                7.61308,
                0.46812
            ],
            "rotation": {
                "angle": 0,
                "axis": "y",
                "origin": [
                    8.00044,
                    8.21912,
                    6.72332
                ]
            },
            "faces": {
                "north": {
                    "uv": [
                        0,
                        0,
                        2.33333,
                        2.33333
                    ],
                    "texture": "#0"
                },
                "east": {
                    "uv": [
                        0,
                        0,
                        2.33333,
                        2.33333
                    ],
                    "texture": "#0"
                },
                "south": {
                    "uv": [
                        0,
                        0,
                        2.33333,
                        2.33333
                    ],
                    "texture": "#0"
                },
                "west": {
                    "uv": [
                        0,
                        0,
                        2.33333,
                        2.33333
                    ],
                    "texture": "#0"
                },
                "up": {
                    "uv": [
                        0,
                        0,
                        2.33333,
                        2.33333
                    ],
                    "texture": "#0"
                },
                "down": {
                    "uv": [
                        0,
                        0,
                        2.33333,
                        2.33333
                    ],
                    "texture": "#0"
                }
            }
        },
        {
            "from": [
                7.62424,
                7.26708,
                -2.15388
            ],
            "to": [
                7.74044,
                7.61308,
                -1.92588
            ],
            "rotation": {
                "angle": 0,
                "axis": "y",
                "origin": [
                    8.00044,
                    8.21912,
                    4.32932
                ]
            },
            "faces": {
                "north": {
                    "uv": [
                        0,
                        0,
                        2.33333,
                        2.33333
                    ],
                    "texture": "#0"
                },
                "east": {
                    "uv": [
                        0,
                        0,
                        2.33333,
                        2.33333
                    ],
                    "texture": "#0"
                },
                "south": {
                    "uv": [
                        0,
                        0,
                        2.33333,
                        2.33333
                    ],
                    "texture": "#0"
                },
                "west": {
                    "uv": [
                        0,
                        0,
                        2.33333,
                        2.33333
                    ],
                    "texture": "#0"
                },
                "up": {
                    "uv": [
                        0,
                        0,
                        2.33333,
                        2.33333
                    ],
                    "texture": "#0"
                },
                "down": {
                    "uv": [
                        0,
                        0,
                        2.33333,
                        2.33333
                    ],
                    "texture": "#0"
                }
            }
        },
        {
            "from": [
                8.26044,
                7.26708,
                0.24012
            ],
            "to": [
                8.37664,
                7.61308,
                0.46812
            ],
            "rotation": {
                "angle": 0,
                "axis": "y",
                "origin": [
                    8.57044,
                    8.21912,
                    6.72332
                ]
            },
            "faces": {
                "north": {
                    "uv": [
                        0,
                        0,
                        3.032,
                        2.394
                    ],
                    "texture": "#0"
                },
                "east": {
                    "uv": [
                        0,
                        0,
                        3.032,
                        2.394
                    ],
                    "texture": "#0"
                },
                "south": {
                    "uv": [
                        0,
                        0,
                        3.032,
                        2.394
                    ],
                    "texture": "#0"
                },
                "west": {
                    "uv": [
                        0,
                        0,
                        3.032,
                        2.394
                    ],
                    "texture": "#0"
                },
                "up": {
                    "uv": [
                        0,
                        0,
                        3.032,
                        2.394
                    ],
                    "rotation": 270,
                    "texture": "#0"
                },
                "down": {
                    "uv": [
                        0,
                        0,
                        3.032,
                        2.394
                    ],
                    "rotation": 90,
                    "texture": "#0"
                }
            }
        },
        {
            "from": [
                8.26044,
                7.26708,
                -2.15388
            ],
            "to": [
                8.37664,
                7.61308,
                -1.92588
            ],
            "rotation": {
                "angle": 0,
                "axis": "y",
                "origin": [
                    8.57044,
                    8.21912,
                    4.32932
                ]
            },
            "faces": {
                "north": {
                    "uv": [
                        0,
                        0,
                        3.032,
                        2.394
                    ],
                    "texture": "#0"
                },
                "east": {
                    "uv": [
                        0,
                        0,
                        3.032,
                        2.394
                    ],
                    "texture": "#0"
                },
                "south": {
                    "uv": [
                        0,
                        0,
                        3.032,
                        2.394
                    ],
                    "texture": "#0"
                },
                "west": {
                    "uv": [
                        0,
                        0,
                        3.032,
                        2.394
                    ],
                    "texture": "#0"
                },
                "up": {
                    "uv": [
                        0,
                        0,
                        3.032,
                        2.394
                    ],
                    "rotation": 270,
                    "texture": "#0"
                },
                "down": {
                    "uv": [
                        0,
                        0,
                        3.032,
                        2.394
                    ],
                    "rotation": 90,
                    "texture": "#0"
                }
            }
        },
        {
            "from": [
                7.65844,
                7.13028,
                -2.60988
            ],
            "to": [
                8.34244,
                7.58228,
                0.58212
            ],
            "rotation": {
                "angle": 0,
                "axis": "y",
                "origin": [
                    8.00044,
                    7.99112,
                    3.87332
                ]
            },
            "faces": {
                "north": {
                    "uv": [
                        0,
                        0,
                        2.33333,
                        2.33333
                    ],
                    "texture": "#0"
                },
                "east": {
                    "uv": [
                        0,
                        0,
                        2.33333,
                        2.33333
                    ],
                    "texture": "#0"
                },
                "south": {
                    "uv": [
                        0,
                        0,
                        2.33333,
                        2.33333
                    ],
                    "texture": "#0"
                },
                "west": {
                    "uv": [
                        0,
                        0,
                        2.33333,
                        2.33333
                    ],
                    "texture": "#0"
                },
                "up": {
                    "uv": [
                        0,
                        0,
                        2.33333,
                        2.33333
                    ],
                    "texture": "#0"
                },
                "down": {
                    "uv": [
                        0,
                        0,
                        2.33333,
                        2.33333
                    ],
                    "texture": "#0"
                }
            }
        },
        {
            "from": [
                7.65844,
                6.15689,
                -1.46988
            ],
            "to": [
                8.34244,
                6.84089,
                -0.67188
            ],
            "rotation": {
                "angle": -22.5,
                "axis": "x",
                "origin": [
                    8.00044,
                    6.49889,
                    -1.18488
                ]
            },
            "faces": {
                "north": {
                    "uv": [
                        0,
                        0,
                        2.33333,
                        2.33333
                    ],
                    "texture": "#0"
                },
                "east": {
                    "uv": [
                        0,
                        0,
                        2.33333,
                        2.33333
                    ],
                    "texture": "#0"
                },
                "south": {
                    "uv": [
                        0,
                        0,
                        2.33333,
                        2.33333
                    ],
                    "texture": "#0"
                },
                "west": {
                    "uv": [
                        0,
                        0,
                        2.33333,
                        2.33333
                    ],
                    "texture": "#0"
                },
                "up": {
                    "uv": [
                        0,
                        0,
                        2.33333,
                        2.33333
                    ],
                    "texture": "#0"
                },
                "down": {
                    "uv": [
                        0,
                        0,
                        2.33333,
                        2.33333
                    ],
                    "texture": "#0"
                }
            }
        },
        {
            "from": [
                7.65844,
                6.33228,
                -1.12788
            ],
            "to": [
                8.34244,
                7.13028,
                0.12612
            ],
            "rotation": {
                "angle": 0,
                "axis": "y",
                "origin": [
                    8.00044,
                    6.56028,
                    -0.50088
                ]
            },
            "faces": {
                "north": {
                    "uv": [
                        0,
                        0,
                        2.33333,
                        2.33333
                    ],
                    "texture": "#0"
                },
                "east": {
                    "uv": [
                        0,
                        0,
                        2.33333,
                        2.33333
                    ],
                    "texture": "#0"
                },
                "south": {
                    "uv": [
                        0,
                        0,
                        2.33333,
                        2.33333
                    ],
                    "texture": "#0"
                },
                "west": {
                    "uv": [
                        0,
                        0,
                        2.33333,
                        2.33333
                    ],
                    "texture": "#0"
                },
                "up": {
                    "uv": [
                        0,
                        0,
                        2.33333,
                        2.33333
                    ],
                    "texture": "#0"
                },
                "down": {
                    "uv": [
                        0,
                        0,
                        2.33333,
                        2.33333
                    ],
                    "texture": "#0"
                }
            }
        },
        {
            "from": [
                7.65844,
                6.24806,
                -0.14069
            ],
            "to": [
                8.34244,
                7.27406,
                0.42931
            ],
            "rotation": {
                "angle": 22.5,
                "axis": "x",
                "origin": [
                    8.00044,
                    6.81806,
                    0.14431
                ]
            },
            "faces": {
                "north": {
                    "uv": [
                        0,
                        0,
                        2.33333,
                        2.33333
                    ],
                    "texture": "#0"
                },
                "east": {
                    "uv": [
                        0,
                        0,
                        2.33333,
                        2.33333
                    ],
                    "texture": "#0"
                },
                "south": {
                    "uv": [
                        0,
                        0,
                        2.33333,
                        2.33333
                    ],
                    "texture": "#0"
                },
                "west": {
                    "uv": [
                        0,
                        0,
                        2.33333,
                        2.33333
                    ],
                    "texture": "#0"
                },
                "up": {
                    "uv": [
                        0,
                        0,
                        2.33333,
                        2.33333
                    ],
                    "texture": "#0"
                },
                "down": {
                    "uv": [
                        0,
                        0,
                        2.33333,
                        2.33333
                    ],
                    "texture": "#0"
                }
            }
        },
        {
            "from": [
                7.88644,
                6.16601,
                -2.48797
            ],
            "to": [
                8.11444,
                6.22301,
                -2.14597
            ],
            "rotation": {
                "angle": 45,
                "axis": "x",
                "origin": [
                    8.00044,
                    6.19451,
                    -2.43097
                ]
            },
            "faces": {
                "north": {
                    "uv": [
                        5.66667,
                        3.33333,
                        7,
                        4.66667
                    ],
                    "texture": "#0"
                },
                "east": {
                    "uv": [
                        5.66667,
                        3.33333,
                        7,
                        4.66667
                    ],
                    "texture": "#0"
                },
                "south": {
                    "uv": [
                        5.66667,
                        3.33333,
                        7,
                        4.66667
                    ],
                    "texture": "#0"
                },
                "west": {
                    "uv": [
                        5.66667,
                        3.33333,
                        7,
                        4.66667
                    ],
                    "texture": "#0"
                },
                "up": {
                    "uv": [
                        5.66667,
                        3.33333,
                        7,
                        4.66667
                    ],
                    "texture": "#0"
                },
                "down": {
                    "uv": [
                        5.66667,
                        3.33333,
                        7,
                        4.66667
                    ],
                    "texture": "#0"
                }
            }
        },
        {
            "from": [
                7.88644,
                6.21256,
                -2.55904
            ],
            "to": [
                8.11444,
                6.44056,
                -2.50204
            ],
            "rotation": {
                "angle": -22.5,
                "axis": "x",
                "origin": [
                    8.00044,
                    6.38356,
                    -2.53054
                ]
            },
            "faces": {
                "north": {
                    "uv": [
                        5.66667,
                        3.33333,
                        7,
                        4.66667
                    ],
                    "rotation": 90,
                    "texture": "#0"
                },
                "east": {
                    "uv": [
                        5.66667,
                        3.33333,
                        7,
                        4.66667
                    ],
                    "rotation": 90,
                    "texture": "#0"
                },
                "south": {
                    "uv": [
                        5.66667,
                        3.33333,
                        7,
                        4.66667
                    ],
                    "rotation": 90,
                    "texture": "#0"
                },
                "west": {
                    "uv": [
                        5.66667,
                        3.33333,
                        7,
                        4.66667
                    ],
                    "rotation": 90,
                    "texture": "#0"
                },
                "up": {
                    "uv": [
                        5.66667,
                        3.33333,
                        7,
                        4.66667
                    ],
                    "rotation": 90,
                    "texture": "#0"
                },
                "down": {
                    "uv": [
                        5.66667,
                        3.33333,
                        7,
                        4.66667
                    ],
                    "rotation": 90,
                    "texture": "#0"
                }
            }
        },
        {
            "from": [
                7.88644,
                6.42532,
                -2.57868
            ],
            "to": [
                8.11444,
                6.65332,
                -2.52168
            ],
            "rotation": {
                "angle": 0,
                "axis": "y",
                "origin": [
                    8.00044,
                    6.59632,
                    -2.55018
                ]
            },
            "faces": {
                "north": {
                    "uv": [
                        5.66667,
                        3.33333,
                        7,
                        4.66667
                    ],
                    "rotation": 90,
                    "texture": "#0"
                },
                "east": {
                    "uv": [
                        5.66667,
                        3.33333,
                        7,
                        4.66667
                    ],
                    "rotation": 90,
                    "texture": "#0"
                },
                "south": {
                    "uv": [
                        5.66667,
                        3.33333,
                        7,
                        4.66667
                    ],
                    "rotation": 90,
                    "texture": "#0"
                },
                "west": {
                    "uv": [
                        5.66667,
                        3.33333,
                        7,
                        4.66667
                    ],
                    "rotation": 90,
                    "texture": "#0"
                },
                "up": {
                    "uv": [
                        5.66667,
                        3.33333,
                        7,
                        4.66667
                    ],
                    "rotation": 90,
                    "texture": "#0"
                },
                "down": {
                    "uv": [
                        5.66667,
                        3.33333,
                        7,
                        4.66667
                    ],
                    "rotation": 90,
                    "texture": "#0"
                }
            }
        },
        {
            "from": [
                7.88644,
                5.97284,
                -2.24959
            ],
            "to": [
                8.11444,
                6.02984,
                -1.67959
            ],
            "rotation": {
                "angle": 0,
                "axis": "y",
                "origin": [
                    8.00044,
                    6.00134,
                    -1.76509
                ]
            },
            "faces": {
                "north": {
                    "uv": [
                        5.66667,
                        3.33333,
                        7,
                        4.66667
                    ],
                    "texture": "#0"
                },
                "east": {
                    "uv": [
                        5.66667,
                        3.33333,
                        7,
                        4.66667
                    ],
                    "texture": "#0"
                },
                "south": {
                    "uv": [
                        5.66667,
                        3.33333,
                        7,
                        4.66667
                    ],
                    "texture": "#0"
                },
                "west": {
                    "uv": [
                        5.66667,
                        3.33333,
                        7,
                        4.66667
                    ],
                    "texture": "#0"
                },
                "up": {
                    "uv": [
                        5.66667,
                        3.33333,
                        7,
                        4.66667
                    ],
                    "texture": "#0"
                },
                "down": {
                    "uv": [
                        5.66667,
                        3.33333,
                        7,
                        4.66667
                    ],
                    "texture": "#0"
                }
            }
        },
        {
            "from": [
                7.88644,
                6.01213,
                -1.71009
            ],
            "to": [
                8.11444,
                6.06913,
                -1.19709
            ],
            "rotation": {
                "angle": -22.5,
                "axis": "x",
                "origin": [
                    8.00044,
                    6.06913,
                    -1.59609
                ]
            },
            "faces": {
                "north": {
                    "uv": [
                        5.66667,
                        3.33333,
                        7,
                        4.66667
                    ],
                    "texture": "#0"
                },
                "east": {
                    "uv": [
                        5.66667,
                        3.33333,
                        7,
                        4.66667
                    ],
                    "texture": "#0"
                },
                "south": {
                    "uv": [
                        5.66667,
                        3.33333,
                        7,
                        4.66667
                    ],
                    "texture": "#0"
                },
                "west": {
                    "uv": [
                        5.66667,
                        3.33333,
                        7,
                        4.66667
                    ],
                    "texture": "#0"
                },
                "up": {
                    "uv": [
                        5.66667,
                        3.33333,
                        7,
                        4.66667
                    ],
                    "texture": "#0"
                },
                "down": {
                    "uv": [
                        5.66667,
                        3.33333,
                        7,
                        4.66667
                    ],
                    "texture": "#0"
                }
            }
        },
        {
            "from": [
                7.94344,
                6.29147,
                -1.67087
            ],
            "to": [
                8.05744,
                6.40547,
                -1.61387
            ],
            "rotation": {
                "angle": 22.5,
                "axis": "x",
                "origin": [
                    8.00044,
                    6.46247,
                    -1.64237
                ]
            },
            "faces": {
                "north": {
                    "uv": [
                        3,
                        3.33333,
                        4.33333,
                        4.66667
                    ],
                    "rotation": 270,
                    "texture": "#0"
                },
                "east": {
                    "uv": [
                        3,
                        3.33333,
                        4.33333,
                        4.66667
                    ],
                    "rotation": 270,
                    "texture": "#0"
                },
                "south": {
                    "uv": [
                        3,
                        3.33333,
                        4.33333,
                        4.66667
                    ],
                    "rotation": 270,
                    "texture": "#0"
                },
                "west": {
                    "uv": [
                        3,
                        3.33333,
                        4.33333,
                        4.66667
                    ],
                    "rotation": 270,
                    "texture": "#0"
                },
                "up": {
                    "uv": [
                        3,
                        3.33333,
                        4.33333,
                        4.66667
                    ],
                    "rotation": 270,
                    "texture": "#0"
                },
                "down": {
                    "uv": [
                        3,
                        3.33333,
                        4.33333,
                        4.66667
                    ],
                    "rotation": 270,
                    "texture": "#0"
                }
            }
        },
        {
            "from": [
                7.94344,
                6.21644,
                -1.77044
            ],
            "to": [
                8.05744,
                6.33044,
                -1.71344
            ],
            "rotation": {
                "angle": 45,
                "axis": "x",
                "origin": [
                    8.00044,
                    6.27344,
                    -1.74194
                ]
            },
            "faces": {
                "north": {
                    "uv": [
                        3,
                        3.33333,
                        4.33333,
                        4.66667
                    ],
                    "rotation": 270,
                    "texture": "#0"
                },
                "east": {
                    "uv": [
                        3,
                        3.33333,
                        4.33333,
                        4.66667
                    ],
                    "rotation": 270,
                    "texture": "#0"
                },
                "south": {
                    "uv": [
                        3,
                        3.33333,
                        4.33333,
                        4.66667
                    ],
                    "rotation": 270,
                    "texture": "#0"
                },
                "west": {
                    "uv": [
                        3,
                        3.33333,
                        4.33333,
                        4.66667
                    ],
                    "rotation": 270,
                    "texture": "#0"
                },
                "up": {
                    "uv": [
                        3,
                        3.33333,
                        4.33333,
                        4.66667
                    ],
                    "rotation": 270,
                    "texture": "#0"
                },
                "down": {
                    "uv": [
                        3,
                        3.33333,
                        4.33333,
                        4.66667
                    ],
                    "rotation": 270,
                    "texture": "#0"
                }
            }
        },
        {
            "from": [
                7.94344,
                6.3968,
                -1.62725
            ],
            "to": [
                8.05744,
                6.7388,
                -1.57025
            ],
            "rotation": {
                "angle": 22.5,
                "axis": "x",
                "origin": [
                    8.00044,
                    6.5678,
                    -1.59875
                ]
            },
            "faces": {
                "north": {
                    "uv": [
                        3,
                        3.33333,
                        4.33333,
                        4.66667
                    ],
                    "rotation": 270,
                    "texture": "#0"
                },
                "east": {
                    "uv": [
                        3,
                        3.33333,
                        4.33333,
                        4.66667
                    ],
                    "rotation": 270,
                    "texture": "#0"
                },
                "south": {
                    "uv": [
                        3,
                        3.33333,
                        4.33333,
                        4.66667
                    ],
                    "rotation": 270,
                    "texture": "#0"
                },
                "west": {
                    "uv": [
                        3,
                        3.33333,
                        4.33333,
                        4.66667
                    ],
                    "rotation": 270,
                    "texture": "#0"
                },
                "up": {
                    "uv": [
                        3,
                        3.33333,
                        4.33333,
                        4.66667
                    ],
                    "rotation": 270,
                    "texture": "#0"
                },
                "down": {
                    "uv": [
                        3,
                        3.33333,
                        4.33333,
                        4.66667
                    ],
                    "rotation": 270,
                    "texture": "#0"
                }
            }
        },
        {
            "from": [
                7.94344,
                6.48899,
                -1.63159
            ],
            "to": [
                8.05744,
                6.83099,
                -1.57459
            ],
            "rotation": {
                "angle": 22.5,
                "axis": "x",
                "origin": [
                    8.00044,
                    6.65999,
                    -1.60309
                ]
            },
            "faces": {
                "north": {
                    "uv": [
                        3,
                        3.33333,
                        4.33333,
                        4.66667
                    ],
                    "rotation": 270,
                    "texture": "#0"
                },
                "east": {
                    "uv": [
                        3,
                        3.33333,
                        4.33333,
                        4.66667
                    ],
                    "rotation": 270,
                    "texture": "#0"
                },
                "south": {
                    "uv": [
                        3,
                        3.33333,
                        4.33333,
                        4.66667
                    ],
                    "rotation": 270,
                    "texture": "#0"
                },
                "west": {
                    "uv": [
                        3,
                        3.33333,
                        4.33333,
                        4.66667
                    ],
                    "rotation": 270,
                    "texture": "#0"
                },
                "up": {
                    "uv": [
                        3,
                        3.33333,
                        4.33333,
                        4.66667
                    ],
                    "rotation": 270,
                    "texture": "#0"
                },
                "down": {
                    "uv": [
                        3,
                        3.33333,
                        4.33333,
                        4.66667
                    ],
                    "rotation": 270,
                    "texture": "#0"
                }
            }
        },
        {
            "from": [
                7.94344,
                6.5129,
                -1.69486
            ],
            "to": [
                8.05744,
                6.8549,
                -1.63786
            ],
            "rotation": {
                "angle": 0,
                "axis": "y",
                "origin": [
                    8.00044,
                    6.6839,
                    -1.66636
                ]
            },
            "faces": {
                "north": {
                    "uv": [
                        3,
                        3.33333,
                        4.33333,
                        4.66667
                    ],
                    "rotation": 270,
                    "texture": "#0"
                },
                "east": {
                    "uv": [
                        3,
                        3.33333,
                        4.33333,
                        4.66667
                    ],
                    "rotation": 270,
                    "texture": "#0"
                },
                "south": {
                    "uv": [
                        3,
                        3.33333,
                        4.33333,
                        4.66667
                    ],
                    "rotation": 270,
                    "texture": "#0"
                },
                "west": {
                    "uv": [
                        3,
                        3.33333,
                        4.33333,
                        4.66667
                    ],
                    "rotation": 270,
                    "texture": "#0"
                },
                "up": {
                    "uv": [
                        3,
                        3.33333,
                        4.33333,
                        4.66667
                    ],
                    "rotation": 270,
                    "texture": "#0"
                },
                "down": {
                    "uv": [
                        3,
                        3.33333,
                        4.33333,
                        4.66667
                    ],
                    "rotation": 270,
                    "texture": "#0"
                }
            }
        },
        {
            "from": [
                7.94344,
                6.3989,
                -1.69486
            ],
            "to": [
                8.05744,
                6.5129,
                -1.63786
            ],
            "rotation": {
                "angle": 0,
                "axis": "y",
                "origin": [
                    8.00044,
                    6.5699,
                    -1.66636
                ]
            },
            "faces": {
                "north": {
                    "uv": [
                        3,
                        3.33333,
                        4.33333,
                        4.66667
                    ],
                    "rotation": 270,
                    "texture": "#0"
                },
                "east": {
                    "uv": [
                        3,
                        3.33333,
                        4.33333,
                        4.66667
                    ],
                    "rotation": 270,
                    "texture": "#0"
                },
                "south": {
                    "uv": [
                        3,
                        3.33333,
                        4.33333,
                        4.66667
                    ],
                    "rotation": 270,
                    "texture": "#0"
                },
                "west": {
                    "uv": [
                        3,
                        3.33333,
                        4.33333,
                        4.66667
                    ],
                    "rotation": 270,
                    "texture": "#0"
                },
                "up": {
                    "uv": [
                        3,
                        3.33333,
                        4.33333,
                        4.66667
                    ],
                    "rotation": 270,
                    "texture": "#0"
                },
                "down": {
                    "uv": [
                        3,
                        3.33333,
                        4.33333,
                        4.66667
                    ],
                    "rotation": 270,
                    "texture": "#0"
                }
            }
        },
        {
            "from": [
                7.6801,
                6.81108,
                -2.38188
            ],
            "to": [
                7.7941,
                7.15308,
                -1.01388
            ],
            "rotation": {
                "angle": 0,
                "axis": "y",
                "origin": [
                    8.00044,
                    7.76312,
                    4.10132
                ]
            },
            "faces": {
                "north": {
                    "uv": [
                        0,
                        3,
                        1.66667,
                        4.33333
                    ],
                    "rotation": 270,
                    "texture": "#0"
                },
                "east": {
                    "uv": [
                        0,
                        3,
                        1.66667,
                        4.33333
                    ],
                    "rotation": 270,
                    "texture": "#0"
                },
                "south": {
                    "uv": [
                        0,
                        3,
                        1.66667,
                        4.33333
                    ],
                    "rotation": 270,
                    "texture": "#0"
                },
                "west": {
                    "uv": [
                        0,
                        3,
                        1.66667,
                        4.33333
                    ],
                    "rotation": 270,
                    "texture": "#0"
                },
                "up": {
                    "uv": [
                        0,
                        3,
                        1.66667,
                        4.33333
                    ],
                    "rotation": 270,
                    "texture": "#0"
                },
                "down": {
                    "uv": [
                        0,
                        3,
                        1.66667,
                        4.33333
                    ],
                    "rotation": 270,
                    "texture": "#0"
                }
            }
        },
        {
            "from": [
                7.31759,
                6.94344,
                -2.20486
            ],
            "to": [
                7.53419,
                7.08024,
                -2.11366
            ],
            "rotation": {
                "angle": 45,
                "axis": "y",
                "origin": [
                    7.43159,
                    7.01184,
                    -2.17066
                ]
            },
            "faces": {
                "north": {
                    "uv": [
                        0,
                        3,
                        1.66667,
                        4.33333
                    ],
                    "rotation": 270,
                    "texture": "#0"
                },
                "east": {
                    "uv": [
                        0,
                        3,
                        1.66667,
                        4.33333
                    ],
                    "rotation": 270,
                    "texture": "#0"
                },
                "south": {
                    "uv": [
                        0,
                        3,
                        1.66667,
                        4.33333
                    ],
                    "rotation": 270,
                    "texture": "#0"
                },
                "west": {
                    "uv": [
                        0,
                        3,
                        1.66667,
                        4.33333
                    ],
                    "rotation": 270,
                    "texture": "#0"
                },
                "up": {
                    "uv": [
                        0,
                        3,
                        1.66667,
                        4.33333
                    ],
                    "rotation": 270,
                    "texture": "#0"
                },
                "down": {
                    "uv": [
                        0,
                        3,
                        1.66667,
                        4.33333
                    ],
                    "rotation": 270,
                    "texture": "#0"
                }
            }
        },
        {
            "from": [
                7.39054,
                6.94344,
                -2.2656
            ],
            "to": [
                7.48174,
                7.08024,
                -2.049
            ],
            "rotation": {
                "angle": 0,
                "axis": "y",
                "origin": [
                    7.43614,
                    7.01184,
                    -2.1573
                ]
            },
            "faces": {
                "north": {
                    "uv": [
                        0,
                        3,
                        1.66667,
                        4.33333
                    ],
                    "rotation": 270,
                    "texture": "#0"
                },
                "east": {
                    "uv": [
                        0,
                        3,
                        1.66667,
                        4.33333
                    ],
                    "rotation": 270,
                    "texture": "#0"
                },
                "south": {
                    "uv": [
                        0,
                        3,
                        1.66667,
                        4.33333
                    ],
                    "rotation": 270,
                    "texture": "#0"
                },
                "west": {
                    "uv": [
                        0,
                        3,
                        1.66667,
                        4.33333
                    ],
                    "rotation": 270,
                    "texture": "#0"
                },
                "up": {
                    "uv": [
                        0,
                        3,
                        1.66667,
                        4.33333
                    ],
                    "rotation": 270,
                    "texture": "#0"
                },
                "down": {
                    "uv": [
                        0,
                        3,
                        1.66667,
                        4.33333
                    ],
                    "rotation": 270,
                    "texture": "#0"
                }
            }
        },
        {
            "from": [
                7.32784,
                6.94344,
                -2.2029
            ],
            "to": [
                7.54444,
                7.08024,
                -2.1117
            ],
            "rotation": {
                "angle": 0,
                "axis": "y",
                "origin": [
                    7.66984,
                    7.87712,
                    4.6713
                ]
            },
            "faces": {
                "north": {
                    "uv": [
                        0,
                        3,
                        1.66667,
                        4.33333
                    ],
                    "rotation": 270,
                    "texture": "#0"
                },
                "east": {
                    "uv": [
                        0,
                        3,
                        1.66667,
                        4.33333
                    ],
                    "rotation": 270,
                    "texture": "#0"
                },
                "south": {
                    "uv": [
                        0,
                        3,
                        1.66667,
                        4.33333
                    ],
                    "rotation": 270,
                    "texture": "#0"
                },
                "west": {
                    "uv": [
                        0,
                        3,
                        1.66667,
                        4.33333
                    ],
                    "rotation": 270,
                    "texture": "#0"
                },
                "up": {
                    "uv": [
                        0,
                        3,
                        1.66667,
                        4.33333
                    ],
                    "rotation": 270,
                    "texture": "#0"
                },
                "down": {
                    "uv": [
                        0,
                        3,
                        1.66667,
                        4.33333
                    ],
                    "rotation": 270,
                    "texture": "#0"
                }
            }
        },
        {
            "from": [
                7.32784,
                6.94344,
                -2.2029
            ],
            "to": [
                7.54444,
                7.08024,
                -2.1117
            ],
            "rotation": {
                "angle": -45,
                "axis": "y",
                "origin": [
                    7.43614,
                    7.01184,
                    -2.1573
                ]
            },
            "faces": {
                "north": {
                    "uv": [
                        0,
                        3,
                        1.66667,
                        4.33333
                    ],
                    "rotation": 270,
                    "texture": "#0"
                },
                "east": {
                    "uv": [
                        0,
                        3,
                        1.66667,
                        4.33333
                    ],
                    "rotation": 270,
                    "texture": "#0"
                },
                "south": {
                    "uv": [
                        0,
                        3,
                        1.66667,
                        4.33333
                    ],
                    "rotation": 270,
                    "texture": "#0"
                },
                "west": {
                    "uv": [
                        0,
                        3,
                        1.66667,
                        4.33333
                    ],
                    "rotation": 270,
                    "texture": "#0"
                },
                "up": {
                    "uv": [
                        0,
                        3,
                        1.66667,
                        4.33333
                    ],
                    "rotation": 270,
                    "texture": "#0"
                },
                "down": {
                    "uv": [
                        0,
                        3,
                        1.66667,
                        4.33333
                    ],
                    "rotation": 270,
                    "texture": "#0"
                }
            }
        },
        {
            "from": [
                7.54444,
                6.96624,
                -2.2029
            ],
            "to": [
                8.05744,
                7.05744,
                -2.1117
            ],
            "rotation": {
                "angle": 0,
                "axis": "y",
                "origin": [
                    7.88644,
                    7.87712,
                    4.6713
                ]
            },
            "faces": {
                "north": {
                    "uv": [
                        0,
                        3,
                        1.66667,
                        4.33333
                    ],
                    "rotation": 270,
                    "texture": "#0"
                },
                "east": {
                    "uv": [
                        0,
                        3,
                        1.66667,
                        4.33333
                    ],
                    "rotation": 270,
                    "texture": "#0"
                },
                "south": {
                    "uv": [
                        0,
                        3,
                        1.66667,
                        4.33333
                    ],
                    "rotation": 270,
                    "texture": "#0"
                },
                "west": {
                    "uv": [
                        0,
                        3,
                        1.66667,
                        4.33333
                    ],
                    "rotation": 270,
                    "texture": "#0"
                },
                "up": {
                    "uv": [
                        0,
                        3,
                        1.66667,
                        4.33333
                    ],
                    "rotation": 270,
                    "texture": "#0"
                },
                "down": {
                    "uv": [
                        0,
                        3,
                        1.66667,
                        4.33333
                    ],
                    "rotation": 270,
                    "texture": "#0"
                }
            }
        }
    ],
    "display": {
        "thirdperson_righthand": {
            "translation": [
                -0.75,
                0.75,
                -1
            ]
        },
        "thirdperson_lefthand": {
            "translation": [
                -0.75,
                0.75,
                -1
            ]
        },
        "firstperson_righthand": {
            "translation": [
                -4.5,
                6,
                4.25
            ]
        },
        "firstperson_lefthand": {
            "translation": [
                -4.5,
                6,
                4.25
            ]
        },
        "ground": {
            "translation": [
                -0.5,
                5,
                6.25
            ]
        },
        "gui": {
            "rotation": [
                29,
                41,
                -29
            ],
            "translation": [
                2,
                0.5,
                0
            ]
        },
        "head": {
            "translation": [
                0,
                8.25,
                0
            ]
        },
        "fixed": {
            "rotation": [
                90,
                45,
                -90
            ],
            "translation": [
                3.5,
                -1.25,
                -1.5
            ],
            "scale": [
                1.32,
                1.32,
                1.32
            ]
        }
    }
}