{
	"credit": "Made with Blockbench",
	"textures": {
		"0": "gci:items/common/all_in_one",
		"particle": "gci:items/common/all_in_one"
	},
	"elements": [
		{
			"name": "skoba",
			"from": [7.67158, 7.56708, 11.78906],
			"to": [8.27158, 7.66708, 14.38906],
			"rotation": {"angle": 0, "axis": "y", "origin": [8.02158, 6.81708, 14.33906]},
			"faces": {
				"north": {"uv": [4.25, 2.625, 4.5, 2.625], "rotation": 180, "texture": "#0"},
				"east": {"uv": [4.25, 2.625, 4.5, 2.625], "rotation": 180, "texture": "#0"},
				"south": {"uv": [4.25, 2.625, 4.5, 2.625], "rotation": 180, "texture": "#0"},
				"west": {"uv": [4.25, 2.625, 4.5, 2.625], "rotation": 180, "texture": "#0"},
				"up": {"uv": [4.25, 2.625, 4.5, 2.625], "rotation": 180, "texture": "#0"},
				"down": {"uv": [4.25, 2.625, 4.5, 2.625], "rotation": 180, "texture": "#0"}
			}
		},
		{
			"name": "skoba",
			"from": [7.64358, 7.76708, 8.18906],
			"to": [8.26758, 8.16708, 11.60906],
			"rotation": {"angle": 0, "axis": "y", "origin": [8.02158, 6.81708, 9.33906]},
			"faces": {
				"north": {"uv": [4.25, 2.625, 4.5, 2.625], "rotation": 180, "texture": "#0"},
				"east": {"uv": [4.25, 2.625, 4.5, 2.625], "rotation": 180, "texture": "#0"},
				"south": {"uv": [4.25, 2.625, 4.5, 2.625], "rotation": 180, "texture": "#0"},
				"west": {"uv": [4.25, 2.625, 4.5, 2.625], "rotation": 180, "texture": "#0"},
				"up": {"uv": [4.25, 2.625, 4.5, 2.625], "rotation": 180, "texture": "#0"},
				"down": {"uv": [4.25, 2.625, 4.5, 2.625], "rotation": 180, "texture": "#0"}
			}
		},
		{
			"name": "skoba",
			"from": [7.90358, 7.32386, 14.2896],
			"to": [8.00758, 7.65186, 14.3896],
			"rotation": {"angle": -22.5, "axis": "x", "origin": [7.95558, 7.31923, 14.28724]},
			"faces": {
				"north": {"uv": [2.25, 3.5, 2.25, 3.5], "rotation": 180, "texture": "#0"},
				"east": {"uv": [2.25, 3.5, 2.25, 3.5], "rotation": 180, "texture": "#0"},
				"south": {"uv": [2.25, 3.5, 2.25, 3.5], "rotation": 180, "texture": "#0"},
				"west": {"uv": [2.25, 3.5, 2.25, 3.5], "rotation": 180, "texture": "#0"},
				"up": {"uv": [2.25, 3.5, 2.25, 3.5], "rotation": 180, "texture": "#0"},
				"down": {"uv": [2.25, 3.5, 2.25, 3.5], "rotation": 180, "texture": "#0"}
			}
		},
		{
			"name": "skoba",
			"from": [7.90358, 7.29743, 14.29017],
			"to": [8.00758, 7.63343, 14.39017],
			"rotation": {"angle": 0, "axis": "y", "origin": [7.95558, 7.31923, 14.28724]},
			"faces": {
				"north": {"uv": [2.25, 3.5, 2.25, 3.5], "rotation": 180, "texture": "#0"},
				"east": {"uv": [2.25, 3.5, 2.25, 3.5], "rotation": 180, "texture": "#0"},
				"south": {"uv": [2.25, 3.5, 2.25, 3.5], "rotation": 180, "texture": "#0"},
				"west": {"uv": [2.25, 3.5, 2.25, 3.5], "rotation": 180, "texture": "#0"},
				"up": {"uv": [2.25, 3.5, 2.25, 3.5], "rotation": 180, "texture": "#0"},
				"down": {"uv": [2.25, 3.5, 2.25, 3.5], "rotation": 180, "texture": "#0"}
			}
		},
		{
			"name": "skoba",
			"from": [7.90358, 7.06648, 14.29068],
			"to": [8.00758, 7.33848, 14.39068],
			"rotation": {"angle": 22.5, "axis": "x", "origin": [7.95558, 7.31923, 14.28724]},
			"faces": {
				"north": {"uv": [2.25, 3.5, 2.25, 3.5], "rotation": 180, "texture": "#0"},
				"east": {"uv": [2.25, 3.5, 2.25, 3.5], "rotation": 180, "texture": "#0"},
				"south": {"uv": [2.25, 3.5, 2.25, 3.5], "rotation": 180, "texture": "#0"},
				"west": {"uv": [2.25, 3.5, 2.25, 3.5], "rotation": 180, "texture": "#0"},
				"up": {"uv": [2.25, 3.5, 2.25, 3.5], "rotation": 180, "texture": "#0"},
				"down": {"uv": [2.25, 3.5, 2.25, 3.5], "rotation": 180, "texture": "#0"}
			}
		},
		{
			"name": "skoba",
			"from": [7.90358, 7.12694, 13.98131],
			"to": [8.00758, 7.22694, 14.09331],
			"rotation": {"angle": -45, "axis": "x", "origin": [7.95558, 7.31923, 14.28724]},
			"faces": {
				"north": {"uv": [2.25, 3.5, 2.25, 3.5], "texture": "#0"},
				"east": {"uv": [2.25, 3.5, 2.25, 3.5], "rotation": 90, "texture": "#0"},
				"south": {"uv": [2.25, 3.5, 2.25, 3.5], "rotation": 180, "texture": "#0"},
				"west": {"uv": [2.25, 3.5, 2.25, 3.5], "rotation": 270, "texture": "#0"},
				"up": {"uv": [2.25, 3.5, 2.25, 3.5], "texture": "#0"},
				"down": {"uv": [2.25, 3.5, 2.25, 3.5], "rotation": 180, "texture": "#0"}
			}
		},
		{
			"name": "skoba",
			"from": [7.87158, 6.72566, 13.64764],
			"to": [8.07158, 6.82566, 14.24764],
			"rotation": {"angle": 0, "axis": "y", "origin": [7.97158, 6.77566, 13.79764]},
			"faces": {
				"north": {"uv": [4.25, 2.625, 4.5, 2.625], "rotation": 270, "texture": "#0"},
				"east": {"uv": [4.25, 2.625, 4.5, 2.625], "rotation": 270, "texture": "#0"},
				"south": {"uv": [4.25, 2.625, 4.5, 2.625], "rotation": 270, "texture": "#0"},
				"west": {"uv": [4.25, 2.625, 4.5, 2.625], "rotation": 270, "texture": "#0"},
				"up": {"uv": [4.25, 2.625, 4.5, 2.625], "rotation": 270, "texture": "#0"},
				"down": {"uv": [4.25, 2.625, 4.5, 2.625], "rotation": 270, "texture": "#0"}
			}
		},
		{
			"name": "skoba",
			"from": [7.87158, 6.77926, 14.21709],
			"to": [8.07158, 6.87926, 14.51709],
			"rotation": {"angle": -22.5, "axis": "x", "origin": [7.97158, 6.82926, 14.36709]},
			"faces": {
				"north": {"uv": [4.25, 2.625, 4.5, 2.625], "rotation": 270, "texture": "#0"},
				"east": {"uv": [4.25, 2.625, 4.5, 2.625], "rotation": 270, "texture": "#0"},
				"south": {"uv": [4.25, 2.625, 4.5, 2.625], "rotation": 270, "texture": "#0"},
				"west": {"uv": [4.25, 2.625, 4.5, 2.625], "rotation": 270, "texture": "#0"},
				"up": {"uv": [4.25, 2.625, 4.5, 2.625], "rotation": 270, "texture": "#0"},
				"down": {"uv": [4.25, 2.625, 4.5, 2.625], "rotation": 270, "texture": "#0"}
			}
		},
		{
			"name": "skoba",
			"from": [7.87158, 6.83189, 14.54552],
			"to": [8.07158, 7.67589, 14.64552],
			"rotation": {"angle": 45, "axis": "x", "origin": [7.97158, 6.98189, 14.59552]},
			"faces": {
				"north": {"uv": [4.25, 2.625, 4.5, 2.625], "rotation": 90, "texture": "#0"},
				"east": {"uv": [4.25, 2.625, 4.5, 2.625], "texture": "#0"},
				"south": {"uv": [4.25, 2.625, 4.5, 2.625], "rotation": 270, "texture": "#0"},
				"west": {"uv": [4.25, 2.625, 4.5, 2.625], "rotation": 180, "texture": "#0"},
				"up": {"uv": [4.25, 2.625, 4.5, 2.625], "rotation": 270, "texture": "#0"},
				"down": {"uv": [4.25, 2.625, 4.5, 2.625], "rotation": 90, "texture": "#0"}
			}
		},
		{
			"name": "skoba",
			"from": [7.87158, 7.40789, 12.84952],
			"to": [8.07158, 8.02789, 13.01352],
			"rotation": {"angle": 45, "axis": "x", "origin": [7.97158, 7.33389, 12.89952]},
			"faces": {
				"north": {"uv": [4.25, 2.625, 4.5, 2.625], "rotation": 90, "texture": "#0"},
				"east": {"uv": [4.25, 2.625, 4.5, 2.625], "texture": "#0"},
				"south": {"uv": [4.25, 2.625, 4.5, 2.625], "rotation": 270, "texture": "#0"},
				"west": {"uv": [4.25, 2.625, 4.5, 2.625], "rotation": 180, "texture": "#0"},
				"up": {"uv": [4.25, 2.625, 4.5, 2.625], "rotation": 270, "texture": "#0"},
				"down": {"uv": [4.25, 2.625, 4.5, 2.625], "rotation": 90, "texture": "#0"}
			}
		},
		{
			"name": "skoba",
			"from": [7.87158, 6.74099, 13.27058],
			"to": [8.07158, 6.84099, 13.67058],
			"rotation": {"angle": 22.5, "axis": "x", "origin": [7.97158, 6.79099, 13.62058]},
			"faces": {
				"north": {"uv": [4.25, 2.625, 4.5, 2.625], "rotation": 270, "texture": "#0"},
				"east": {"uv": [4.25, 2.625, 4.5, 2.625], "rotation": 270, "texture": "#0"},
				"south": {"uv": [4.25, 2.625, 4.5, 2.625], "rotation": 270, "texture": "#0"},
				"west": {"uv": [4.25, 2.625, 4.5, 2.625], "rotation": 270, "texture": "#0"},
				"up": {"uv": [4.25, 2.625, 4.5, 2.625], "rotation": 270, "texture": "#0"},
				"down": {"uv": [4.25, 2.625, 4.5, 2.625], "rotation": 270, "texture": "#0"}
			}
		},
		{
			"name": "skoba",
			"from": [7.87158, 6.84087, 13.08666],
			"to": [8.07158, 7.81687, 13.18667],
			"rotation": {"angle": -45, "axis": "x", "origin": [7.97158, 7.09087, 13.13667]},
			"faces": {
				"north": {"uv": [4.25, 2.625, 4.5, 2.625], "rotation": 180, "texture": "#0"},
				"east": {"uv": [4.25, 2.625, 4.5, 2.625], "rotation": 180, "texture": "#0"},
				"south": {"uv": [4.25, 2.625, 4.5, 2.625], "rotation": 180, "texture": "#0"},
				"west": {"uv": [4.25, 2.625, 4.5, 2.625], "rotation": 180, "texture": "#0"},
				"up": {"uv": [4.25, 2.625, 4.5, 2.625], "rotation": 180, "texture": "#0"},
				"down": {"uv": [4.25, 2.625, 4.5, 2.625], "rotation": 180, "texture": "#0"}
			}
		},
		{
			"name": "skoba",
			"from": [7.87158, 7.41687, 13.08666],
			"to": [8.07158, 7.94487, 13.28267],
			"rotation": {"angle": -45, "axis": "x", "origin": [7.97158, 7.21887, 13.13667]},
			"faces": {
				"north": {"uv": [4.25, 2.625, 4.5, 2.625], "rotation": 180, "texture": "#0"},
				"east": {"uv": [4.25, 2.625, 4.5, 2.625], "rotation": 180, "texture": "#0"},
				"south": {"uv": [4.25, 2.625, 4.5, 2.625], "rotation": 180, "texture": "#0"},
				"west": {"uv": [4.25, 2.625, 4.5, 2.625], "rotation": 180, "texture": "#0"},
				"up": {"uv": [4.25, 2.625, 4.5, 2.625], "rotation": 180, "texture": "#0"},
				"down": {"uv": [4.25, 2.625, 4.5, 2.625], "rotation": 180, "texture": "#0"}
			}
		},
		{
			"name": "skoba",
			"from": [7.87158, 7.09687, 14.39866],
			"to": [8.07158, 7.72087, 14.81867],
			"rotation": {"angle": -45, "axis": "x", "origin": [7.97158, 7.57087, 14.44867]},
			"faces": {
				"north": {"uv": [4.25, 2.625, 4.5, 2.625], "rotation": 180, "texture": "#0"},
				"east": {"uv": [4.25, 2.625, 4.5, 2.625], "rotation": 180, "texture": "#0"},
				"south": {"uv": [4.25, 2.625, 4.5, 2.625], "rotation": 180, "texture": "#0"},
				"west": {"uv": [4.25, 2.625, 4.5, 2.625], "rotation": 180, "texture": "#0"},
				"up": {"uv": [4.25, 2.625, 4.5, 2.625], "rotation": 180, "texture": "#0"},
				"down": {"uv": [4.25, 2.625, 4.5, 2.625], "rotation": 180, "texture": "#0"}
			}
		},
		{
			"name": "skoba",
			"from": [7.87158, 7.00087, 14.55809],
			"to": [8.07158, 7.42945, 14.6608],
			"rotation": {"angle": 0, "axis": "y", "origin": [7.97158, 7.31487, 14.48067]},
			"faces": {
				"north": {"uv": [4.25, 2.625, 4.5, 2.625], "rotation": 180, "texture": "#0"},
				"east": {"uv": [4.25, 2.625, 4.5, 2.625], "rotation": 180, "texture": "#0"},
				"south": {"uv": [4.25, 2.625, 4.5, 2.625], "rotation": 180, "texture": "#0"},
				"west": {"uv": [4.25, 2.625, 4.5, 2.625], "rotation": 180, "texture": "#0"},
				"up": {"uv": [4.25, 2.625, 4.5, 2.625], "rotation": 180, "texture": "#0"},
				"down": {"uv": [4.25, 2.625, 4.5, 2.625], "rotation": 180, "texture": "#0"}
			}
		},
		{
			"name": "skoba",
			"from": [7.87158, 7.12887, 14.65409],
			"to": [8.07158, 7.42945, 14.7568],
			"rotation": {"angle": 0, "axis": "y", "origin": [7.97158, 7.31487, 14.57667]},
			"faces": {
				"north": {"uv": [4.25, 2.625, 4.5, 2.625], "rotation": 180, "texture": "#0"},
				"east": {"uv": [4.25, 2.625, 4.5, 2.625], "rotation": 180, "texture": "#0"},
				"south": {"uv": [4.25, 2.625, 4.5, 2.625], "rotation": 180, "texture": "#0"},
				"west": {"uv": [4.25, 2.625, 4.5, 2.625], "rotation": 180, "texture": "#0"},
				"up": {"uv": [4.25, 2.625, 4.5, 2.625], "rotation": 180, "texture": "#0"},
				"down": {"uv": [4.25, 2.625, 4.5, 2.625], "rotation": 180, "texture": "#0"}
			}
		},
		{
			"name": "skoba",
			"from": [7.87158, 7.19358, 12.96324],
			"to": [8.07158, 7.59358, 13.09524],
			"rotation": {"angle": 0, "axis": "y", "origin": [8.02158, 6.41158, 13.04524]},
			"faces": {
				"north": {"uv": [4.25, 2.625, 4.5, 2.625], "rotation": 180, "texture": "#0"},
				"east": {"uv": [4.25, 2.625, 4.5, 2.625], "rotation": 180, "texture": "#0"},
				"south": {"uv": [4.25, 2.625, 4.5, 2.625], "rotation": 180, "texture": "#0"},
				"west": {"uv": [4.25, 2.625, 4.5, 2.625], "rotation": 180, "texture": "#0"},
				"up": {"uv": [4.25, 2.625, 4.5, 2.625], "rotation": 180, "texture": "#0"},
				"down": {"uv": [4.25, 2.625, 4.5, 2.625], "rotation": 180, "texture": "#0"}
			}
		},
		{
			"name": "lozhe",
			"from": [7.67158, 7.96708, 8.41306],
			"to": [8.17158, 9.26708, 14.18906],
			"rotation": {"angle": 0, "axis": "y", "origin": [8.02158, 8.01708, 14.73906]},
			"faces": {
				"north": {"uv": [0.25, 2.5, 0.5, 3.075], "rotation": 180, "texture": "#0"},
				"east": {"uv": [0.25, 2.5, 0.5, 3.075], "rotation": 180, "texture": "#0"},
				"south": {"uv": [0.25, 2.5, 0.5, 3.075], "rotation": 180, "texture": "#0"},
				"west": {"uv": [0.25, 2.5, 0.5, 3.075], "rotation": 180, "texture": "#0"},
				"up": {"uv": [0.25, 2.5, 0.5, 3.075], "rotation": 180, "texture": "#0"},
				"down": {"uv": [0.25, 2.5, 0.5, 3.075], "rotation": 180, "texture": "#0"}
			}
		},
		{
			"name": "lozhe",
			"from": [7.67158, 9.06708, 8.25306],
			"to": [8.27158, 9.26708, 8.88906],
			"rotation": {"angle": 0, "axis": "y", "origin": [8.02158, 8.01708, 14.73906]},
			"faces": {
				"north": {"uv": [0.25, 2.5, 0.5, 3.075], "rotation": 180, "texture": "#0"},
				"east": {"uv": [0.25, 2.5, 0.5, 3.075], "rotation": 180, "texture": "#0"},
				"south": {"uv": [0.25, 2.5, 0.5, 3.075], "rotation": 180, "texture": "#0"},
				"west": {"uv": [0.25, 2.5, 0.5, 3.075], "rotation": 180, "texture": "#0"},
				"up": {"uv": [0.25, 2.5, 0.5, 3.075], "rotation": 180, "texture": "#0"},
				"down": {"uv": [0.25, 2.5, 0.5, 3.075], "rotation": 180, "texture": "#0"}
			}
		},
		{
			"name": "lozhe",
			"from": [7.45944, 7.95495, 8.18906],
			"to": [7.75944, 9.05495, 14.18906],
			"rotation": {"angle": 0, "axis": "y", "origin": [8.00944, 8.00495, 14.73906]},
			"faces": {
				"north": {"uv": [4.125, 3.875, 4.25, 3.875], "rotation": 180, "texture": "#0"},
				"east": {"uv": [4.125, 3.875, 4.25, 3.875], "rotation": 180, "texture": "#0"},
				"south": {"uv": [4.125, 3.875, 4.25, 3.875], "rotation": 180, "texture": "#0"},
				"west": {"uv": [4.125, 3.875, 4.25, 3.875], "rotation": 180, "texture": "#0"},
				"up": {"uv": [4.125, 3.875, 4.25, 3.875], "rotation": 180, "texture": "#0"},
				"down": {"uv": [4.125, 3.875, 4.25, 3.875], "rotation": 180, "texture": "#0"}
			}
		},
		{
			"name": "lozhe",
			"from": [8.21571, 7.66695, 8.18906],
			"to": [8.48371, 8.65495, 14.18906],
			"rotation": {"angle": 0, "axis": "y", "origin": [8.83371, 8.00495, 14.73906]},
			"faces": {
				"north": {"uv": [4.125, 3.875, 4.25, 3.875], "rotation": 180, "texture": "#0"},
				"east": {"uv": [4.125, 3.875, 4.25, 3.875], "rotation": 180, "texture": "#0"},
				"south": {"uv": [4.125, 3.875, 4.25, 3.875], "rotation": 180, "texture": "#0"},
				"west": {"uv": [4.125, 3.875, 4.25, 3.875], "rotation": 180, "texture": "#0"},
				"up": {"uv": [4.125, 3.875, 4.25, 3.875], "rotation": 180, "texture": "#0"},
				"down": {"uv": [4.125, 3.875, 4.25, 3.875], "rotation": 180, "texture": "#0"}
			}
		},
		{
			"name": "lozhe",
			"from": [7.45944, 7.66695, 8.18906],
			"to": [7.72744, 7.95495, 14.18906],
			"rotation": {"angle": 0, "axis": "y", "origin": [8.12971, 8.00495, 14.73906]},
			"faces": {
				"north": {"uv": [4.125, 3.875, 4.25, 3.875], "rotation": 180, "texture": "#0"},
				"east": {"uv": [4.125, 3.875, 4.25, 3.875], "rotation": 180, "texture": "#0"},
				"south": {"uv": [4.125, 3.875, 4.25, 3.875], "rotation": 180, "texture": "#0"},
				"west": {"uv": [4.125, 3.875, 4.25, 3.875], "rotation": 180, "texture": "#0"},
				"up": {"uv": [4.125, 3.875, 4.25, 3.875], "rotation": 180, "texture": "#0"},
				"down": {"uv": [4.125, 3.875, 4.25, 3.875], "rotation": 180, "texture": "#0"}
			}
		},
		{
			"name": "lozhe",
			"from": [8.18371, 8.65495, 11.78906],
			"to": [8.48371, 9.05495, 14.18906],
			"rotation": {"angle": 0, "axis": "y", "origin": [8.83371, 8.40495, 14.73906]},
			"faces": {
				"north": {"uv": [4.125, 3.875, 4.25, 3.875], "rotation": 180, "texture": "#0"},
				"east": {"uv": [4.125, 3.875, 4.25, 3.875], "rotation": 180, "texture": "#0"},
				"south": {"uv": [4.125, 3.875, 4.25, 3.875], "rotation": 180, "texture": "#0"},
				"west": {"uv": [4.125, 3.875, 4.25, 3.875], "rotation": 180, "texture": "#0"},
				"up": {"uv": [4.125, 3.875, 4.25, 3.875], "rotation": 180, "texture": "#0"},
				"down": {"uv": [4.125, 3.875, 4.25, 3.875], "rotation": 180, "texture": "#0"}
			}
		},
		{
			"name": "lozhe",
			"from": [8.18371, 8.65495, 8.18906],
			"to": [8.48371, 9.05495, 9.88906],
			"rotation": {"angle": 0, "axis": "y", "origin": [8.83371, 8.40495, 10.73906]},
			"faces": {
				"north": {"uv": [4.125, 3.875, 4.25, 3.875], "rotation": 180, "texture": "#0"},
				"east": {"uv": [4.125, 3.875, 4.25, 3.875], "rotation": 180, "texture": "#0"},
				"south": {"uv": [4.125, 3.875, 4.25, 3.875], "rotation": 180, "texture": "#0"},
				"west": {"uv": [4.125, 3.875, 4.25, 3.875], "rotation": 180, "texture": "#0"},
				"up": {"uv": [4.125, 3.875, 4.25, 3.875], "rotation": 180, "texture": "#0"},
				"down": {"uv": [4.125, 3.875, 4.25, 3.875], "rotation": 180, "texture": "#0"}
			}
		},
		{
			"name": "lozhe",
			"from": [8.18371, 8.65495, 9.85306],
			"to": [8.45171, 9.02295, 11.84106],
			"rotation": {"angle": 0, "axis": "y", "origin": [8.83371, 8.40495, 12.69106]},
			"faces": {
				"north": {"uv": [2, 3.5, 2, 3.5], "rotation": 180, "texture": "#0"},
				"east": {"uv": [2, 3.5, 2, 3.5], "rotation": 180, "texture": "#0"},
				"south": {"uv": [2, 3.5, 2, 3.5], "rotation": 180, "texture": "#0"},
				"west": {"uv": [2, 3.5, 2, 3.5], "rotation": 180, "texture": "#0"},
				"up": {"uv": [2, 3.5, 2, 3.5], "rotation": 180, "texture": "#0"},
				"down": {"uv": [2, 3.5, 2, 3.5], "rotation": 180, "texture": "#0"}
			}
		},
		{
			"name": "lozhe",
			"from": [7.67158, 7.59212, 13.14132],
			"to": [8.27158, 8.68451, 14.17959],
			"rotation": {"angle": 22.5, "axis": "x", "origin": [8.02158, 6.34212, 15.12959]},
			"faces": {
				"north": {"uv": [4.125, 3.875, 4.25, 3.875], "rotation": 180, "texture": "#0"},
				"east": {"uv": [4.125, 3.875, 4.25, 3.875], "rotation": 180, "texture": "#0"},
				"south": {"uv": [4.125, 3.875, 4.25, 3.875], "rotation": 180, "texture": "#0"},
				"west": {"uv": [4.125, 3.875, 4.25, 3.875], "rotation": 180, "texture": "#0"},
				"up": {"uv": [4.125, 3.875, 4.25, 3.875], "rotation": 180, "texture": "#0"},
				"down": {"uv": [4.125, 3.875, 4.25, 3.875], "rotation": 180, "texture": "#0"}
			}
		},
		{
			"name": "lozhe",
			"from": [7.54358, 7.7862, 14.11701],
			"to": [8.39958, 7.9506, 14.2814],
			"rotation": {"angle": -45, "axis": "x", "origin": [7.97158, 8.16133, 14.3272]},
			"faces": {
				"north": {"uv": [2.25, 3.25, 2.25, 3.25], "rotation": 270, "texture": "#0"},
				"east": {"uv": [2.25, 3.25, 2.25, 3.25], "rotation": 270, "texture": "#0"},
				"south": {"uv": [2.25, 3.25, 2.25, 3.25], "rotation": 270, "texture": "#0"},
				"west": {"uv": [2.25, 3.25, 2.25, 3.25], "rotation": 270, "texture": "#0"},
				"up": {"uv": [2.25, 3.25, 2.25, 3.25], "rotation": 270, "texture": "#0"},
				"down": {"uv": [2.25, 3.25, 2.25, 3.25], "rotation": 270, "texture": "#0"}
			}
		},
		{
			"name": "lozhe",
			"from": [7.44758, 7.8182, 12.86901],
			"to": [8.49558, 7.9826, 13.0334],
			"rotation": {"angle": -45, "axis": "x", "origin": [7.97158, 8.19333, 13.0792]},
			"faces": {
				"north": {"uv": [2.25, 3.25, 2.25, 3.25], "rotation": 270, "texture": "#0"},
				"east": {"uv": [2.25, 3.25, 2.25, 3.25], "rotation": 270, "texture": "#0"},
				"south": {"uv": [2.25, 3.25, 2.25, 3.25], "rotation": 270, "texture": "#0"},
				"west": {"uv": [2.25, 3.25, 2.25, 3.25], "rotation": 270, "texture": "#0"},
				"up": {"uv": [2.25, 3.25, 2.25, 3.25], "rotation": 270, "texture": "#0"},
				"down": {"uv": [2.25, 3.25, 2.25, 3.25], "rotation": 270, "texture": "#0"}
			}
		},
		{
			"name": "lozhe",
			"from": [7.44758, 7.8502, 10.94901],
			"to": [8.49558, 7.9826, 11.0814],
			"rotation": {"angle": -45, "axis": "x", "origin": [7.97158, 8.22533, 11.1592]},
			"faces": {
				"north": {"uv": [2.25, 3.25, 2.25, 3.25], "rotation": 270, "texture": "#0"},
				"east": {"uv": [2.25, 3.25, 2.25, 3.25], "rotation": 270, "texture": "#0"},
				"south": {"uv": [2.25, 3.25, 2.25, 3.25], "rotation": 270, "texture": "#0"},
				"west": {"uv": [2.25, 3.25, 2.25, 3.25], "rotation": 270, "texture": "#0"},
				"up": {"uv": [2.25, 3.25, 2.25, 3.25], "rotation": 270, "texture": "#0"},
				"down": {"uv": [2.25, 3.25, 2.25, 3.25], "rotation": 270, "texture": "#0"}
			}
		},
		{
			"name": "lozhe",
			"from": [7.67158, 6.86405, 13.6991],
			"to": [8.27158, 7.85702, 14.69618],
			"rotation": {"angle": 45, "axis": "x", "origin": [8.02158, 6.61405, 15.64618]},
			"faces": {
				"north": {"uv": [4.125, 3.875, 4.25, 3.875], "rotation": 180, "texture": "#0"},
				"east": {"uv": [4.125, 3.875, 4.25, 3.875], "rotation": 180, "texture": "#0"},
				"south": {"uv": [4.125, 3.875, 4.25, 3.875], "rotation": 180, "texture": "#0"},
				"west": {"uv": [4.125, 3.875, 4.25, 3.875], "rotation": 180, "texture": "#0"},
				"up": {"uv": [4.125, 3.875, 4.25, 3.875], "rotation": 180, "texture": "#0"},
				"down": {"uv": [4.125, 3.875, 4.25, 3.875], "rotation": 180, "texture": "#0"}
			}
		},
		{
			"name": "lozhe",
			"from": [7.67158, 7.66708, 11.35306],
			"to": [8.27158, 7.96708, 14.78906],
			"rotation": {"angle": 0, "axis": "y", "origin": [8.02158, 7.11708, 14.73906]},
			"faces": {
				"north": {"uv": [4.125, 3.875, 4.25, 3.875], "rotation": 180, "texture": "#0"},
				"east": {"uv": [4.125, 3.875, 4.25, 3.875], "rotation": 180, "texture": "#0"},
				"south": {"uv": [4.125, 3.875, 4.25, 3.875], "rotation": 180, "texture": "#0"},
				"west": {"uv": [4.125, 3.875, 4.25, 3.875], "rotation": 180, "texture": "#0"},
				"up": {"uv": [4.125, 3.875, 4.25, 3.875], "rotation": 180, "texture": "#0"},
				"down": {"uv": [4.125, 3.875, 4.25, 3.875], "rotation": 180, "texture": "#0"}
			}
		},
		{
			"name": "lozhe",
			"from": [7.67158, 7.66708, 8.18506],
			"to": [8.27158, 7.96708, 9.57306],
			"rotation": {"angle": 0, "axis": "y", "origin": [8.02158, 7.11708, 11.82706]},
			"faces": {
				"north": {"uv": [4.125, 3.875, 4.25, 3.875], "rotation": 180, "texture": "#0"},
				"east": {"uv": [4.125, 3.875, 4.25, 3.875], "rotation": 180, "texture": "#0"},
				"south": {"uv": [4.125, 3.875, 4.25, 3.875], "rotation": 180, "texture": "#0"},
				"west": {"uv": [4.125, 3.875, 4.25, 3.875], "rotation": 180, "texture": "#0"},
				"up": {"uv": [4.125, 3.875, 4.25, 3.875], "rotation": 180, "texture": "#0"},
				"down": {"uv": [4.125, 3.875, 4.25, 3.875], "rotation": 180, "texture": "#0"}
			}
		},
		{
			"name": "lozhe",
			"from": [7.57158, 7.69753, 13.42775],
			"to": [8.37158, 8.79753, 14.93175],
			"rotation": {"angle": 22.5, "axis": "x", "origin": [7.97158, 8.01485, 14.45987]},
			"faces": {
				"north": {"uv": [3.75, 2.75, 4.25, 2.75], "rotation": 180, "texture": "#0"},
				"east": {"uv": [3.75, 2.75, 4.25, 2.75], "rotation": 180, "texture": "#0"},
				"south": {"uv": [3.75, 2.75, 4.25, 2.75], "rotation": 180, "texture": "#0"},
				"west": {"uv": [3.75, 2.75, 4.25, 2.75], "rotation": 180, "texture": "#0"},
				"up": {"uv": [3.75, 2.75, 4.25, 2.75], "rotation": 180, "texture": "#0"},
				"down": {"uv": [3.75, 2.75, 4.25, 2.75], "rotation": 180, "texture": "#0"}
			}
		},
		{
			"name": "lozhe",
			"from": [7.57158, 7.39753, -1.11625],
			"to": [8.37158, 7.69753, 7.48375],
			"rotation": {"angle": 0, "axis": "y", "origin": [7.97158, 8.29753, 6.98375]},
			"faces": {
				"north": {"uv": [0.25, 2.5, 0.5, 3.075], "rotation": 180, "texture": "#0"},
				"east": {"uv": [0.25, 2.5, 0.5, 3.075], "rotation": 180, "texture": "#0"},
				"south": {"uv": [0.25, 2.5, 0.5, 3.075], "rotation": 180, "texture": "#0"},
				"west": {"uv": [0.25, 2.5, 0.5, 3.075], "rotation": 180, "texture": "#0"},
				"up": {"uv": [0.25, 2.5, 0.25, 2.5], "rotation": 180, "texture": "#0"},
				"down": {"uv": [0.25, 2.5, 0.5, 3.075], "rotation": 180, "texture": "#0"}
			}
		},
		{
			"name": "lozhe",
			"from": [7.68371, 7.1854, -1.11625],
			"to": [8.25945, 7.49753, 7.48375],
			"rotation": {"angle": 0, "axis": "y", "origin": [7.97158, 8.09753, 6.98375]},
			"faces": {
				"north": {"uv": [0.25, 2.5, 0.5, 3.075], "rotation": 180, "texture": "#0"},
				"east": {"uv": [0.25, 2.5, 0.5, 3.075], "rotation": 180, "texture": "#0"},
				"south": {"uv": [0.25, 2.5, 0.5, 3.075], "rotation": 180, "texture": "#0"},
				"west": {"uv": [0.25, 2.5, 0.5, 3.075], "rotation": 180, "texture": "#0"},
				"up": {"uv": [0.25, 2.5, 0.25, 2.5], "rotation": 180, "texture": "#0"},
				"down": {"uv": [0.25, 2.5, 0.5, 3.075], "rotation": 180, "texture": "#0"}
			}
		},
		{
			"name": "lozhe",
			"from": [8.31158, 7.59753, -1.11625],
			"to": [8.47158, 8.79753, 5.48375],
			"rotation": {"angle": 0, "axis": "y", "origin": [7.97158, 8.09753, 6.98375]},
			"faces": {
				"north": {"uv": [0.25, 2.5, 0.5, 3.075], "rotation": 180, "texture": "#0"},
				"east": {"uv": [0.25, 2.5, 0.5, 3.075], "rotation": 180, "texture": "#0"},
				"south": {"uv": [0.25, 2.5, 0.5, 3.075], "rotation": 180, "texture": "#0"},
				"west": {"uv": [0.25, 2.5, 0.5, 3.075], "rotation": 180, "texture": "#0"},
				"up": {"uv": [0.25, 2.5, 0.25, 2.5], "rotation": 180, "texture": "#0"},
				"down": {"uv": [0.25, 2.5, 0.5, 3.075], "rotation": 180, "texture": "#0"}
			}
		},
		{
			"name": "lozhe",
			"from": [7.47158, 7.59753, -1.11625],
			"to": [7.63958, 8.79753, 5.48375],
			"rotation": {"angle": 0, "axis": "y", "origin": [7.97158, 8.09753, 6.98375]},
			"faces": {
				"north": {"uv": [0.25, 2.5, 0.5, 3.075], "rotation": 180, "texture": "#0"},
				"east": {"uv": [0.25, 2.5, 0.5, 3.075], "rotation": 180, "texture": "#0"},
				"south": {"uv": [0.25, 2.5, 0.5, 3.075], "rotation": 180, "texture": "#0"},
				"west": {"uv": [0.25, 2.5, 0.5, 3.075], "rotation": 180, "texture": "#0"},
				"up": {"uv": [0.25, 2.5, 0.25, 2.5], "rotation": 180, "texture": "#0"},
				"down": {"uv": [0.25, 2.5, 0.5, 3.075], "rotation": 180, "texture": "#0"}
			}
		},
		{
			"name": "lozhe",
			"from": [7.47168, 7.39753, -1.11625],
			"to": [8.47168, 8.29753, 7.48375],
			"rotation": {"angle": 0, "axis": "y", "origin": [7.97158, 8.09753, 8.98375]},
			"faces": {
				"north": {"uv": [0.25, 2.5, 0.5, 3.075], "rotation": 180, "texture": "#0"},
				"east": {"uv": [0.25, 2.5, 0.5, 3.075], "rotation": 180, "texture": "#0"},
				"south": {"uv": [0.25, 2.5, 0.5, 3.075], "rotation": 180, "texture": "#0"},
				"west": {"uv": [0.25, 2.5, 0.5, 3.075], "rotation": 180, "texture": "#0"},
				"up": {"uv": [0.25, 2.5, 0.25, 2.5], "rotation": 180, "texture": "#0"},
				"down": {"uv": [0.25, 2.5, 0.5, 3.075], "rotation": 180, "texture": "#0"}
			}
		},
		{
			"name": "lozhe",
			"from": [7.47168, 7.39753, -1.11625],
			"to": [8.47158, 8.79753, -0.96425],
			"rotation": {"angle": 0, "axis": "y", "origin": [7.97158, 8.09753, 8.98375]},
			"faces": {
				"north": {"uv": [0.25, 2.5, 0.5, 3.075], "rotation": 180, "texture": "#0"},
				"east": {"uv": [0.25, 2.5, 0.5, 3.075], "rotation": 180, "texture": "#0"},
				"south": {"uv": [0.25, 2.5, 0.5, 3.075], "rotation": 180, "texture": "#0"},
				"west": {"uv": [0.25, 2.5, 0.5, 3.075], "rotation": 180, "texture": "#0"},
				"up": {"uv": [0.25, 2.5, 0.25, 2.5], "rotation": 180, "texture": "#0"},
				"down": {"uv": [0.25, 2.5, 0.5, 3.075], "rotation": 180, "texture": "#0"}
			}
		},
		{
			"name": "lozhe",
			"from": [8.27158, 8.17449, 5.3996],
			"to": [8.47158, 8.77449, 6.9996],
			"rotation": {"angle": 22.5, "axis": "x", "origin": [7.97158, 8.57449, 5.4996]},
			"faces": {
				"north": {"uv": [0.25, 2.5, 0.5, 3.075], "rotation": 180, "texture": "#0"},
				"east": {"uv": [0.25, 2.5, 0.5, 3.075], "rotation": 180, "texture": "#0"},
				"south": {"uv": [0.25, 2.5, 0.5, 3.075], "rotation": 180, "texture": "#0"},
				"west": {"uv": [0.25, 2.5, 0.5, 3.075], "rotation": 180, "texture": "#0"},
				"up": {"uv": [0.25, 2.5, 0.25, 2.5], "rotation": 180, "texture": "#0"},
				"down": {"uv": [0.25, 2.5, 0.5, 3.075], "rotation": 180, "texture": "#0"}
			}
		},
		{
			"name": "lozhe",
			"from": [7.47158, 8.17449, 5.3996],
			"to": [7.63958, 8.77449, 6.9996],
			"rotation": {"angle": 22.5, "axis": "x", "origin": [7.97158, 8.57449, 5.4996]},
			"faces": {
				"north": {"uv": [0.25, 2.5, 0.5, 3.075], "rotation": 180, "texture": "#0"},
				"east": {"uv": [0.25, 2.5, 0.5, 3.075], "rotation": 180, "texture": "#0"},
				"south": {"uv": [0.25, 2.5, 0.5, 3.075], "rotation": 180, "texture": "#0"},
				"west": {"uv": [0.25, 2.5, 0.5, 3.075], "rotation": 180, "texture": "#0"},
				"up": {"uv": [0.25, 2.5, 0.25, 2.5], "rotation": 180, "texture": "#0"},
				"down": {"uv": [0.25, 2.5, 0.5, 3.075], "rotation": 180, "texture": "#0"}
			}
		},
		{
			"from": [8.26813, 7.15631, -1.11625],
			"to": [8.46413, 7.45631, 7.48375],
			"rotation": {"angle": -45, "axis": "z", "origin": [8.3969, 7.41793, 4.58375]},
			"faces": {
				"north": {"uv": [0.25, 3.25, 0.5, 3.25], "texture": "#0"},
				"east": {"uv": [0.25, 3.25, 0.5, 3.25], "texture": "#0"},
				"south": {"uv": [0.25, 3.25, 0.5, 3.25], "texture": "#0"},
				"west": {"uv": [0.25, 3.25, 0.5, 3.25], "texture": "#0"},
				"up": {"uv": [0.25, 2.5, 0.25, 2.5], "texture": "#0"},
				"down": {"uv": [0.25, 3.25, 0.5, 3.25], "texture": "#0"}
			}
		},
		{
			"from": [7.44249, 7.19284, -1.11625],
			"to": [7.74249, 7.38884, 7.48375],
			"rotation": {"angle": -45, "axis": "z", "origin": [7.70412, 7.26007, 4.58375]},
			"faces": {
				"north": {"uv": [0.25, 3.25, 0.5, 3.25], "rotation": 270, "texture": "#0"},
				"east": {"uv": [0.25, 3.25, 0.5, 3.25], "rotation": 270, "texture": "#0"},
				"south": {"uv": [0.25, 3.25, 0.5, 3.25], "rotation": 270, "texture": "#0"},
				"west": {"uv": [0.25, 3.25, 0.5, 3.25], "rotation": 270, "texture": "#0"},
				"up": {"uv": [0.25, 2.5, 0.25, 2.5], "rotation": 270, "texture": "#0"},
				"down": {"uv": [0.25, 3.25, 0.5, 3.25], "rotation": 270, "texture": "#0"}
			}
		},
		{
			"from": [7.46201, 7.42618, -1.11625],
			"to": [7.56201, 7.62618, 7.48375],
			"rotation": {"angle": 22.5, "axis": "z", "origin": [7.53881, 7.63591, 4.58375]},
			"faces": {
				"north": {"uv": [0.25, 3.25, 0.5, 3.25], "rotation": 180, "texture": "#0"},
				"east": {"uv": [0.25, 3.25, 0.5, 3.25], "rotation": 180, "texture": "#0"},
				"south": {"uv": [0.25, 3.25, 0.5, 3.25], "rotation": 180, "texture": "#0"},
				"west": {"uv": [0.25, 3.25, 0.5, 3.25], "rotation": 180, "texture": "#0"},
				"up": {"uv": [0.25, 2.5, 0.25, 2.5], "rotation": 180, "texture": "#0"},
				"down": {"uv": [0.25, 3.25, 0.5, 3.25], "rotation": 180, "texture": "#0"}
			}
		},
		{
			"from": [8.29716, 7.44289, -1.11625],
			"to": [8.39716, 7.64289, 7.48375],
			"rotation": {"angle": -22.5, "axis": "z", "origin": [8.32037, 7.43316, 4.58375]},
			"faces": {
				"north": {"uv": [0.25, 3.25, 0.5, 3.25], "texture": "#0"},
				"east": {"uv": [0.25, 3.25, 0.5, 3.25], "texture": "#0"},
				"south": {"uv": [0.25, 3.25, 0.5, 3.25], "texture": "#0"},
				"west": {"uv": [0.25, 3.25, 0.5, 3.25], "texture": "#0"},
				"up": {"uv": [0.25, 3.25, 0.5, 3.25], "texture": "#0"},
				"down": {"uv": [0.25, 3.25, 0.5, 3.25], "texture": "#0"}
			}
		},
		{
			"from": [8.24595, 8.45894, -6.73094],
			"to": [8.34595, 8.75894, 14.18906],
			"rotation": {"angle": 45, "axis": "z", "origin": [7.71609, 8.67323, 5.99591]},
			"faces": {
				"north": {"uv": [1.875, 2.625, 1.875, 3.125], "rotation": 180, "texture": "#0"},
				"east": {"uv": [1.875, 2.625, 1.875, 3.125], "rotation": 180, "texture": "#0"},
				"south": {"uv": [1.875, 2.625, 1.875, 3.125], "rotation": 180, "texture": "#0"},
				"west": {"uv": [1.875, 2.625, 1.875, 3.125], "rotation": 180, "texture": "#0"},
				"up": {"uv": [1.875, 2.625, 1.875, 3.125], "rotation": 180, "texture": "#0"},
				"down": {"uv": [1.875, 2.625, 1.875, 3.125], "rotation": 180, "texture": "#0"}
			}
		},
		{
			"from": [8.24595, 7.75894, -6.78694],
			"to": [8.34595, 8.05894, 14.18906],
			"rotation": {"angle": 45, "axis": "z", "origin": [7.71609, 7.97323, 5.99591]},
			"faces": {
				"north": {"uv": [1.875, 2.625, 1.875, 3.125], "rotation": 180, "texture": "#0"},
				"east": {"uv": [1.875, 2.625, 1.875, 3.125], "rotation": 180, "texture": "#0"},
				"south": {"uv": [1.875, 2.625, 1.875, 3.125], "rotation": 180, "texture": "#0"},
				"west": {"uv": [1.875, 2.625, 1.875, 3.125], "rotation": 180, "texture": "#0"},
				"up": {"uv": [1.875, 2.625, 1.875, 3.125], "rotation": 180, "texture": "#0"},
				"down": {"uv": [1.875, 2.625, 1.875, 3.125], "rotation": 180, "texture": "#0"}
			}
		},
		{
			"from": [7.84595, 8.11752, -6.73094],
			"to": [7.94595, 8.41752, 14.18906],
			"rotation": {"angle": 45, "axis": "z", "origin": [7.31609, 8.33181, 5.99591]},
			"faces": {
				"north": {"uv": [1.875, 2.625, 1.875, 3.125], "rotation": 180, "texture": "#0"},
				"east": {"uv": [1.875, 2.625, 1.875, 3.125], "rotation": 180, "texture": "#0"},
				"south": {"uv": [1.875, 2.625, 1.875, 3.125], "rotation": 180, "texture": "#0"},
				"west": {"uv": [1.875, 2.625, 1.875, 3.125], "rotation": 180, "texture": "#0"},
				"up": {"uv": [1.875, 2.625, 1.875, 3.125], "rotation": 180, "texture": "#0"},
				"down": {"uv": [1.875, 2.625, 1.875, 3.125], "rotation": 180, "texture": "#0"}
			}
		},
		{
			"from": [7.84595, 7.41752, -6.78694],
			"to": [7.94595, 7.71752, 14.18906],
			"rotation": {"angle": 45, "axis": "z", "origin": [7.31609, 7.63181, 5.99591]},
			"faces": {
				"north": {"uv": [1.875, 2.625, 1.875, 3.125], "rotation": 180, "texture": "#0"},
				"east": {"uv": [1.875, 2.625, 1.875, 3.125], "rotation": 180, "texture": "#0"},
				"south": {"uv": [1.875, 2.625, 1.875, 3.125], "rotation": 180, "texture": "#0"},
				"west": {"uv": [1.875, 2.625, 1.875, 3.125], "rotation": 180, "texture": "#0"},
				"up": {"uv": [1.875, 2.625, 1.875, 3.125], "rotation": 180, "texture": "#0"},
				"down": {"uv": [1.875, 2.625, 1.875, 3.125], "rotation": 180, "texture": "#0"}
			}
		},
		{
			"from": [7.84229, 8.42695, -4.65094],
			"to": [8.10219, 8.65495, -3.66694],
			"rotation": {"angle": 0, "axis": "y", "origin": [7.68371, 8.51353, -11.25494]},
			"faces": {
				"north": {"uv": [2.375, 2.75, 2.375, 3.5], "rotation": 270, "texture": "#0"},
				"east": {"uv": [2.375, 2.75, 2.375, 3.5], "rotation": 270, "texture": "#0"},
				"south": {"uv": [2.375, 2.75, 2.375, 3.5], "rotation": 270, "texture": "#0"},
				"west": {"uv": [2.375, 2.75, 2.375, 3.5], "rotation": 270, "texture": "#0"},
				"up": {"uv": [2.375, 2.75, 2.375, 3.5], "rotation": 270, "texture": "#0"},
				"down": {"uv": [2.375, 2.75, 2.375, 3.5], "rotation": 270, "texture": "#0"}
			}
		},
		{
			"from": [8.2718, 8.42797, -4.67192],
			"to": [8.3818, 8.75797, -3.64712],
			"rotation": {"angle": 45, "axis": "z", "origin": [7.68895, 8.66369, 7.84282]},
			"faces": {
				"north": {"uv": [2.375, 2.75, 2.375, 3.5], "rotation": 180, "texture": "#0"},
				"east": {"uv": [2.375, 2.75, 2.375, 3.5], "rotation": 180, "texture": "#0"},
				"south": {"uv": [2.375, 2.75, 2.375, 3.5], "rotation": 180, "texture": "#0"},
				"west": {"uv": [2.375, 2.75, 2.375, 3.5], "rotation": 180, "texture": "#0"},
				"up": {"uv": [2.375, 2.75, 2.375, 3.5], "rotation": 180, "texture": "#0"},
				"down": {"uv": [2.375, 2.75, 2.375, 3.5], "rotation": 180, "texture": "#0"}
			}
		},
		{
			"from": [8.2718, 7.72397, -4.67192],
			"to": [8.3818, 8.05397, -3.64712],
			"rotation": {"angle": 45, "axis": "z", "origin": [7.68895, 7.95969, 7.84282]},
			"faces": {
				"north": {"uv": [2.375, 2.75, 2.375, 3.5], "rotation": 180, "texture": "#0"},
				"east": {"uv": [2.375, 2.75, 2.375, 3.5], "rotation": 180, "texture": "#0"},
				"south": {"uv": [2.375, 2.75, 2.375, 3.5], "rotation": 180, "texture": "#0"},
				"west": {"uv": [2.375, 2.75, 2.375, 3.5], "rotation": 180, "texture": "#0"},
				"up": {"uv": [2.375, 2.75, 2.375, 3.5], "rotation": 180, "texture": "#0"},
				"down": {"uv": [2.375, 2.75, 2.375, 3.5], "rotation": 180, "texture": "#0"}
			}
		},
		{
			"from": [8.23555, 8.76693, -4.67192],
			"to": [8.34555, 8.98693, -3.64712],
			"rotation": {"angle": 0, "axis": "y", "origin": [8.29055, 8.87693, 2.61028]},
			"faces": {
				"north": {"uv": [2.375, 2.75, 2.375, 3.5], "texture": "#0"},
				"east": {"uv": [2.375, 2.75, 2.375, 3.5], "texture": "#0"},
				"south": {"uv": [2.375, 2.75, 2.375, 3.5], "texture": "#0"},
				"west": {"uv": [2.375, 2.75, 2.375, 3.5], "texture": "#0"},
				"up": {"uv": [2.375, 2.75, 2.375, 3.5], "texture": "#0"},
				"down": {"uv": [2.375, 2.75, 2.375, 3.5], "texture": "#0"}
			}
		},
		{
			"from": [8.23555, 8.06293, -4.67192],
			"to": [8.34555, 8.28293, -3.64712],
			"rotation": {"angle": 0, "axis": "y", "origin": [8.29055, 8.17293, 2.61028]},
			"faces": {
				"north": {"uv": [2.375, 2.75, 2.375, 3.5], "texture": "#0"},
				"east": {"uv": [2.375, 2.75, 2.375, 3.5], "texture": "#0"},
				"south": {"uv": [2.375, 2.75, 2.375, 3.5], "texture": "#0"},
				"west": {"uv": [2.375, 2.75, 2.375, 3.5], "texture": "#0"},
				"up": {"uv": [2.375, 2.75, 2.375, 3.5], "texture": "#0"},
				"down": {"uv": [2.375, 2.75, 2.375, 3.5], "texture": "#0"}
			}
		},
		{
			"from": [8.04109, 8.59526, -4.67192],
			"to": [8.37109, 8.70526, -3.64712],
			"rotation": {"angle": 45, "axis": "z", "origin": [8.15109, 8.65026, 2.61028]},
			"faces": {
				"north": {"uv": [2.375, 2.75, 2.375, 3.5], "rotation": 90, "texture": "#0"},
				"east": {"uv": [2.375, 2.75, 2.375, 3.5], "rotation": 90, "texture": "#0"},
				"south": {"uv": [2.375, 2.75, 2.375, 3.5], "rotation": 90, "texture": "#0"},
				"west": {"uv": [2.375, 2.75, 2.375, 3.5], "rotation": 90, "texture": "#0"},
				"up": {"uv": [2.375, 2.75, 2.375, 3.5], "rotation": 90, "texture": "#0"},
				"down": {"uv": [2.375, 2.75, 2.375, 3.5], "rotation": 90, "texture": "#0"}
			}
		},
		{
			"from": [8.04109, 7.89126, -4.67192],
			"to": [8.37109, 8.00126, -3.64712],
			"rotation": {"angle": 45, "axis": "z", "origin": [8.15109, 7.94626, 2.61028]},
			"faces": {
				"north": {"uv": [2.375, 2.75, 2.375, 3.5], "rotation": 90, "texture": "#0"},
				"east": {"uv": [2.375, 2.75, 2.375, 3.5], "rotation": 90, "texture": "#0"},
				"south": {"uv": [2.375, 2.75, 2.375, 3.5], "rotation": 90, "texture": "#0"},
				"west": {"uv": [2.375, 2.75, 2.375, 3.5], "rotation": 90, "texture": "#0"},
				"up": {"uv": [2.375, 2.75, 2.375, 3.5], "rotation": 90, "texture": "#0"},
				"down": {"uv": [2.375, 2.75, 2.375, 3.5], "rotation": 90, "texture": "#0"}
			}
		},
		{
			"from": [7.60109, 8.97082, -4.67192],
			"to": [7.93109, 9.08082, -3.64712],
			"rotation": {"angle": 45, "axis": "z", "origin": [7.71109, 9.02582, 2.61028]},
			"faces": {
				"north": {"uv": [2.375, 2.75, 2.375, 3.5], "rotation": 90, "texture": "#0"},
				"east": {"uv": [2.375, 2.75, 2.375, 3.5], "rotation": 90, "texture": "#0"},
				"south": {"uv": [2.375, 2.75, 2.375, 3.5], "rotation": 90, "texture": "#0"},
				"west": {"uv": [2.375, 2.75, 2.375, 3.5], "rotation": 90, "texture": "#0"},
				"up": {"uv": [2.375, 2.75, 2.375, 3.5], "rotation": 90, "texture": "#0"},
				"down": {"uv": [2.375, 2.75, 2.375, 3.5], "rotation": 90, "texture": "#0"}
			}
		},
		{
			"from": [7.60109, 8.26682, -4.67192],
			"to": [7.93109, 8.37682, -3.64712],
			"rotation": {"angle": 45, "axis": "z", "origin": [7.71109, 8.32182, 2.61028]},
			"faces": {
				"north": {"uv": [2.375, 2.75, 2.375, 3.5], "rotation": 90, "texture": "#0"},
				"east": {"uv": [2.375, 2.75, 2.375, 3.5], "rotation": 90, "texture": "#0"},
				"south": {"uv": [2.375, 2.75, 2.375, 3.5], "rotation": 90, "texture": "#0"},
				"west": {"uv": [2.375, 2.75, 2.375, 3.5], "rotation": 90, "texture": "#0"},
				"up": {"uv": [2.375, 2.75, 2.375, 3.5], "rotation": 90, "texture": "#0"},
				"down": {"uv": [2.375, 2.75, 2.375, 3.5], "rotation": 90, "texture": "#0"}
			}
		},
		{
			"from": [7.59442, 8.76693, -4.67192],
			"to": [7.70442, 8.98693, -3.64712],
			"rotation": {"angle": 0, "axis": "y", "origin": [7.64942, 8.87693, 2.61028]},
			"faces": {
				"north": {"uv": [2.375, 2.75, 2.375, 3.5], "texture": "#0"},
				"east": {"uv": [2.375, 2.75, 2.375, 3.5], "texture": "#0"},
				"south": {"uv": [2.375, 2.75, 2.375, 3.5], "texture": "#0"},
				"west": {"uv": [2.375, 2.75, 2.375, 3.5], "texture": "#0"},
				"up": {"uv": [2.375, 2.75, 2.375, 3.5], "texture": "#0"},
				"down": {"uv": [2.375, 2.75, 2.375, 3.5], "texture": "#0"}
			}
		},
		{
			"from": [7.59442, 8.06293, -4.67192],
			"to": [7.70442, 8.28293, -3.64712],
			"rotation": {"angle": 0, "axis": "y", "origin": [7.64942, 8.17293, 2.61028]},
			"faces": {
				"north": {"uv": [2.375, 2.75, 2.375, 3.5], "texture": "#0"},
				"east": {"uv": [2.375, 2.75, 2.375, 3.5], "texture": "#0"},
				"south": {"uv": [2.375, 2.75, 2.375, 3.5], "texture": "#0"},
				"west": {"uv": [2.375, 2.75, 2.375, 3.5], "texture": "#0"},
				"up": {"uv": [2.375, 2.75, 2.375, 3.5], "texture": "#0"},
				"down": {"uv": [2.375, 2.75, 2.375, 3.5], "texture": "#0"}
			}
		},
		{
			"from": [7.8318, 8.05241, -4.67192],
			"to": [7.9418, 8.38241, -3.64712],
			"rotation": {"angle": 45, "axis": "z", "origin": [7.24895, 8.28813, 7.84282]},
			"faces": {
				"north": {"uv": [2.375, 2.75, 2.375, 3.5], "rotation": 180, "texture": "#0"},
				"east": {"uv": [2.375, 2.75, 2.375, 3.5], "rotation": 180, "texture": "#0"},
				"south": {"uv": [2.375, 2.75, 2.375, 3.5], "rotation": 180, "texture": "#0"},
				"west": {"uv": [2.375, 2.75, 2.375, 3.5], "rotation": 180, "texture": "#0"},
				"up": {"uv": [2.375, 2.75, 2.375, 3.5], "rotation": 180, "texture": "#0"},
				"down": {"uv": [2.375, 2.75, 2.375, 3.5], "rotation": 180, "texture": "#0"}
			}
		},
		{
			"from": [7.8318, 7.34841, -4.67192],
			"to": [7.9418, 7.67841, -3.64712],
			"rotation": {"angle": 45, "axis": "z", "origin": [7.24895, 7.58413, 7.84282]},
			"faces": {
				"north": {"uv": [2.375, 2.75, 2.375, 3.5], "rotation": 180, "texture": "#0"},
				"east": {"uv": [2.375, 2.75, 2.375, 3.5], "rotation": 180, "texture": "#0"},
				"south": {"uv": [2.375, 2.75, 2.375, 3.5], "rotation": 180, "texture": "#0"},
				"west": {"uv": [2.375, 2.75, 2.375, 3.5], "rotation": 180, "texture": "#0"},
				"up": {"uv": [2.375, 2.75, 2.375, 3.5], "rotation": 180, "texture": "#0"},
				"down": {"uv": [2.375, 2.75, 2.375, 3.5], "rotation": 180, "texture": "#0"}
			}
		},
		{
			"from": [8.2718, 7.72197, -2.10952],
			"to": [8.3818, 8.05197, -1.08712],
			"rotation": {"angle": 45, "axis": "z", "origin": [7.68895, 7.95769, 10.40282]},
			"faces": {
				"north": {"uv": [2.375, 2.75, 2.375, 3.5], "rotation": 180, "texture": "#0"},
				"east": {"uv": [2.375, 2.75, 2.375, 3.5], "rotation": 180, "texture": "#0"},
				"south": {"uv": [2.375, 2.75, 2.375, 3.5], "rotation": 180, "texture": "#0"},
				"west": {"uv": [2.375, 2.75, 2.375, 3.5], "rotation": 180, "texture": "#0"},
				"up": {"uv": [2.375, 2.75, 2.375, 3.5], "rotation": 180, "texture": "#0"},
				"down": {"uv": [2.375, 2.75, 2.375, 3.5], "rotation": 180, "texture": "#0"}
			}
		},
		{
			"from": [8.23555, 8.06093, -2.10952],
			"to": [8.34555, 8.28093, -1.08712],
			"rotation": {"angle": 0, "axis": "y", "origin": [8.29055, 8.17093, 5.17028]},
			"faces": {
				"north": {"uv": [2.375, 2.75, 2.375, 3.5], "texture": "#0"},
				"east": {"uv": [2.375, 2.75, 2.375, 3.5], "texture": "#0"},
				"south": {"uv": [2.375, 2.75, 2.375, 3.5], "texture": "#0"},
				"west": {"uv": [2.375, 2.75, 2.375, 3.5], "texture": "#0"},
				"up": {"uv": [2.375, 2.75, 2.375, 3.5], "texture": "#0"},
				"down": {"uv": [2.375, 2.75, 2.375, 3.5], "texture": "#0"}
			}
		},
		{
			"from": [7.82776, 7.82759, -2.10952],
			"to": [8.1122, 8.22593, -1.08712],
			"rotation": {"angle": 0, "axis": "y", "origin": [5.66655, 8.17093, -1.59832]},
			"faces": {
				"north": {"uv": [2.375, 2.75, 2.375, 3.5], "rotation": 270, "texture": "#0"},
				"east": {"uv": [2.375, 2.75, 2.375, 3.5], "rotation": 90, "texture": "#0"},
				"south": {"uv": [2.375, 2.75, 2.375, 3.5], "rotation": 90, "texture": "#0"},
				"west": {"uv": [2.375, 2.75, 2.375, 3.5], "rotation": 90, "texture": "#0"},
				"up": {"uv": [2.375, 2.75, 2.375, 3.5], "rotation": 90, "texture": "#0"},
				"down": {"uv": [2.375, 2.75, 2.375, 3.5], "rotation": 90, "texture": "#0"}
			}
		},
		{
			"from": [7.82776, 8.11559, -2.10952],
			"to": [8.1122, 8.51393, -1.08712],
			"rotation": {"angle": 0, "axis": "y", "origin": [5.66655, 8.45893, -1.59832]},
			"faces": {
				"north": {"uv": [2.375, 2.75, 2.375, 3.5], "rotation": 270, "texture": "#0"},
				"east": {"uv": [2.375, 2.75, 2.375, 3.5], "rotation": 90, "texture": "#0"},
				"south": {"uv": [2.375, 2.75, 2.375, 3.5], "rotation": 90, "texture": "#0"},
				"west": {"uv": [2.375, 2.75, 2.375, 3.5], "rotation": 90, "texture": "#0"},
				"up": {"uv": [2.375, 2.75, 2.375, 3.5], "rotation": 90, "texture": "#0"},
				"down": {"uv": [2.375, 2.75, 2.375, 3.5], "rotation": 90, "texture": "#0"}
			}
		},
		{
			"from": [8.04109, 7.88926, -2.10952],
			"to": [8.37109, 7.99926, -1.08712],
			"rotation": {"angle": 45, "axis": "z", "origin": [8.15109, 7.94426, 5.17028]},
			"faces": {
				"north": {"uv": [2.375, 2.75, 2.375, 3.5], "rotation": 90, "texture": "#0"},
				"east": {"uv": [2.375, 2.75, 2.375, 3.5], "rotation": 90, "texture": "#0"},
				"south": {"uv": [2.375, 2.75, 2.375, 3.5], "rotation": 90, "texture": "#0"},
				"west": {"uv": [2.375, 2.75, 2.375, 3.5], "rotation": 90, "texture": "#0"},
				"up": {"uv": [2.375, 2.75, 2.375, 3.5], "rotation": 90, "texture": "#0"},
				"down": {"uv": [2.375, 2.75, 2.375, 3.5], "rotation": 90, "texture": "#0"}
			}
		},
		{
			"from": [7.60109, 8.26482, -2.10952],
			"to": [7.93109, 8.37482, -1.08712],
			"rotation": {"angle": 45, "axis": "z", "origin": [7.71109, 8.31982, 5.17028]},
			"faces": {
				"north": {"uv": [2.375, 2.75, 2.375, 3.5], "rotation": 90, "texture": "#0"},
				"east": {"uv": [2.375, 2.75, 2.375, 3.5], "rotation": 90, "texture": "#0"},
				"south": {"uv": [2.375, 2.75, 2.375, 3.5], "rotation": 90, "texture": "#0"},
				"west": {"uv": [2.375, 2.75, 2.375, 3.5], "rotation": 90, "texture": "#0"},
				"up": {"uv": [2.375, 2.75, 2.375, 3.5], "rotation": 90, "texture": "#0"},
				"down": {"uv": [2.375, 2.75, 2.375, 3.5], "rotation": 90, "texture": "#0"}
			}
		},
		{
			"from": [7.59442, 8.06093, -2.10952],
			"to": [7.70442, 8.28093, -1.08712],
			"rotation": {"angle": 0, "axis": "y", "origin": [7.64942, 8.17093, 5.17028]},
			"faces": {
				"north": {"uv": [2.375, 2.75, 2.375, 3.5], "texture": "#0"},
				"east": {"uv": [2.375, 2.75, 2.375, 3.5], "texture": "#0"},
				"south": {"uv": [2.375, 2.75, 2.375, 3.5], "texture": "#0"},
				"west": {"uv": [2.375, 2.75, 2.375, 3.5], "texture": "#0"},
				"up": {"uv": [2.375, 2.75, 2.375, 3.5], "texture": "#0"},
				"down": {"uv": [2.375, 2.75, 2.375, 3.5], "texture": "#0"}
			}
		},
		{
			"from": [7.8318, 7.34641, -2.10952],
			"to": [7.9418, 7.67641, -1.08712],
			"rotation": {"angle": 45, "axis": "z", "origin": [7.24895, 7.58213, 10.40282]},
			"faces": {
				"north": {"uv": [2.375, 2.75, 2.375, 3.5], "rotation": 180, "texture": "#0"},
				"east": {"uv": [2.375, 2.75, 2.375, 3.5], "rotation": 180, "texture": "#0"},
				"south": {"uv": [2.375, 2.75, 2.375, 3.5], "rotation": 180, "texture": "#0"},
				"west": {"uv": [2.375, 2.75, 2.375, 3.5], "rotation": 180, "texture": "#0"},
				"up": {"uv": [2.375, 2.75, 2.375, 3.5], "rotation": 180, "texture": "#0"},
				"down": {"uv": [2.375, 2.75, 2.375, 3.5], "rotation": 180, "texture": "#0"}
			}
		},
		{
			"from": [7.63622, 8.95244, -6.73094],
			"to": [7.93622, 9.05244, 14.18906],
			"rotation": {"angle": 45, "axis": "z", "origin": [7.73622, 9.00244, 1.23906]},
			"faces": {
				"north": {"uv": [1.875, 2.625, 1.875, 3.125], "rotation": 90, "texture": "#0"},
				"east": {"uv": [1.875, 2.625, 1.875, 3.125], "rotation": 90, "texture": "#0"},
				"south": {"uv": [1.875, 2.625, 1.875, 3.125], "rotation": 90, "texture": "#0"},
				"west": {"uv": [1.875, 2.625, 1.875, 3.125], "rotation": 90, "texture": "#0"},
				"up": {"uv": [1.875, 2.625, 1.875, 3.125], "rotation": 90, "texture": "#0"},
				"down": {"uv": [1.875, 2.625, 1.875, 3.125], "rotation": 90, "texture": "#0"}
			}
		},
		{
			"from": [7.63622, 8.25244, -6.78694],
			"to": [7.93622, 8.35244, 14.18906],
			"rotation": {"angle": 45, "axis": "z", "origin": [7.73622, 8.30244, 1.23906]},
			"faces": {
				"north": {"uv": [1.875, 2.625, 1.875, 3.125], "rotation": 90, "texture": "#0"},
				"east": {"uv": [1.875, 2.625, 1.875, 3.125], "rotation": 90, "texture": "#0"},
				"south": {"uv": [1.875, 2.625, 1.875, 3.125], "rotation": 90, "texture": "#0"},
				"west": {"uv": [1.875, 2.625, 1.875, 3.125], "rotation": 90, "texture": "#0"},
				"up": {"uv": [1.875, 2.625, 1.875, 3.125], "rotation": 90, "texture": "#0"},
				"down": {"uv": [1.875, 2.625, 1.875, 3.125], "rotation": 90, "texture": "#0"}
			}
		},
		{
			"from": [7.46551, 8.88031, 8.18906],
			"to": [7.76551, 9.14031, 14.18906],
			"rotation": {"angle": 45, "axis": "z", "origin": [7.56551, 9.09031, 1.23906]},
			"faces": {
				"north": {"uv": [4.125, 3.875, 4.25, 3.875], "rotation": 90, "texture": "#0"},
				"east": {"uv": [4.125, 3.875, 4.25, 3.875], "rotation": 90, "texture": "#0"},
				"south": {"uv": [4.125, 3.875, 4.25, 3.875], "rotation": 90, "texture": "#0"},
				"west": {"uv": [4.125, 3.875, 4.25, 3.875], "rotation": 90, "texture": "#0"},
				"up": {"uv": [4.125, 3.875, 4.25, 3.875], "rotation": 90, "texture": "#0"},
				"down": {"uv": [4.125, 3.875, 4.25, 3.875], "rotation": 90, "texture": "#0"}
			}
		},
		{
			"from": [8.20693, 8.98302, 8.18906],
			"to": [8.50694, 9.21102, 9.88906],
			"rotation": {"angle": -45, "axis": "z", "origin": [8.30693, 9.16102, 1.23906]},
			"faces": {
				"north": {"uv": [4.125, 3.875, 4.25, 3.875], "rotation": 90, "texture": "#0"},
				"east": {"uv": [4.125, 3.875, 4.25, 3.875], "rotation": 90, "texture": "#0"},
				"south": {"uv": [4.125, 3.875, 4.25, 3.875], "rotation": 90, "texture": "#0"},
				"west": {"uv": [4.125, 3.875, 4.25, 3.875], "rotation": 90, "texture": "#0"},
				"up": {"uv": [4.125, 3.875, 4.25, 3.875], "rotation": 90, "texture": "#0"},
				"down": {"uv": [4.125, 3.875, 4.25, 3.875], "rotation": 90, "texture": "#0"}
			}
		},
		{
			"from": [8.20693, 8.98302, 9.88506],
			"to": [8.44294, 9.21102, 11.80906],
			"rotation": {"angle": -45, "axis": "z", "origin": [8.30693, 9.16102, 3.15906]},
			"faces": {
				"north": {"uv": [4.125, 3.875, 4.25, 3.875], "rotation": 90, "texture": "#0"},
				"east": {"uv": [4.125, 3.875, 4.25, 3.875], "rotation": 90, "texture": "#0"},
				"south": {"uv": [4.125, 3.875, 4.25, 3.875], "rotation": 90, "texture": "#0"},
				"west": {"uv": [4.125, 3.875, 4.25, 3.875], "rotation": 90, "texture": "#0"},
				"up": {"uv": [4.125, 3.875, 4.25, 3.875], "rotation": 90, "texture": "#0"},
				"down": {"uv": [4.125, 3.875, 4.25, 3.875], "rotation": 90, "texture": "#0"}
			}
		},
		{
			"from": [8.20693, 8.98302, 9.85306],
			"to": [8.50694, 9.17902, 11.84106],
			"rotation": {"angle": -45, "axis": "z", "origin": [8.30693, 9.16102, 3.19106]},
			"faces": {
				"north": {"uv": [2, 3.5, 2, 3.5], "rotation": 90, "texture": "#0"},
				"east": {"uv": [2, 3.5, 2, 3.5], "rotation": 90, "texture": "#0"},
				"south": {"uv": [2, 3.5, 2, 3.5], "rotation": 90, "texture": "#0"},
				"west": {"uv": [2, 3.5, 2, 3.5], "rotation": 90, "texture": "#0"},
				"up": {"uv": [2, 3.5, 2, 3.5], "rotation": 90, "texture": "#0"},
				"down": {"uv": [2, 3.5, 2, 3.5], "rotation": 90, "texture": "#0"}
			}
		},
		{
			"from": [8.20693, 8.91902, 11.78906],
			"to": [8.50694, 9.21102, 14.18906],
			"rotation": {"angle": -45, "axis": "z", "origin": [8.30693, 9.16102, 1.23906]},
			"faces": {
				"north": {"uv": [4.125, 3.875, 4.25, 3.875], "rotation": 90, "texture": "#0"},
				"east": {"uv": [4.125, 3.875, 4.25, 3.875], "rotation": 90, "texture": "#0"},
				"south": {"uv": [4.125, 3.875, 4.25, 3.875], "rotation": 90, "texture": "#0"},
				"west": {"uv": [4.125, 3.875, 4.25, 3.875], "rotation": 90, "texture": "#0"},
				"up": {"uv": [4.125, 3.875, 4.25, 3.875], "rotation": 90, "texture": "#0"},
				"down": {"uv": [4.125, 3.875, 4.25, 3.875], "rotation": 90, "texture": "#0"}
			}
		},
		{
			"from": [8.06767, 8.95943, 8.18906],
			"to": [8.26767, 9.34743, 14.18906],
			"rotation": {"angle": -22.5, "axis": "z", "origin": [8.06767, 9.29743, 1.23906]},
			"faces": {
				"north": {"uv": [4.125, 3.875, 4.25, 3.875], "rotation": 90, "texture": "#0"},
				"east": {"uv": [4.125, 3.875, 4.25, 3.875], "rotation": 90, "texture": "#0"},
				"south": {"uv": [4.125, 3.875, 4.25, 3.875], "rotation": 90, "texture": "#0"},
				"west": {"uv": [4.125, 3.875, 4.25, 3.875], "rotation": 90, "texture": "#0"},
				"up": {"uv": [4.125, 3.875, 4.25, 3.875], "rotation": 90, "texture": "#0"},
				"down": {"uv": [4.125, 3.875, 4.25, 3.875], "rotation": 90, "texture": "#0"}
			}
		},
		{
			"from": [7.85635, 9.24362, 8.18906],
			"to": [8.08635, 9.34362, 14.18906],
			"rotation": {"angle": 0, "axis": "y", "origin": [7.85635, 9.29362, 1.23906]},
			"faces": {
				"north": {"uv": [4.125, 3.875, 4.25, 3.875], "rotation": 90, "texture": "#0"},
				"east": {"uv": [4.125, 3.875, 4.25, 3.875], "rotation": 90, "texture": "#0"},
				"south": {"uv": [4.125, 3.875, 4.25, 3.875], "rotation": 90, "texture": "#0"},
				"west": {"uv": [4.125, 3.875, 4.25, 3.875], "rotation": 90, "texture": "#0"},
				"up": {"uv": [4.125, 3.875, 4.25, 3.875], "rotation": 90, "texture": "#0"},
				"down": {"uv": [4.125, 3.875, 4.25, 3.875], "rotation": 90, "texture": "#0"}
			}
		},
		{
			"from": [7.6831, 9.11316, 8.18906],
			"to": [7.8831, 9.30916, 14.18906],
			"rotation": {"angle": 22.5, "axis": "z", "origin": [7.7831, 9.25916, 1.23906]},
			"faces": {
				"north": {"uv": [4.125, 3.875, 4.25, 3.875], "rotation": 90, "texture": "#0"},
				"east": {"uv": [4.125, 3.875, 4.25, 3.875], "rotation": 90, "texture": "#0"},
				"south": {"uv": [4.125, 3.875, 4.25, 3.875], "rotation": 90, "texture": "#0"},
				"west": {"uv": [4.125, 3.875, 4.25, 3.875], "rotation": 90, "texture": "#0"},
				"up": {"uv": [4.125, 3.875, 4.25, 3.875], "rotation": 90, "texture": "#0"},
				"down": {"uv": [4.125, 3.875, 4.25, 3.875], "rotation": 90, "texture": "#0"}
			}
		},
		{
			"from": [7.77158, 8.76708, 8.18906],
			"to": [8.17158, 9.36708, 8.28906],
			"rotation": {"angle": 0, "axis": "y", "origin": [8.17158, 9.31708, -0.76094]},
			"faces": {
				"north": {"uv": [4.125, 3.875, 4.25, 3.875], "rotation": 90, "texture": "#0"},
				"east": {"uv": [4.125, 3.875, 4.25, 3.875], "rotation": 90, "texture": "#0"},
				"south": {"uv": [4.125, 3.875, 4.25, 3.875], "rotation": 90, "texture": "#0"},
				"west": {"uv": [4.125, 3.875, 4.25, 3.875], "rotation": 90, "texture": "#0"},
				"up": {"uv": [4.125, 3.875, 4.25, 3.875], "rotation": 90, "texture": "#0"},
				"down": {"uv": [4.125, 3.875, 4.25, 3.875], "rotation": 90, "texture": "#0"}
			}
		},
		{
			"from": [7.77158, 9.06708, 8.18906],
			"to": [7.87158, 9.46708, 8.28906],
			"rotation": {"angle": 0, "axis": "y", "origin": [8.27158, 9.61708, -0.76094]},
			"faces": {
				"north": {"uv": [4.125, 3.875, 4.25, 3.875], "rotation": 90, "texture": "#0"},
				"east": {"uv": [4.125, 3.875, 4.25, 3.875], "rotation": 90, "texture": "#0"},
				"south": {"uv": [4.125, 3.875, 4.25, 3.875], "rotation": 90, "texture": "#0"},
				"west": {"uv": [4.125, 3.875, 4.25, 3.875], "rotation": 90, "texture": "#0"},
				"up": {"uv": [4.125, 3.875, 4.25, 3.875], "rotation": 90, "texture": "#0"},
				"down": {"uv": [4.125, 3.875, 4.25, 3.875], "rotation": 90, "texture": "#0"}
			}
		},
		{
			"from": [8.07158, 9.06708, 8.18906],
			"to": [8.17158, 9.46708, 8.28906],
			"rotation": {"angle": 0, "axis": "y", "origin": [8.57158, 9.61708, -0.76094]},
			"faces": {
				"north": {"uv": [4.125, 3.875, 4.25, 3.875], "rotation": 90, "texture": "#0"},
				"east": {"uv": [4.125, 3.875, 4.25, 3.875], "rotation": 90, "texture": "#0"},
				"south": {"uv": [4.125, 3.875, 4.25, 3.875], "rotation": 90, "texture": "#0"},
				"west": {"uv": [4.125, 3.875, 4.25, 3.875], "rotation": 90, "texture": "#0"},
				"up": {"uv": [4.125, 3.875, 4.25, 3.875], "rotation": 90, "texture": "#0"},
				"down": {"uv": [4.125, 3.875, 4.25, 3.875], "rotation": 90, "texture": "#0"}
			}
		},
		{
			"from": [8.03622, 8.61102, -6.73094],
			"to": [8.33622, 8.71102, 14.18906],
			"rotation": {"angle": 45, "axis": "z", "origin": [8.13622, 8.66102, 1.23906]},
			"faces": {
				"north": {"uv": [1.875, 2.625, 1.875, 3.125], "rotation": 90, "texture": "#0"},
				"east": {"uv": [1.875, 2.625, 1.875, 3.125], "rotation": 90, "texture": "#0"},
				"south": {"uv": [1.875, 2.625, 1.875, 3.125], "rotation": 90, "texture": "#0"},
				"west": {"uv": [1.875, 2.625, 1.875, 3.125], "rotation": 90, "texture": "#0"},
				"up": {"uv": [1.875, 2.625, 1.875, 3.125], "rotation": 90, "texture": "#0"},
				"down": {"uv": [1.875, 2.625, 1.875, 3.125], "rotation": 90, "texture": "#0"}
			}
		},
		{
			"from": [8.03622, 7.91102, -6.78694],
			"to": [8.33622, 8.01102, 14.18906],
			"rotation": {"angle": 45, "axis": "z", "origin": [8.13622, 7.96102, 1.23906]},
			"faces": {
				"north": {"uv": [1.875, 2.625, 1.875, 3.125], "rotation": 90, "texture": "#0"},
				"east": {"uv": [1.875, 2.625, 1.875, 3.125], "rotation": 90, "texture": "#0"},
				"south": {"uv": [1.875, 2.625, 1.875, 3.125], "rotation": 90, "texture": "#0"},
				"west": {"uv": [1.875, 2.625, 1.875, 3.125], "rotation": 90, "texture": "#0"},
				"up": {"uv": [1.875, 2.625, 1.875, 3.125], "rotation": 90, "texture": "#0"},
				"down": {"uv": [1.875, 2.625, 1.875, 3.125], "rotation": 90, "texture": "#0"}
			}
		},
		{
			"from": [8.213, 8.76708, -6.73094],
			"to": [8.313, 8.96708, 14.18906],
			"rotation": {"angle": 0, "axis": "y", "origin": [8.263, 8.86708, 1.23906]},
			"faces": {
				"north": {"uv": [1.875, 2.625, 1.875, 3.125], "texture": "#0"},
				"east": {"uv": [1.875, 2.625, 1.875, 3.125], "texture": "#0"},
				"south": {"uv": [1.875, 2.625, 1.875, 3.125], "texture": "#0"},
				"west": {"uv": [1.875, 2.625, 1.875, 3.125], "texture": "#0"},
				"up": {"uv": [1.875, 2.625, 1.875, 3.125], "texture": "#0"},
				"down": {"uv": [1.875, 2.625, 1.875, 3.125], "texture": "#0"}
			}
		},
		{
			"from": [8.213, 8.06708, -6.78694],
			"to": [8.313, 8.26708, 14.18906],
			"rotation": {"angle": 0, "axis": "y", "origin": [8.263, 8.16708, 1.23906]},
			"faces": {
				"north": {"uv": [1.875, 2.625, 1.875, 3.125], "texture": "#0"},
				"east": {"uv": [1.875, 2.625, 1.875, 3.125], "texture": "#0"},
				"south": {"uv": [1.875, 2.625, 1.875, 3.125], "texture": "#0"},
				"west": {"uv": [1.875, 2.625, 1.875, 3.125], "texture": "#0"},
				"up": {"uv": [1.875, 2.625, 1.875, 3.125], "texture": "#0"},
				"down": {"uv": [1.875, 2.625, 1.875, 3.125], "texture": "#0"}
			}
		},
		{
			"from": [7.63015, 8.76708, -6.73094],
			"to": [7.73015, 8.96708, 14.18906],
			"rotation": {"angle": 0, "axis": "y", "origin": [7.68015, 8.86708, 1.23906]},
			"faces": {
				"north": {"uv": [1.875, 2.625, 1.875, 3.125], "texture": "#0"},
				"east": {"uv": [1.875, 2.625, 1.875, 3.125], "texture": "#0"},
				"south": {"uv": [1.875, 2.625, 1.875, 3.125], "texture": "#0"},
				"west": {"uv": [1.875, 2.625, 1.875, 3.125], "texture": "#0"},
				"up": {"uv": [1.875, 2.625, 1.875, 3.125], "texture": "#0"},
				"down": {"uv": [1.875, 2.625, 1.875, 3.125], "texture": "#0"}
			}
		},
		{
			"from": [7.63015, 8.06708, -6.78694],
			"to": [7.73015, 8.26708, 14.18906],
			"rotation": {"angle": 0, "axis": "y", "origin": [7.68015, 8.16708, 1.23906]},
			"faces": {
				"north": {"uv": [1.875, 2.625, 1.875, 3.125], "texture": "#0"},
				"east": {"uv": [1.875, 2.625, 1.875, 3.125], "texture": "#0"},
				"south": {"uv": [1.875, 2.625, 1.875, 3.125], "texture": "#0"},
				"west": {"uv": [1.875, 2.625, 1.875, 3.125], "texture": "#0"},
				"up": {"uv": [1.875, 2.625, 1.875, 3.125], "texture": "#0"},
				"down": {"uv": [1.875, 2.625, 1.875, 3.125], "texture": "#0"}
			}
		},
		{
			"from": [7.84229, 9.07922, -6.73094],
			"to": [8.10086, 9.17921, 14.18906],
			"rotation": {"angle": 0, "axis": "y", "origin": [7.68371, 9.0378, -11.51094]},
			"faces": {
				"north": {"uv": [1.875, 2.625, 1.875, 3.125], "rotation": 270, "texture": "#0"},
				"east": {"uv": [1.875, 2.625, 1.875, 3.125], "rotation": 270, "texture": "#0"},
				"south": {"uv": [1.875, 2.625, 1.875, 3.125], "rotation": 270, "texture": "#0"},
				"west": {"uv": [1.875, 2.625, 1.875, 3.125], "rotation": 270, "texture": "#0"},
				"up": {"uv": [1.875, 2.625, 1.875, 3.125], "rotation": 270, "texture": "#0"},
				"down": {"uv": [1.875, 2.625, 1.875, 3.125], "rotation": 270, "texture": "#0"}
			}
		},
		{
			"from": [7.92, 9.15522, -6.45494],
			"to": [8.02, 9.38722, -6.05494],
			"rotation": {"angle": 0, "axis": "y", "origin": [7.75171, 9.2458, -6.15494]},
			"faces": {
				"north": {"uv": [2.375, 3, 2.375, 3.5], "rotation": 270, "texture": "#0"},
				"east": {"uv": [2.375, 3, 2.375, 3.5], "rotation": 270, "texture": "#0"},
				"south": {"uv": [2.375, 3, 2.375, 3.5], "rotation": 270, "texture": "#0"},
				"west": {"uv": [2.375, 3, 2.375, 3.5], "rotation": 270, "texture": "#0"},
				"up": {"uv": [2.375, 3, 2.375, 3.5], "rotation": 270, "texture": "#0"},
				"down": {"uv": [2.375, 3, 2.375, 3.5], "rotation": 270, "texture": "#0"}
			}
		},
		{
			"from": [7.92, 9.04851, -6.24281],
			"to": [8.02, 9.21651, -5.93881],
			"rotation": {"angle": 45, "axis": "x", "origin": [7.75171, 9.07508, -5.94281]},
			"faces": {
				"north": {"uv": [2.375, 3, 2.375, 3.5], "rotation": 270, "texture": "#0"},
				"east": {"uv": [2.375, 3, 2.375, 3.5], "rotation": 270, "texture": "#0"},
				"south": {"uv": [2.375, 3, 2.375, 3.5], "rotation": 270, "texture": "#0"},
				"west": {"uv": [2.375, 3, 2.375, 3.5], "rotation": 270, "texture": "#0"},
				"up": {"uv": [2.375, 3, 2.375, 3.5], "rotation": 270, "texture": "#0"},
				"down": {"uv": [2.375, 3, 2.375, 3.5], "rotation": 270, "texture": "#0"}
			}
		},
		{
			"from": [7.92, 9.08051, -6.54281],
			"to": [8.02, 9.21651, -6.24281],
			"rotation": {"angle": -45, "axis": "x", "origin": [7.75171, 9.07508, -6.54281]},
			"faces": {
				"north": {"uv": [2.375, 3, 2.375, 3.5], "rotation": 270, "texture": "#0"},
				"east": {"uv": [2.375, 3, 2.375, 3.5], "rotation": 270, "texture": "#0"},
				"south": {"uv": [2.375, 3, 2.375, 3.5], "rotation": 270, "texture": "#0"},
				"west": {"uv": [2.375, 3, 2.375, 3.5], "rotation": 270, "texture": "#0"},
				"up": {"uv": [2.375, 3, 2.375, 3.5], "rotation": 270, "texture": "#0"},
				"down": {"uv": [2.375, 3, 2.375, 3.5], "rotation": 270, "texture": "#0"}
			}
		},
		{
			"from": [7.84229, 8.37922, -6.78694],
			"to": [8.10219, 8.47922, 14.18906],
			"rotation": {"angle": 0, "axis": "y", "origin": [7.68371, 8.3378, -11.51094]},
			"faces": {
				"north": {"uv": [1.875, 2.625, 1.875, 3.125], "rotation": 270, "texture": "#0"},
				"east": {"uv": [1.875, 2.625, 1.875, 3.125], "rotation": 270, "texture": "#0"},
				"south": {"uv": [1.875, 2.625, 1.875, 3.125], "rotation": 270, "texture": "#0"},
				"west": {"uv": [1.875, 2.625, 1.875, 3.125], "rotation": 270, "texture": "#0"},
				"up": {"uv": [1.875, 2.625, 1.875, 3.125], "rotation": 270, "texture": "#0"},
				"down": {"uv": [1.875, 2.625, 1.875, 3.125], "rotation": 270, "texture": "#0"}
			}
		},
		{
			"from": [7.84229, 8.37922, 3.21306],
			"to": [8.10219, 8.77922, 8.30106],
			"rotation": {"angle": 0, "axis": "y", "origin": [7.68371, 8.3378, -17.39894]},
			"faces": {
				"north": {"uv": [2.375, 3, 2.375, 3.5], "rotation": 270, "texture": "#0"},
				"east": {"uv": [2.375, 3, 2.375, 3.5], "rotation": 270, "texture": "#0"},
				"south": {"uv": [2.375, 3, 2.375, 3.5], "rotation": 270, "texture": "#0"},
				"west": {"uv": [2.375, 3, 2.375, 3.5], "rotation": 270, "texture": "#0"},
				"up": {"uv": [2.375, 3, 2.375, 3.5], "rotation": 270, "texture": "#0"},
				"down": {"uv": [2.375, 3, 2.375, 3.5], "rotation": 270, "texture": "#0"}
			}
		},
		{
			"from": [7.72224, 7.99927, -6.78694],
			"to": [8.22224, 8.35917, -6.78694],
			"rotation": {"angle": 0, "axis": "y", "origin": [7.97224, 8.12922, 0.71306]},
			"faces": {
				"north": {"uv": [1.875, 2.625, 1.875, 3.125], "texture": "#0"},
				"east": {"uv": [1.875, 2.625, 1.875, 3.125], "texture": "#0"},
				"south": {"uv": [1.875, 2.625, 1.875, 3.125], "texture": "#0"},
				"west": {"uv": [1.875, 2.625, 1.875, 3.125], "texture": "#0"},
				"up": {"uv": [1.875, 2.625, 1.875, 3.125], "texture": "#0"},
				"down": {"uv": [1.875, 2.625, 1.875, 3.125], "texture": "#0"}
			}
		},
		{
			"from": [7.84229, 7.87922, -6.78694],
			"to": [8.10219, 8.37922, -6.78694],
			"rotation": {"angle": 0, "axis": "y", "origin": [7.68371, 8.1378, -14.48694]},
			"faces": {
				"north": {"uv": [1.875, 2.625, 1.875, 3.125], "rotation": 270, "texture": "#0"},
				"east": {"uv": [1.875, 2.625, 1.875, 3.125], "rotation": 270, "texture": "#0"},
				"south": {"uv": [1.875, 2.625, 1.875, 3.125], "rotation": 270, "texture": "#0"},
				"west": {"uv": [1.875, 2.625, 1.875, 3.125], "rotation": 270, "texture": "#0"},
				"up": {"uv": [1.875, 2.625, 1.875, 3.125], "rotation": 270, "texture": "#0"},
				"down": {"uv": [1.875, 2.625, 1.875, 3.125], "rotation": 270, "texture": "#0"}
			}
		},
		{
			"from": [7.84229, 8.55495, -6.73094],
			"to": [8.10219, 8.65495, 14.18906],
			"rotation": {"angle": 0, "axis": "y", "origin": [7.68371, 8.51353, -11.51094]},
			"faces": {
				"north": {"uv": [1.875, 2.625, 1.875, 3.125], "rotation": 270, "texture": "#0"},
				"east": {"uv": [1.875, 2.625, 1.875, 3.125], "rotation": 270, "texture": "#0"},
				"south": {"uv": [1.875, 2.625, 1.875, 3.125], "rotation": 270, "texture": "#0"},
				"west": {"uv": [1.875, 2.625, 1.875, 3.125], "rotation": 270, "texture": "#0"},
				"up": {"uv": [1.875, 2.625, 1.875, 3.125], "rotation": 270, "texture": "#0"},
				"down": {"uv": [1.875, 2.625, 1.875, 3.125], "rotation": 270, "texture": "#0"}
			}
		},
		{
			"from": [7.84229, 7.85495, -6.78694],
			"to": [8.10219, 7.95495, 14.18906],
			"rotation": {"angle": 0, "axis": "y", "origin": [7.68371, 7.81353, -11.51094]},
			"faces": {
				"north": {"uv": [1.875, 3, 1.875, 3.5], "rotation": 270, "texture": "#0"},
				"east": {"uv": [1.875, 3, 1.875, 3.5], "rotation": 270, "texture": "#0"},
				"south": {"uv": [1.875, 3, 1.875, 3.5], "rotation": 270, "texture": "#0"},
				"west": {"uv": [1.875, 3, 1.875, 3.5], "rotation": 270, "texture": "#0"},
				"up": {"uv": [1.875, 3, 1.875, 3.5], "rotation": 270, "texture": "#0"},
				"down": {"uv": [1.875, 3, 1.875, 3.5], "rotation": 270, "texture": "#0"}
			}
		}
	],
	"display": {
		"thirdperson_righthand": {
			"rotation": [-4, -1, 6],
			"translation": [-2, -0.75, -3.5],
			"scale": [0.88, 0.88, 0.88]
		},
		"thirdperson_lefthand": {
			"rotation": [-4, -1, 6],
			"translation": [-2, -0.75, -3.5],
			"scale": [0.88, 0.88, 0.88]
		},
		"firstperson_righthand": {
			"rotation": [1, 0, 0],
			"translation": [-4.25, 5, 0.25],
			"scale": [1.36, 1.36, 0.89]
		},
		"firstperson_lefthand": {
			"rotation": [1, 0, 0],
			"translation": [-4.25, 5, 0.25],
			"scale": [1.36, 1.36, 0.89]
		},
		"ground": {
			"scale": [1, 0.99, 0.54]
		},
		"gui": {
			"rotation": [27, 38, -14],
			"translation": [0, 3, 1.75],
			"scale": [1.11, 1.14, 0.77]
		},
		"head": {
			"rotation": [0, 91, 90],
			"translation": [-2, 7, 0],
			"scale": [1.61, 1.5, 1.28]
		},
		"fixed": {
			"rotation": [90, 45, -90],
			"translation": [0, 0, -2],
			"scale": [0.88, 0.88, 0.88]
		}
	},
	"groups": [
		{
			"name": "gun",
			"origin": [8.373, 7.63386, 13.55],
			"children": [
				{
					"name": "skoba",
					"origin": [8.373, 7.63386, 13.55],
					"children": [0, 1, 2, 3, 4, 5, 6, 7, 8, 9, 10, 11, 12, 13, 14, 15, 16]
				},
				{
					"name": "lozhe",
					"origin": [8.373, 9.53386, 13.55],
					"children": [17, 18, 19, 20, 21, 22, 23, 24, 25, 26, 27, 28, 29, 30, 31]
				},
				{
					"name": "group",
					"origin": [7.89023, 8.45269, 3.39469],
					"children": [32, 33, 34, 35, 36, 37, 38, 39, 40, 41, 42, 43]
				}, 44,
				{
					"name": "dulo",
					"origin": [8.06442, 9.40102, -15],
					"children": [
						{
							"name": "reciever",
							"origin": [8.06442, 9.40102, -15],
							"children": [45, 46, 47, 48,
								{
									"name": "group",
									"origin": [7.66751, 8.44859, 4.80685],
									"children": [49, 50, 51, 52, 53, 54, 55, 56, 57, 58, 59, 60, 61, 62, 63, 64, 65, 66, 67, 68, 69]
								}, 70, 71, 72, 73, 74, 75, 76, 77, 78, 79, 80, 81, 82, 83, 84, 85, 86, 87, 88, 89, 90, 91, 92, 93, 94, 95, 96, 97, 98]
						},
						{
							"name": "end",
							"origin": [8.39371, 9.65458, -0.85],
							"children": []
						}
					]
				},
				{
					"name": "handle",
					"origin": [8.51442, 9.68386, -2.25],
					"children": []
				}
			]
		}
	]
}