{
    "textures": {
        "0": "gci:items/common/mpz",
        "1": "gci:items/common/all_in_one",
        "particle": "gci:items/common/mpz"
    },
    "elements": [
        {
            "from": [
                7.897,
                5.56892,
                -2.48085
            ],
            "to": [
                8.167,
                5.76892,
                1.51915
            ],
            "rotation": {
                "angle": 0,
                "axis": "y",
                "origin": [
                    8.032,
                    5.443,
                    -0.48085
                ]
            },
            "faces": {
                "north": {
                    "uv": [
                        8.33333,
                        0,
                        9.66667,
                        2
                    ],
                    "rotation": 180,
                    "texture": "#0"
                },
                "east": {
                    "uv": [
                        8.33333,
                        0,
                        9.66667,
                        2
                    ],
                    "rotation": 180,
                    "texture": "#0"
                },
                "south": {
                    "uv": [
                        8.33333,
                        0,
                        9.66667,
                        2
                    ],
                    "rotation": 180,
                    "texture": "#0"
                },
                "west": {
                    "uv": [
                        8.33333,
                        0,
                        9.66667,
                        2
                    ],
                    "rotation": 180,
                    "texture": "#0"
                },
                "up": {
                    "uv": [
                        8.33333,
                        0,
                        9.66667,
                        2
                    ],
                    "rotation": 180,
                    "texture": "#0"
                },
                "down": {
                    "uv": [
                        8.33333,
                        0,
                        9.66667,
                        2
                    ],
                    "rotation": 180,
                    "texture": "#0"
                }
            }
        },
        {
            "from": [
                7.897,
                5.11709,
                -2.48085
            ],
            "to": [
                8.167,
                5.31709,
                1.51915
            ],
            "rotation": {
                "angle": 0,
                "axis": "y",
                "origin": [
                    8.032,
                    5.443,
                    -0.48085
                ]
            },
            "faces": {
                "north": {
                    "uv": [
                        8.33333,
                        0,
                        9.66667,
                        2
                    ],
                    "rotation": 180,
                    "texture": "#0"
                },
                "east": {
                    "uv": [
                        8.33333,
                        0,
                        9.66667,
                        2
                    ],
                    "rotation": 180,
                    "texture": "#0"
                },
                "south": {
                    "uv": [
                        8.33333,
                        0,
                        9.66667,
                        2
                    ],
                    "rotation": 180,
                    "texture": "#0"
                },
                "west": {
                    "uv": [
                        8.33333,
                        0,
                        9.66667,
                        2
                    ],
                    "rotation": 180,
                    "texture": "#0"
                },
                "up": {
                    "uv": [
                        8.33333,
                        0,
                        9.66667,
                        2
                    ],
                    "rotation": 180,
                    "texture": "#0"
                },
                "down": {
                    "uv": [
                        8.33333,
                        0,
                        9.66667,
                        2
                    ],
                    "rotation": 180,
                    "texture": "#0"
                }
            }
        },
        {
            "from": [
                7.70608,
                5.308,
                -2.48085
            ],
            "to": [
                7.90608,
                5.578,
                1.51915
            ],
            "rotation": {
                "angle": 0,
                "axis": "y",
                "origin": [
                    8.032,
                    5.443,
                    -0.48085
                ]
            },
            "faces": {
                "north": {
                    "uv": [
                        8.33333,
                        0,
                        9.66667,
                        2
                    ],
                    "rotation": 270,
                    "texture": "#0"
                },
                "east": {
                    "uv": [
                        8.33333,
                        0,
                        9.66667,
                        2
                    ],
                    "rotation": 270,
                    "texture": "#0"
                },
                "south": {
                    "uv": [
                        8.33333,
                        0,
                        9.66667,
                        2
                    ],
                    "rotation": 270,
                    "texture": "#0"
                },
                "west": {
                    "uv": [
                        8.33333,
                        0,
                        9.66667,
                        2
                    ],
                    "rotation": 270,
                    "texture": "#0"
                },
                "up": {
                    "uv": [
                        8.33333,
                        0,
                        9.66667,
                        2
                    ],
                    "rotation": 270,
                    "texture": "#0"
                },
                "down": {
                    "uv": [
                        8.33333,
                        0,
                        9.66667,
                        2
                    ],
                    "rotation": 270,
                    "texture": "#0"
                }
            }
        },
        {
            "from": [
                8.15792,
                5.308,
                -2.48085
            ],
            "to": [
                8.35792,
                5.578,
                1.51915
            ],
            "rotation": {
                "angle": 0,
                "axis": "y",
                "origin": [
                    8.032,
                    5.443,
                    -0.48085
                ]
            },
            "faces": {
                "north": {
                    "uv": [
                        8.33333,
                        0,
                        9.66667,
                        2
                    ],
                    "rotation": 270,
                    "texture": "#0"
                },
                "east": {
                    "uv": [
                        8.33333,
                        0,
                        9.66667,
                        2
                    ],
                    "rotation": 270,
                    "texture": "#0"
                },
                "south": {
                    "uv": [
                        8.33333,
                        0,
                        9.66667,
                        2
                    ],
                    "rotation": 270,
                    "texture": "#0"
                },
                "west": {
                    "uv": [
                        8.33333,
                        0,
                        9.66667,
                        2
                    ],
                    "rotation": 270,
                    "texture": "#0"
                },
                "up": {
                    "uv": [
                        8.33333,
                        0,
                        9.66667,
                        2
                    ],
                    "rotation": 270,
                    "texture": "#0"
                },
                "down": {
                    "uv": [
                        8.33333,
                        0,
                        9.66667,
                        2
                    ],
                    "rotation": 270,
                    "texture": "#0"
                }
            }
        },
        {
            "from": [
                7.897,
                5.56893,
                -2.48085
            ],
            "to": [
                8.167,
                5.76893,
                1.51915
            ],
            "rotation": {
                "angle": 45,
                "axis": "z",
                "origin": [
                    8.032,
                    5.443,
                    -0.48085
                ]
            },
            "faces": {
                "north": {
                    "uv": [
                        8.33333,
                        0,
                        9.66667,
                        2
                    ],
                    "rotation": 180,
                    "texture": "#0"
                },
                "east": {
                    "uv": [
                        8.33333,
                        0,
                        9.66667,
                        2
                    ],
                    "rotation": 180,
                    "texture": "#0"
                },
                "south": {
                    "uv": [
                        8.33333,
                        0,
                        9.66667,
                        2
                    ],
                    "rotation": 180,
                    "texture": "#0"
                },
                "west": {
                    "uv": [
                        8.33333,
                        0,
                        9.66667,
                        2
                    ],
                    "rotation": 180,
                    "texture": "#0"
                },
                "up": {
                    "uv": [
                        8.33333,
                        0,
                        9.66667,
                        2
                    ],
                    "rotation": 180,
                    "texture": "#0"
                },
                "down": {
                    "uv": [
                        8.33333,
                        0,
                        9.66667,
                        2
                    ],
                    "rotation": 180,
                    "texture": "#0"
                }
            }
        },
        {
            "from": [
                7.897,
                5.11708,
                -2.48085
            ],
            "to": [
                8.167,
                5.31708,
                1.51915
            ],
            "rotation": {
                "angle": 45,
                "axis": "z",
                "origin": [
                    8.032,
                    5.443,
                    -0.48085
                ]
            },
            "faces": {
                "north": {
                    "uv": [
                        8.33333,
                        0,
                        9.66667,
                        2
                    ],
                    "rotation": 180,
                    "texture": "#0"
                },
                "east": {
                    "uv": [
                        8.33333,
                        0,
                        9.66667,
                        2
                    ],
                    "rotation": 180,
                    "texture": "#0"
                },
                "south": {
                    "uv": [
                        8.33333,
                        0,
                        9.66667,
                        2
                    ],
                    "rotation": 180,
                    "texture": "#0"
                },
                "west": {
                    "uv": [
                        8.33333,
                        0,
                        9.66667,
                        2
                    ],
                    "rotation": 180,
                    "texture": "#0"
                },
                "up": {
                    "uv": [
                        8.33333,
                        0,
                        9.66667,
                        2
                    ],
                    "rotation": 180,
                    "texture": "#0"
                },
                "down": {
                    "uv": [
                        8.33333,
                        0,
                        9.66667,
                        2
                    ],
                    "rotation": 180,
                    "texture": "#0"
                }
            }
        },
        {
            "from": [
                7.897,
                5.56892,
                -2.48085
            ],
            "to": [
                8.167,
                5.76892,
                1.51915
            ],
            "rotation": {
                "angle": -45,
                "axis": "z",
                "origin": [
                    8.032,
                    5.443,
                    -0.48085
                ]
            },
            "faces": {
                "north": {
                    "uv": [
                        8.33333,
                        0,
                        9.66667,
                        2
                    ],
                    "rotation": 180,
                    "texture": "#0"
                },
                "east": {
                    "uv": [
                        8.33333,
                        0,
                        9.66667,
                        2
                    ],
                    "rotation": 180,
                    "texture": "#0"
                },
                "south": {
                    "uv": [
                        8.33333,
                        0,
                        9.66667,
                        2
                    ],
                    "rotation": 180,
                    "texture": "#0"
                },
                "west": {
                    "uv": [
                        8.33333,
                        0,
                        9.66667,
                        2
                    ],
                    "rotation": 180,
                    "texture": "#0"
                },
                "up": {
                    "uv": [
                        8.33333,
                        0,
                        9.66667,
                        2
                    ],
                    "rotation": 180,
                    "texture": "#0"
                },
                "down": {
                    "uv": [
                        8.33333,
                        0,
                        9.66667,
                        2
                    ],
                    "rotation": 180,
                    "texture": "#0"
                }
            }
        },
        {
            "from": [
                7.897,
                5.11708,
                -2.48085
            ],
            "to": [
                8.167,
                5.31708,
                1.51915
            ],
            "rotation": {
                "angle": -45,
                "axis": "z",
                "origin": [
                    8.032,
                    5.443,
                    -0.48085
                ]
            },
            "faces": {
                "north": {
                    "uv": [
                        8.33333,
                        0,
                        9.66667,
                        2
                    ],
                    "rotation": 180,
                    "texture": "#0"
                },
                "east": {
                    "uv": [
                        8.33333,
                        0,
                        9.66667,
                        2
                    ],
                    "rotation": 180,
                    "texture": "#0"
                },
                "south": {
                    "uv": [
                        8.33333,
                        0,
                        9.66667,
                        2
                    ],
                    "rotation": 180,
                    "texture": "#0"
                },
                "west": {
                    "uv": [
                        8.33333,
                        0,
                        9.66667,
                        2
                    ],
                    "rotation": 180,
                    "texture": "#0"
                },
                "up": {
                    "uv": [
                        8.33333,
                        0,
                        9.66667,
                        2
                    ],
                    "rotation": 180,
                    "texture": "#0"
                },
                "down": {
                    "uv": [
                        8.33333,
                        0,
                        9.66667,
                        2
                    ],
                    "rotation": 180,
                    "texture": "#0"
                }
            }
        }
    ],
    "display": {
        "thirdperson_righthand": {
            "translation": [
                -0.75,
                5,
                1.75
            ],
            "scale": [
                1.56,
                1.56,
                1.56
            ]
        },
        "thirdperson_lefthand": {
            "translation": [
                -0.75,
                4.75,
                1.75
            ],
            "scale": [
                1.56,
                1.56,
                1.56
            ]
        },
        "firstperson_righthand": {
            "translation": [
                -6.5,
                9.25,
                8.25
            ]
        },
        "firstperson_lefthand": {
            "translation": [
                -6.5,
                9.25,
                8.25
            ]
        },
        "ground": {
            "translation": [
                0,
                7,
                4
            ],
            "scale": [
                1.2,
                1.2,
                1.2
            ]
        },
        "gui": {
            "rotation": [
                19,
                28,
                -15
            ],
            "translation": [
                2.5,
                7.25,
                0
            ],
            "scale": [
                2.3,
                2.3,
                2.3
            ]
        },
        "head": {
            "rotation": [
                0,
                0,
                50
            ],
            "translation": [
                -5,
                13.25,
                5.5
            ],
            "scale": [
                2,
                2,
                2
            ]
        },
        "fixed": {
            "rotation": [
                90,
                45,
                -90
            ],
            "translation": [
                6.5,
                2,
                -1.75
            ],
            "scale": [
                1.85,
                1.85,
                1.85
            ]
        }
    }
}