{
    "textures": {
        "0": "gci:items/common/mpz",
        "1": "gci:items/common/all_in_one",
        "particle": "gci:items/common/mpz"
    },
    "elements": [
        {
            "from": [
                7.77368,
                4.508,
                12.62216
            ],
            "to": [
                8.27368,
                5.958,
                13.12216
            ],
            "rotation": {
                "angle": 0,
                "axis": "y",
                "origin": [
                    8.02368,
                    5.41697,
                    13.77216
                ]
            },
            "faces": {
                "north": {
                    "uv": [
                        5.66667,
                        0.66667,
                        7.682,
                        2.34867
                    ],
                    "texture": "#0"
                },
                "east": {
                    "uv": [
                        5.66667,
                        0.66667,
                        7.682,
                        2.34867
                    ],
                    "texture": "#0"
                },
                "south": {
                    "uv": [
                        5.66667,
                        0.66667,
                        7.682,
                        2.34867
                    ],
                    "texture": "#0"
                },
                "west": {
                    "uv": [
                        5.66667,
                        0.66667,
                        7.682,
                        2.34867
                    ],
                    "texture": "#0"
                },
                "up": {
                    "uv": [
                        5.66667,
                        0.66667,
                        7.682,
                        2.34867
                    ],
                    "rotation": 270,
                    "texture": "#0"
                },
                "down": {
                    "uv": [
                        5.66667,
                        0.66667,
                        7.682,
                        2.34867
                    ],
                    "rotation": 90,
                    "texture": "#0"
                }
            }
        },
        {
            "from": [
                7.77368,
                5.758,
                8.92216
            ],
            "to": [
                8.27368,
                5.958,
                13.12216
            ],
            "rotation": {
                "angle": 0,
                "axis": "y",
                "origin": [
                    8.02368,
                    6.76697,
                    9.07216
                ]
            },
            "faces": {
                "north": {
                    "uv": [
                        5.66667,
                        0.66667,
                        7.682,
                        2.34867
                    ],
                    "texture": "#0"
                },
                "east": {
                    "uv": [
                        5.66667,
                        0.66667,
                        7.682,
                        2.34867
                    ],
                    "texture": "#0"
                },
                "south": {
                    "uv": [
                        5.66667,
                        0.66667,
                        7.682,
                        2.34867
                    ],
                    "texture": "#0"
                },
                "west": {
                    "uv": [
                        5.66667,
                        0.66667,
                        7.682,
                        2.34867
                    ],
                    "texture": "#0"
                },
                "up": {
                    "uv": [
                        5.66667,
                        0.66667,
                        7.682,
                        2.34867
                    ],
                    "rotation": 270,
                    "texture": "#0"
                },
                "down": {
                    "uv": [
                        5.66667,
                        0.66667,
                        7.682,
                        2.34867
                    ],
                    "rotation": 90,
                    "texture": "#0"
                }
            }
        },
        {
            "from": [
                7.77368,
                5.03615,
                8.967
            ],
            "to": [
                8.27368,
                5.13615,
                9.567
            ],
            "rotation": {
                "angle": 0,
                "axis": "y",
                "origin": [
                    8.02368,
                    5.08615,
                    11.667
                ]
            },
            "faces": {
                "north": {
                    "uv": [
                        5.66667,
                        0.66667,
                        7.682,
                        2.34867
                    ],
                    "texture": "#0"
                },
                "east": {
                    "uv": [
                        5.66667,
                        0.66667,
                        7.682,
                        2.34867
                    ],
                    "texture": "#0"
                },
                "south": {
                    "uv": [
                        5.66667,
                        0.66667,
                        7.682,
                        2.34867
                    ],
                    "texture": "#0"
                },
                "west": {
                    "uv": [
                        5.66667,
                        0.66667,
                        7.682,
                        2.34867
                    ],
                    "texture": "#0"
                },
                "up": {
                    "uv": [
                        5.66667,
                        0.66667,
                        7.682,
                        2.34867
                    ],
                    "rotation": 270,
                    "texture": "#0"
                },
                "down": {
                    "uv": [
                        5.66667,
                        0.66667,
                        7.682,
                        2.34867
                    ],
                    "rotation": 90,
                    "texture": "#0"
                }
            }
        },
        {
            "from": [
                7.77368,
                5.13615,
                8.967
            ],
            "to": [
                8.27368,
                5.23615,
                9.567
            ],
            "rotation": {
                "angle": 0,
                "axis": "y",
                "origin": [
                    8.02368,
                    5.18615,
                    11.667
                ]
            },
            "faces": {
                "north": {
                    "uv": [
                        5.66667,
                        0.66667,
                        7.682,
                        2.34867
                    ],
                    "texture": "#0"
                },
                "east": {
                    "uv": [
                        5.66667,
                        0.66667,
                        7.682,
                        2.34867
                    ],
                    "texture": "#0"
                },
                "south": {
                    "uv": [
                        5.66667,
                        0.66667,
                        7.682,
                        2.34867
                    ],
                    "texture": "#0"
                },
                "west": {
                    "uv": [
                        5.66667,
                        0.66667,
                        7.682,
                        2.34867
                    ],
                    "texture": "#0"
                },
                "up": {
                    "uv": [
                        5.66667,
                        0.66667,
                        7.682,
                        2.34867
                    ],
                    "rotation": 270,
                    "texture": "#0"
                },
                "down": {
                    "uv": [
                        5.66667,
                        0.66667,
                        7.682,
                        2.34867
                    ],
                    "rotation": 90,
                    "texture": "#0"
                }
            }
        },
        {
            "from": [
                7.77368,
                5.13615,
                9.467
            ],
            "to": [
                8.27368,
                5.83615,
                9.667
            ],
            "rotation": {
                "angle": 0,
                "axis": "y",
                "origin": [
                    8.02368,
                    5.18615,
                    11.767
                ]
            },
            "faces": {
                "north": {
                    "uv": [
                        5.66667,
                        0.66667,
                        7.682,
                        2.34867
                    ],
                    "texture": "#0"
                },
                "east": {
                    "uv": [
                        5.66667,
                        0.66667,
                        7.682,
                        2.34867
                    ],
                    "texture": "#0"
                },
                "south": {
                    "uv": [
                        5.66667,
                        0.66667,
                        7.682,
                        2.34867
                    ],
                    "texture": "#0"
                },
                "west": {
                    "uv": [
                        5.66667,
                        0.66667,
                        7.682,
                        2.34867
                    ],
                    "texture": "#0"
                },
                "up": {
                    "uv": [
                        5.66667,
                        0.66667,
                        7.682,
                        2.34867
                    ],
                    "rotation": 270,
                    "texture": "#0"
                },
                "down": {
                    "uv": [
                        5.66667,
                        0.66667,
                        7.682,
                        2.34867
                    ],
                    "rotation": 90,
                    "texture": "#0"
                }
            }
        },
        {
            "from": [
                7.77368,
                5.45,
                10.6
            ],
            "to": [
                8.27368,
                5.8,
                10.75
            ],
            "rotation": {
                "angle": -22.5,
                "axis": "x",
                "origin": [
                    8.02368,
                    5.88615,
                    10.667
                ]
            },
            "faces": {
                "north": {
                    "uv": [
                        5.66667,
                        0.66667,
                        7.682,
                        2.34867
                    ],
                    "texture": "#0"
                },
                "east": {
                    "uv": [
                        5.66667,
                        0.66667,
                        7.682,
                        2.34867
                    ],
                    "texture": "#0"
                },
                "south": {
                    "uv": [
                        5.66667,
                        0.66667,
                        7.682,
                        2.34867
                    ],
                    "texture": "#0"
                },
                "west": {
                    "uv": [
                        5.66667,
                        0.66667,
                        7.682,
                        2.34867
                    ],
                    "texture": "#0"
                },
                "up": {
                    "uv": [
                        5.66667,
                        0.66667,
                        7.682,
                        2.34867
                    ],
                    "rotation": 270,
                    "texture": "#0"
                },
                "down": {
                    "uv": [
                        5.66667,
                        0.66667,
                        7.682,
                        2.34867
                    ],
                    "rotation": 90,
                    "texture": "#0"
                }
            }
        },
        {
            "from": [
                7.77368,
                5.45,
                9.3
            ],
            "to": [
                8.27368,
                5.8,
                9.45
            ],
            "rotation": {
                "angle": -22.5,
                "axis": "x",
                "origin": [
                    8.02368,
                    5.88615,
                    9.367
                ]
            },
            "faces": {
                "north": {
                    "uv": [
                        5.66667,
                        0.66667,
                        7.682,
                        2.34867
                    ],
                    "texture": "#0"
                },
                "east": {
                    "uv": [
                        5.66667,
                        0.66667,
                        7.682,
                        2.34867
                    ],
                    "texture": "#0"
                },
                "south": {
                    "uv": [
                        5.66667,
                        0.66667,
                        7.682,
                        2.34867
                    ],
                    "texture": "#0"
                },
                "west": {
                    "uv": [
                        5.66667,
                        0.66667,
                        7.682,
                        2.34867
                    ],
                    "texture": "#0"
                },
                "up": {
                    "uv": [
                        5.66667,
                        0.66667,
                        7.682,
                        2.34867
                    ],
                    "rotation": 270,
                    "texture": "#0"
                },
                "down": {
                    "uv": [
                        5.66667,
                        0.66667,
                        7.682,
                        2.34867
                    ],
                    "rotation": 90,
                    "texture": "#0"
                }
            }
        },
        {
            "from": [
                7.77368,
                5.05,
                8.7
            ],
            "to": [
                8.27368,
                5.43,
                8.95
            ],
            "rotation": {
                "angle": -22.5,
                "axis": "x",
                "origin": [
                    8.02368,
                    5.48615,
                    8.867
                ]
            },
            "faces": {
                "north": {
                    "uv": [
                        5.66667,
                        0.66667,
                        7.682,
                        2.34867
                    ],
                    "texture": "#0"
                },
                "east": {
                    "uv": [
                        5.66667,
                        0.66667,
                        7.682,
                        2.34867
                    ],
                    "texture": "#0"
                },
                "south": {
                    "uv": [
                        5.66667,
                        0.66667,
                        7.682,
                        2.34867
                    ],
                    "texture": "#0"
                },
                "west": {
                    "uv": [
                        5.66667,
                        0.66667,
                        7.682,
                        2.34867
                    ],
                    "texture": "#0"
                },
                "up": {
                    "uv": [
                        5.66667,
                        0.66667,
                        7.682,
                        2.34867
                    ],
                    "rotation": 270,
                    "texture": "#0"
                },
                "down": {
                    "uv": [
                        5.66667,
                        0.66667,
                        7.682,
                        2.34867
                    ],
                    "rotation": 90,
                    "texture": "#0"
                }
            }
        },
        {
            "from": [
                7.77368,
                5.4,
                10.9
            ],
            "to": [
                8.27368,
                5.8,
                11.05
            ],
            "rotation": {
                "angle": 22.5,
                "axis": "x",
                "origin": [
                    8.02368,
                    5.64794,
                    10.97433
                ]
            },
            "faces": {
                "north": {
                    "uv": [
                        5.66667,
                        0.66667,
                        7.682,
                        2.34867
                    ],
                    "texture": "#0"
                },
                "east": {
                    "uv": [
                        5.66667,
                        0.66667,
                        7.682,
                        2.34867
                    ],
                    "texture": "#0"
                },
                "south": {
                    "uv": [
                        5.66667,
                        0.66667,
                        7.682,
                        2.34867
                    ],
                    "texture": "#0"
                },
                "west": {
                    "uv": [
                        5.66667,
                        0.66667,
                        7.682,
                        2.34867
                    ],
                    "texture": "#0"
                },
                "up": {
                    "uv": [
                        5.66667,
                        0.66667,
                        7.682,
                        2.34867
                    ],
                    "rotation": 270,
                    "texture": "#0"
                },
                "down": {
                    "uv": [
                        5.66667,
                        0.66667,
                        7.682,
                        2.34867
                    ],
                    "rotation": 90,
                    "texture": "#0"
                }
            }
        },
        {
            "from": [
                7.77368,
                5.4,
                9.6
            ],
            "to": [
                8.27368,
                5.8,
                9.75
            ],
            "rotation": {
                "angle": 22.5,
                "axis": "x",
                "origin": [
                    8.02368,
                    5.64794,
                    9.67433
                ]
            },
            "faces": {
                "north": {
                    "uv": [
                        5.66667,
                        0.66667,
                        7.682,
                        2.34867
                    ],
                    "texture": "#0"
                },
                "east": {
                    "uv": [
                        5.66667,
                        0.66667,
                        7.682,
                        2.34867
                    ],
                    "texture": "#0"
                },
                "south": {
                    "uv": [
                        5.66667,
                        0.66667,
                        7.682,
                        2.34867
                    ],
                    "texture": "#0"
                },
                "west": {
                    "uv": [
                        5.66667,
                        0.66667,
                        7.682,
                        2.34867
                    ],
                    "texture": "#0"
                },
                "up": {
                    "uv": [
                        5.66667,
                        0.66667,
                        7.682,
                        2.34867
                    ],
                    "rotation": 270,
                    "texture": "#0"
                },
                "down": {
                    "uv": [
                        5.66667,
                        0.66667,
                        7.682,
                        2.34867
                    ],
                    "rotation": 90,
                    "texture": "#0"
                }
            }
        },
        {
            "from": [
                7.77368,
                5.4,
                8.9
            ],
            "to": [
                8.27368,
                5.8,
                9.05
            ],
            "rotation": {
                "angle": 22.5,
                "axis": "x",
                "origin": [
                    8.02368,
                    5.64794,
                    8.97433
                ]
            },
            "faces": {
                "north": {
                    "uv": [
                        5.66667,
                        0.66667,
                        7.682,
                        2.34867
                    ],
                    "texture": "#0"
                },
                "east": {
                    "uv": [
                        5.66667,
                        0.66667,
                        7.682,
                        2.34867
                    ],
                    "texture": "#0"
                },
                "south": {
                    "uv": [
                        5.66667,
                        0.66667,
                        7.682,
                        2.34867
                    ],
                    "texture": "#0"
                },
                "west": {
                    "uv": [
                        5.66667,
                        0.66667,
                        7.682,
                        2.34867
                    ],
                    "texture": "#0"
                },
                "up": {
                    "uv": [
                        5.66667,
                        0.66667,
                        7.682,
                        2.34867
                    ],
                    "rotation": 270,
                    "texture": "#0"
                },
                "down": {
                    "uv": [
                        5.66667,
                        0.66667,
                        7.682,
                        2.34867
                    ],
                    "rotation": 90,
                    "texture": "#0"
                }
            }
        },
        {
            "from": [
                7.77368,
                4.7,
                10.7
            ],
            "to": [
                8.27368,
                5.1,
                10.85
            ],
            "rotation": {
                "angle": 22.5,
                "axis": "x",
                "origin": [
                    8.02368,
                    4.94794,
                    10.77433
                ]
            },
            "faces": {
                "north": {
                    "uv": [
                        5.66667,
                        0.66667,
                        7.682,
                        2.34867
                    ],
                    "texture": "#0"
                },
                "east": {
                    "uv": [
                        5.66667,
                        0.66667,
                        7.682,
                        2.34867
                    ],
                    "texture": "#0"
                },
                "south": {
                    "uv": [
                        5.66667,
                        0.66667,
                        7.682,
                        2.34867
                    ],
                    "texture": "#0"
                },
                "west": {
                    "uv": [
                        5.66667,
                        0.66667,
                        7.682,
                        2.34867
                    ],
                    "texture": "#0"
                },
                "up": {
                    "uv": [
                        5.66667,
                        0.66667,
                        7.682,
                        2.34867
                    ],
                    "rotation": 270,
                    "texture": "#0"
                },
                "down": {
                    "uv": [
                        5.66667,
                        0.66667,
                        7.682,
                        2.34867
                    ],
                    "rotation": 90,
                    "texture": "#0"
                }
            }
        },
        {
            "from": [
                7.77368,
                4.6,
                12.6
            ],
            "to": [
                8.27368,
                5,
                12.75
            ],
            "rotation": {
                "angle": 22.5,
                "axis": "x",
                "origin": [
                    8.02368,
                    4.84794,
                    12.67433
                ]
            },
            "faces": {
                "north": {
                    "uv": [
                        5.66667,
                        0.66667,
                        7.682,
                        2.34867
                    ],
                    "texture": "#0"
                },
                "east": {
                    "uv": [
                        5.66667,
                        0.66667,
                        7.682,
                        2.34867
                    ],
                    "texture": "#0"
                },
                "south": {
                    "uv": [
                        5.66667,
                        0.66667,
                        7.682,
                        2.34867
                    ],
                    "texture": "#0"
                },
                "west": {
                    "uv": [
                        5.66667,
                        0.66667,
                        7.682,
                        2.34867
                    ],
                    "texture": "#0"
                },
                "up": {
                    "uv": [
                        5.66667,
                        0.66667,
                        7.682,
                        2.34867
                    ],
                    "rotation": 270,
                    "texture": "#0"
                },
                "down": {
                    "uv": [
                        5.66667,
                        0.66667,
                        7.682,
                        2.34867
                    ],
                    "rotation": 90,
                    "texture": "#0"
                }
            }
        },
        {
            "from": [
                7.77368,
                4.6,
                10.8
            ],
            "to": [
                8.27368,
                5.05,
                10.95
            ],
            "rotation": {
                "angle": -22.5,
                "axis": "x",
                "origin": [
                    8.02368,
                    5.08615,
                    10.867
                ]
            },
            "faces": {
                "north": {
                    "uv": [
                        5.66667,
                        0.66667,
                        7.682,
                        2.34867
                    ],
                    "texture": "#0"
                },
                "east": {
                    "uv": [
                        5.66667,
                        0.66667,
                        7.682,
                        2.34867
                    ],
                    "texture": "#0"
                },
                "south": {
                    "uv": [
                        5.66667,
                        0.66667,
                        7.682,
                        2.34867
                    ],
                    "texture": "#0"
                },
                "west": {
                    "uv": [
                        5.66667,
                        0.66667,
                        7.682,
                        2.34867
                    ],
                    "texture": "#0"
                },
                "up": {
                    "uv": [
                        5.66667,
                        0.66667,
                        7.682,
                        2.34867
                    ],
                    "rotation": 270,
                    "texture": "#0"
                },
                "down": {
                    "uv": [
                        5.66667,
                        0.66667,
                        7.682,
                        2.34867
                    ],
                    "rotation": 90,
                    "texture": "#0"
                }
            }
        },
        {
            "from": [
                7.77368,
                5.4,
                12.5
            ],
            "to": [
                8.27368,
                5.85,
                12.65
            ],
            "rotation": {
                "angle": -22.5,
                "axis": "x",
                "origin": [
                    8.02368,
                    5.88615,
                    12.567
                ]
            },
            "faces": {
                "north": {
                    "uv": [
                        5.66667,
                        0.66667,
                        7.682,
                        2.34867
                    ],
                    "texture": "#0"
                },
                "east": {
                    "uv": [
                        5.66667,
                        0.66667,
                        7.682,
                        2.34867
                    ],
                    "texture": "#0"
                },
                "south": {
                    "uv": [
                        5.66667,
                        0.66667,
                        7.682,
                        2.34867
                    ],
                    "texture": "#0"
                },
                "west": {
                    "uv": [
                        5.66667,
                        0.66667,
                        7.682,
                        2.34867
                    ],
                    "texture": "#0"
                },
                "up": {
                    "uv": [
                        5.66667,
                        0.66667,
                        7.682,
                        2.34867
                    ],
                    "rotation": 270,
                    "texture": "#0"
                },
                "down": {
                    "uv": [
                        5.66667,
                        0.66667,
                        7.682,
                        2.34867
                    ],
                    "rotation": 90,
                    "texture": "#0"
                }
            }
        },
        {
            "from": [
                7.77368,
                4.63615,
                10.767
            ],
            "to": [
                8.27368,
                5.83615,
                10.967
            ],
            "rotation": {
                "angle": 0,
                "axis": "y",
                "origin": [
                    8.02368,
                    4.68615,
                    13.067
                ]
            },
            "faces": {
                "north": {
                    "uv": [
                        5.66667,
                        0.66667,
                        7.682,
                        2.34867
                    ],
                    "texture": "#0"
                },
                "east": {
                    "uv": [
                        5.66667,
                        0.66667,
                        7.682,
                        2.34867
                    ],
                    "texture": "#0"
                },
                "south": {
                    "uv": [
                        5.66667,
                        0.66667,
                        7.682,
                        2.34867
                    ],
                    "texture": "#0"
                },
                "west": {
                    "uv": [
                        5.66667,
                        0.66667,
                        7.682,
                        2.34867
                    ],
                    "texture": "#0"
                },
                "up": {
                    "uv": [
                        5.66667,
                        0.66667,
                        7.682,
                        2.34867
                    ],
                    "rotation": 270,
                    "texture": "#0"
                },
                "down": {
                    "uv": [
                        5.66667,
                        0.66667,
                        7.682,
                        2.34867
                    ],
                    "rotation": 90,
                    "texture": "#0"
                }
            }
        },
        {
            "from": [
                7.77368,
                4.508,
                10.82216
            ],
            "to": [
                8.27368,
                4.708,
                13.12216
            ],
            "rotation": {
                "angle": 0,
                "axis": "y",
                "origin": [
                    8.02368,
                    4.558,
                    13.52216
                ]
            },
            "faces": {
                "north": {
                    "uv": [
                        5.66667,
                        0.66667,
                        7.682,
                        2.34867
                    ],
                    "texture": "#0"
                },
                "east": {
                    "uv": [
                        5.66667,
                        0.66667,
                        7.682,
                        2.34867
                    ],
                    "texture": "#0"
                },
                "south": {
                    "uv": [
                        5.66667,
                        0.66667,
                        7.682,
                        2.34867
                    ],
                    "texture": "#0"
                },
                "west": {
                    "uv": [
                        5.66667,
                        0.66667,
                        7.682,
                        2.34867
                    ],
                    "texture": "#0"
                },
                "up": {
                    "uv": [
                        5.66667,
                        0.66667,
                        7.682,
                        2.34867
                    ],
                    "rotation": 270,
                    "texture": "#0"
                },
                "down": {
                    "uv": [
                        5.66667,
                        0.66667,
                        7.682,
                        2.34867
                    ],
                    "rotation": 90,
                    "texture": "#0"
                }
            }
        },
        {
            "from": [
                7.77368,
                4.77207,
                9.49458
            ],
            "to": [
                8.27368,
                4.87207,
                10.89458
            ],
            "rotation": {
                "angle": 22.5,
                "axis": "x",
                "origin": [
                    8.02368,
                    4.82207,
                    10.19458
                ]
            },
            "faces": {
                "north": {
                    "uv": [
                        5.66667,
                        0.66667,
                        7.682,
                        2.34867
                    ],
                    "texture": "#0"
                },
                "east": {
                    "uv": [
                        5.66667,
                        0.66667,
                        7.682,
                        2.34867
                    ],
                    "texture": "#0"
                },
                "south": {
                    "uv": [
                        5.66667,
                        0.66667,
                        7.682,
                        2.34867
                    ],
                    "texture": "#0"
                },
                "west": {
                    "uv": [
                        5.66667,
                        0.66667,
                        7.682,
                        2.34867
                    ],
                    "texture": "#0"
                },
                "up": {
                    "uv": [
                        5.66667,
                        0.66667,
                        7.682,
                        2.34867
                    ],
                    "rotation": 270,
                    "texture": "#0"
                },
                "down": {
                    "uv": [
                        5.66667,
                        0.66667,
                        7.682,
                        2.34867
                    ],
                    "rotation": 90,
                    "texture": "#0"
                }
            }
        },
        {
            "from": [
                7.77368,
                4.87207,
                9.49458
            ],
            "to": [
                8.27368,
                4.97207,
                10.89458
            ],
            "rotation": {
                "angle": 22.5,
                "axis": "x",
                "origin": [
                    8.02368,
                    4.92207,
                    10.19458
                ]
            },
            "faces": {
                "north": {
                    "uv": [
                        5.66667,
                        0.66667,
                        7.682,
                        2.34867
                    ],
                    "texture": "#0"
                },
                "east": {
                    "uv": [
                        5.66667,
                        0.66667,
                        7.682,
                        2.34867
                    ],
                    "texture": "#0"
                },
                "south": {
                    "uv": [
                        5.66667,
                        0.66667,
                        7.682,
                        2.34867
                    ],
                    "texture": "#0"
                },
                "west": {
                    "uv": [
                        5.66667,
                        0.66667,
                        7.682,
                        2.34867
                    ],
                    "texture": "#0"
                },
                "up": {
                    "uv": [
                        5.66667,
                        0.66667,
                        7.682,
                        2.34867
                    ],
                    "rotation": 270,
                    "texture": "#0"
                },
                "down": {
                    "uv": [
                        5.66667,
                        0.66667,
                        7.682,
                        2.34867
                    ],
                    "rotation": 90,
                    "texture": "#0"
                }
            }
        },
        {
            "from": [
                7.72368,
                5.65615,
                8.167
            ],
            "to": [
                8.32368,
                5.95615,
                8.867
            ],
            "rotation": {
                "angle": 0,
                "axis": "y",
                "origin": [
                    8.02368,
                    6.56512,
                    9.517
                ]
            },
            "faces": {
                "north": {
                    "uv": [
                        5.66667,
                        0.66667,
                        7.682,
                        2.34867
                    ],
                    "texture": "#0"
                },
                "east": {
                    "uv": [
                        5.66667,
                        0.66667,
                        7.682,
                        2.34867
                    ],
                    "texture": "#0"
                },
                "south": {
                    "uv": [
                        5.66667,
                        0.66667,
                        7.682,
                        2.34867
                    ],
                    "texture": "#0"
                },
                "west": {
                    "uv": [
                        5.66667,
                        0.66667,
                        7.682,
                        2.34867
                    ],
                    "texture": "#0"
                },
                "up": {
                    "uv": [
                        5.66667,
                        0.66667,
                        7.682,
                        2.34867
                    ],
                    "rotation": 270,
                    "texture": "#0"
                },
                "down": {
                    "uv": [
                        5.66667,
                        0.66667,
                        7.682,
                        2.34867
                    ],
                    "rotation": 90,
                    "texture": "#0"
                }
            }
        },
        {
            "from": [
                7.73403,
                5.03615,
                8.842
            ],
            "to": [
                7.80403,
                5.95615,
                8.892
            ],
            "rotation": {
                "angle": -45,
                "axis": "y",
                "origin": [
                    7.75903,
                    5.18615,
                    8.867
                ]
            },
            "faces": {
                "north": {
                    "uv": [
                        5.66667,
                        0.66667,
                        7.682,
                        2.34867
                    ],
                    "texture": "#0"
                },
                "east": {
                    "uv": [
                        5.66667,
                        0.66667,
                        7.682,
                        2.34867
                    ],
                    "texture": "#0"
                },
                "south": {
                    "uv": [
                        5.66667,
                        0.66667,
                        7.682,
                        2.34867
                    ],
                    "texture": "#0"
                },
                "west": {
                    "uv": [
                        5.66667,
                        0.66667,
                        7.682,
                        2.34867
                    ],
                    "texture": "#0"
                },
                "up": {
                    "uv": [
                        5.66667,
                        0.66667,
                        7.682,
                        2.34867
                    ],
                    "rotation": 270,
                    "texture": "#0"
                },
                "down": {
                    "uv": [
                        5.66667,
                        0.66667,
                        7.682,
                        2.34867
                    ],
                    "rotation": 90,
                    "texture": "#0"
                }
            }
        },
        {
            "from": [
                8.26332,
                5.03615,
                8.842
            ],
            "to": [
                8.31332,
                5.95615,
                8.912
            ],
            "rotation": {
                "angle": -45,
                "axis": "y",
                "origin": [
                    8.28832,
                    5.18615,
                    8.867
                ]
            },
            "faces": {
                "north": {
                    "uv": [
                        5.66667,
                        0.66667,
                        7.682,
                        2.34867
                    ],
                    "rotation": 270,
                    "texture": "#0"
                },
                "east": {
                    "uv": [
                        5.66667,
                        0.66667,
                        7.682,
                        2.34867
                    ],
                    "rotation": 270,
                    "texture": "#0"
                },
                "south": {
                    "uv": [
                        5.66667,
                        0.66667,
                        7.682,
                        2.34867
                    ],
                    "rotation": 270,
                    "texture": "#0"
                },
                "west": {
                    "uv": [
                        5.66667,
                        0.66667,
                        7.682,
                        2.34867
                    ],
                    "rotation": 270,
                    "texture": "#0"
                },
                "up": {
                    "uv": [
                        5.66667,
                        0.66667,
                        7.682,
                        2.34867
                    ],
                    "rotation": 180,
                    "texture": "#0"
                },
                "down": {
                    "uv": [
                        5.66667,
                        0.66667,
                        7.682,
                        2.34867
                    ],
                    "texture": "#0"
                }
            }
        },
        {
            "from": [
                7.77368,
                4.98733,
                8.05
            ],
            "to": [
                8.27368,
                5.23733,
                8.35
            ],
            "rotation": {
                "angle": 22.5,
                "axis": "x",
                "origin": [
                    8.02368,
                    5.13733,
                    8.2
                ]
            },
            "faces": {
                "north": {
                    "uv": [
                        5.66667,
                        0.66667,
                        7.682,
                        2.34867
                    ],
                    "rotation": 270,
                    "texture": "#0"
                },
                "east": {
                    "uv": [
                        5.66667,
                        0.66667,
                        7.682,
                        2.34867
                    ],
                    "rotation": 270,
                    "texture": "#0"
                },
                "south": {
                    "uv": [
                        5.66667,
                        0.66667,
                        7.682,
                        2.34867
                    ],
                    "rotation": 270,
                    "texture": "#0"
                },
                "west": {
                    "uv": [
                        5.66667,
                        0.66667,
                        7.682,
                        2.34867
                    ],
                    "rotation": 270,
                    "texture": "#0"
                },
                "up": {
                    "uv": [
                        5.66667,
                        0.66667,
                        7.682,
                        2.34867
                    ],
                    "rotation": 180,
                    "texture": "#0"
                },
                "down": {
                    "uv": [
                        5.66667,
                        0.66667,
                        7.682,
                        2.34867
                    ],
                    "texture": "#0"
                }
            }
        },
        {
            "from": [
                7.77368,
                4.94134,
                8.28118
            ],
            "to": [
                8.27368,
                5.09134,
                9.68118
            ],
            "rotation": {
                "angle": 0,
                "axis": "y",
                "origin": [
                    8.02368,
                    5.06634,
                    9.13118
                ]
            },
            "faces": {
                "north": {
                    "uv": [
                        5.66667,
                        0.66667,
                        7.682,
                        2.34867
                    ],
                    "rotation": 270,
                    "texture": "#0"
                },
                "east": {
                    "uv": [
                        5.66667,
                        0.66667,
                        7.682,
                        2.34867
                    ],
                    "rotation": 270,
                    "texture": "#0"
                },
                "south": {
                    "uv": [
                        5.66667,
                        0.66667,
                        7.682,
                        2.34867
                    ],
                    "rotation": 270,
                    "texture": "#0"
                },
                "west": {
                    "uv": [
                        5.66667,
                        0.66667,
                        7.682,
                        2.34867
                    ],
                    "rotation": 270,
                    "texture": "#0"
                },
                "up": {
                    "uv": [
                        5.66667,
                        0.66667,
                        7.682,
                        2.34867
                    ],
                    "rotation": 180,
                    "texture": "#0"
                },
                "down": {
                    "uv": [
                        5.66667,
                        0.66667,
                        7.682,
                        2.34867
                    ],
                    "texture": "#0"
                }
            }
        },
        {
            "from": [
                7.77368,
                4.50119,
                10.71395
            ],
            "to": [
                8.27368,
                4.65119,
                12.11395
            ],
            "rotation": {
                "angle": 0,
                "axis": "y",
                "origin": [
                    8.02368,
                    4.62619,
                    11.56395
                ]
            },
            "faces": {
                "north": {
                    "uv": [
                        5.66667,
                        0.66667,
                        7.682,
                        2.34867
                    ],
                    "rotation": 270,
                    "texture": "#0"
                },
                "east": {
                    "uv": [
                        5.66667,
                        0.66667,
                        7.682,
                        2.34867
                    ],
                    "rotation": 270,
                    "texture": "#0"
                },
                "south": {
                    "uv": [
                        5.66667,
                        0.66667,
                        7.682,
                        2.34867
                    ],
                    "rotation": 270,
                    "texture": "#0"
                },
                "west": {
                    "uv": [
                        5.66667,
                        0.66667,
                        7.682,
                        2.34867
                    ],
                    "rotation": 270,
                    "texture": "#0"
                },
                "up": {
                    "uv": [
                        5.66667,
                        0.66667,
                        7.682,
                        2.34867
                    ],
                    "rotation": 180,
                    "texture": "#0"
                },
                "down": {
                    "uv": [
                        5.66667,
                        0.66667,
                        7.682,
                        2.34867
                    ],
                    "texture": "#0"
                }
            }
        },
        {
            "from": [
                7.77368,
                4.51155,
                12.08895
            ],
            "to": [
                8.27368,
                4.56155,
                12.13895
            ],
            "rotation": {
                "angle": -45,
                "axis": "x",
                "origin": [
                    8.02368,
                    4.53655,
                    12.11395
                ]
            },
            "faces": {
                "north": {
                    "uv": [
                        5.66667,
                        0.66667,
                        7.682,
                        2.34867
                    ],
                    "rotation": 270,
                    "texture": "#0"
                },
                "east": {
                    "uv": [
                        5.66667,
                        0.66667,
                        7.682,
                        2.34867
                    ],
                    "rotation": 270,
                    "texture": "#0"
                },
                "south": {
                    "uv": [
                        5.66667,
                        0.66667,
                        7.682,
                        2.34867
                    ],
                    "rotation": 270,
                    "texture": "#0"
                },
                "west": {
                    "uv": [
                        5.66667,
                        0.66667,
                        7.682,
                        2.34867
                    ],
                    "rotation": 270,
                    "texture": "#0"
                },
                "up": {
                    "uv": [
                        5.66667,
                        0.66667,
                        7.682,
                        2.34867
                    ],
                    "rotation": 180,
                    "texture": "#0"
                },
                "down": {
                    "uv": [
                        5.66667,
                        0.66667,
                        7.682,
                        2.34867
                    ],
                    "texture": "#0"
                }
            }
        },
        {
            "from": [
                7.77368,
                4.70215,
                9.62366
            ],
            "to": [
                8.27368,
                4.85215,
                10.80366
            ],
            "rotation": {
                "angle": 22.5,
                "axis": "x",
                "origin": [
                    8.02368,
                    4.82715,
                    10.25366
                ]
            },
            "faces": {
                "north": {
                    "uv": [
                        5.66667,
                        0.66667,
                        7.682,
                        2.34867
                    ],
                    "rotation": 270,
                    "texture": "#0"
                },
                "east": {
                    "uv": [
                        5.66667,
                        0.66667,
                        7.682,
                        2.34867
                    ],
                    "rotation": 270,
                    "texture": "#0"
                },
                "south": {
                    "uv": [
                        5.66667,
                        0.66667,
                        7.682,
                        2.34867
                    ],
                    "rotation": 270,
                    "texture": "#0"
                },
                "west": {
                    "uv": [
                        5.66667,
                        0.66667,
                        7.682,
                        2.34867
                    ],
                    "rotation": 270,
                    "texture": "#0"
                },
                "up": {
                    "uv": [
                        5.66667,
                        0.66667,
                        7.682,
                        2.34867
                    ],
                    "rotation": 180,
                    "texture": "#0"
                },
                "down": {
                    "uv": [
                        5.66667,
                        0.66667,
                        7.682,
                        2.34867
                    ],
                    "texture": "#0"
                }
            }
        }
    ],
    "display": {
        "thirdperson_righthand": {
            "translation": [
                -0.75,
                5,
                1.75
            ],
            "scale": [
                1.56,
                1.56,
                1.56
            ]
        },
        "thirdperson_lefthand": {
            "translation": [
                -0.75,
                4.75,
                1.75
            ],
            "scale": [
                1.56,
                1.56,
                1.56
            ]
        },
        "firstperson_righthand": {
            "translation": [
                -6.5,
                9.25,
                8.25
            ]
        },
        "firstperson_lefthand": {
            "translation": [
                -6.5,
                9.25,
                8.25
            ]
        },
        "ground": {
            "translation": [
                0,
                7,
                4
            ],
            "scale": [
                1.2,
                1.2,
                1.2
            ]
        },
        "gui": {
            "rotation": [
                19,
                28,
                -15
            ],
            "translation": [
                2.5,
                7.25,
                0
            ],
            "scale": [
                2.3,
                2.3,
                2.3
            ]
        },
        "head": {
            "rotation": [
                0,
                0,
                50
            ],
            "translation": [
                -5,
                13.25,
                5.5
            ],
            "scale": [
                2,
                2,
                2
            ]
        },
        "fixed": {
            "rotation": [
                90,
                45,
                -90
            ],
            "translation": [
                6.5,
                2,
                -1.75
            ],
            "scale": [
                1.85,
                1.85,
                1.85
            ]
        }
    }
}