{
	"credit": "Made with Blockbench",
	"textures": {
		"1": "gci:items/common/all_in_one",
		"particle": "gci:items/common/mpz2"
	},
	"elements": [
		{
			"from": [7.992, 13.34692, 6.728],
			"to": [8.68, 13.76292, 7.428],
			"rotation": {"angle": 0, "axis": "y", "origin": [8.323, 13.65759, 8.23]},
			"faces": {
				"north": {"uv": [3.875, 3.125, 3.875, 3.125], "rotation": 270, "texture": "#1"},
				"east": {"uv": [3.875, 3.125, 3.875, 3.125], "rotation": 270, "texture": "#1"},
				"south": {"uv": [3.875, 3.125, 3.875, 3.125], "rotation": 270, "texture": "#1"},
				"west": {"uv": [3.875, 3.125, 3.875, 3.125], "rotation": 270, "texture": "#1"},
				"up": {"uv": [3.875, 3.125, 3.875, 3.125], "rotation": 270, "texture": "#1"},
				"down": {"uv": [3.875, 3.125, 3.875, 3.125], "rotation": 270, "texture": "#1"}
			}
		},
		{
			"from": [7.992, 13.66692, 6.728],
			"to": [8.168, 14.30692, 7.428],
			"rotation": {"angle": 0, "axis": "y", "origin": [8.323, 13.97759, 8.23]},
			"faces": {
				"north": {"uv": [3.875, 3.125, 3.875, 3.125], "rotation": 270, "texture": "#1"},
				"east": {"uv": [3.875, 3.125, 3.875, 3.125], "rotation": 270, "texture": "#1"},
				"south": {"uv": [3.875, 3.125, 3.875, 3.125], "rotation": 270, "texture": "#1"},
				"west": {"uv": [3.875, 3.125, 3.875, 3.125], "rotation": 270, "texture": "#1"},
				"up": {"uv": [3.875, 3.125, 3.875, 3.125], "rotation": 270, "texture": "#1"},
				"down": {"uv": [3.875, 3.125, 3.875, 3.125], "rotation": 270, "texture": "#1"}
			}
		},
		{
			"from": [8.504, 13.66692, 6.728],
			"to": [8.68, 14.30692, 7.428],
			"rotation": {"angle": 0, "axis": "y", "origin": [8.323, 13.97759, 8.23]},
			"faces": {
				"north": {"uv": [3.875, 3.125, 3.875, 3.125], "rotation": 270, "texture": "#1"},
				"east": {"uv": [3.875, 3.125, 3.875, 3.125], "rotation": 270, "texture": "#1"},
				"south": {"uv": [3.875, 3.125, 3.875, 3.125], "rotation": 270, "texture": "#1"},
				"west": {"uv": [3.875, 3.125, 3.875, 3.125], "rotation": 270, "texture": "#1"},
				"up": {"uv": [3.875, 3.125, 3.875, 3.125], "rotation": 270, "texture": "#1"},
				"down": {"uv": [3.875, 3.125, 3.875, 3.125], "rotation": 270, "texture": "#1"}
			}
		},
		{
			"from": [7.992, 13.34692, 8.744],
			"to": [8.68, 13.76292, 9.444],
			"rotation": {"angle": 0, "axis": "y", "origin": [8.323, 13.65759, 10.246]},
			"faces": {
				"north": {"uv": [3.875, 3.125, 3.875, 3.125], "rotation": 270, "texture": "#1"},
				"east": {"uv": [3.875, 3.125, 3.875, 3.125], "rotation": 270, "texture": "#1"},
				"south": {"uv": [3.875, 3.125, 3.875, 3.125], "rotation": 270, "texture": "#1"},
				"west": {"uv": [3.875, 3.125, 3.875, 3.125], "rotation": 270, "texture": "#1"},
				"up": {"uv": [3.875, 3.125, 3.875, 3.125], "rotation": 270, "texture": "#1"},
				"down": {"uv": [3.875, 3.125, 3.875, 3.125], "rotation": 270, "texture": "#1"}
			}
		},
		{
			"from": [7.992, 13.34692, 6.728],
			"to": [8.68, 13.66692, 9.444],
			"rotation": {"angle": 0, "axis": "y", "origin": [8.323, 13.65759, 10.246]},
			"faces": {
				"north": {"uv": [3.875, 3.125, 3.875, 3.125], "rotation": 270, "texture": "#1"},
				"east": {"uv": [3.875, 3.125, 3.875, 3.125], "rotation": 270, "texture": "#1"},
				"south": {"uv": [3.875, 3.125, 3.875, 3.125], "rotation": 270, "texture": "#1"},
				"west": {"uv": [3.875, 3.125, 3.875, 3.125], "rotation": 270, "texture": "#1"},
				"up": {"uv": [3.875, 3.125, 3.875, 3.125], "rotation": 270, "texture": "#1"},
				"down": {"uv": [3.875, 3.125, 3.875, 3.125], "rotation": 270, "texture": "#1"}
			}
		},
		{
			"from": [7.992, 13.66692, 8.744],
			"to": [8.168, 14.30692, 9.444],
			"rotation": {"angle": 0, "axis": "y", "origin": [8.323, 13.97759, 10.246]},
			"faces": {
				"north": {"uv": [3.875, 3.125, 3.875, 3.125], "rotation": 270, "texture": "#1"},
				"east": {"uv": [3.875, 3.125, 3.875, 3.125], "rotation": 270, "texture": "#1"},
				"south": {"uv": [3.875, 3.125, 3.875, 3.125], "rotation": 270, "texture": "#1"},
				"west": {"uv": [3.875, 3.125, 3.875, 3.125], "rotation": 270, "texture": "#1"},
				"up": {"uv": [3.875, 3.125, 3.875, 3.125], "rotation": 270, "texture": "#1"},
				"down": {"uv": [3.875, 3.125, 3.875, 3.125], "rotation": 270, "texture": "#1"}
			}
		},
		{
			"from": [8.504, 13.66692, 8.744],
			"to": [8.68, 14.30692, 9.444],
			"rotation": {"angle": 0, "axis": "y", "origin": [8.323, 13.97759, 10.246]},
			"faces": {
				"north": {"uv": [3.875, 3.125, 3.875, 3.125], "rotation": 270, "texture": "#1"},
				"east": {"uv": [3.875, 3.125, 3.875, 3.125], "rotation": 270, "texture": "#1"},
				"south": {"uv": [3.875, 3.125, 3.875, 3.125], "rotation": 270, "texture": "#1"},
				"west": {"uv": [3.875, 3.125, 3.875, 3.125], "rotation": 270, "texture": "#1"},
				"up": {"uv": [3.875, 3.125, 3.875, 3.125], "rotation": 270, "texture": "#1"},
				"down": {"uv": [3.875, 3.125, 3.875, 3.125], "rotation": 270, "texture": "#1"}
			}
		},
		{
			"from": [7.96, 13.44492, 7.014],
			"to": [8.712, 13.56892, 7.142],
			"rotation": {"angle": -45, "axis": "x", "origin": [8.336, 13.50692, 7.078]},
			"faces": {
				"north": {"uv": [2.875, 1, 2.875, 1.25], "texture": "#1"},
				"east": {"uv": [2.875, 1, 2.875, 1.25], "texture": "#1"},
				"south": {"uv": [2.875, 1, 2.875, 1.25], "texture": "#1"},
				"west": {"uv": [2.875, 1, 2.875, 1.25], "texture": "#1"},
				"up": {"uv": [2.875, 1, 2.875, 1.25], "texture": "#1"},
				"down": {"uv": [2.875, 1, 2.875, 1.25], "texture": "#1"}
			}
		},
		{
			"from": [7.96, 13.44492, 9.03],
			"to": [8.712, 13.56892, 9.158],
			"rotation": {"angle": -45, "axis": "x", "origin": [8.336, 13.50692, 9.094]},
			"faces": {
				"north": {"uv": [2.875, 1, 2.875, 1.25], "texture": "#1"},
				"east": {"uv": [2.875, 1, 2.875, 1.25], "texture": "#1"},
				"south": {"uv": [2.875, 1, 2.875, 1.25], "texture": "#1"},
				"west": {"uv": [2.875, 1, 2.875, 1.25], "texture": "#1"},
				"up": {"uv": [2.875, 1, 2.875, 1.25], "texture": "#1"},
				"down": {"uv": [2.875, 1, 2.875, 1.25], "texture": "#1"}
			}
		},
		{
			"from": [8.54548, 14.63462, 6.232],
			"to": [8.68148, 14.86662, 10.368],
			"rotation": {"angle": 22.5, "axis": "z", "origin": [8.61348, 14.79862, 7.74]},
			"faces": {
				"north": {"uv": [3, 3.75, 3, 3.75], "rotation": 270, "texture": "#1"},
				"east": {"uv": [3, 3.75, 3, 3.75], "rotation": 270, "texture": "#1"},
				"south": {"uv": [3, 3.75, 3, 3.75], "rotation": 270, "texture": "#1"},
				"west": {"uv": [3, 3.75, 3, 3.75], "rotation": 270, "texture": "#1"},
				"up": {"uv": [3, 3.75, 3, 3.75], "rotation": 270, "texture": "#1"},
				"down": {"uv": [3, 3.75, 3, 3.75], "rotation": 270, "texture": "#1"}
			}
		},
		{
			"from": [8.0222, 14.38365, 6.232],
			"to": [8.1582, 14.61565, 10.368],
			"rotation": {"angle": 22.5, "axis": "z", "origin": [8.33489, 14.31528, 7.74]},
			"faces": {
				"north": {"uv": [3, 3.75, 3, 3.75], "rotation": 90, "texture": "#1"},
				"east": {"uv": [3, 3.75, 3, 3.75], "rotation": 90, "texture": "#1"},
				"south": {"uv": [3, 3.75, 3, 3.75], "rotation": 90, "texture": "#1"},
				"west": {"uv": [3, 3.75, 3, 3.75], "rotation": 90, "texture": "#1"},
				"up": {"uv": [3, 3.75, 3, 3.75], "rotation": 90, "texture": "#1"},
				"down": {"uv": [3, 3.75, 3, 3.75], "rotation": 90, "texture": "#1"}
			}
		},
		{
			"from": [8.40474, 14.8194, 6.232],
			"to": [8.63674, 14.9554, 10.368],
			"rotation": {"angle": -22.5, "axis": "z", "origin": [8.47274, 14.8874, 7.804]},
			"faces": {
				"north": {"uv": [3, 3.75, 3, 3.75], "texture": "#1"},
				"east": {"uv": [3, 3.75, 3, 3.75], "texture": "#1"},
				"south": {"uv": [3, 3.75, 3, 3.75], "texture": "#1"},
				"west": {"uv": [3, 3.75, 3, 3.75], "texture": "#1"},
				"up": {"uv": [3, 3.75, 3, 3.75], "texture": "#1"},
				"down": {"uv": [3, 3.75, 3, 3.75], "texture": "#1"}
			}
		},
		{
			"from": [8.06544, 14.14252, 6.232],
			"to": [8.29744, 14.27852, 10.368],
			"rotation": {"angle": -22.5, "axis": "z", "origin": [8.33489, 14.31528, 7.74]},
			"faces": {
				"north": {"uv": [3, 3.75, 3, 3.75], "rotation": 180, "texture": "#1"},
				"east": {"uv": [3, 3.75, 3, 3.75], "rotation": 180, "texture": "#1"},
				"south": {"uv": [3, 3.75, 3, 3.75], "rotation": 180, "texture": "#1"},
				"west": {"uv": [3, 3.75, 3, 3.75], "rotation": 180, "texture": "#1"},
				"up": {"uv": [3, 3.75, 3, 3.75], "rotation": 180, "texture": "#1"},
				"down": {"uv": [3, 3.75, 3, 3.75], "rotation": 180, "texture": "#1"}
			}
		},
		{
			"from": [8.23594, 14.84025, 6.232],
			"to": [8.43594, 14.97625, 10.368],
			"rotation": {"angle": 0, "axis": "y", "origin": [15.78794, 21.97625, 17.528]},
			"faces": {
				"north": {"uv": [3, 3.75, 3, 3.75], "texture": "#1"},
				"east": {"uv": [3, 3.75, 3, 3.75], "texture": "#1"},
				"south": {"uv": [3, 3.75, 3, 3.75], "texture": "#1"},
				"west": {"uv": [3, 3.75, 3, 3.75], "texture": "#1"},
				"up": {"uv": [3, 3.75, 3, 3.75], "texture": "#1"},
				"down": {"uv": [3, 3.75, 3, 3.75], "texture": "#1"}
			}
		},
		{
			"from": [8.60306, 14.47313, 5.976],
			"to": [8.73906, 14.67313, 10.368],
			"rotation": {"angle": 0, "axis": "y", "origin": [8.32178, 14.57383, 7.74]},
			"faces": {
				"north": {"uv": [3, 3.75, 3, 3.75], "rotation": 90, "texture": "#1"},
				"east": {"uv": [3, 3.75, 3, 3.75], "rotation": 90, "texture": "#1"},
				"south": {"uv": [3, 3.75, 3, 3.75], "rotation": 90, "texture": "#1"},
				"west": {"uv": [3, 3.75, 3, 3.75], "rotation": 90, "texture": "#1"},
				"up": {"uv": [3, 3.75, 3, 3.75], "rotation": 90, "texture": "#1"},
				"down": {"uv": [3, 3.75, 3, 3.75], "rotation": 90, "texture": "#1"}
			}
		},
		{
			"from": [8.23418, 14.17, 6.232],
			"to": [8.43418, 14.306, 10.368],
			"rotation": {"angle": 0, "axis": "y", "origin": [8.33489, 14.31528, 7.74]},
			"faces": {
				"north": {"uv": [3, 3.75, 3, 3.75], "rotation": 180, "texture": "#1"},
				"east": {"uv": [3, 3.75, 3, 3.75], "rotation": 180, "texture": "#1"},
				"south": {"uv": [3, 3.75, 3, 3.75], "rotation": 180, "texture": "#1"},
				"west": {"uv": [3, 3.75, 3, 3.75], "rotation": 180, "texture": "#1"},
				"up": {"uv": [3, 3.75, 3, 3.75], "rotation": 180, "texture": "#1"},
				"down": {"uv": [3, 3.75, 3, 3.75], "rotation": 180, "texture": "#1"}
			}
		},
		{
			"from": [7.93106, 14.47312, 6.232],
			"to": [8.06706, 14.67312, 10.368],
			"rotation": {"angle": 0, "axis": "y", "origin": [8.34834, 14.57242, 7.74]},
			"faces": {
				"north": {"uv": [3, 3.75, 3, 3.75], "rotation": 270, "texture": "#1"},
				"east": {"uv": [3, 3.75, 3, 3.75], "rotation": 270, "texture": "#1"},
				"south": {"uv": [3, 3.75, 3, 3.75], "rotation": 270, "texture": "#1"},
				"west": {"uv": [3, 3.75, 3, 3.75], "rotation": 270, "texture": "#1"},
				"up": {"uv": [3, 3.75, 3, 3.75], "rotation": 270, "texture": "#1"},
				"down": {"uv": [3, 3.75, 3, 3.75], "rotation": 270, "texture": "#1"}
			}
		},
		{
			"from": [8.08873, 14.75511, 6.232],
			"to": [8.32073, 14.89111, 10.368],
			"rotation": {"angle": 22.5, "axis": "z", "origin": [8.06346, 14.71614, 7.75067]},
			"faces": {
				"north": {"uv": [3, 3.75, 3, 3.75], "texture": "#1"},
				"east": {"uv": [3, 3.75, 3, 3.75], "texture": "#1"},
				"south": {"uv": [3, 3.75, 3, 3.75], "texture": "#1"},
				"west": {"uv": [3, 3.75, 3, 3.75], "texture": "#1"},
				"up": {"uv": [3, 3.75, 3, 3.75], "texture": "#1"},
				"down": {"uv": [3, 3.75, 3, 3.75], "texture": "#1"}
			}
		},
		{
			"from": [8.37265, 14.14239, 6.232],
			"to": [8.60465, 14.27839, 10.368],
			"rotation": {"angle": 22.5, "axis": "z", "origin": [8.33489, 14.31528, 7.74]},
			"faces": {
				"north": {"uv": [3, 3.75, 3, 3.75], "rotation": 180, "texture": "#1"},
				"east": {"uv": [3, 3.75, 3, 3.75], "rotation": 180, "texture": "#1"},
				"south": {"uv": [3, 3.75, 3, 3.75], "rotation": 180, "texture": "#1"},
				"west": {"uv": [3, 3.75, 3, 3.75], "rotation": 180, "texture": "#1"},
				"up": {"uv": [3, 3.75, 3, 3.75], "rotation": 180, "texture": "#1"},
				"down": {"uv": [3, 3.75, 3, 3.75], "rotation": 180, "texture": "#1"}
			}
		},
		{
			"from": [7.9576, 14.62573, 6.232],
			"to": [8.0936, 14.85773, 10.368],
			"rotation": {"angle": -22.5, "axis": "z", "origin": [8.06346, 14.71614, 7.75067]},
			"faces": {
				"north": {"uv": [3, 3.75, 3, 3.75], "rotation": 90, "texture": "#1"},
				"east": {"uv": [3, 3.75, 3, 3.75], "rotation": 90, "texture": "#1"},
				"south": {"uv": [3, 3.75, 3, 3.75], "rotation": 90, "texture": "#1"},
				"west": {"uv": [3, 3.75, 3, 3.75], "rotation": 90, "texture": "#1"},
				"up": {"uv": [3, 3.75, 3, 3.75], "rotation": 90, "texture": "#1"},
				"down": {"uv": [3, 3.75, 3, 3.75], "rotation": 90, "texture": "#1"}
			}
		},
		{
			"from": [8.51189, 14.38378, 6.232],
			"to": [8.64789, 14.61578, 10.368],
			"rotation": {"angle": -22.5, "axis": "z", "origin": [8.33489, 14.31528, 7.74]},
			"faces": {
				"north": {"uv": [3, 3.75, 3, 3.75], "rotation": 270, "texture": "#1"},
				"east": {"uv": [3, 3.75, 3, 3.75], "rotation": 270, "texture": "#1"},
				"south": {"uv": [3, 3.75, 3, 3.75], "rotation": 270, "texture": "#1"},
				"west": {"uv": [3, 3.75, 3, 3.75], "rotation": 270, "texture": "#1"},
				"up": {"uv": [3, 3.75, 3, 3.75], "rotation": 270, "texture": "#1"},
				"down": {"uv": [3, 3.75, 3, 3.75], "rotation": 270, "texture": "#1"}
			}
		},
		{
			"name": "hexadecagon",
			"from": [8.23594, 14.07225, 10.008],
			"to": [8.43485, 14.18425, 11.936],
			"rotation": {"angle": -45, "axis": "z", "origin": [8.3354, 14.57225, 10.508]},
			"faces": {
				"north": {"uv": [3.625, 3.625, 3.875, 3.625], "texture": "#1"},
				"east": {"uv": [3.625, 3.625, 3.875, 3.625], "texture": "#1"},
				"south": {"uv": [3.625, 3.625, 3.875, 3.625], "texture": "#1"},
				"west": {"uv": [3.625, 3.625, 3.875, 3.625], "texture": "#1"},
				"up": {"uv": [3.625, 3.625, 3.875, 3.625], "texture": "#1"},
				"down": {"uv": [3.625, 3.625, 3.875, 3.625], "texture": "#1"}
			}
		},
		{
			"name": "hexadecagon",
			"from": [8.23594, 14.07225, 10.008],
			"to": [8.43485, 14.18425, 11.936],
			"rotation": {"angle": -22.5, "axis": "z", "origin": [8.3354, 14.57225, 10.508]},
			"faces": {
				"north": {"uv": [3.625, 3.625, 3.875, 3.625], "texture": "#1"},
				"east": {"uv": [3.625, 3.625, 3.875, 3.625], "texture": "#1"},
				"south": {"uv": [3.625, 3.625, 3.875, 3.625], "texture": "#1"},
				"west": {"uv": [3.625, 3.625, 3.875, 3.625], "texture": "#1"},
				"up": {"uv": [3.625, 3.625, 3.875, 3.625], "texture": "#1"},
				"down": {"uv": [3.625, 3.625, 3.875, 3.625], "texture": "#1"}
			}
		},
		{
			"name": "hexadecagon",
			"from": [8.23594, 14.07225, 10.008],
			"to": [8.43485, 14.18425, 11.936],
			"rotation": {"angle": 0, "axis": "y", "origin": [8.3354, 14.57225, 10.508]},
			"faces": {
				"north": {"uv": [3.625, 3.625, 3.875, 3.625], "texture": "#1"},
				"east": {"uv": [3.625, 3.625, 3.875, 3.625], "texture": "#1"},
				"south": {"uv": [3.625, 3.625, 3.875, 3.625], "texture": "#1"},
				"west": {"uv": [3.625, 3.625, 3.875, 3.625], "texture": "#1"},
				"up": {"uv": [3.625, 3.625, 3.875, 3.625], "texture": "#1"},
				"down": {"uv": [3.625, 3.625, 3.875, 3.625], "texture": "#1"}
			}
		},
		{
			"name": "hexadecagon",
			"from": [8.04394, 14.20025, 10.616],
			"to": [8.65885, 14.95225, 11.872],
			"rotation": {"angle": 0, "axis": "y", "origin": [8.3354, 14.57225, 10.508]},
			"faces": {
				"north": {"uv": [3.75, 11.875, 3.75, 11.875], "texture": "#1"},
				"east": {"uv": [3.75, 11.875, 3.75, 11.875], "texture": "#1"},
				"south": {"uv": [3.75, 11.875, 3.75, 11.875], "texture": "#1"},
				"west": {"uv": [3.75, 11.875, 3.75, 11.875], "texture": "#1"},
				"up": {"uv": [3.75, 11.875, 3.75, 11.875], "texture": "#1"},
				"down": {"uv": [3.75, 11.875, 3.75, 11.875], "texture": "#1"}
			}
		},
		{
			"name": "hexadecagon",
			"from": [7.9634, 14.24879, 10.616],
			"to": [8.7014, 14.86371, 11.872],
			"rotation": {"angle": 0, "axis": "y", "origin": [8.3674, 14.57225, 10.508]},
			"faces": {
				"north": {"uv": [3.75, 11.875, 3.75, 11.875], "rotation": 90, "texture": "#1"},
				"east": {"uv": [3.75, 11.875, 3.75, 11.875], "rotation": 90, "texture": "#1"},
				"south": {"uv": [3.75, 11.875, 3.75, 11.875], "rotation": 90, "texture": "#1"},
				"west": {"uv": [3.75, 11.875, 3.75, 11.875], "rotation": 90, "texture": "#1"},
				"up": {"uv": [3.75, 11.875, 3.75, 11.875], "rotation": 90, "texture": "#1"},
				"down": {"uv": [3.75, 11.875, 3.75, 11.875], "rotation": 90, "texture": "#1"}
			}
		},
		{
			"name": "hexadecagon",
			"from": [7.9314, 14.40879, 10.616],
			"to": [8.7654, 14.79971, 11.872],
			"rotation": {"angle": 0, "axis": "y", "origin": [8.3674, 14.57225, 10.508]},
			"faces": {
				"north": {"uv": [3.75, 11.875, 3.75, 11.875], "rotation": 90, "texture": "#1"},
				"east": {"uv": [3.75, 11.875, 3.75, 11.875], "rotation": 90, "texture": "#1"},
				"south": {"uv": [3.75, 11.875, 3.75, 11.875], "rotation": 90, "texture": "#1"},
				"west": {"uv": [3.75, 11.875, 3.75, 11.875], "rotation": 90, "texture": "#1"},
				"up": {"uv": [3.75, 11.875, 3.75, 11.875], "rotation": 90, "texture": "#1"},
				"down": {"uv": [3.75, 11.875, 3.75, 11.875], "rotation": 90, "texture": "#1"}
			}
		},
		{
			"name": "hexadecagon",
			"from": [8.20394, 14.17425, 10.616],
			"to": [8.59485, 14.97625, 11.872],
			"rotation": {"angle": 0, "axis": "y", "origin": [8.3674, 14.57225, 10.508]},
			"faces": {
				"north": {"uv": [3.75, 11.875, 3.75, 11.875], "rotation": 180, "texture": "#1"},
				"east": {"uv": [3.75, 11.875, 3.75, 11.875], "rotation": 180, "texture": "#1"},
				"south": {"uv": [3.75, 11.875, 3.75, 11.875], "rotation": 180, "texture": "#1"},
				"west": {"uv": [3.75, 11.875, 3.75, 11.875], "rotation": 180, "texture": "#1"},
				"up": {"uv": [3.75, 11.875, 3.75, 11.875], "rotation": 180, "texture": "#1"},
				"down": {"uv": [3.75, 11.875, 3.75, 11.875], "rotation": 180, "texture": "#1"}
			}
		},
		{
			"name": "hexadecagon",
			"from": [7.97994, 14.23225, 4.104],
			"to": [8.69085, 14.92025, 5.36],
			"rotation": {"angle": 0, "axis": "y", "origin": [8.3354, 14.57225, 3.996]},
			"faces": {
				"north": {"uv": [3.75, 11.875, 4, 11.875], "texture": "#1"},
				"east": {"uv": [3.75, 11.875, 4, 11.875], "texture": "#1"},
				"south": {"uv": [3.75, 11.875, 4, 11.875], "texture": "#1"},
				"west": {"uv": [3.75, 11.875, 4, 11.875], "texture": "#1"},
				"up": {"uv": [3.75, 11.875, 4, 11.875], "texture": "#1"},
				"down": {"uv": [3.75, 11.875, 4, 11.875], "texture": "#1"}
			}
		},
		{
			"name": "hexadecagon",
			"from": [8.23594, 14.07225, 10.008],
			"to": [8.43485, 14.18425, 11.936],
			"rotation": {"angle": 22.5, "axis": "z", "origin": [8.3354, 14.57225, 10.508]},
			"faces": {
				"north": {"uv": [3.625, 3.625, 3.875, 3.625], "texture": "#1"},
				"east": {"uv": [3.625, 3.625, 3.875, 3.625], "texture": "#1"},
				"south": {"uv": [3.625, 3.625, 3.875, 3.625], "texture": "#1"},
				"west": {"uv": [3.625, 3.625, 3.875, 3.625], "texture": "#1"},
				"up": {"uv": [3.625, 3.625, 3.875, 3.625], "texture": "#1"},
				"down": {"uv": [3.625, 3.625, 3.875, 3.625], "texture": "#1"}
			}
		},
		{
			"name": "hexadecagon",
			"from": [8.23594, 14.07225, 10.008],
			"to": [8.43485, 14.18425, 11.936],
			"rotation": {"angle": 45, "axis": "z", "origin": [8.3354, 14.57225, 10.508]},
			"faces": {
				"north": {"uv": [3.625, 3.625, 3.875, 3.625], "texture": "#1"},
				"east": {"uv": [3.625, 3.625, 3.875, 3.625], "texture": "#1"},
				"south": {"uv": [3.625, 3.625, 3.875, 3.625], "texture": "#1"},
				"west": {"uv": [3.625, 3.625, 3.875, 3.625], "texture": "#1"},
				"up": {"uv": [3.625, 3.625, 3.875, 3.625], "texture": "#1"},
				"down": {"uv": [3.625, 3.625, 3.875, 3.625], "texture": "#1"}
			}
		},
		{
			"name": "hexadecagon",
			"from": [8.23594, 14.96025, 10.008],
			"to": [8.43485, 15.07225, 11.936],
			"rotation": {"angle": -45, "axis": "z", "origin": [8.3354, 14.57225, 10.508]},
			"faces": {
				"north": {"uv": [3.625, 3.625, 3.875, 3.625], "texture": "#1"},
				"east": {"uv": [3.625, 3.625, 3.875, 3.625], "texture": "#1"},
				"south": {"uv": [3.625, 3.625, 3.875, 3.625], "texture": "#1"},
				"west": {"uv": [3.625, 3.625, 3.875, 3.625], "texture": "#1"},
				"up": {"uv": [3.625, 3.625, 3.875, 3.625], "texture": "#1"},
				"down": {"uv": [3.625, 3.625, 3.875, 3.625], "texture": "#1"}
			}
		},
		{
			"name": "hexadecagon",
			"from": [8.23594, 14.96025, 10.008],
			"to": [8.43485, 15.07225, 11.936],
			"rotation": {"angle": -22.5, "axis": "z", "origin": [8.3354, 14.57225, 10.508]},
			"faces": {
				"north": {"uv": [3.625, 3.625, 3.875, 3.625], "texture": "#1"},
				"east": {"uv": [3.625, 3.625, 3.875, 3.625], "texture": "#1"},
				"south": {"uv": [3.625, 3.625, 3.875, 3.625], "texture": "#1"},
				"west": {"uv": [3.625, 3.625, 3.875, 3.625], "texture": "#1"},
				"up": {"uv": [3.625, 3.625, 3.875, 3.625], "texture": "#1"},
				"down": {"uv": [3.625, 3.625, 3.875, 3.625], "texture": "#1"}
			}
		},
		{
			"name": "hexadecagon",
			"from": [8.23594, 14.96025, 10.008],
			"to": [8.43485, 15.07225, 11.936],
			"rotation": {"angle": 0, "axis": "y", "origin": [8.3354, 14.57225, 10.508]},
			"faces": {
				"north": {"uv": [3.625, 3.625, 3.875, 3.625], "texture": "#1"},
				"east": {"uv": [3.625, 3.625, 3.875, 3.625], "texture": "#1"},
				"south": {"uv": [3.625, 3.625, 3.875, 3.625], "texture": "#1"},
				"west": {"uv": [3.625, 3.625, 3.875, 3.625], "texture": "#1"},
				"up": {"uv": [3.625, 3.625, 3.875, 3.625], "texture": "#1"},
				"down": {"uv": [3.625, 3.625, 3.875, 3.625], "texture": "#1"}
			}
		},
		{
			"name": "hexadecagon",
			"from": [8.23594, 14.96025, 10.008],
			"to": [8.43485, 15.07225, 11.936],
			"rotation": {"angle": 22.5, "axis": "z", "origin": [8.3354, 14.57225, 10.508]},
			"faces": {
				"north": {"uv": [3.625, 3.625, 3.875, 3.625], "texture": "#1"},
				"east": {"uv": [3.625, 3.625, 3.875, 3.625], "texture": "#1"},
				"south": {"uv": [3.625, 3.625, 3.875, 3.625], "texture": "#1"},
				"west": {"uv": [3.625, 3.625, 3.875, 3.625], "texture": "#1"},
				"up": {"uv": [3.625, 3.625, 3.875, 3.625], "texture": "#1"},
				"down": {"uv": [3.625, 3.625, 3.875, 3.625], "texture": "#1"}
			}
		},
		{
			"name": "hexadecagon",
			"from": [8.23594, 14.96025, 10.008],
			"to": [8.43485, 15.07225, 11.936],
			"rotation": {"angle": 45, "axis": "z", "origin": [8.3354, 14.57225, 10.508]},
			"faces": {
				"north": {"uv": [3.625, 3.625, 3.875, 3.625], "texture": "#1"},
				"east": {"uv": [3.625, 3.625, 3.875, 3.625], "texture": "#1"},
				"south": {"uv": [3.625, 3.625, 3.875, 3.625], "texture": "#1"},
				"west": {"uv": [3.625, 3.625, 3.875, 3.625], "texture": "#1"},
				"up": {"uv": [3.625, 3.625, 3.875, 3.625], "texture": "#1"},
				"down": {"uv": [3.625, 3.625, 3.875, 3.625], "texture": "#1"}
			}
		},
		{
			"name": "hexadecagon",
			"from": [7.8354, 14.47279, 10.008],
			"to": [7.9474, 14.67171, 11.936],
			"rotation": {"angle": -22.5, "axis": "z", "origin": [8.3354, 14.57225, 10.508]},
			"faces": {
				"north": {"uv": [3.625, 3.625, 3.875, 3.625], "texture": "#1"},
				"east": {"uv": [3.625, 3.625, 3.875, 3.625], "texture": "#1"},
				"south": {"uv": [3.625, 3.625, 3.875, 3.625], "texture": "#1"},
				"west": {"uv": [3.625, 3.625, 3.875, 3.625], "texture": "#1"},
				"up": {"uv": [3.625, 3.625, 3.875, 3.625], "texture": "#1"},
				"down": {"uv": [3.625, 3.625, 3.875, 3.625], "texture": "#1"}
			}
		},
		{
			"name": "hexadecagon",
			"from": [7.8354, 14.47279, 10.008],
			"to": [7.9474, 14.67171, 11.936],
			"rotation": {"angle": 0, "axis": "y", "origin": [8.3354, 14.57225, 10.508]},
			"faces": {
				"north": {"uv": [3.625, 3.625, 3.875, 3.625], "texture": "#1"},
				"east": {"uv": [3.625, 3.625, 3.875, 3.625], "texture": "#1"},
				"south": {"uv": [3.625, 3.625, 3.875, 3.625], "texture": "#1"},
				"west": {"uv": [3.625, 3.625, 3.875, 3.625], "texture": "#1"},
				"up": {"uv": [3.625, 3.625, 3.875, 3.625], "texture": "#1"},
				"down": {"uv": [3.625, 3.625, 3.875, 3.625], "texture": "#1"}
			}
		},
		{
			"name": "hexadecagon",
			"from": [7.8354, 14.47279, 10.008],
			"to": [7.9474, 14.67171, 11.936],
			"rotation": {"angle": 22.5, "axis": "z", "origin": [8.3354, 14.57225, 10.508]},
			"faces": {
				"north": {"uv": [3.625, 3.625, 3.875, 3.625], "texture": "#1"},
				"east": {"uv": [3.625, 3.625, 3.875, 3.625], "texture": "#1"},
				"south": {"uv": [3.625, 3.625, 3.875, 3.625], "texture": "#1"},
				"west": {"uv": [3.625, 3.625, 3.875, 3.625], "texture": "#1"},
				"up": {"uv": [3.625, 3.625, 3.875, 3.625], "texture": "#1"},
				"down": {"uv": [3.625, 3.625, 3.875, 3.625], "texture": "#1"}
			}
		},
		{
			"name": "hexadecagon",
			"from": [8.7234, 14.47279, 10.008],
			"to": [8.8354, 14.67171, 11.936],
			"rotation": {"angle": -22.5, "axis": "z", "origin": [8.3354, 14.57225, 10.508]},
			"faces": {
				"north": {"uv": [3.625, 3.625, 3.875, 3.625], "texture": "#1"},
				"east": {"uv": [3.625, 3.625, 3.875, 3.625], "texture": "#1"},
				"south": {"uv": [3.625, 3.625, 3.875, 3.625], "texture": "#1"},
				"west": {"uv": [3.625, 3.625, 3.875, 3.625], "texture": "#1"},
				"up": {"uv": [3.625, 3.625, 3.875, 3.625], "texture": "#1"},
				"down": {"uv": [3.625, 3.625, 3.875, 3.625], "texture": "#1"}
			}
		},
		{
			"name": "hexadecagon",
			"from": [8.7234, 14.47279, 10.008],
			"to": [8.8354, 14.67171, 11.936],
			"rotation": {"angle": 0, "axis": "y", "origin": [8.3354, 14.57225, 10.508]},
			"faces": {
				"north": {"uv": [3.625, 3.625, 3.875, 3.625], "texture": "#1"},
				"east": {"uv": [3.625, 3.625, 3.875, 3.625], "texture": "#1"},
				"south": {"uv": [3.625, 3.625, 3.875, 3.625], "texture": "#1"},
				"west": {"uv": [3.625, 3.625, 3.875, 3.625], "texture": "#1"},
				"up": {"uv": [3.625, 3.625, 3.875, 3.625], "texture": "#1"},
				"down": {"uv": [3.625, 3.625, 3.875, 3.625], "texture": "#1"}
			}
		},
		{
			"name": "hexadecagon",
			"from": [8.7234, 14.47279, 10.008],
			"to": [8.8354, 14.67171, 11.936],
			"rotation": {"angle": 22.5, "axis": "z", "origin": [8.3354, 14.57225, 10.508]},
			"faces": {
				"north": {"uv": [3.625, 3.625, 3.875, 3.625], "texture": "#1"},
				"east": {"uv": [3.625, 3.625, 3.875, 3.625], "texture": "#1"},
				"south": {"uv": [3.625, 3.625, 3.875, 3.625], "texture": "#1"},
				"west": {"uv": [3.625, 3.625, 3.875, 3.625], "texture": "#1"},
				"up": {"uv": [3.625, 3.625, 3.875, 3.625], "texture": "#1"},
				"down": {"uv": [3.625, 3.625, 3.875, 3.625], "texture": "#1"}
			}
		},
		{
			"name": "hexadecagon",
			"from": [8.23594, 14.07225, 3.96],
			"to": [8.43485, 14.24825, 6.56],
			"rotation": {"angle": -45, "axis": "z", "origin": [8.3354, 14.57225, 5.132]},
			"faces": {
				"north": {"uv": [4, 3.25, 4.5, 3.25], "texture": "#1"},
				"east": {"uv": [4, 3.25, 4.5, 3.25], "texture": "#1"},
				"south": {"uv": [4, 3.25, 4.5, 3.25], "texture": "#1"},
				"west": {"uv": [4, 3.25, 4.5, 3.25], "texture": "#1"},
				"up": {"uv": [4, 3.25, 4.5, 3.25], "texture": "#1"},
				"down": {"uv": [4, 3.25, 4.5, 3.25], "texture": "#1"}
			}
		},
		{
			"name": "hexadecagon",
			"from": [8.23594, 14.07225, 3.96],
			"to": [8.43485, 14.24825, 6.56],
			"rotation": {"angle": -22.5, "axis": "z", "origin": [8.3354, 14.57225, 5.132]},
			"faces": {
				"north": {"uv": [4, 3.25, 4.5, 3.25], "texture": "#1"},
				"east": {"uv": [4, 3.25, 4.5, 3.25], "texture": "#1"},
				"south": {"uv": [4, 3.25, 4.5, 3.25], "texture": "#1"},
				"west": {"uv": [4, 3.25, 4.5, 3.25], "texture": "#1"},
				"up": {"uv": [4, 3.25, 4.5, 3.25], "texture": "#1"},
				"down": {"uv": [4, 3.25, 4.5, 3.25], "texture": "#1"}
			}
		},
		{
			"name": "hexadecagon",
			"from": [8.23594, 14.07225, 3.96],
			"to": [8.43485, 14.24825, 6.56],
			"rotation": {"angle": 0, "axis": "y", "origin": [8.3354, 14.57225, 5.132]},
			"faces": {
				"north": {"uv": [4, 3.25, 4.5, 3.25], "texture": "#1"},
				"east": {"uv": [4, 3.25, 4.5, 3.25], "texture": "#1"},
				"south": {"uv": [4, 3.25, 4.5, 3.25], "texture": "#1"},
				"west": {"uv": [4, 3.25, 4.5, 3.25], "texture": "#1"},
				"up": {"uv": [4, 3.25, 4.5, 3.25], "texture": "#1"},
				"down": {"uv": [4, 3.25, 4.5, 3.25], "texture": "#1"}
			}
		},
		{
			"name": "hexadecagon",
			"from": [8.23594, 14.07225, 3.96],
			"to": [8.43485, 14.24825, 6.56],
			"rotation": {"angle": 22.5, "axis": "z", "origin": [8.3354, 14.57225, 5.132]},
			"faces": {
				"north": {"uv": [4, 3.25, 4.5, 3.25], "texture": "#1"},
				"east": {"uv": [4, 3.25, 4.5, 3.25], "texture": "#1"},
				"south": {"uv": [4, 3.25, 4.5, 3.25], "texture": "#1"},
				"west": {"uv": [4, 3.25, 4.5, 3.25], "texture": "#1"},
				"up": {"uv": [4, 3.25, 4.5, 3.25], "texture": "#1"},
				"down": {"uv": [4, 3.25, 4.5, 3.25], "texture": "#1"}
			}
		},
		{
			"name": "hexadecagon",
			"from": [8.23594, 14.07225, 3.96],
			"to": [8.43485, 14.24825, 6.56],
			"rotation": {"angle": 45, "axis": "z", "origin": [8.3354, 14.57225, 5.132]},
			"faces": {
				"north": {"uv": [4, 3.25, 4.5, 3.25], "texture": "#1"},
				"east": {"uv": [4, 3.25, 4.5, 3.25], "texture": "#1"},
				"south": {"uv": [4, 3.25, 4.5, 3.25], "texture": "#1"},
				"west": {"uv": [4, 3.25, 4.5, 3.25], "texture": "#1"},
				"up": {"uv": [4, 3.25, 4.5, 3.25], "texture": "#1"},
				"down": {"uv": [4, 3.25, 4.5, 3.25], "texture": "#1"}
			}
		},
		{
			"name": "hexadecagon",
			"from": [8.23594, 14.89625, 3.96],
			"to": [8.43485, 15.07225, 6.56],
			"rotation": {"angle": -45, "axis": "z", "origin": [8.3354, 14.57225, 5.132]},
			"faces": {
				"north": {"uv": [4, 3.25, 4.5, 3.25], "texture": "#1"},
				"east": {"uv": [4, 3.25, 4.5, 3.25], "texture": "#1"},
				"south": {"uv": [4, 3.25, 4.5, 3.25], "texture": "#1"},
				"west": {"uv": [4, 3.25, 4.5, 3.25], "texture": "#1"},
				"up": {"uv": [4, 3.25, 4.5, 3.25], "texture": "#1"},
				"down": {"uv": [4, 3.25, 4.5, 3.25], "texture": "#1"}
			}
		},
		{
			"name": "hexadecagon",
			"from": [8.23594, 14.89625, 3.96],
			"to": [8.43485, 15.07225, 6.56],
			"rotation": {"angle": -22.5, "axis": "z", "origin": [8.3354, 14.57225, 5.132]},
			"faces": {
				"north": {"uv": [4, 3.25, 4.5, 3.25], "texture": "#1"},
				"east": {"uv": [4, 3.25, 4.5, 3.25], "texture": "#1"},
				"south": {"uv": [4, 3.25, 4.5, 3.25], "texture": "#1"},
				"west": {"uv": [4, 3.25, 4.5, 3.25], "texture": "#1"},
				"up": {"uv": [4, 3.25, 4.5, 3.25], "texture": "#1"},
				"down": {"uv": [4, 3.25, 4.5, 3.25], "texture": "#1"}
			}
		},
		{
			"name": "hexadecagon",
			"from": [8.23594, 14.89625, 3.96],
			"to": [8.43485, 15.07225, 6.56],
			"rotation": {"angle": 0, "axis": "y", "origin": [8.3354, 14.57225, 5.132]},
			"faces": {
				"north": {"uv": [4, 3.25, 4.5, 3.25], "texture": "#1"},
				"east": {"uv": [4, 3.25, 4.5, 3.25], "texture": "#1"},
				"south": {"uv": [4, 3.25, 4.5, 3.25], "texture": "#1"},
				"west": {"uv": [4, 3.25, 4.5, 3.25], "texture": "#1"},
				"up": {"uv": [4, 3.25, 4.5, 3.25], "texture": "#1"},
				"down": {"uv": [4, 3.25, 4.5, 3.25], "texture": "#1"}
			}
		},
		{
			"name": "hexadecagon",
			"from": [8.23594, 14.89625, 3.96],
			"to": [8.43485, 15.07225, 6.56],
			"rotation": {"angle": 22.5, "axis": "z", "origin": [8.3354, 14.57225, 5.132]},
			"faces": {
				"north": {"uv": [4, 3.25, 4.5, 3.25], "texture": "#1"},
				"east": {"uv": [4, 3.25, 4.5, 3.25], "texture": "#1"},
				"south": {"uv": [4, 3.25, 4.5, 3.25], "texture": "#1"},
				"west": {"uv": [4, 3.25, 4.5, 3.25], "texture": "#1"},
				"up": {"uv": [4, 3.25, 4.5, 3.25], "texture": "#1"},
				"down": {"uv": [4, 3.25, 4.5, 3.25], "texture": "#1"}
			}
		},
		{
			"name": "hexadecagon",
			"from": [8.23594, 14.89625, 3.96],
			"to": [8.43485, 15.07225, 6.56],
			"rotation": {"angle": 45, "axis": "z", "origin": [8.3354, 14.57225, 5.132]},
			"faces": {
				"north": {"uv": [4, 3.25, 4.5, 3.25], "texture": "#1"},
				"east": {"uv": [4, 3.25, 4.5, 3.25], "texture": "#1"},
				"south": {"uv": [4, 3.25, 4.5, 3.25], "texture": "#1"},
				"west": {"uv": [4, 3.25, 4.5, 3.25], "texture": "#1"},
				"up": {"uv": [4, 3.25, 4.5, 3.25], "texture": "#1"},
				"down": {"uv": [4, 3.25, 4.5, 3.25], "texture": "#1"}
			}
		},
		{
			"name": "hexadecagon",
			"from": [7.8354, 14.47279, 3.96],
			"to": [8.0114, 14.67171, 6.56],
			"rotation": {"angle": -22.5, "axis": "z", "origin": [8.3354, 14.57225, 5.132]},
			"faces": {
				"north": {"uv": [4, 3.25, 4.5, 3.25], "texture": "#1"},
				"east": {"uv": [4, 3.25, 4.5, 3.25], "texture": "#1"},
				"south": {"uv": [4, 3.25, 4.5, 3.25], "texture": "#1"},
				"west": {"uv": [4, 3.25, 4.5, 3.25], "texture": "#1"},
				"up": {"uv": [4, 3.25, 4.5, 3.25], "texture": "#1"},
				"down": {"uv": [4, 3.25, 4.5, 3.25], "texture": "#1"}
			}
		},
		{
			"name": "hexadecagon",
			"from": [7.8354, 14.47279, 3.96],
			"to": [8.0114, 14.67171, 6.56],
			"rotation": {"angle": 0, "axis": "y", "origin": [8.3354, 14.57225, 5.132]},
			"faces": {
				"north": {"uv": [4, 3.25, 4.5, 3.25], "texture": "#1"},
				"east": {"uv": [4, 3.25, 4.5, 3.25], "texture": "#1"},
				"south": {"uv": [4, 3.25, 4.5, 3.25], "texture": "#1"},
				"west": {"uv": [4, 3.25, 4.5, 3.25], "texture": "#1"},
				"up": {"uv": [4, 3.25, 4.5, 3.25], "texture": "#1"},
				"down": {"uv": [4, 3.25, 4.5, 3.25], "texture": "#1"}
			}
		},
		{
			"name": "hexadecagon",
			"from": [7.8354, 14.47279, 3.96],
			"to": [8.0114, 14.67171, 6.56],
			"rotation": {"angle": 22.5, "axis": "z", "origin": [8.3354, 14.57225, 5.132]},
			"faces": {
				"north": {"uv": [4, 3.25, 4.5, 3.25], "texture": "#1"},
				"east": {"uv": [4, 3.25, 4.5, 3.25], "texture": "#1"},
				"south": {"uv": [4, 3.25, 4.5, 3.25], "texture": "#1"},
				"west": {"uv": [4, 3.25, 4.5, 3.25], "texture": "#1"},
				"up": {"uv": [4, 3.25, 4.5, 3.25], "texture": "#1"},
				"down": {"uv": [4, 3.25, 4.5, 3.25], "texture": "#1"}
			}
		},
		{
			"name": "hexadecagon",
			"from": [8.6594, 14.47279, 3.96],
			"to": [8.8354, 14.67171, 6.56],
			"rotation": {"angle": -22.5, "axis": "z", "origin": [8.3354, 14.57225, 5.132]},
			"faces": {
				"north": {"uv": [4, 3.25, 4.5, 3.25], "texture": "#1"},
				"east": {"uv": [4, 3.25, 4.5, 3.25], "texture": "#1"},
				"south": {"uv": [4, 3.25, 4.5, 3.25], "texture": "#1"},
				"west": {"uv": [4, 3.25, 4.5, 3.25], "texture": "#1"},
				"up": {"uv": [4, 3.25, 4.5, 3.25], "texture": "#1"},
				"down": {"uv": [4, 3.25, 4.5, 3.25], "texture": "#1"}
			}
		},
		{
			"name": "hexadecagon",
			"from": [8.6594, 14.47279, 3.96],
			"to": [8.8354, 14.67171, 6.56],
			"rotation": {"angle": 0, "axis": "y", "origin": [8.3354, 14.57225, 5.132]},
			"faces": {
				"north": {"uv": [4, 3.25, 4.5, 3.25], "texture": "#1"},
				"east": {"uv": [4, 3.25, 4.5, 3.25], "texture": "#1"},
				"south": {"uv": [4, 3.25, 4.5, 3.25], "texture": "#1"},
				"west": {"uv": [4, 3.25, 4.5, 3.25], "texture": "#1"},
				"up": {"uv": [4, 3.25, 4.5, 3.25], "texture": "#1"},
				"down": {"uv": [4, 3.25, 4.5, 3.25], "texture": "#1"}
			}
		},
		{
			"name": "hexadecagon",
			"from": [8.6594, 14.47279, 3.96],
			"to": [8.8354, 14.67171, 6.56],
			"rotation": {"angle": 22.5, "axis": "z", "origin": [8.3354, 14.57225, 5.132]},
			"faces": {
				"north": {"uv": [4, 3.25, 4.5, 3.25], "texture": "#1"},
				"east": {"uv": [4, 3.25, 4.5, 3.25], "texture": "#1"},
				"south": {"uv": [4, 3.25, 4.5, 3.25], "texture": "#1"},
				"west": {"uv": [4, 3.25, 4.5, 3.25], "texture": "#1"},
				"up": {"uv": [4, 3.25, 4.5, 3.25], "texture": "#1"},
				"down": {"uv": [4, 3.25, 4.5, 3.25], "texture": "#1"}
			}
		},
		{
			"name": "hexadecagon",
			"from": [8.23594, 14.07225, 8.76],
			"to": [8.43485, 14.24825, 9.44],
			"rotation": {"angle": -45, "axis": "z", "origin": [8.3354, 14.57225, 8.012]},
			"faces": {
				"north": {"uv": [4, 3.25, 4.75, 3.25], "texture": "#1"},
				"east": {"uv": [4, 3.25, 4.75, 3.25], "texture": "#1"},
				"south": {"uv": [4, 3.25, 4.75, 3.25], "texture": "#1"},
				"west": {"uv": [4, 3.25, 4.75, 3.25], "texture": "#1"},
				"up": {"uv": [4, 3.25, 4.75, 3.25], "texture": "#1"},
				"down": {"uv": [4, 3.25, 4.75, 3.25], "texture": "#1"}
			}
		},
		{
			"name": "hexadecagon",
			"from": [8.23594, 14.07225, 8.76],
			"to": [8.43485, 14.24825, 9.44],
			"rotation": {"angle": -22.5, "axis": "z", "origin": [8.3354, 14.57225, 8.012]},
			"faces": {
				"north": {"uv": [4, 3.25, 4.75, 3.25], "texture": "#1"},
				"east": {"uv": [4, 3.25, 4.75, 3.25], "texture": "#1"},
				"south": {"uv": [4, 3.25, 4.75, 3.25], "texture": "#1"},
				"west": {"uv": [4, 3.25, 4.75, 3.25], "texture": "#1"},
				"up": {"uv": [4, 3.25, 4.75, 3.25], "texture": "#1"},
				"down": {"uv": [4, 3.25, 4.75, 3.25], "texture": "#1"}
			}
		},
		{
			"name": "hexadecagon",
			"from": [8.23594, 14.07225, 8.76],
			"to": [8.43485, 14.24825, 9.44],
			"rotation": {"angle": 0, "axis": "y", "origin": [8.3354, 14.57225, 8.012]},
			"faces": {
				"north": {"uv": [4, 3.25, 4.75, 3.25], "texture": "#1"},
				"east": {"uv": [4, 3.25, 4.75, 3.25], "texture": "#1"},
				"south": {"uv": [4, 3.25, 4.75, 3.25], "texture": "#1"},
				"west": {"uv": [4, 3.25, 4.75, 3.25], "texture": "#1"},
				"up": {"uv": [4, 3.25, 4.75, 3.25], "texture": "#1"},
				"down": {"uv": [4, 3.25, 4.75, 3.25], "texture": "#1"}
			}
		},
		{
			"name": "hexadecagon",
			"from": [8.23594, 14.07225, 8.76],
			"to": [8.43485, 14.24825, 9.44],
			"rotation": {"angle": 22.5, "axis": "z", "origin": [8.3354, 14.57225, 8.012]},
			"faces": {
				"north": {"uv": [4, 3.25, 4.75, 3.25], "texture": "#1"},
				"east": {"uv": [4, 3.25, 4.75, 3.25], "texture": "#1"},
				"south": {"uv": [4, 3.25, 4.75, 3.25], "texture": "#1"},
				"west": {"uv": [4, 3.25, 4.75, 3.25], "texture": "#1"},
				"up": {"uv": [4, 3.25, 4.75, 3.25], "texture": "#1"},
				"down": {"uv": [4, 3.25, 4.75, 3.25], "texture": "#1"}
			}
		},
		{
			"name": "hexadecagon",
			"from": [8.23594, 14.07225, 8.76],
			"to": [8.43485, 14.24825, 9.44],
			"rotation": {"angle": 45, "axis": "z", "origin": [8.3354, 14.57225, 8.012]},
			"faces": {
				"north": {"uv": [4, 3.25, 4.75, 3.25], "texture": "#1"},
				"east": {"uv": [4, 3.25, 4.75, 3.25], "texture": "#1"},
				"south": {"uv": [4, 3.25, 4.75, 3.25], "texture": "#1"},
				"west": {"uv": [4, 3.25, 4.75, 3.25], "texture": "#1"},
				"up": {"uv": [4, 3.25, 4.75, 3.25], "texture": "#1"},
				"down": {"uv": [4, 3.25, 4.75, 3.25], "texture": "#1"}
			}
		},
		{
			"name": "hexadecagon",
			"from": [8.23594, 14.89625, 8.76],
			"to": [8.43485, 15.07225, 9.44],
			"rotation": {"angle": -45, "axis": "z", "origin": [8.3354, 14.57225, 8.012]},
			"faces": {
				"north": {"uv": [4, 3.25, 4.75, 3.25], "texture": "#1"},
				"east": {"uv": [4, 3.25, 4.75, 3.25], "texture": "#1"},
				"south": {"uv": [4, 3.25, 4.75, 3.25], "texture": "#1"},
				"west": {"uv": [4, 3.25, 4.75, 3.25], "texture": "#1"},
				"up": {"uv": [4, 3.25, 4.75, 3.25], "texture": "#1"},
				"down": {"uv": [4, 3.25, 4.75, 3.25], "texture": "#1"}
			}
		},
		{
			"name": "hexadecagon",
			"from": [8.23594, 14.89625, 8.76],
			"to": [8.43485, 15.07225, 9.44],
			"rotation": {"angle": -22.5, "axis": "z", "origin": [8.3354, 14.57225, 8.012]},
			"faces": {
				"north": {"uv": [4, 3.25, 4.75, 3.25], "texture": "#1"},
				"east": {"uv": [4, 3.25, 4.75, 3.25], "texture": "#1"},
				"south": {"uv": [4, 3.25, 4.75, 3.25], "texture": "#1"},
				"west": {"uv": [4, 3.25, 4.75, 3.25], "texture": "#1"},
				"up": {"uv": [4, 3.25, 4.75, 3.25], "texture": "#1"},
				"down": {"uv": [4, 3.25, 4.75, 3.25], "texture": "#1"}
			}
		},
		{
			"name": "hexadecagon",
			"from": [8.23594, 14.89625, 8.76],
			"to": [8.43485, 15.07225, 9.44],
			"rotation": {"angle": 0, "axis": "y", "origin": [8.3354, 14.57225, 8.012]},
			"faces": {
				"north": {"uv": [4, 3.25, 4.75, 3.25], "texture": "#1"},
				"east": {"uv": [4, 3.25, 4.75, 3.25], "texture": "#1"},
				"south": {"uv": [4, 3.25, 4.75, 3.25], "texture": "#1"},
				"west": {"uv": [4, 3.25, 4.75, 3.25], "texture": "#1"},
				"up": {"uv": [4, 3.25, 4.75, 3.25], "texture": "#1"},
				"down": {"uv": [4, 3.25, 4.75, 3.25], "texture": "#1"}
			}
		},
		{
			"name": "hexadecagon",
			"from": [8.23594, 14.89625, 8.76],
			"to": [8.43485, 15.07225, 9.44],
			"rotation": {"angle": 22.5, "axis": "z", "origin": [8.3354, 14.57225, 8.012]},
			"faces": {
				"north": {"uv": [4, 3.25, 4.75, 3.25], "texture": "#1"},
				"east": {"uv": [4, 3.25, 4.75, 3.25], "texture": "#1"},
				"south": {"uv": [4, 3.25, 4.75, 3.25], "texture": "#1"},
				"west": {"uv": [4, 3.25, 4.75, 3.25], "texture": "#1"},
				"up": {"uv": [4, 3.25, 4.75, 3.25], "texture": "#1"},
				"down": {"uv": [4, 3.25, 4.75, 3.25], "texture": "#1"}
			}
		},
		{
			"name": "hexadecagon",
			"from": [8.23594, 14.89625, 8.76],
			"to": [8.43485, 15.07225, 9.44],
			"rotation": {"angle": 45, "axis": "z", "origin": [8.3354, 14.57225, 8.012]},
			"faces": {
				"north": {"uv": [4, 3.25, 4.75, 3.25], "texture": "#1"},
				"east": {"uv": [4, 3.25, 4.75, 3.25], "texture": "#1"},
				"south": {"uv": [4, 3.25, 4.75, 3.25], "texture": "#1"},
				"west": {"uv": [4, 3.25, 4.75, 3.25], "texture": "#1"},
				"up": {"uv": [4, 3.25, 4.75, 3.25], "texture": "#1"},
				"down": {"uv": [4, 3.25, 4.75, 3.25], "texture": "#1"}
			}
		},
		{
			"name": "hexadecagon",
			"from": [7.8354, 14.47279, 8.76],
			"to": [8.0114, 14.67171, 9.44],
			"rotation": {"angle": -22.5, "axis": "z", "origin": [8.3354, 14.57225, 8.012]},
			"faces": {
				"north": {"uv": [4, 3.25, 4.75, 3.25], "texture": "#1"},
				"east": {"uv": [4, 3.25, 4.75, 3.25], "texture": "#1"},
				"south": {"uv": [4, 3.25, 4.75, 3.25], "texture": "#1"},
				"west": {"uv": [4, 3.25, 4.75, 3.25], "texture": "#1"},
				"up": {"uv": [4, 3.25, 4.75, 3.25], "texture": "#1"},
				"down": {"uv": [4, 3.25, 4.75, 3.25], "texture": "#1"}
			}
		},
		{
			"name": "hexadecagon",
			"from": [7.8354, 14.47279, 8.76],
			"to": [8.0114, 14.67171, 9.44],
			"rotation": {"angle": 0, "axis": "y", "origin": [8.3354, 14.57225, 8.012]},
			"faces": {
				"north": {"uv": [4, 3.25, 4.75, 3.25], "texture": "#1"},
				"east": {"uv": [4, 3.25, 4.75, 3.25], "texture": "#1"},
				"south": {"uv": [4, 3.25, 4.75, 3.25], "texture": "#1"},
				"west": {"uv": [4, 3.25, 4.75, 3.25], "texture": "#1"},
				"up": {"uv": [4, 3.25, 4.75, 3.25], "texture": "#1"},
				"down": {"uv": [4, 3.25, 4.75, 3.25], "texture": "#1"}
			}
		},
		{
			"name": "hexadecagon",
			"from": [7.8354, 14.47279, 8.76],
			"to": [8.0114, 14.67171, 9.44],
			"rotation": {"angle": 22.5, "axis": "z", "origin": [8.3354, 14.57225, 8.012]},
			"faces": {
				"north": {"uv": [4, 3.25, 4.75, 3.25], "texture": "#1"},
				"east": {"uv": [4, 3.25, 4.75, 3.25], "texture": "#1"},
				"south": {"uv": [4, 3.25, 4.75, 3.25], "texture": "#1"},
				"west": {"uv": [4, 3.25, 4.75, 3.25], "texture": "#1"},
				"up": {"uv": [4, 3.25, 4.75, 3.25], "texture": "#1"},
				"down": {"uv": [4, 3.25, 4.75, 3.25], "texture": "#1"}
			}
		},
		{
			"name": "hexadecagon",
			"from": [8.6594, 14.47279, 8.76],
			"to": [8.8354, 14.67171, 9.44],
			"rotation": {"angle": -22.5, "axis": "z", "origin": [8.3354, 14.57225, 8.012]},
			"faces": {
				"north": {"uv": [4, 3.25, 4.75, 3.25], "texture": "#1"},
				"east": {"uv": [4, 3.25, 4.75, 3.25], "texture": "#1"},
				"south": {"uv": [4, 3.25, 4.75, 3.25], "texture": "#1"},
				"west": {"uv": [4, 3.25, 4.75, 3.25], "texture": "#1"},
				"up": {"uv": [4, 3.25, 4.75, 3.25], "texture": "#1"},
				"down": {"uv": [4, 3.25, 4.75, 3.25], "texture": "#1"}
			}
		},
		{
			"name": "hexadecagon",
			"from": [8.6594, 14.47279, 8.76],
			"to": [8.8354, 14.67171, 9.44],
			"rotation": {"angle": 0, "axis": "y", "origin": [8.3354, 14.57225, 8.012]},
			"faces": {
				"north": {"uv": [4, 3.25, 4.75, 3.25], "texture": "#1"},
				"east": {"uv": [4, 3.25, 4.75, 3.25], "texture": "#1"},
				"south": {"uv": [4, 3.25, 4.75, 3.25], "texture": "#1"},
				"west": {"uv": [4, 3.25, 4.75, 3.25], "texture": "#1"},
				"up": {"uv": [4, 3.25, 4.75, 3.25], "texture": "#1"},
				"down": {"uv": [4, 3.25, 4.75, 3.25], "texture": "#1"}
			}
		},
		{
			"name": "hexadecagon",
			"from": [8.6594, 14.47279, 8.76],
			"to": [8.8354, 14.67171, 9.44],
			"rotation": {"angle": 22.5, "axis": "z", "origin": [8.3354, 14.57225, 8.012]},
			"faces": {
				"north": {"uv": [4, 3.25, 4.75, 3.25], "texture": "#1"},
				"east": {"uv": [4, 3.25, 4.75, 3.25], "texture": "#1"},
				"south": {"uv": [4, 3.25, 4.75, 3.25], "texture": "#1"},
				"west": {"uv": [4, 3.25, 4.75, 3.25], "texture": "#1"},
				"up": {"uv": [4, 3.25, 4.75, 3.25], "texture": "#1"},
				"down": {"uv": [4, 3.25, 4.75, 3.25], "texture": "#1"}
			}
		},
		{
			"name": "hexadecagon",
			"from": [8.23594, 14.07225, 6.744],
			"to": [8.43485, 14.24825, 7.424],
			"rotation": {"angle": -45, "axis": "z", "origin": [8.3354, 14.57225, 5.996]},
			"faces": {
				"north": {"uv": [4, 3.25, 4.75, 3.25], "texture": "#1"},
				"east": {"uv": [4, 3.25, 4.75, 3.25], "texture": "#1"},
				"south": {"uv": [4, 3.25, 4.75, 3.25], "texture": "#1"},
				"west": {"uv": [4, 3.25, 4.75, 3.25], "texture": "#1"},
				"up": {"uv": [4, 3.25, 4.75, 3.25], "texture": "#1"},
				"down": {"uv": [4, 3.25, 4.75, 3.25], "texture": "#1"}
			}
		},
		{
			"name": "hexadecagon",
			"from": [8.23594, 14.07225, 6.744],
			"to": [8.43485, 14.24825, 7.424],
			"rotation": {"angle": -22.5, "axis": "z", "origin": [8.3354, 14.57225, 5.996]},
			"faces": {
				"north": {"uv": [4, 3.25, 4.75, 3.25], "texture": "#1"},
				"east": {"uv": [4, 3.25, 4.75, 3.25], "texture": "#1"},
				"south": {"uv": [4, 3.25, 4.75, 3.25], "texture": "#1"},
				"west": {"uv": [4, 3.25, 4.75, 3.25], "texture": "#1"},
				"up": {"uv": [4, 3.25, 4.75, 3.25], "texture": "#1"},
				"down": {"uv": [4, 3.25, 4.75, 3.25], "texture": "#1"}
			}
		},
		{
			"name": "hexadecagon",
			"from": [8.23594, 14.07225, 6.744],
			"to": [8.43485, 14.24825, 7.424],
			"rotation": {"angle": 0, "axis": "y", "origin": [8.3354, 14.57225, 5.996]},
			"faces": {
				"north": {"uv": [4, 3.25, 4.75, 3.25], "texture": "#1"},
				"east": {"uv": [4, 3.25, 4.75, 3.25], "texture": "#1"},
				"south": {"uv": [4, 3.25, 4.75, 3.25], "texture": "#1"},
				"west": {"uv": [4, 3.25, 4.75, 3.25], "texture": "#1"},
				"up": {"uv": [4, 3.25, 4.75, 3.25], "texture": "#1"},
				"down": {"uv": [4, 3.25, 4.75, 3.25], "texture": "#1"}
			}
		},
		{
			"name": "hexadecagon",
			"from": [8.23594, 14.07225, 6.744],
			"to": [8.43485, 14.24825, 7.424],
			"rotation": {"angle": 22.5, "axis": "z", "origin": [8.3354, 14.57225, 5.996]},
			"faces": {
				"north": {"uv": [4, 3.25, 4.75, 3.25], "texture": "#1"},
				"east": {"uv": [4, 3.25, 4.75, 3.25], "texture": "#1"},
				"south": {"uv": [4, 3.25, 4.75, 3.25], "texture": "#1"},
				"west": {"uv": [4, 3.25, 4.75, 3.25], "texture": "#1"},
				"up": {"uv": [4, 3.25, 4.75, 3.25], "texture": "#1"},
				"down": {"uv": [4, 3.25, 4.75, 3.25], "texture": "#1"}
			}
		},
		{
			"name": "hexadecagon",
			"from": [8.23594, 14.07225, 6.744],
			"to": [8.43485, 14.24825, 7.424],
			"rotation": {"angle": 45, "axis": "z", "origin": [8.3354, 14.57225, 5.996]},
			"faces": {
				"north": {"uv": [4, 3.25, 4.75, 3.25], "texture": "#1"},
				"east": {"uv": [4, 3.25, 4.75, 3.25], "texture": "#1"},
				"south": {"uv": [4, 3.25, 4.75, 3.25], "texture": "#1"},
				"west": {"uv": [4, 3.25, 4.75, 3.25], "texture": "#1"},
				"up": {"uv": [4, 3.25, 4.75, 3.25], "texture": "#1"},
				"down": {"uv": [4, 3.25, 4.75, 3.25], "texture": "#1"}
			}
		},
		{
			"name": "hexadecagon",
			"from": [8.23594, 14.89625, 6.744],
			"to": [8.43485, 15.07225, 7.424],
			"rotation": {"angle": -45, "axis": "z", "origin": [8.3354, 14.57225, 5.996]},
			"faces": {
				"north": {"uv": [4, 3.25, 4.75, 3.25], "texture": "#1"},
				"east": {"uv": [4, 3.25, 4.75, 3.25], "texture": "#1"},
				"south": {"uv": [4, 3.25, 4.75, 3.25], "texture": "#1"},
				"west": {"uv": [4, 3.25, 4.75, 3.25], "texture": "#1"},
				"up": {"uv": [4, 3.25, 4.75, 3.25], "texture": "#1"},
				"down": {"uv": [4, 3.25, 4.75, 3.25], "texture": "#1"}
			}
		},
		{
			"name": "hexadecagon",
			"from": [8.23594, 14.89625, 6.744],
			"to": [8.43485, 15.07225, 7.424],
			"rotation": {"angle": -22.5, "axis": "z", "origin": [8.3354, 14.57225, 5.996]},
			"faces": {
				"north": {"uv": [4, 3.25, 4.75, 3.25], "texture": "#1"},
				"east": {"uv": [4, 3.25, 4.75, 3.25], "texture": "#1"},
				"south": {"uv": [4, 3.25, 4.75, 3.25], "texture": "#1"},
				"west": {"uv": [4, 3.25, 4.75, 3.25], "texture": "#1"},
				"up": {"uv": [4, 3.25, 4.75, 3.25], "texture": "#1"},
				"down": {"uv": [4, 3.25, 4.75, 3.25], "texture": "#1"}
			}
		},
		{
			"name": "hexadecagon",
			"from": [8.23594, 14.89625, 6.744],
			"to": [8.43485, 15.07225, 7.424],
			"rotation": {"angle": 0, "axis": "y", "origin": [8.3354, 14.57225, 5.996]},
			"faces": {
				"north": {"uv": [4, 3.25, 4.75, 3.25], "texture": "#1"},
				"east": {"uv": [4, 3.25, 4.75, 3.25], "texture": "#1"},
				"south": {"uv": [4, 3.25, 4.75, 3.25], "texture": "#1"},
				"west": {"uv": [4, 3.25, 4.75, 3.25], "texture": "#1"},
				"up": {"uv": [4, 3.25, 4.75, 3.25], "texture": "#1"},
				"down": {"uv": [4, 3.25, 4.75, 3.25], "texture": "#1"}
			}
		},
		{
			"name": "hexadecagon",
			"from": [8.23594, 14.89625, 6.744],
			"to": [8.43485, 15.07225, 7.424],
			"rotation": {"angle": 22.5, "axis": "z", "origin": [8.3354, 14.57225, 5.996]},
			"faces": {
				"north": {"uv": [4, 3.25, 4.75, 3.25], "texture": "#1"},
				"east": {"uv": [4, 3.25, 4.75, 3.25], "texture": "#1"},
				"south": {"uv": [4, 3.25, 4.75, 3.25], "texture": "#1"},
				"west": {"uv": [4, 3.25, 4.75, 3.25], "texture": "#1"},
				"up": {"uv": [4, 3.25, 4.75, 3.25], "texture": "#1"},
				"down": {"uv": [4, 3.25, 4.75, 3.25], "texture": "#1"}
			}
		},
		{
			"name": "hexadecagon",
			"from": [8.23594, 14.89625, 6.744],
			"to": [8.43485, 15.07225, 7.424],
			"rotation": {"angle": 45, "axis": "z", "origin": [8.3354, 14.57225, 5.996]},
			"faces": {
				"north": {"uv": [4, 3.25, 4.75, 3.25], "texture": "#1"},
				"east": {"uv": [4, 3.25, 4.75, 3.25], "texture": "#1"},
				"south": {"uv": [4, 3.25, 4.75, 3.25], "texture": "#1"},
				"west": {"uv": [4, 3.25, 4.75, 3.25], "texture": "#1"},
				"up": {"uv": [4, 3.25, 4.75, 3.25], "texture": "#1"},
				"down": {"uv": [4, 3.25, 4.75, 3.25], "texture": "#1"}
			}
		},
		{
			"name": "hexadecagon",
			"from": [7.8354, 14.47279, 6.744],
			"to": [8.0114, 14.67171, 7.424],
			"rotation": {"angle": -22.5, "axis": "z", "origin": [8.3354, 14.57225, 5.996]},
			"faces": {
				"north": {"uv": [4, 3.25, 4.75, 3.25], "texture": "#1"},
				"east": {"uv": [4, 3.25, 4.75, 3.25], "texture": "#1"},
				"south": {"uv": [4, 3.25, 4.75, 3.25], "texture": "#1"},
				"west": {"uv": [4, 3.25, 4.75, 3.25], "texture": "#1"},
				"up": {"uv": [4, 3.25, 4.75, 3.25], "texture": "#1"},
				"down": {"uv": [4, 3.25, 4.75, 3.25], "texture": "#1"}
			}
		},
		{
			"name": "hexadecagon",
			"from": [7.8354, 14.47279, 6.744],
			"to": [8.0114, 14.67171, 7.424],
			"rotation": {"angle": 0, "axis": "y", "origin": [8.3354, 14.57225, 5.996]},
			"faces": {
				"north": {"uv": [4, 3.25, 4.75, 3.25], "texture": "#1"},
				"east": {"uv": [4, 3.25, 4.75, 3.25], "texture": "#1"},
				"south": {"uv": [4, 3.25, 4.75, 3.25], "texture": "#1"},
				"west": {"uv": [4, 3.25, 4.75, 3.25], "texture": "#1"},
				"up": {"uv": [4, 3.25, 4.75, 3.25], "texture": "#1"},
				"down": {"uv": [4, 3.25, 4.75, 3.25], "texture": "#1"}
			}
		},
		{
			"name": "hexadecagon",
			"from": [7.8354, 14.47279, 6.744],
			"to": [8.0114, 14.67171, 7.424],
			"rotation": {"angle": 22.5, "axis": "z", "origin": [8.3354, 14.57225, 5.996]},
			"faces": {
				"north": {"uv": [4, 3.25, 4.75, 3.25], "texture": "#1"},
				"east": {"uv": [4, 3.25, 4.75, 3.25], "texture": "#1"},
				"south": {"uv": [4, 3.25, 4.75, 3.25], "texture": "#1"},
				"west": {"uv": [4, 3.25, 4.75, 3.25], "texture": "#1"},
				"up": {"uv": [4, 3.25, 4.75, 3.25], "texture": "#1"},
				"down": {"uv": [4, 3.25, 4.75, 3.25], "texture": "#1"}
			}
		},
		{
			"name": "hexadecagon",
			"from": [8.6594, 14.47279, 6.744],
			"to": [8.8354, 14.67171, 7.424],
			"rotation": {"angle": -22.5, "axis": "z", "origin": [8.3354, 14.57225, 5.996]},
			"faces": {
				"north": {"uv": [4, 3.25, 4.75, 3.25], "texture": "#1"},
				"east": {"uv": [4, 3.25, 4.75, 3.25], "texture": "#1"},
				"south": {"uv": [4, 3.25, 4.75, 3.25], "texture": "#1"},
				"west": {"uv": [4, 3.25, 4.75, 3.25], "texture": "#1"},
				"up": {"uv": [4, 3.25, 4.75, 3.25], "texture": "#1"},
				"down": {"uv": [4, 3.25, 4.75, 3.25], "texture": "#1"}
			}
		},
		{
			"name": "hexadecagon",
			"from": [8.6594, 14.47279, 6.744],
			"to": [8.8354, 14.67171, 7.424],
			"rotation": {"angle": 0, "axis": "y", "origin": [8.3354, 14.57225, 5.996]},
			"faces": {
				"north": {"uv": [4, 3.25, 4.75, 3.25], "texture": "#1"},
				"east": {"uv": [4, 3.25, 4.75, 3.25], "texture": "#1"},
				"south": {"uv": [4, 3.25, 4.75, 3.25], "texture": "#1"},
				"west": {"uv": [4, 3.25, 4.75, 3.25], "texture": "#1"},
				"up": {"uv": [4, 3.25, 4.75, 3.25], "texture": "#1"},
				"down": {"uv": [4, 3.25, 4.75, 3.25], "texture": "#1"}
			}
		},
		{
			"name": "hexadecagon",
			"from": [8.6594, 14.47279, 6.744],
			"to": [8.8354, 14.67171, 7.424],
			"rotation": {"angle": 22.5, "axis": "z", "origin": [8.3354, 14.57225, 5.996]},
			"faces": {
				"north": {"uv": [4, 3.25, 4.75, 3.25], "texture": "#1"},
				"east": {"uv": [4, 3.25, 4.75, 3.25], "texture": "#1"},
				"south": {"uv": [4, 3.25, 4.75, 3.25], "texture": "#1"},
				"west": {"uv": [4, 3.25, 4.75, 3.25], "texture": "#1"},
				"up": {"uv": [4, 3.25, 4.75, 3.25], "texture": "#1"},
				"down": {"uv": [4, 3.25, 4.75, 3.25], "texture": "#1"}
			}
		},
		{
			"name": "hexadecagon",
			"from": [8.23594, 14.42425, 7.576],
			"to": [8.43485, 15.32825, 8.576],
			"rotation": {"angle": -45, "axis": "y", "origin": [8.3354, 14.57225, 8.076]},
			"faces": {
				"north": {"uv": [3.875, 3, 4.125, 3.875], "texture": "#1"},
				"east": {"uv": [3.875, 3, 4.125, 3.875], "texture": "#1"},
				"south": {"uv": [3.875, 3, 4.125, 3.875], "texture": "#1"},
				"west": {"uv": [3.875, 3, 4.125, 3.875], "texture": "#1"},
				"up": {"uv": [3.875, 3, 4.125, 3.875], "texture": "#1"},
				"down": {"uv": [3.875, 3, 4.125, 3.875], "texture": "#1"}
			}
		},
		{
			"name": "hexadecagon",
			"from": [8.23594, 14.42425, 7.576],
			"to": [8.43485, 15.32825, 8.576],
			"rotation": {"angle": -22.5, "axis": "y", "origin": [8.3354, 14.57225, 8.076]},
			"faces": {
				"north": {"uv": [3.875, 3, 4.125, 3.875], "texture": "#1"},
				"east": {"uv": [3.875, 3, 4.125, 3.875], "texture": "#1"},
				"south": {"uv": [3.875, 3, 4.125, 3.875], "texture": "#1"},
				"west": {"uv": [3.875, 3, 4.125, 3.875], "texture": "#1"},
				"up": {"uv": [3.875, 3, 4.125, 3.875], "texture": "#1"},
				"down": {"uv": [3.875, 3, 4.125, 3.875], "texture": "#1"}
			}
		},
		{
			"name": "hexadecagon",
			"from": [8.23594, 14.42425, 7.576],
			"to": [8.43485, 15.32825, 8.576],
			"rotation": {"angle": 0, "axis": "y", "origin": [8.3354, 14.57225, 8.076]},
			"faces": {
				"north": {"uv": [3.875, 3, 4.125, 3.875], "texture": "#1"},
				"east": {"uv": [3.875, 3, 4.125, 3.875], "texture": "#1"},
				"south": {"uv": [3.875, 3, 4.125, 3.875], "texture": "#1"},
				"west": {"uv": [3.875, 3, 4.125, 3.875], "texture": "#1"},
				"up": {"uv": [3.875, 3, 4.125, 3.875], "texture": "#1"},
				"down": {"uv": [3.875, 3, 4.125, 3.875], "texture": "#1"}
			}
		},
		{
			"name": "hexadecagon",
			"from": [8.26794, 14.42425, 7.992],
			"to": [8.43485, 15.36025, 8.16],
			"rotation": {"angle": -45, "axis": "y", "origin": [8.3354, 14.57225, 8.076]},
			"faces": {
				"north": {"uv": [2.25, 2.875, 2.375, 3.75], "texture": "#1"},
				"east": {"uv": [2.25, 2.875, 2.375, 3.75], "texture": "#1"},
				"south": {"uv": [2.25, 2.875, 2.375, 3.75], "texture": "#1"},
				"west": {"uv": [2.25, 2.875, 2.375, 3.75], "texture": "#1"},
				"up": {"uv": [2.25, 2.875, 2.375, 3.75], "texture": "#1"},
				"down": {"uv": [2.25, 2.875, 2.375, 3.75], "texture": "#1"}
			}
		},
		{
			"name": "hexadecagon",
			"from": [8.23594, 14.42425, 7.576],
			"to": [8.43485, 15.32825, 8.576],
			"rotation": {"angle": 22.5, "axis": "y", "origin": [8.3354, 14.57225, 8.076]},
			"faces": {
				"north": {"uv": [3.875, 3, 4.125, 3.875], "texture": "#1"},
				"east": {"uv": [3.875, 3, 4.125, 3.875], "texture": "#1"},
				"south": {"uv": [3.875, 3, 4.125, 3.875], "texture": "#1"},
				"west": {"uv": [3.875, 3, 4.125, 3.875], "texture": "#1"},
				"up": {"uv": [3.875, 3, 4.125, 3.875], "texture": "#1"},
				"down": {"uv": [3.875, 3, 4.125, 3.875], "texture": "#1"}
			}
		},
		{
			"name": "hexadecagon",
			"from": [8.23594, 14.42425, 7.576],
			"to": [8.43485, 15.32825, 8.576],
			"rotation": {"angle": 45, "axis": "y", "origin": [8.3354, 14.57225, 8.076]},
			"faces": {
				"north": {"uv": [3.875, 3, 4.125, 3.875], "texture": "#1"},
				"east": {"uv": [3.875, 3, 4.125, 3.875], "texture": "#1"},
				"south": {"uv": [3.875, 3, 4.125, 3.875], "texture": "#1"},
				"west": {"uv": [3.875, 3, 4.125, 3.875], "texture": "#1"},
				"up": {"uv": [3.875, 3, 4.125, 3.875], "texture": "#1"},
				"down": {"uv": [3.875, 3, 4.125, 3.875], "texture": "#1"}
			}
		},
		{
			"name": "hexadecagon",
			"from": [7.8354, 14.42425, 7.97654],
			"to": [8.8354, 15.32825, 8.17546],
			"rotation": {"angle": -22.5, "axis": "y", "origin": [8.3354, 14.57225, 8.076]},
			"faces": {
				"north": {"uv": [3.875, 3, 4.125, 3.875], "texture": "#1"},
				"east": {"uv": [3.875, 3, 4.125, 3.875], "texture": "#1"},
				"south": {"uv": [3.875, 3, 4.125, 3.875], "texture": "#1"},
				"west": {"uv": [3.875, 3, 4.125, 3.875], "texture": "#1"},
				"up": {"uv": [3.875, 3, 4.125, 3.875], "rotation": 90, "texture": "#1"},
				"down": {"uv": [3.875, 3, 4.125, 3.875], "texture": "#1"}
			}
		},
		{
			"name": "hexadecagon",
			"from": [7.8354, 14.42425, 7.97654],
			"to": [8.8354, 15.32825, 8.17546],
			"rotation": {"angle": 0, "axis": "y", "origin": [8.3354, 14.57225, 8.076]},
			"faces": {
				"north": {"uv": [3.875, 3, 4.125, 3.875], "texture": "#1"},
				"east": {"uv": [3.875, 3, 4.125, 3.875], "texture": "#1"},
				"south": {"uv": [3.875, 3, 4.125, 3.875], "texture": "#1"},
				"west": {"uv": [3.875, 3, 4.125, 3.875], "texture": "#1"},
				"up": {"uv": [3.875, 3, 4.125, 3.875], "rotation": 90, "texture": "#1"},
				"down": {"uv": [3.875, 3, 4.125, 3.875], "texture": "#1"}
			}
		},
		{
			"name": "hexadecagon",
			"from": [7.8354, 14.42425, 7.97654],
			"to": [8.8354, 15.32825, 8.17546],
			"rotation": {"angle": 22.5, "axis": "y", "origin": [8.3354, 14.57225, 8.076]},
			"faces": {
				"north": {"uv": [3.875, 3, 4.125, 3.875], "texture": "#1"},
				"east": {"uv": [3.875, 3, 4.125, 3.875], "texture": "#1"},
				"south": {"uv": [3.875, 3, 4.125, 3.875], "texture": "#1"},
				"west": {"uv": [3.875, 3, 4.125, 3.875], "texture": "#1"},
				"up": {"uv": [3.875, 3, 4.125, 3.875], "rotation": 90, "texture": "#1"},
				"down": {"uv": [3.875, 3, 4.125, 3.875], "texture": "#1"}
			}
		},
		{
			"name": "hexadecagon",
			"from": [7.788, 14.52454, 7.564],
			"to": [8.884, 14.72346, 8.564],
			"rotation": {"angle": -45, "axis": "x", "origin": [8.352, 14.624, 8.064]},
			"faces": {
				"north": {"uv": [4, 2.75, 4.25, 2.875], "texture": "#1"},
				"east": {"uv": [4, 2.75, 4.25, 2.875], "texture": "#1"},
				"south": {"uv": [4, 2.75, 4.25, 2.875], "texture": "#1"},
				"west": {"uv": [4, 2.75, 4.25, 2.875], "texture": "#1"},
				"up": {"uv": [4, 2.75, 4.25, 2.875], "texture": "#1"},
				"down": {"uv": [4, 2.75, 4.25, 2.875], "texture": "#1"}
			}
		},
		{
			"name": "hexadecagon",
			"from": [7.788, 14.52454, 7.564],
			"to": [8.884, 14.72346, 8.564],
			"rotation": {"angle": -22.5, "axis": "x", "origin": [8.352, 14.624, 8.064]},
			"faces": {
				"north": {"uv": [4, 2.75, 4.25, 2.875], "texture": "#1"},
				"east": {"uv": [4, 2.75, 4.25, 2.875], "texture": "#1"},
				"south": {"uv": [4, 2.75, 4.25, 2.875], "texture": "#1"},
				"west": {"uv": [4, 2.75, 4.25, 2.875], "texture": "#1"},
				"up": {"uv": [4, 2.75, 4.25, 2.875], "texture": "#1"},
				"down": {"uv": [4, 2.75, 4.25, 2.875], "texture": "#1"}
			}
		},
		{
			"name": "hexadecagon",
			"from": [7.788, 14.52454, 7.564],
			"to": [8.884, 14.72346, 8.564],
			"rotation": {"angle": 0, "axis": "y", "origin": [8.352, 14.624, 8.064]},
			"faces": {
				"north": {"uv": [4, 2.75, 4.25, 2.875], "texture": "#1"},
				"east": {"uv": [4, 2.75, 4.25, 2.875], "texture": "#1"},
				"south": {"uv": [4, 2.75, 4.25, 2.875], "texture": "#1"},
				"west": {"uv": [4, 2.75, 4.25, 2.875], "texture": "#1"},
				"up": {"uv": [4, 2.75, 4.25, 2.875], "texture": "#1"},
				"down": {"uv": [4, 2.75, 4.25, 2.875], "texture": "#1"}
			}
		},
		{
			"name": "hexadecagon",
			"from": [7.788, 14.52454, 7.564],
			"to": [8.884, 14.72346, 8.564],
			"rotation": {"angle": 22.5, "axis": "x", "origin": [8.352, 14.624, 8.064]},
			"faces": {
				"north": {"uv": [4, 2.75, 4.25, 2.875], "texture": "#1"},
				"east": {"uv": [4, 2.75, 4.25, 2.875], "texture": "#1"},
				"south": {"uv": [4, 2.75, 4.25, 2.875], "texture": "#1"},
				"west": {"uv": [4, 2.75, 4.25, 2.875], "texture": "#1"},
				"up": {"uv": [4, 2.75, 4.25, 2.875], "texture": "#1"},
				"down": {"uv": [4, 2.75, 4.25, 2.875], "texture": "#1"}
			}
		},
		{
			"name": "hexadecagon",
			"from": [7.788, 14.52454, 7.564],
			"to": [8.884, 14.72346, 8.564],
			"rotation": {"angle": 45, "axis": "x", "origin": [8.352, 14.624, 8.064]},
			"faces": {
				"north": {"uv": [4, 2.75, 4.25, 2.875], "texture": "#1"},
				"east": {"uv": [4, 2.75, 4.25, 2.875], "texture": "#1"},
				"south": {"uv": [4, 2.75, 4.25, 2.875], "texture": "#1"},
				"west": {"uv": [4, 2.75, 4.25, 2.875], "texture": "#1"},
				"up": {"uv": [4, 2.75, 4.25, 2.875], "texture": "#1"},
				"down": {"uv": [4, 2.75, 4.25, 2.875], "texture": "#1"}
			}
		},
		{
			"name": "hexadecagon",
			"from": [7.788, 14.124, 7.96454],
			"to": [8.884, 15.124, 8.16346],
			"rotation": {"angle": -22.5, "axis": "x", "origin": [8.352, 14.624, 8.064]},
			"faces": {
				"north": {"uv": [4, 2.75, 4.25, 2.875], "texture": "#1"},
				"east": {"uv": [4, 2.75, 4.25, 2.875], "texture": "#1"},
				"south": {"uv": [4, 2.75, 4.25, 2.875], "texture": "#1"},
				"west": {"uv": [4, 2.75, 4.25, 2.875], "texture": "#1"},
				"up": {"uv": [4, 2.75, 4.25, 2.875], "texture": "#1"},
				"down": {"uv": [4, 2.75, 4.25, 2.875], "texture": "#1"}
			}
		},
		{
			"name": "hexadecagon",
			"from": [7.788, 14.124, 7.96454],
			"to": [8.884, 15.124, 8.16346],
			"rotation": {"angle": 0, "axis": "y", "origin": [8.352, 14.624, 8.064]},
			"faces": {
				"north": {"uv": [4, 2.75, 4.25, 2.875], "texture": "#1"},
				"east": {"uv": [4, 2.75, 4.25, 2.875], "texture": "#1"},
				"south": {"uv": [4, 2.75, 4.25, 2.875], "texture": "#1"},
				"west": {"uv": [4, 2.75, 4.25, 2.875], "texture": "#1"},
				"up": {"uv": [4, 2.75, 4.25, 2.875], "texture": "#1"},
				"down": {"uv": [4, 2.75, 4.25, 2.875], "texture": "#1"}
			}
		},
		{
			"name": "hexadecagon",
			"from": [7.788, 14.124, 7.96454],
			"to": [8.884, 15.124, 8.16346],
			"rotation": {"angle": 22.5, "axis": "x", "origin": [8.352, 14.624, 8.064]},
			"faces": {
				"north": {"uv": [4, 2.75, 4.25, 2.875], "texture": "#1"},
				"east": {"uv": [4, 2.75, 4.25, 2.875], "texture": "#1"},
				"south": {"uv": [4, 2.75, 4.25, 2.875], "texture": "#1"},
				"west": {"uv": [4, 2.75, 4.25, 2.875], "texture": "#1"},
				"up": {"uv": [4, 2.75, 4.25, 2.875], "texture": "#1"},
				"down": {"uv": [4, 2.75, 4.25, 2.875], "texture": "#1"}
			}
		}
	],
	"display": {
		"thirdperson_righthand": {
			"rotation": [3, 0, 13],
			"translation": [-1, -2.75, -4],
			"scale": [1.28, 1.08, 1.11]
		},
		"thirdperson_lefthand": {
			"rotation": [3, 0, 13],
			"translation": [-1.25, -3, -3.5],
			"scale": [1.28, 1, 1]
		},
		"firstperson_righthand": {
			"rotation": [1, 0, 9],
			"translation": [-4, -0.25, -0.25],
			"scale": [1.5, 1.47, 1.39]
		},
		"firstperson_lefthand": {
			"rotation": [1, 1, 9],
			"translation": [-4, -0.25, -0.25],
			"scale": [1.5, 1.47, 1.39]
		},
		"gui": {
			"rotation": [11, 16, -16],
			"translation": [0.5, -2.75, 0],
			"scale": [1.69, 1.5618, 1.53453]
		},
		"head": {
			"rotation": [0, -92.75, 90],
			"translation": [1, 6.5, 4.5],
			"scale": [1.74477, 1.60414, 1.67641]
		},
		"fixed": {
			"rotation": [0, -90, 0],
			"translation": [1, 0, -1.75],
			"scale": [1.58, 1.39, 1.28]
		}
	}
}