{
	"credit": "Made with Blockbench",
	"textures": {
		"1": "gci:items/common/all_in_one",
		"particle": "gci:items/common/mpz2"
	},
	"elements": [
		{
			"from": [8.42355, 9.99581, -0.632],
			"to": [8.55155, 10.17181, 1.284],
			"rotation": {"angle": 0, "axis": "y", "origin": [8.51955, 10.08381, 0.678]},
			"faces": {
				"north": {"uv": [3, 3, 3, 3], "texture": "#1"},
				"east": {"uv": [3, 3, 3, 3], "rotation": 180, "texture": "#1"},
				"south": {"uv": [3, 3, 3, 3], "rotation": 180, "texture": "#1"},
				"west": {"uv": [3, 3, 3, 3], "rotation": 180, "texture": "#1"},
				"up": {"uv": [3, 3, 3, 3], "rotation": 180, "texture": "#1"},
				"down": {"uv": [3, 3, 3, 3], "rotation": 180, "texture": "#1"}
			}
		},
		{
			"from": [8.3787, 10.11541, -0.632],
			"to": [8.5547, 10.24341, 1.284],
			"rotation": {"angle": -45, "axis": "z", "origin": [8.4667, 10.21141, 0.678]},
			"faces": {
				"north": {"uv": [3, 3, 3, 3], "rotation": 90, "texture": "#1"},
				"east": {"uv": [3, 3, 3, 3], "rotation": 90, "texture": "#1"},
				"south": {"uv": [3, 3, 3, 3], "rotation": 90, "texture": "#1"},
				"west": {"uv": [3, 3, 3, 3], "rotation": 90, "texture": "#1"},
				"up": {"uv": [3, 3, 3, 3], "rotation": 90, "texture": "#1"},
				"down": {"uv": [3, 3, 3, 3], "rotation": 90, "texture": "#1"}
			}
		},
		{
			"from": [8.2511, 10.16826, -0.632],
			"to": [8.4271, 10.29626, 1.284],
			"rotation": {"angle": 0, "axis": "y", "origin": [8.323, 9.88535, -0.67982]},
			"faces": {
				"north": {"uv": [3, 3, 3, 3], "rotation": 90, "texture": "#1"},
				"east": {"uv": [3, 3, 3, 3], "rotation": 90, "texture": "#1"},
				"south": {"uv": [3, 3, 3, 3], "rotation": 90, "texture": "#1"},
				"west": {"uv": [3, 3, 3, 3], "rotation": 90, "texture": "#1"},
				"up": {"uv": [3, 3, 3, 3], "rotation": 90, "texture": "#1"},
				"down": {"uv": [3, 3, 3, 3], "rotation": 90, "texture": "#1"}
			}
		},
		{
			"from": [8.06285, 10.05961, -0.632],
			"to": [8.19085, 10.23561, 1.284],
			"rotation": {"angle": -45, "axis": "z", "origin": [8.23019, 10.0387, 0.678]},
			"faces": {
				"north": {"uv": [3, 3, 3, 3], "rotation": 180, "texture": "#1"},
				"east": {"uv": [3, 3, 3, 3], "texture": "#1"},
				"south": {"uv": [3, 3, 3, 3], "texture": "#1"},
				"west": {"uv": [3, 3, 3, 3], "texture": "#1"},
				"up": {"uv": [3, 3, 3, 3], "texture": "#1"},
				"down": {"uv": [3, 3, 3, 3], "texture": "#1"}
			}
		},
		{
			"from": [8.1873, 9.93516, -0.632],
			"to": [8.3633, 10.06316, 1.284],
			"rotation": {"angle": -45, "axis": "z", "origin": [8.23019, 10.0387, 0.678]},
			"faces": {
				"north": {"uv": [3, 3, 3, 3], "rotation": 270, "texture": "#1"},
				"east": {"uv": [3, 3, 3, 3], "rotation": 270, "texture": "#1"},
				"south": {"uv": [3, 3, 3, 3], "rotation": 270, "texture": "#1"},
				"west": {"uv": [3, 3, 3, 3], "rotation": 270, "texture": "#1"},
				"up": {"uv": [3, 3, 3, 3], "rotation": 270, "texture": "#1"},
				"down": {"uv": [3, 3, 3, 3], "rotation": 270, "texture": "#1"}
			}
		},
		{
			"from": [8.1873, 9.93516, 1.032],
			"to": [8.3633, 10.25516, 1.284],
			"rotation": {"angle": -45, "axis": "z", "origin": [8.23019, 10.0387, 0.678]},
			"faces": {
				"north": {"uv": [3, 3, 3, 3], "rotation": 270, "texture": "#1"},
				"east": {"uv": [3, 3, 3, 3], "rotation": 270, "texture": "#1"},
				"south": {"uv": [3, 3, 3, 3], "rotation": 270, "texture": "#1"},
				"west": {"uv": [3, 3, 3, 3], "rotation": 270, "texture": "#1"},
				"up": {"uv": [3, 3, 3, 3], "rotation": 270, "texture": "#1"},
				"down": {"uv": [3, 3, 3, 3], "rotation": 270, "texture": "#1"}
			}
		},
		{
			"from": [8.12665, 9.99581, -0.632],
			"to": [8.25465, 10.17181, 1.284],
			"rotation": {"angle": 0, "axis": "y", "origin": [8.23019, 10.0387, 0.678]},
			"faces": {
				"north": {"uv": [3, 3, 3, 3], "rotation": 180, "texture": "#1"},
				"east": {"uv": [3, 3, 3, 3], "texture": "#1"},
				"south": {"uv": [3, 3, 3, 3], "texture": "#1"},
				"west": {"uv": [3, 3, 3, 3], "texture": "#1"},
				"up": {"uv": [3, 3, 3, 3], "texture": "#1"},
				"down": {"uv": [3, 3, 3, 3], "texture": "#1"}
			}
		},
		{
			"from": [8.2511, 9.87136, -0.632],
			"to": [8.4271, 9.99936, 1.284],
			"rotation": {"angle": 0, "axis": "y", "origin": [8.23019, 10.0387, 0.678]},
			"faces": {
				"north": {"uv": [3, 3, 3, 3], "rotation": 270, "texture": "#1"},
				"east": {"uv": [3, 3, 3, 3], "rotation": 270, "texture": "#1"},
				"south": {"uv": [3, 3, 3, 3], "rotation": 270, "texture": "#1"},
				"west": {"uv": [3, 3, 3, 3], "rotation": 270, "texture": "#1"},
				"up": {"uv": [3, 3, 3, 3], "rotation": 270, "texture": "#1"},
				"down": {"uv": [3, 3, 3, 3], "rotation": 270, "texture": "#1"}
			}
		},
		{
			"from": [8.01739, 9.94506, -0.088],
			"to": [8.56139, 10.72906, 0.164],
			"rotation": {"angle": 0, "axis": "y", "origin": [8.08139, 10.06506, -0.346]},
			"faces": {
				"north": {"uv": [2.875, 3.5, 2.875, 3.5], "rotation": 180, "texture": "#1"},
				"east": {"uv": [2.875, 3.5, 2.875, 3.5], "rotation": 180, "texture": "#1"},
				"south": {"uv": [2.875, 3.5, 2.875, 3.5], "rotation": 180, "texture": "#1"},
				"west": {"uv": [2.875, 3.5, 2.875, 3.5], "rotation": 180, "texture": "#1"},
				"up": {"uv": [2.875, 3.5, 2.875, 3.5], "rotation": 180, "texture": "#1"},
				"down": {"uv": [2.875, 3.5, 2.875, 3.5], "rotation": 180, "texture": "#1"}
			}
		},
		{
			"from": [8.01739, 9.94506, 0.68],
			"to": [8.56139, 10.72906, 0.932],
			"rotation": {"angle": 0, "axis": "y", "origin": [8.08139, 10.06506, 0.422]},
			"faces": {
				"north": {"uv": [2.875, 3.5, 2.875, 3.5], "rotation": 180, "texture": "#1"},
				"east": {"uv": [2.875, 3.5, 2.875, 3.5], "rotation": 180, "texture": "#1"},
				"south": {"uv": [2.875, 3.5, 2.875, 3.5], "rotation": 180, "texture": "#1"},
				"west": {"uv": [2.875, 3.5, 2.875, 3.5], "rotation": 180, "texture": "#1"},
				"up": {"uv": [2.875, 3.5, 2.875, 3.5], "rotation": 180, "texture": "#1"},
				"down": {"uv": [2.875, 3.5, 2.875, 3.5], "rotation": 180, "texture": "#1"}
			}
		},
		{
			"from": [8.53281, 9.94506, -0.088],
			"to": [8.66081, 10.72906, 0.164],
			"rotation": {"angle": 0, "axis": "y", "origin": [8.59681, 10.06506, -0.346]},
			"faces": {
				"north": {"uv": [2.875, 3.5, 2.875, 3.5], "texture": "#1"},
				"east": {"uv": [2.875, 3.5, 2.875, 3.5], "texture": "#1"},
				"south": {"uv": [2.875, 3.5, 2.875, 3.5], "texture": "#1"},
				"west": {"uv": [2.875, 3.5, 2.875, 3.5], "texture": "#1"},
				"up": {"uv": [2.875, 3.5, 2.875, 3.5], "texture": "#1"},
				"down": {"uv": [2.875, 3.5, 2.875, 3.5], "texture": "#1"}
			}
		},
		{
			"from": [8.53281, 9.94506, 0.68],
			"to": [8.66081, 10.72906, 0.932],
			"rotation": {"angle": 0, "axis": "y", "origin": [8.59681, 10.06506, 0.422]},
			"faces": {
				"north": {"uv": [2.875, 3.5, 2.875, 3.5], "texture": "#1"},
				"east": {"uv": [2.875, 3.5, 2.875, 3.5], "texture": "#1"},
				"south": {"uv": [2.875, 3.5, 2.875, 3.5], "texture": "#1"},
				"west": {"uv": [2.875, 3.5, 2.875, 3.5], "texture": "#1"},
				"up": {"uv": [2.875, 3.5, 2.875, 3.5], "texture": "#1"},
				"down": {"uv": [2.875, 3.5, 2.875, 3.5], "texture": "#1"}
			}
		},
		{
			"from": [8.1871, 9.77536, -0.088],
			"to": [8.4911, 9.90336, 0.164],
			"rotation": {"angle": 0, "axis": "y", "origin": [8.3711, 9.83936, -0.346]},
			"faces": {
				"north": {"uv": [2.875, 3.5, 2.875, 3.5], "rotation": 270, "texture": "#1"},
				"east": {"uv": [2.875, 3.5, 2.875, 3.5], "rotation": 270, "texture": "#1"},
				"south": {"uv": [2.875, 3.5, 2.875, 3.5], "rotation": 270, "texture": "#1"},
				"west": {"uv": [2.875, 3.5, 2.875, 3.5], "rotation": 270, "texture": "#1"},
				"up": {"uv": [2.875, 3.5, 2.875, 3.5], "rotation": 270, "texture": "#1"},
				"down": {"uv": [2.875, 3.5, 2.875, 3.5], "rotation": 270, "texture": "#1"}
			}
		},
		{
			"from": [8.1871, 9.77536, 0.68],
			"to": [8.4911, 9.90336, 0.932],
			"rotation": {"angle": 0, "axis": "y", "origin": [8.3711, 9.83936, 0.422]},
			"faces": {
				"north": {"uv": [2.875, 3.5, 2.875, 3.5], "rotation": 270, "texture": "#1"},
				"east": {"uv": [2.875, 3.5, 2.875, 3.5], "rotation": 270, "texture": "#1"},
				"south": {"uv": [2.875, 3.5, 2.875, 3.5], "rotation": 270, "texture": "#1"},
				"west": {"uv": [2.875, 3.5, 2.875, 3.5], "rotation": 270, "texture": "#1"},
				"up": {"uv": [2.875, 3.5, 2.875, 3.5], "rotation": 270, "texture": "#1"},
				"down": {"uv": [2.875, 3.5, 2.875, 3.5], "rotation": 270, "texture": "#1"}
			}
		},
		{
			"from": [8.0275, 9.84147, -0.088],
			"to": [8.2675, 9.96947, 0.164],
			"rotation": {"angle": -45, "axis": "z", "origin": [8.1475, 9.90547, -0.346]},
			"faces": {
				"north": {"uv": [2.875, 3.5, 2.875, 3.5], "rotation": 270, "texture": "#1"},
				"east": {"uv": [2.875, 3.5, 2.875, 3.5], "rotation": 270, "texture": "#1"},
				"south": {"uv": [2.875, 3.5, 2.875, 3.5], "rotation": 270, "texture": "#1"},
				"west": {"uv": [2.875, 3.5, 2.875, 3.5], "rotation": 270, "texture": "#1"},
				"up": {"uv": [2.875, 3.5, 2.875, 3.5], "rotation": 270, "texture": "#1"},
				"down": {"uv": [2.875, 3.5, 2.875, 3.5], "rotation": 270, "texture": "#1"}
			}
		},
		{
			"from": [8.0275, 9.84147, 0.68],
			"to": [8.2675, 9.96947, 0.932],
			"rotation": {"angle": -45, "axis": "z", "origin": [8.1475, 9.90547, 0.422]},
			"faces": {
				"north": {"uv": [2.875, 3.5, 2.875, 3.5], "rotation": 270, "texture": "#1"},
				"east": {"uv": [2.875, 3.5, 2.875, 3.5], "rotation": 270, "texture": "#1"},
				"south": {"uv": [2.875, 3.5, 2.875, 3.5], "rotation": 270, "texture": "#1"},
				"west": {"uv": [2.875, 3.5, 2.875, 3.5], "rotation": 270, "texture": "#1"},
				"up": {"uv": [2.875, 3.5, 2.875, 3.5], "rotation": 270, "texture": "#1"},
				"down": {"uv": [2.875, 3.5, 2.875, 3.5], "rotation": 270, "texture": "#1"}
			}
		},
		{
			"from": [8.4107, 9.84147, -0.088],
			"to": [8.6507, 9.96947, 0.164],
			"rotation": {"angle": 45, "axis": "z", "origin": [8.5307, 9.90547, -0.346]},
			"faces": {
				"north": {"uv": [2.875, 3.5, 2.875, 3.5], "rotation": 270, "texture": "#1"},
				"east": {"uv": [2.875, 3.5, 2.875, 3.5], "rotation": 270, "texture": "#1"},
				"south": {"uv": [2.875, 3.5, 2.875, 3.5], "rotation": 270, "texture": "#1"},
				"west": {"uv": [2.875, 3.5, 2.875, 3.5], "rotation": 270, "texture": "#1"},
				"up": {"uv": [2.875, 3.5, 2.875, 3.5], "rotation": 270, "texture": "#1"},
				"down": {"uv": [2.875, 3.5, 2.875, 3.5], "rotation": 270, "texture": "#1"}
			}
		},
		{
			"from": [8.4107, 9.84147, 0.68],
			"to": [8.6507, 9.96947, 0.932],
			"rotation": {"angle": 45, "axis": "z", "origin": [8.5307, 9.90547, 0.422]},
			"faces": {
				"north": {"uv": [2.875, 3.5, 2.875, 3.5], "rotation": 270, "texture": "#1"},
				"east": {"uv": [2.875, 3.5, 2.875, 3.5], "rotation": 270, "texture": "#1"},
				"south": {"uv": [2.875, 3.5, 2.875, 3.5], "rotation": 270, "texture": "#1"},
				"west": {"uv": [2.875, 3.5, 2.875, 3.5], "rotation": 270, "texture": "#1"},
				"up": {"uv": [2.875, 3.5, 2.875, 3.5], "rotation": 270, "texture": "#1"},
				"down": {"uv": [2.875, 3.5, 2.875, 3.5], "rotation": 270, "texture": "#1"}
			}
		},
		{
			"from": [8.3707, 9.86821, -0.632],
			"to": [8.4987, 10.04421, 1.284],
			"rotation": {"angle": -45, "axis": "z", "origin": [8.4667, 9.95621, 0.678]},
			"faces": {
				"north": {"uv": [3, 3, 3, 3], "texture": "#1"},
				"east": {"uv": [3, 3, 3, 3], "rotation": 180, "texture": "#1"},
				"south": {"uv": [3, 3, 3, 3], "rotation": 180, "texture": "#1"},
				"west": {"uv": [3, 3, 3, 3], "rotation": 180, "texture": "#1"},
				"up": {"uv": [3, 3, 3, 3], "rotation": 180, "texture": "#1"},
				"down": {"uv": [3, 3, 3, 3], "rotation": 180, "texture": "#1"}
			}
		},
		{
			"from": [8.1787, 9.86821, -0.6],
			"to": [8.4347, 10.04421, -0.508],
			"rotation": {"angle": -45, "axis": "z", "origin": [8.4667, 9.95621, 0.646]},
			"faces": {
				"north": {"uv": [6.875, 11.5, 6.875, 11.5], "texture": "#1"},
				"east": {"uv": [6.875, 11.5, 6.875, 11.5], "texture": "#1"},
				"south": {"uv": [6.875, 11.5, 6.875, 11.5], "texture": "#1"},
				"west": {"uv": [6.875, 11.5, 6.875, 11.5], "texture": "#1"},
				"up": {"uv": [6.875, 11.5, 6.875, 11.5], "texture": "#1"},
				"down": {"uv": [6.875, 11.5, 6.875, 11.5], "texture": "#1"}
			}
		},
		{
			"from": [7.99088, 10.52026, 0.01578],
			"to": [8.69088, 10.63226, 0.12778],
			"rotation": {"angle": 45, "axis": "x", "origin": [7.95688, 10.59226, 0.02378]},
			"faces": {
				"north": {"uv": [4.375, 3.375, 4.375, 3.375], "rotation": 90, "texture": "#1"},
				"east": {"uv": [4.375, 3.375, 4.375, 3.375], "rotation": 90, "texture": "#1"},
				"south": {"uv": [4.375, 3.375, 4.375, 3.375], "rotation": 90, "texture": "#1"},
				"west": {"uv": [4.375, 3.375, 4.375, 3.375], "rotation": 90, "texture": "#1"},
				"up": {"uv": [4.375, 3.375, 4.375, 3.375], "rotation": 90, "texture": "#1"},
				"down": {"uv": [4.375, 3.375, 4.375, 3.375], "rotation": 90, "texture": "#1"}
			}
		},
		{
			"from": [7.99088, 10.52026, 0.78378],
			"to": [8.69088, 10.63226, 0.89578],
			"rotation": {"angle": 45, "axis": "x", "origin": [7.95688, 10.59226, 0.79178]},
			"faces": {
				"north": {"uv": [4.375, 3.375, 4.375, 3.375], "rotation": 90, "texture": "#1"},
				"east": {"uv": [4.375, 3.375, 4.375, 3.375], "rotation": 90, "texture": "#1"},
				"south": {"uv": [4.375, 3.375, 4.375, 3.375], "rotation": 90, "texture": "#1"},
				"west": {"uv": [4.375, 3.375, 4.375, 3.375], "rotation": 90, "texture": "#1"},
				"up": {"uv": [4.375, 3.375, 4.375, 3.375], "rotation": 90, "texture": "#1"},
				"down": {"uv": [4.375, 3.375, 4.375, 3.375], "rotation": 90, "texture": "#1"}
			}
		}
	],
	"display": {
		"thirdperson_righthand": {
			"rotation": [3, 0, 13],
			"translation": [-1, -2.75, -4],
			"scale": [1.28, 1.08, 1.11]
		},
		"thirdperson_lefthand": {
			"rotation": [3, 0, 13],
			"translation": [-1.25, -3, -3.5],
			"scale": [1.28, 1, 1]
		},
		"firstperson_righthand": {
			"rotation": [1, 0, 9],
			"translation": [-4, -0.25, -0.25],
			"scale": [1.5, 1.47, 1.39]
		},
		"firstperson_lefthand": {
			"rotation": [1, 1, 9],
			"translation": [-4, -0.25, -0.25],
			"scale": [1.5, 1.47, 1.39]
		},
		"gui": {
			"rotation": [11, 16, -16],
			"translation": [0.5, -2.75, 0],
			"scale": [1.69, 1.5618, 1.53453]
		},
		"head": {
			"rotation": [0, -92.75, 90],
			"translation": [1, 6.5, 4.5],
			"scale": [1.74477, 1.60414, 1.67641]
		},
		"fixed": {
			"rotation": [0, -90, 0],
			"translation": [1, 0, -1.75],
			"scale": [1.58, 1.39, 1.28]
		}
	}
}