{
    "textures": {
        "0": "gci:items/common/all_in_one",
        "particle": "gci:items/common/all_in_one"
    },
    "elements": [
        {
            "from": [
                7.598,
                10.72292,
                10.964
            ],
            "to": [
                8.35,
                11.17092,
                11.92
            ],
            "rotation": {
                "angle": 0,
                "axis": "y",
                "origin": [
                    7.961,
                    11.03359,
                    11.602
                ]
            },
            "faces": {
                "north": {
                    "uv": [
                        3,
                        3.125,
                        3,
                        3.125
                    ],
                    "rotation": 270,
                    "texture": "#0"
                },
                "east": {
                    "uv": [
                        3,
                        3.125,
                        3,
                        3.125
                    ],
                    "rotation": 270,
                    "texture": "#0"
                },
                "south": {
                    "uv": [
                        3,
                        3.125,
                        3,
                        3.125
                    ],
                    "rotation": 270,
                    "texture": "#0"
                },
                "west": {
                    "uv": [
                        3,
                        3.125,
                        3,
                        3.125
                    ],
                    "rotation": 270,
                    "texture": "#0"
                },
                "up": {
                    "uv": [
                        3,
                        3.125,
                        3,
                        3.125
                    ],
                    "rotation": 270,
                    "texture": "#0"
                },
                "down": {
                    "uv": [
                        3,
                        3.125,
                        3,
                        3.125
                    ],
                    "rotation": 270,
                    "texture": "#0"
                }
            }
        },
        {
            "from": [
                7.566,
                10.81892,
                11.508
            ],
            "to": [
                8.382,
                10.94292,
                11.632
            ],
            "rotation": {
                "angle": -45,
                "axis": "x",
                "origin": [
                    7.974,
                    10.88092,
                    11.57
                ]
            },
            "faces": {
                "north": {
                    "uv": [
                        1.5,
                        0.875,
                        1.5,
                        0.875
                    ],
                    "rotation": 270,
                    "texture": "#0"
                },
                "east": {
                    "uv": [
                        1.5,
                        0.875,
                        1.5,
                        0.875
                    ],
                    "rotation": 270,
                    "texture": "#0"
                },
                "south": {
                    "uv": [
                        1.5,
                        0.875,
                        1.5,
                        0.875
                    ],
                    "rotation": 270,
                    "texture": "#0"
                },
                "west": {
                    "uv": [
                        1.5,
                        0.875,
                        1.5,
                        0.875
                    ],
                    "rotation": 270,
                    "texture": "#0"
                },
                "up": {
                    "uv": [
                        1.5,
                        0.875,
                        1.5,
                        0.875
                    ],
                    "rotation": 270,
                    "texture": "#0"
                },
                "down": {
                    "uv": [
                        1.5,
                        0.875,
                        1.5,
                        0.875
                    ],
                    "rotation": 270,
                    "texture": "#0"
                }
            }
        },
        {
            "from": [
                7.566,
                10.81892,
                10.676
            ],
            "to": [
                8.382,
                10.94292,
                10.8
            ],
            "rotation": {
                "angle": -45,
                "axis": "x",
                "origin": [
                    7.974,
                    10.88092,
                    10.738
                ]
            },
            "faces": {
                "north": {
                    "uv": [
                        1.5,
                        0.875,
                        1.5,
                        0.875
                    ],
                    "rotation": 270,
                    "texture": "#0"
                },
                "east": {
                    "uv": [
                        1.5,
                        0.875,
                        1.5,
                        0.875
                    ],
                    "rotation": 270,
                    "texture": "#0"
                },
                "south": {
                    "uv": [
                        1.5,
                        0.875,
                        1.5,
                        0.875
                    ],
                    "rotation": 270,
                    "texture": "#0"
                },
                "west": {
                    "uv": [
                        1.5,
                        0.875,
                        1.5,
                        0.875
                    ],
                    "rotation": 270,
                    "texture": "#0"
                },
                "up": {
                    "uv": [
                        1.5,
                        0.875,
                        1.5,
                        0.875
                    ],
                    "rotation": 270,
                    "texture": "#0"
                },
                "down": {
                    "uv": [
                        1.5,
                        0.875,
                        1.5,
                        0.875
                    ],
                    "rotation": 270,
                    "texture": "#0"
                }
            }
        },
        {
            "from": [
                7.95,
                11.39492,
                11.444
            ],
            "to": [
                7.998,
                11.42692,
                11.444
            ],
            "rotation": {
                "angle": 0,
                "axis": "y",
                "origin": [
                    7.961,
                    11.03359,
                    11.602
                ]
            },
            "faces": {
                "north": {
                    "uv": [
                        8.75,
                        7,
                        8.75,
                        7
                    ],
                    "rotation": 270,
                    "texture": "#0"
                },
                "east": {
                    "uv": [
                        8.75,
                        7,
                        8.75,
                        7
                    ],
                    "rotation": 270,
                    "texture": "#0"
                },
                "south": {
                    "uv": [
                        8.75,
                        7,
                        8.75,
                        7
                    ],
                    "rotation": 270,
                    "texture": "#0"
                },
                "west": {
                    "uv": [
                        8.75,
                        7,
                        8.75,
                        7
                    ],
                    "rotation": 270,
                    "texture": "#0"
                },
                "up": {
                    "uv": [
                        8.75,
                        7,
                        8.75,
                        7
                    ],
                    "rotation": 270,
                    "texture": "#0"
                },
                "down": {
                    "uv": [
                        8.75,
                        7,
                        8.75,
                        7
                    ],
                    "rotation": 270,
                    "texture": "#0"
                }
            }
        },
        {
            "from": [
                7.598,
                10.62692,
                10.516
            ],
            "to": [
                8.35,
                10.91492,
                11.92
            ],
            "rotation": {
                "angle": 0,
                "axis": "y",
                "origin": [
                    7.961,
                    11.03359,
                    11.602
                ]
            },
            "faces": {
                "north": {
                    "uv": [
                        3,
                        3.125,
                        3,
                        3.125
                    ],
                    "rotation": 270,
                    "texture": "#0"
                },
                "east": {
                    "uv": [
                        3,
                        3.125,
                        3,
                        3.125
                    ],
                    "rotation": 270,
                    "texture": "#0"
                },
                "south": {
                    "uv": [
                        3,
                        3.125,
                        3,
                        3.125
                    ],
                    "rotation": 270,
                    "texture": "#0"
                },
                "west": {
                    "uv": [
                        3,
                        3.125,
                        3,
                        3.125
                    ],
                    "rotation": 270,
                    "texture": "#0"
                },
                "up": {
                    "uv": [
                        3,
                        3.125,
                        3,
                        3.125
                    ],
                    "rotation": 270,
                    "texture": "#0"
                },
                "down": {
                    "uv": [
                        3,
                        3.125,
                        3,
                        3.125
                    ],
                    "rotation": 270,
                    "texture": "#0"
                }
            }
        },
        {
            "from": [
                7.598,
                10.72205,
                10.50309
            ],
            "to": [
                8.35,
                10.91405,
                11.90709
            ],
            "rotation": {
                "angle": 0,
                "axis": "y",
                "origin": [
                    7.961,
                    11.03272,
                    11.58909
                ]
            },
            "faces": {
                "north": {
                    "uv": [
                        3,
                        3.125,
                        3,
                        3.125
                    ],
                    "rotation": 270,
                    "texture": "#0"
                },
                "east": {
                    "uv": [
                        3,
                        3.125,
                        3,
                        3.125
                    ],
                    "rotation": 270,
                    "texture": "#0"
                },
                "south": {
                    "uv": [
                        3,
                        3.125,
                        3,
                        3.125
                    ],
                    "rotation": 270,
                    "texture": "#0"
                },
                "west": {
                    "uv": [
                        3,
                        3.125,
                        3,
                        3.125
                    ],
                    "rotation": 270,
                    "texture": "#0"
                },
                "up": {
                    "uv": [
                        3,
                        3.125,
                        3,
                        3.125
                    ],
                    "rotation": 270,
                    "texture": "#0"
                },
                "down": {
                    "uv": [
                        3,
                        3.125,
                        3,
                        3.125
                    ],
                    "rotation": 270,
                    "texture": "#0"
                }
            }
        },
        {
            "from": [
                7.598,
                11.13892,
                11.124
            ],
            "to": [
                7.71,
                11.58692,
                11.696
            ],
            "rotation": {
                "angle": 0,
                "axis": "y",
                "origin": [
                    7.961,
                    11.44959,
                    11.602
                ]
            },
            "faces": {
                "north": {
                    "uv": [
                        3,
                        3.125,
                        3,
                        3.125
                    ],
                    "rotation": 270,
                    "texture": "#0"
                },
                "east": {
                    "uv": [
                        3,
                        3.125,
                        3,
                        3.125
                    ],
                    "rotation": 270,
                    "texture": "#0"
                },
                "south": {
                    "uv": [
                        3,
                        3.125,
                        3,
                        3.125
                    ],
                    "rotation": 270,
                    "texture": "#0"
                },
                "west": {
                    "uv": [
                        3,
                        3.125,
                        3,
                        3.125
                    ],
                    "rotation": 270,
                    "texture": "#0"
                },
                "up": {
                    "uv": [
                        3,
                        3.125,
                        3,
                        3.125
                    ],
                    "rotation": 270,
                    "texture": "#0"
                },
                "down": {
                    "uv": [
                        3,
                        3.125,
                        3,
                        3.125
                    ],
                    "rotation": 270,
                    "texture": "#0"
                }
            }
        },
        {
            "from": [
                7.598,
                11.13892,
                11.316
            ],
            "to": [
                7.71,
                11.65092,
                11.6
            ],
            "rotation": {
                "angle": 0,
                "axis": "y",
                "origin": [
                    7.961,
                    11.44959,
                    11.602
                ]
            },
            "faces": {
                "north": {
                    "uv": [
                        3,
                        3.125,
                        3,
                        3.125
                    ],
                    "rotation": 270,
                    "texture": "#0"
                },
                "east": {
                    "uv": [
                        3,
                        3.125,
                        3,
                        3.125
                    ],
                    "rotation": 270,
                    "texture": "#0"
                },
                "south": {
                    "uv": [
                        3,
                        3.125,
                        3,
                        3.125
                    ],
                    "rotation": 270,
                    "texture": "#0"
                },
                "west": {
                    "uv": [
                        3,
                        3.125,
                        3,
                        3.125
                    ],
                    "rotation": 270,
                    "texture": "#0"
                },
                "up": {
                    "uv": [
                        3,
                        3.125,
                        3,
                        3.125
                    ],
                    "rotation": 270,
                    "texture": "#0"
                },
                "down": {
                    "uv": [
                        3,
                        3.125,
                        3,
                        3.125
                    ],
                    "rotation": 270,
                    "texture": "#0"
                }
            }
        },
        {
            "from": [
                8.238,
                11.13892,
                11.316
            ],
            "to": [
                8.35,
                11.65092,
                11.6
            ],
            "rotation": {
                "angle": 0,
                "axis": "y",
                "origin": [
                    8.601,
                    11.44959,
                    11.602
                ]
            },
            "faces": {
                "north": {
                    "uv": [
                        3,
                        3.125,
                        3,
                        3.125
                    ],
                    "rotation": 270,
                    "texture": "#0"
                },
                "east": {
                    "uv": [
                        3,
                        3.125,
                        3,
                        3.125
                    ],
                    "rotation": 270,
                    "texture": "#0"
                },
                "south": {
                    "uv": [
                        3,
                        3.125,
                        3,
                        3.125
                    ],
                    "rotation": 270,
                    "texture": "#0"
                },
                "west": {
                    "uv": [
                        3,
                        3.125,
                        3,
                        3.125
                    ],
                    "rotation": 270,
                    "texture": "#0"
                },
                "up": {
                    "uv": [
                        3,
                        3.125,
                        3,
                        3.125
                    ],
                    "rotation": 270,
                    "texture": "#0"
                },
                "down": {
                    "uv": [
                        3,
                        3.125,
                        3,
                        3.125
                    ],
                    "rotation": 270,
                    "texture": "#0"
                }
            }
        },
        {
            "from": [
                7.598,
                11.60918,
                11.17298
            ],
            "to": [
                7.71,
                11.70518,
                11.68098
            ],
            "rotation": {
                "angle": 0,
                "axis": "y",
                "origin": [
                    7.961,
                    11.43985,
                    11.58698
                ]
            },
            "faces": {
                "north": {
                    "uv": [
                        3,
                        3.125,
                        3,
                        3.125
                    ],
                    "rotation": 270,
                    "texture": "#0"
                },
                "east": {
                    "uv": [
                        3,
                        3.125,
                        3,
                        3.125
                    ],
                    "rotation": 270,
                    "texture": "#0"
                },
                "south": {
                    "uv": [
                        3,
                        3.125,
                        3,
                        3.125
                    ],
                    "rotation": 270,
                    "texture": "#0"
                },
                "west": {
                    "uv": [
                        3,
                        3.125,
                        3,
                        3.125
                    ],
                    "rotation": 270,
                    "texture": "#0"
                },
                "up": {
                    "uv": [
                        3,
                        3.125,
                        3,
                        3.125
                    ],
                    "rotation": 270,
                    "texture": "#0"
                },
                "down": {
                    "uv": [
                        3,
                        3.125,
                        3,
                        3.125
                    ],
                    "rotation": 270,
                    "texture": "#0"
                }
            }
        },
        {
            "from": [
                7.73104,
                11.66428,
                11.17298
            ],
            "to": [
                8.21804,
                11.76028,
                11.68098
            ],
            "rotation": {
                "angle": 0,
                "axis": "y",
                "origin": [
                    8.09404,
                    11.49495,
                    11.58698
                ]
            },
            "faces": {
                "north": {
                    "uv": [
                        3,
                        3.125,
                        3,
                        3.125
                    ],
                    "rotation": 270,
                    "texture": "#0"
                },
                "east": {
                    "uv": [
                        3,
                        3.125,
                        3,
                        3.125
                    ],
                    "rotation": 270,
                    "texture": "#0"
                },
                "south": {
                    "uv": [
                        3,
                        3.125,
                        3,
                        3.125
                    ],
                    "rotation": 270,
                    "texture": "#0"
                },
                "west": {
                    "uv": [
                        3,
                        3.125,
                        3,
                        3.125
                    ],
                    "rotation": 270,
                    "texture": "#0"
                },
                "up": {
                    "uv": [
                        3,
                        3.125,
                        3,
                        3.125
                    ],
                    "rotation": 270,
                    "texture": "#0"
                },
                "down": {
                    "uv": [
                        3,
                        3.125,
                        3,
                        3.125
                    ],
                    "rotation": 270,
                    "texture": "#0"
                }
            }
        },
        {
            "from": [
                8.238,
                11.60918,
                11.17298
            ],
            "to": [
                8.35,
                11.70518,
                11.68098
            ],
            "rotation": {
                "angle": 0,
                "axis": "y",
                "origin": [
                    8.601,
                    11.43985,
                    11.58698
                ]
            },
            "faces": {
                "north": {
                    "uv": [
                        3,
                        3.125,
                        3,
                        3.125
                    ],
                    "rotation": 270,
                    "texture": "#0"
                },
                "east": {
                    "uv": [
                        3,
                        3.125,
                        3,
                        3.125
                    ],
                    "rotation": 270,
                    "texture": "#0"
                },
                "south": {
                    "uv": [
                        3,
                        3.125,
                        3,
                        3.125
                    ],
                    "rotation": 270,
                    "texture": "#0"
                },
                "west": {
                    "uv": [
                        3,
                        3.125,
                        3,
                        3.125
                    ],
                    "rotation": 270,
                    "texture": "#0"
                },
                "up": {
                    "uv": [
                        3,
                        3.125,
                        3,
                        3.125
                    ],
                    "rotation": 270,
                    "texture": "#0"
                },
                "down": {
                    "uv": [
                        3,
                        3.125,
                        3,
                        3.125
                    ],
                    "rotation": 270,
                    "texture": "#0"
                }
            }
        },
        {
            "from": [
                7.67191,
                11.76829,
                11.17298
            ],
            "to": [
                7.81591,
                11.86429,
                11.68098
            ],
            "rotation": {
                "angle": 22.5,
                "axis": "z",
                "origin": [
                    8.03491,
                    11.59896,
                    11.58698
                ]
            },
            "faces": {
                "north": {
                    "uv": [
                        3,
                        3.125,
                        3,
                        3.125
                    ],
                    "rotation": 270,
                    "texture": "#0"
                },
                "east": {
                    "uv": [
                        3,
                        3.125,
                        3,
                        3.125
                    ],
                    "rotation": 270,
                    "texture": "#0"
                },
                "south": {
                    "uv": [
                        3,
                        3.125,
                        3,
                        3.125
                    ],
                    "rotation": 270,
                    "texture": "#0"
                },
                "west": {
                    "uv": [
                        3,
                        3.125,
                        3,
                        3.125
                    ],
                    "rotation": 270,
                    "texture": "#0"
                },
                "up": {
                    "uv": [
                        3,
                        3.125,
                        3,
                        3.125
                    ],
                    "rotation": 270,
                    "texture": "#0"
                },
                "down": {
                    "uv": [
                        3,
                        3.125,
                        3,
                        3.125
                    ],
                    "rotation": 270,
                    "texture": "#0"
                }
            }
        },
        {
            "from": [
                8.19311,
                11.64038,
                11.17298
            ],
            "to": [
                8.33711,
                11.73638,
                11.68098
            ],
            "rotation": {
                "angle": -22.5,
                "axis": "z",
                "origin": [
                    8.26511,
                    11.68838,
                    11.42698
                ]
            },
            "faces": {
                "north": {
                    "uv": [
                        3,
                        3.125,
                        3,
                        3.125
                    ],
                    "rotation": 270,
                    "texture": "#0"
                },
                "east": {
                    "uv": [
                        3,
                        3.125,
                        3,
                        3.125
                    ],
                    "rotation": 270,
                    "texture": "#0"
                },
                "south": {
                    "uv": [
                        3,
                        3.125,
                        3,
                        3.125
                    ],
                    "rotation": 270,
                    "texture": "#0"
                },
                "west": {
                    "uv": [
                        3,
                        3.125,
                        3,
                        3.125
                    ],
                    "rotation": 270,
                    "texture": "#0"
                },
                "up": {
                    "uv": [
                        3,
                        3.125,
                        3,
                        3.125
                    ],
                    "rotation": 270,
                    "texture": "#0"
                },
                "down": {
                    "uv": [
                        3,
                        3.125,
                        3,
                        3.125
                    ],
                    "rotation": 270,
                    "texture": "#0"
                }
            }
        },
        {
            "from": [
                8.238,
                10.99875,
                11.44138
            ],
            "to": [
                8.35,
                11.63475,
                11.88938
            ],
            "rotation": {
                "angle": -22.5,
                "axis": "x",
                "origin": [
                    8.601,
                    11.09275,
                    11.75205
                ]
            },
            "faces": {
                "north": {
                    "uv": [
                        3,
                        3.125,
                        3,
                        3.125
                    ],
                    "rotation": 90,
                    "texture": "#0"
                },
                "east": {
                    "uv": [
                        3,
                        3.125,
                        3,
                        3.125
                    ],
                    "rotation": 180,
                    "texture": "#0"
                },
                "south": {
                    "uv": [
                        3,
                        3.125,
                        3,
                        3.125
                    ],
                    "rotation": 270,
                    "texture": "#0"
                },
                "west": {
                    "uv": [
                        3,
                        3.125,
                        3,
                        3.125
                    ],
                    "texture": "#0"
                },
                "up": {
                    "uv": [
                        3,
                        3.125,
                        3,
                        3.125
                    ],
                    "rotation": 90,
                    "texture": "#0"
                },
                "down": {
                    "uv": [
                        3,
                        3.125,
                        3,
                        3.125
                    ],
                    "rotation": 270,
                    "texture": "#0"
                }
            }
        },
        {
            "from": [
                7.598,
                10.99875,
                11.44138
            ],
            "to": [
                7.71,
                11.63475,
                11.88938
            ],
            "rotation": {
                "angle": -22.5,
                "axis": "x",
                "origin": [
                    7.961,
                    11.09275,
                    11.75205
                ]
            },
            "faces": {
                "north": {
                    "uv": [
                        3,
                        3.125,
                        3,
                        3.125
                    ],
                    "rotation": 90,
                    "texture": "#0"
                },
                "east": {
                    "uv": [
                        3,
                        3.125,
                        3,
                        3.125
                    ],
                    "rotation": 180,
                    "texture": "#0"
                },
                "south": {
                    "uv": [
                        3,
                        3.125,
                        3,
                        3.125
                    ],
                    "rotation": 270,
                    "texture": "#0"
                },
                "west": {
                    "uv": [
                        3,
                        3.125,
                        3,
                        3.125
                    ],
                    "texture": "#0"
                },
                "up": {
                    "uv": [
                        3,
                        3.125,
                        3,
                        3.125
                    ],
                    "rotation": 90,
                    "texture": "#0"
                },
                "down": {
                    "uv": [
                        3,
                        3.125,
                        3,
                        3.125
                    ],
                    "rotation": 270,
                    "texture": "#0"
                }
            }
        },
        {
            "from": [
                7.598,
                11.02842,
                10.91743
            ],
            "to": [
                7.71,
                11.63242,
                11.36543
            ],
            "rotation": {
                "angle": 22.5,
                "axis": "x",
                "origin": [
                    7.961,
                    11.02642,
                    11.2281
                ]
            },
            "faces": {
                "north": {
                    "uv": [
                        3,
                        3.125,
                        3,
                        3.125
                    ],
                    "rotation": 90,
                    "texture": "#0"
                },
                "east": {
                    "uv": [
                        3,
                        3.125,
                        3,
                        3.125
                    ],
                    "rotation": 180,
                    "texture": "#0"
                },
                "south": {
                    "uv": [
                        3,
                        3.125,
                        3,
                        3.125
                    ],
                    "rotation": 270,
                    "texture": "#0"
                },
                "west": {
                    "uv": [
                        3,
                        3.125,
                        3,
                        3.125
                    ],
                    "texture": "#0"
                },
                "up": {
                    "uv": [
                        3,
                        3.125,
                        3,
                        3.125
                    ],
                    "rotation": 90,
                    "texture": "#0"
                },
                "down": {
                    "uv": [
                        3,
                        3.125,
                        3,
                        3.125
                    ],
                    "rotation": 270,
                    "texture": "#0"
                }
            }
        },
        {
            "from": [
                8.238,
                11.02842,
                10.91743
            ],
            "to": [
                8.35,
                11.63242,
                11.36543
            ],
            "rotation": {
                "angle": 22.5,
                "axis": "x",
                "origin": [
                    8.601,
                    11.02642,
                    11.2281
                ]
            },
            "faces": {
                "north": {
                    "uv": [
                        3,
                        3.125,
                        3,
                        3.125
                    ],
                    "rotation": 90,
                    "texture": "#0"
                },
                "east": {
                    "uv": [
                        3,
                        3.125,
                        3,
                        3.125
                    ],
                    "rotation": 180,
                    "texture": "#0"
                },
                "south": {
                    "uv": [
                        3,
                        3.125,
                        3,
                        3.125
                    ],
                    "rotation": 270,
                    "texture": "#0"
                },
                "west": {
                    "uv": [
                        3,
                        3.125,
                        3,
                        3.125
                    ],
                    "texture": "#0"
                },
                "up": {
                    "uv": [
                        3,
                        3.125,
                        3,
                        3.125
                    ],
                    "rotation": 90,
                    "texture": "#0"
                },
                "down": {
                    "uv": [
                        3,
                        3.125,
                        3,
                        3.125
                    ],
                    "rotation": 270,
                    "texture": "#0"
                }
            }
        },
        {
            "from": [
                7.598,
                10.6509,
                10.72686
            ],
            "to": [
                8.35,
                10.9389,
                11.13886
            ],
            "rotation": {
                "angle": -22.5,
                "axis": "x",
                "origin": [
                    7.961,
                    10.62823,
                    10.50086
                ]
            },
            "faces": {
                "north": {
                    "uv": [
                        3,
                        3.125,
                        3,
                        3.125
                    ],
                    "rotation": 90,
                    "texture": "#0"
                },
                "east": {
                    "uv": [
                        3,
                        3.125,
                        3,
                        3.125
                    ],
                    "rotation": 90,
                    "texture": "#0"
                },
                "south": {
                    "uv": [
                        3,
                        3.125,
                        3,
                        3.125
                    ],
                    "rotation": 90,
                    "texture": "#0"
                },
                "west": {
                    "uv": [
                        3,
                        3.125,
                        3,
                        3.125
                    ],
                    "rotation": 90,
                    "texture": "#0"
                },
                "up": {
                    "uv": [
                        3,
                        3.125,
                        3,
                        3.125
                    ],
                    "rotation": 270,
                    "texture": "#0"
                },
                "down": {
                    "uv": [
                        3,
                        3.125,
                        3,
                        3.125
                    ],
                    "rotation": 270,
                    "texture": "#0"
                }
            }
        },
        {
            "from": [
                7.598,
                10.63998,
                10.8077
            ],
            "to": [
                7.71,
                10.79998,
                10.9317
            ],
            "rotation": {
                "angle": -45,
                "axis": "x",
                "origin": [
                    7.961,
                    10.48931,
                    10.5177
                ]
            },
            "faces": {
                "north": {
                    "uv": [
                        3,
                        3.125,
                        3,
                        3.125
                    ],
                    "rotation": 90,
                    "texture": "#0"
                },
                "east": {
                    "uv": [
                        3,
                        3.125,
                        3,
                        3.125
                    ],
                    "rotation": 90,
                    "texture": "#0"
                },
                "south": {
                    "uv": [
                        3,
                        3.125,
                        3,
                        3.125
                    ],
                    "rotation": 90,
                    "texture": "#0"
                },
                "west": {
                    "uv": [
                        3,
                        3.125,
                        3,
                        3.125
                    ],
                    "rotation": 90,
                    "texture": "#0"
                },
                "up": {
                    "uv": [
                        3,
                        3.125,
                        3,
                        3.125
                    ],
                    "rotation": 270,
                    "texture": "#0"
                },
                "down": {
                    "uv": [
                        3,
                        3.125,
                        3,
                        3.125
                    ],
                    "rotation": 270,
                    "texture": "#0"
                }
            }
        },
        {
            "from": [
                8.238,
                10.63998,
                10.8077
            ],
            "to": [
                8.35,
                10.79998,
                10.9317
            ],
            "rotation": {
                "angle": -45,
                "axis": "x",
                "origin": [
                    8.601,
                    10.48931,
                    10.5177
                ]
            },
            "faces": {
                "north": {
                    "uv": [
                        3,
                        3.125,
                        3,
                        3.125
                    ],
                    "rotation": 90,
                    "texture": "#0"
                },
                "east": {
                    "uv": [
                        3,
                        3.125,
                        3,
                        3.125
                    ],
                    "rotation": 90,
                    "texture": "#0"
                },
                "south": {
                    "uv": [
                        3,
                        3.125,
                        3,
                        3.125
                    ],
                    "rotation": 90,
                    "texture": "#0"
                },
                "west": {
                    "uv": [
                        3,
                        3.125,
                        3,
                        3.125
                    ],
                    "rotation": 90,
                    "texture": "#0"
                },
                "up": {
                    "uv": [
                        3,
                        3.125,
                        3,
                        3.125
                    ],
                    "rotation": 270,
                    "texture": "#0"
                },
                "down": {
                    "uv": [
                        3,
                        3.125,
                        3,
                        3.125
                    ],
                    "rotation": 270,
                    "texture": "#0"
                }
            }
        },
        {
            "from": [
                8.238,
                11.13892,
                11.124
            ],
            "to": [
                8.35,
                11.58692,
                11.696
            ],
            "rotation": {
                "angle": 0,
                "axis": "y",
                "origin": [
                    8.294,
                    11.36292,
                    11.41
                ]
            },
            "faces": {
                "north": {
                    "uv": [
                        3,
                        3.125,
                        3,
                        3.125
                    ],
                    "rotation": 270,
                    "texture": "#0"
                },
                "east": {
                    "uv": [
                        3,
                        3.125,
                        3,
                        3.125
                    ],
                    "rotation": 270,
                    "texture": "#0"
                },
                "south": {
                    "uv": [
                        3,
                        3.125,
                        3,
                        3.125
                    ],
                    "rotation": 270,
                    "texture": "#0"
                },
                "west": {
                    "uv": [
                        3,
                        3.125,
                        3,
                        3.125
                    ],
                    "rotation": 270,
                    "texture": "#0"
                },
                "up": {
                    "uv": [
                        3,
                        3.125,
                        3,
                        3.125
                    ],
                    "rotation": 270,
                    "texture": "#0"
                },
                "down": {
                    "uv": [
                        3,
                        3.125,
                        3,
                        3.125
                    ],
                    "rotation": 270,
                    "texture": "#0"
                }
            }
        },
        {
            "from": [
                7.63,
                10.78692,
                9.908
            ],
            "to": [
                8.318,
                11.10692,
                11.696
            ],
            "rotation": {
                "angle": 0,
                "axis": "y",
                "origin": [
                    7.961,
                    11.03359,
                    11.474
                ]
            },
            "faces": {
                "north": {
                    "uv": [
                        4.5,
                        4,
                        4.5,
                        4
                    ],
                    "rotation": 270,
                    "texture": "#0"
                },
                "east": {
                    "uv": [
                        4.5,
                        4,
                        4.5,
                        4
                    ],
                    "rotation": 270,
                    "texture": "#0"
                },
                "south": {
                    "uv": [
                        4.5,
                        4,
                        4.5,
                        4
                    ],
                    "rotation": 270,
                    "texture": "#0"
                },
                "west": {
                    "uv": [
                        4.5,
                        4,
                        4.5,
                        4
                    ],
                    "rotation": 270,
                    "texture": "#0"
                },
                "up": {
                    "uv": [
                        4.5,
                        4,
                        4.5,
                        4
                    ],
                    "rotation": 270,
                    "texture": "#0"
                },
                "down": {
                    "uv": [
                        4.5,
                        4,
                        4.5,
                        4
                    ],
                    "rotation": 270,
                    "texture": "#0"
                }
            }
        },
        {
            "from": [
                7.63,
                10.49892,
                9.908
            ],
            "to": [
                8.318,
                10.78692,
                11.92
            ],
            "rotation": {
                "angle": 0,
                "axis": "y",
                "origin": [
                    7.961,
                    11.03359,
                    11.474
                ]
            },
            "faces": {
                "north": {
                    "uv": [
                        3,
                        3.375,
                        3,
                        3.375
                    ],
                    "rotation": 270,
                    "texture": "#0"
                },
                "east": {
                    "uv": [
                        3,
                        3.375,
                        3,
                        3.375
                    ],
                    "rotation": 270,
                    "texture": "#0"
                },
                "south": {
                    "uv": [
                        3,
                        3.375,
                        3,
                        3.375
                    ],
                    "rotation": 270,
                    "texture": "#0"
                },
                "west": {
                    "uv": [
                        3,
                        3.375,
                        3,
                        3.375
                    ],
                    "rotation": 270,
                    "texture": "#0"
                },
                "up": {
                    "uv": [
                        3,
                        3.375,
                        3,
                        3.375
                    ],
                    "rotation": 270,
                    "texture": "#0"
                },
                "down": {
                    "uv": [
                        3,
                        3.375,
                        3,
                        3.375
                    ],
                    "rotation": 270,
                    "texture": "#0"
                }
            }
        }
    ],
    "display": {
        "thirdperson_righthand": {
            "translation": [
                0,
                0,
                -3.5
            ]
        },
        "thirdperson_lefthand": {
            "translation": [
                0,
                0,
                -3.5
            ]
        },
        "firstperson_righthand": {
            "translation": [
                0,
                2.75,
                -2.25
            ]
        },
        "firstperson_lefthand": {
            "translation": [
                0,
                2.75,
                -2.25
            ]
        },
        "ground": {
            "rotation": [
                0,
                0,
                -90
            ],
            "translation": [
                0,
                -2.5,
                0
            ]
        },
        "gui": {
            "rotation": [
                -26,
                150,
                0
            ],
            "scale": [
                0.85,
                0.85,
                0.85
            ]
        },
        "fixed": {
            "rotation": [
                90,
                45,
                -90
            ],
            "translation": [
                0.5,
                -0.25,
                -2.75
            ],
            "scale": [
                2,
                2,
                2
            ]
        }
    }
}