{
    "textures": {
        "0": "gci:items/common/all_in_one",
        "particle": "gci:items/common/all_in_one"
    },
    "elements": [
        {
            "from": [
                7.56584,
                7.49918,
                14.74395
            ],
            "to": [
                8.38874,
                8.39918,
                16.24395
            ],
            "rotation": {
                "angle": 45,
                "axis": "x",
                "origin": [
                    7.97725,
                    7.94918,
                    15.49395
                ]
            },
            "faces": {
                "north": {
                    "uv": [
                        1,
                        3,
                        1.25,
                        3.075
                    ],
                    "rotation": 270,
                    "texture": "#0"
                },
                "east": {
                    "uv": [
                        1,
                        3,
                        1.25,
                        3.075
                    ],
                    "rotation": 270,
                    "texture": "#0"
                },
                "south": {
                    "uv": [
                        1,
                        3,
                        1.25,
                        3.075
                    ],
                    "rotation": 270,
                    "texture": "#0"
                },
                "west": {
                    "uv": [
                        1,
                        3,
                        1.25,
                        3.075
                    ],
                    "rotation": 270,
                    "texture": "#0"
                },
                "up": {
                    "uv": [
                        1,
                        3,
                        1.25,
                        3.075
                    ],
                    "rotation": 270,
                    "texture": "#0"
                },
                "down": {
                    "uv": [
                        1,
                        3,
                        1.25,
                        3.075
                    ],
                    "rotation": 270,
                    "texture": "#0"
                }
            }
        },
        {
            "from": [
                7.53384,
                7.46718,
                14.93595
            ],
            "to": [
                8.42074,
                8.43118,
                15.21995
            ],
            "rotation": {
                "angle": 45,
                "axis": "x",
                "origin": [
                    7.97725,
                    7.94918,
                    15.49395
                ]
            },
            "faces": {
                "north": {
                    "uv": [
                        6.5,
                        3.5,
                        6.75,
                        3.575
                    ],
                    "rotation": 270,
                    "texture": "#0"
                },
                "east": {
                    "uv": [
                        6.5,
                        3.5,
                        6.75,
                        3.575
                    ],
                    "rotation": 270,
                    "texture": "#0"
                },
                "south": {
                    "uv": [
                        6.5,
                        3.5,
                        6.75,
                        3.575
                    ],
                    "rotation": 270,
                    "texture": "#0"
                },
                "west": {
                    "uv": [
                        6.5,
                        3.5,
                        6.75,
                        3.575
                    ],
                    "rotation": 270,
                    "texture": "#0"
                },
                "up": {
                    "uv": [
                        6.5,
                        3.5,
                        6.75,
                        3.575
                    ],
                    "rotation": 270,
                    "texture": "#0"
                },
                "down": {
                    "uv": [
                        6.5,
                        3.5,
                        6.75,
                        3.575
                    ],
                    "rotation": 270,
                    "texture": "#0"
                }
            }
        },
        {
            "from": [
                7.56575,
                6.70775,
                15.18972
            ],
            "to": [
                8.38885,
                8.10775,
                16.08972
            ],
            "rotation": {
                "angle": -22.5,
                "axis": "x",
                "origin": [
                    7.97725,
                    7.45775,
                    15.63972
                ]
            },
            "faces": {
                "north": {
                    "uv": [
                        1,
                        3,
                        1.25,
                        3.075
                    ],
                    "texture": "#0"
                },
                "east": {
                    "uv": [
                        1,
                        3,
                        1.25,
                        3.075
                    ],
                    "rotation": 180,
                    "texture": "#0"
                },
                "south": {
                    "uv": [
                        1,
                        3,
                        1.25,
                        3.075
                    ],
                    "texture": "#0"
                },
                "west": {
                    "uv": [
                        1,
                        3,
                        1.25,
                        3.075
                    ],
                    "texture": "#0"
                },
                "up": {
                    "uv": [
                        1,
                        3,
                        1.25,
                        3.075
                    ],
                    "texture": "#0"
                },
                "down": {
                    "uv": [
                        1,
                        3,
                        1.25,
                        3.075
                    ],
                    "texture": "#0"
                }
            }
        },
        {
            "from": [
                7.56584,
                6.93705,
                15.44248
            ],
            "to": [
                8.38874,
                7.73705,
                16.34248
            ],
            "rotation": {
                "angle": 0,
                "axis": "y",
                "origin": [
                    7.97725,
                    7.68705,
                    15.89248
                ]
            },
            "faces": {
                "north": {
                    "uv": [
                        1,
                        3,
                        1.25,
                        3.075
                    ],
                    "texture": "#0"
                },
                "east": {
                    "uv": [
                        1,
                        3,
                        1.25,
                        3.075
                    ],
                    "rotation": 180,
                    "texture": "#0"
                },
                "south": {
                    "uv": [
                        1,
                        3,
                        1.25,
                        3.075
                    ],
                    "texture": "#0"
                },
                "west": {
                    "uv": [
                        1,
                        3,
                        1.25,
                        3.075
                    ],
                    "texture": "#0"
                },
                "up": {
                    "uv": [
                        1,
                        3,
                        1.25,
                        3.075
                    ],
                    "texture": "#0"
                },
                "down": {
                    "uv": [
                        1,
                        3,
                        1.25,
                        3.075
                    ],
                    "texture": "#0"
                }
            }
        },
        {
            "from": [
                7.56575,
                8.21897,
                13.6667
            ],
            "to": [
                8.38875,
                9.11897,
                15.1667
            ],
            "rotation": {
                "angle": 22.5,
                "axis": "x",
                "origin": [
                    7.97725,
                    8.66897,
                    14.4167
                ]
            },
            "faces": {
                "north": {
                    "uv": [
                        1,
                        3,
                        1.25,
                        3.075
                    ],
                    "rotation": 270,
                    "texture": "#0"
                },
                "east": {
                    "uv": [
                        1,
                        3,
                        1.25,
                        3.075
                    ],
                    "rotation": 270,
                    "texture": "#0"
                },
                "south": {
                    "uv": [
                        1,
                        3,
                        1.25,
                        3.075
                    ],
                    "rotation": 270,
                    "texture": "#0"
                },
                "west": {
                    "uv": [
                        1,
                        3,
                        1.25,
                        3.075
                    ],
                    "rotation": 270,
                    "texture": "#0"
                },
                "up": {
                    "uv": [
                        1,
                        3,
                        1.25,
                        3.075
                    ],
                    "rotation": 270,
                    "texture": "#0"
                },
                "down": {
                    "uv": [
                        1,
                        3,
                        1.25,
                        3.075
                    ],
                    "rotation": 270,
                    "texture": "#0"
                }
            }
        },
        {
            "from": [
                7.53375,
                8.18697,
                13.9227
            ],
            "to": [
                8.42075,
                9.15097,
                14.8467
            ],
            "rotation": {
                "angle": 22.5,
                "axis": "x",
                "origin": [
                    7.97725,
                    8.66897,
                    14.4167
                ]
            },
            "faces": {
                "north": {
                    "uv": [
                        7.25,
                        2.125,
                        7.75,
                        2.45
                    ],
                    "rotation": 270,
                    "texture": "#0"
                },
                "east": {
                    "uv": [
                        7.25,
                        2.125,
                        7.75,
                        2.45
                    ],
                    "texture": "#0"
                },
                "south": {
                    "uv": [
                        7.25,
                        2.125,
                        7.75,
                        2.45
                    ],
                    "rotation": 270,
                    "texture": "#0"
                },
                "west": {
                    "uv": [
                        7.25,
                        2.125,
                        7.75,
                        2.45
                    ],
                    "rotation": 180,
                    "texture": "#0"
                },
                "up": {
                    "uv": [
                        7.25,
                        2.125,
                        7.75,
                        2.45
                    ],
                    "rotation": 270,
                    "texture": "#0"
                },
                "down": {
                    "uv": [
                        7.25,
                        2.125,
                        7.75,
                        2.45
                    ],
                    "rotation": 90,
                    "texture": "#0"
                }
            }
        }
    ],
    "display": {
        "thirdperson_righthand": {
            "translation": [
                0,
                0,
                -3.5
            ]
        },
        "thirdperson_lefthand": {
            "translation": [
                0,
                0,
                -3.5
            ]
        },
        "firstperson_righthand": {
            "translation": [
                0,
                2.75,
                -2.25
            ]
        },
        "firstperson_lefthand": {
            "translation": [
                0,
                2.75,
                -2.25
            ]
        },
        "ground": {
            "rotation": [
                0,
                0,
                -90
            ],
            "translation": [
                0,
                -2.5,
                0
            ]
        },
        "gui": {
            "rotation": [
                -26,
                150,
                0
            ],
            "scale": [
                0.85,
                0.85,
                0.85
            ]
        },
        "fixed": {
            "rotation": [
                90,
                45,
                -90
            ],
            "translation": [
                0.5,
                -0.25,
                -2.75
            ],
            "scale": [
                2,
                2,
                2
            ]
        }
    }
}