{
    "textures": {
        "0": "gci:items/common/all_in_one",
        "1": "gci:items/common/mpz",
        "particle": "gci:items/common/all_in_one"
    },
    "elements": [
        {
            "from": [
                8.27,
                12.816,
                1.823
            ],
            "to": [
                8.37,
                12.916,
                2.583
            ],
            "rotation": {
                "angle": 45,
                "axis": "z",
                "origin": [
                    8.323,
                    12.86644,
                    4.204
                ]
            },
            "faces": {
                "north": {
                    "uv": [
                        1,
                        6.66667,
                        1,
                        6.66667
                    ],
                    "rotation": 270,
                    "texture": "#0"
                },
                "east": {
                    "uv": [
                        1,
                        6.66667,
                        1,
                        6.66667
                    ],
                    "rotation": 270,
                    "texture": "#0"
                },
                "south": {
                    "uv": [
                        1,
                        6.66667,
                        1,
                        6.66667
                    ],
                    "rotation": 270,
                    "texture": "#0"
                },
                "west": {
                    "uv": [
                        1,
                        6.66667,
                        1,
                        6.66667
                    ],
                    "rotation": 270,
                    "texture": "#0"
                },
                "up": {
                    "uv": [
                        1,
                        6.66667,
                        1,
                        6.66667
                    ],
                    "rotation": 270,
                    "texture": "#0"
                },
                "down": {
                    "uv": [
                        1,
                        6.66667,
                        1,
                        6.66667
                    ],
                    "rotation": 270,
                    "texture": "#0"
                }
            }
        },
        {
            "from": [
                8.223,
                12.76644,
                1.824
            ],
            "to": [
                8.423,
                12.96644,
                2.584
            ],
            "rotation": {
                "angle": 45,
                "axis": "z",
                "origin": [
                    8.323,
                    12.86644,
                    4.204
                ]
            },
            "faces": {
                "north": {
                    "uv": [
                        7,
                        1.33333,
                        7,
                        1.33333
                    ],
                    "rotation": 270,
                    "texture": "#0"
                },
                "east": {
                    "uv": [
                        7,
                        1.33333,
                        7,
                        1.33333
                    ],
                    "rotation": 270,
                    "texture": "#0"
                },
                "south": {
                    "uv": [
                        7,
                        1.33333,
                        7,
                        1.33333
                    ],
                    "rotation": 270,
                    "texture": "#0"
                },
                "west": {
                    "uv": [
                        7,
                        1.33333,
                        7,
                        1.33333
                    ],
                    "rotation": 270,
                    "texture": "#0"
                },
                "up": {
                    "uv": [
                        7,
                        1.33333,
                        7,
                        1.33333
                    ],
                    "rotation": 270,
                    "texture": "#0"
                },
                "down": {
                    "uv": [
                        7,
                        1.33333,
                        7,
                        1.33333
                    ],
                    "rotation": 270,
                    "texture": "#0"
                }
            }
        }
    ],
    "display": {
        "thirdperson_righthand": {
            "translation": [
                -0.75,
                -6.5,
                1.5
            ],
            "scale": [
                1.28,
                1.28,
                1.28
            ]
        },
        "thirdperson_lefthand": {
            "translation": [
                0,
                -6,
                1.5
            ],
            "scale": [
                1.28,
                1.28,
                1.28
            ]
        },
        "firstperson_righthand": {
            "translation": [
                -5.5,
                1,
                6.75
            ],
            "scale": [
                1,
                1,
                0.9
            ]
        },
        "firstperson_lefthand": {
            "translation": [
                -5.5,
                1,
                6.75
            ],
            "scale": [
                1,
                1,
                0.9
            ]
        },
        "ground": {
            "rotation": [
                0,
                0,
                45
            ],
            "scale": [
                0.88,
                0.88,
                0.88
            ]
        },
        "gui": {
            "rotation": [
                20,
                27,
                -14
            ],
            "translation": [
                0.5,
                -11.5,
                0
            ],
            "scale": [
                1.95,
                1.95,
                2.59
            ]
        },
        "head": {
            "rotation": [
                0,
                122,
                90
            ],
            "translation": [
                -3.25,
                7.25,
                -10.5
            ],
            "scale": [
                1.95,
                1.92,
                1.91
            ]
        },
        "fixed": {
            "rotation": [
                90,
                45,
                -90
            ],
            "translation": [
                -2.5,
                -8.5,
                -2.25
            ],
            "scale": [
                1.62,
                1.62,
                1.62
            ]
        }
    }
}