{
    "textures": {
        "5": "gci:items/common/all_in_one",
        "6": "gci:items/common/mpz",
        "particle": "gci:items/gun_heavyrevolver/grip"
    },
    "elements": [
        {
            "from": [
                8.13719,
                5.35612,
                4.99361
            ],
            "to": [
                8.88023,
                5.77084,
                6.78641
            ],
            "rotation": {
                "angle": 0,
                "axis": "y",
                "origin": [
                    8.49467,
                    5.69165,
                    6.61577
                ]
            },
            "faces": {
                "north": {
                    "uv": [
                        4.25,
                        2.5,
                        4.25,
                        2.625
                    ],
                    "rotation": 270,
                    "texture": "#5"
                },
                "east": {
                    "uv": [
                        4.25,
                        2.5,
                        4.25,
                        2.625
                    ],
                    "rotation": 270,
                    "texture": "#5"
                },
                "south": {
                    "uv": [
                        4.25,
                        2.5,
                        4.25,
                        2.625
                    ],
                    "rotation": 270,
                    "texture": "#5"
                },
                "west": {
                    "uv": [
                        4.25,
                        2.5,
                        4.25,
                        2.625
                    ],
                    "rotation": 270,
                    "texture": "#5"
                },
                "up": {
                    "uv": [
                        4.25,
                        2.5,
                        4.25,
                        2.625
                    ],
                    "rotation": 270,
                    "texture": "#5"
                },
                "down": {
                    "uv": [
                        4.25,
                        2.5,
                        4.25,
                        2.625
                    ],
                    "rotation": 270,
                    "texture": "#5"
                }
            }
        },
        {
            "from": [
                8.10263,
                5.4274,
                5.12969
            ],
            "to": [
                8.91479,
                5.56132,
                5.26793
            ],
            "rotation": {
                "angle": -45,
                "axis": "x",
                "origin": [
                    8.50871,
                    5.49436,
                    5.19881
                ]
            },
            "faces": {
                "north": {
                    "uv": [
                        2.125,
                        2.75,
                        2.125,
                        2.875
                    ],
                    "texture": "#5"
                },
                "east": {
                    "uv": [
                        2.125,
                        2.75,
                        2.125,
                        2.875
                    ],
                    "texture": "#5"
                },
                "south": {
                    "uv": [
                        2.125,
                        2.75,
                        2.125,
                        2.875
                    ],
                    "texture": "#5"
                },
                "west": {
                    "uv": [
                        2.125,
                        2.75,
                        2.125,
                        2.875
                    ],
                    "texture": "#5"
                },
                "up": {
                    "uv": [
                        2.125,
                        2.75,
                        2.125,
                        2.875
                    ],
                    "texture": "#5"
                },
                "down": {
                    "uv": [
                        2.125,
                        2.75,
                        2.125,
                        2.875
                    ],
                    "texture": "#5"
                }
            }
        },
        {
            "from": [
                8.10263,
                5.4274,
                6.54665
            ],
            "to": [
                8.91479,
                5.56132,
                6.68489
            ],
            "rotation": {
                "angle": -45,
                "axis": "x",
                "origin": [
                    8.50871,
                    5.49436,
                    6.61577
                ]
            },
            "faces": {
                "north": {
                    "uv": [
                        2.125,
                        2.75,
                        2.125,
                        2.875
                    ],
                    "texture": "#5"
                },
                "east": {
                    "uv": [
                        2.125,
                        2.75,
                        2.125,
                        2.875
                    ],
                    "texture": "#5"
                },
                "south": {
                    "uv": [
                        2.125,
                        2.75,
                        2.125,
                        2.875
                    ],
                    "texture": "#5"
                },
                "west": {
                    "uv": [
                        2.125,
                        2.75,
                        2.125,
                        2.875
                    ],
                    "texture": "#5"
                },
                "up": {
                    "uv": [
                        2.125,
                        2.75,
                        2.125,
                        2.875
                    ],
                    "texture": "#5"
                },
                "down": {
                    "uv": [
                        2.125,
                        2.75,
                        2.125,
                        2.875
                    ],
                    "texture": "#5"
                }
            }
        },
        {
            "from": [
                8.10263,
                5.91124,
                6.65033
            ],
            "to": [
                8.91479,
                6.04516,
                6.78857
            ],
            "rotation": {
                "angle": -45,
                "axis": "x",
                "origin": [
                    8.50871,
                    5.9782,
                    6.71945
                ]
            },
            "faces": {
                "north": {
                    "uv": [
                        2.125,
                        2.75,
                        2.125,
                        2.875
                    ],
                    "texture": "#5"
                },
                "east": {
                    "uv": [
                        2.125,
                        2.75,
                        2.125,
                        2.875
                    ],
                    "texture": "#5"
                },
                "south": {
                    "uv": [
                        2.125,
                        2.75,
                        2.125,
                        2.875
                    ],
                    "texture": "#5"
                },
                "west": {
                    "uv": [
                        2.125,
                        2.75,
                        2.125,
                        2.875
                    ],
                    "texture": "#5"
                },
                "up": {
                    "uv": [
                        2.125,
                        2.75,
                        2.125,
                        2.875
                    ],
                    "texture": "#5"
                },
                "down": {
                    "uv": [
                        2.125,
                        2.75,
                        2.125,
                        2.875
                    ],
                    "texture": "#5"
                }
            }
        },
        {
            "from": [
                8.13719,
                5.83996,
                4.99361
            ],
            "to": [
                8.88023,
                6.01276,
                7.23569
            ],
            "rotation": {
                "angle": 0,
                "axis": "y",
                "origin": [
                    8.49467,
                    6.17549,
                    6.61577
                ]
            },
            "faces": {
                "north": {
                    "uv": [
                        4.25,
                        2.5,
                        4.25,
                        2.625
                    ],
                    "rotation": 270,
                    "texture": "#5"
                },
                "east": {
                    "uv": [
                        4.25,
                        2.5,
                        4.25,
                        2.625
                    ],
                    "rotation": 270,
                    "texture": "#5"
                },
                "south": {
                    "uv": [
                        4.25,
                        2.5,
                        4.25,
                        2.625
                    ],
                    "rotation": 270,
                    "texture": "#5"
                },
                "west": {
                    "uv": [
                        4.25,
                        2.5,
                        4.25,
                        2.625
                    ],
                    "rotation": 270,
                    "texture": "#5"
                },
                "up": {
                    "uv": [
                        4.25,
                        2.5,
                        4.25,
                        2.625
                    ],
                    "rotation": 270,
                    "texture": "#5"
                },
                "down": {
                    "uv": [
                        4.25,
                        2.5,
                        4.25,
                        2.625
                    ],
                    "rotation": 270,
                    "texture": "#5"
                }
            }
        },
        {
            "from": [
                8.44823,
                6.01276,
                5.78849
            ],
            "to": [
                8.56919,
                6.12076,
                5.90945
            ],
            "rotation": {
                "angle": -45,
                "axis": "y",
                "origin": [
                    8.50871,
                    6.08188,
                    5.84897
                ]
            },
            "faces": {
                "north": {
                    "uv": [
                        14.375,
                        6.5,
                        14.375,
                        6.625
                    ],
                    "rotation": 270,
                    "texture": "#5"
                },
                "east": {
                    "uv": [
                        14.375,
                        6.5,
                        14.375,
                        6.625
                    ],
                    "rotation": 270,
                    "texture": "#5"
                },
                "south": {
                    "uv": [
                        14.375,
                        6.5,
                        14.375,
                        6.625
                    ],
                    "rotation": 270,
                    "texture": "#5"
                },
                "west": {
                    "uv": [
                        14.375,
                        6.5,
                        14.375,
                        6.625
                    ],
                    "rotation": 270,
                    "texture": "#5"
                },
                "up": {
                    "uv": [
                        14.375,
                        6.5,
                        14.375,
                        6.625
                    ],
                    "rotation": 270,
                    "texture": "#5"
                },
                "down": {
                    "uv": [
                        14.375,
                        6.5,
                        14.375,
                        6.625
                    ],
                    "rotation": 270,
                    "texture": "#5"
                }
            }
        },
        {
            "from": [
                8.23886,
                6.01276,
                5.71022
            ],
            "to": [
                9.02942,
                6.11644,
                6.03854
            ],
            "rotation": {
                "angle": 45,
                "axis": "y",
                "origin": [
                    8.54126,
                    6.04732,
                    6.01262
                ]
            },
            "faces": {
                "north": {
                    "uv": [
                        13.875,
                        5,
                        13.875,
                        5.125
                    ],
                    "rotation": 270,
                    "texture": "#5"
                },
                "east": {
                    "uv": [
                        13.875,
                        5,
                        13.875,
                        5.125
                    ],
                    "rotation": 270,
                    "texture": "#5"
                },
                "south": {
                    "uv": [
                        13.875,
                        5,
                        13.875,
                        5.125
                    ],
                    "rotation": 270,
                    "texture": "#5"
                },
                "west": {
                    "uv": [
                        13.875,
                        5,
                        13.875,
                        5.125
                    ],
                    "rotation": 270,
                    "texture": "#5"
                },
                "up": {
                    "uv": [
                        13.875,
                        5,
                        13.875,
                        5.125
                    ],
                    "rotation": 270,
                    "texture": "#5"
                },
                "down": {
                    "uv": [
                        13.875,
                        5,
                        13.875,
                        5.125
                    ],
                    "rotation": 270,
                    "texture": "#5"
                }
            }
        },
        {
            "from": [
                8.11391,
                6.01276,
                5.68503
            ],
            "to": [
                8.90447,
                6.11644,
                6.01335
            ],
            "rotation": {
                "angle": 0,
                "axis": "y",
                "origin": [
                    8.50919,
                    6.0646,
                    5.84919
                ]
            },
            "faces": {
                "north": {
                    "uv": [
                        13.875,
                        5,
                        13.875,
                        5.125
                    ],
                    "rotation": 270,
                    "texture": "#5"
                },
                "east": {
                    "uv": [
                        13.875,
                        5,
                        13.875,
                        5.125
                    ],
                    "rotation": 270,
                    "texture": "#5"
                },
                "south": {
                    "uv": [
                        13.875,
                        5,
                        13.875,
                        5.125
                    ],
                    "rotation": 270,
                    "texture": "#5"
                },
                "west": {
                    "uv": [
                        13.875,
                        5,
                        13.875,
                        5.125
                    ],
                    "rotation": 270,
                    "texture": "#5"
                },
                "up": {
                    "uv": [
                        13.875,
                        5,
                        13.875,
                        5.125
                    ],
                    "rotation": 270,
                    "texture": "#5"
                },
                "down": {
                    "uv": [
                        13.875,
                        5,
                        13.875,
                        5.125
                    ],
                    "rotation": 270,
                    "texture": "#5"
                }
            }
        },
        {
            "from": [
                8.34503,
                6.01276,
                5.45391
            ],
            "to": [
                8.67335,
                6.11644,
                6.24447
            ],
            "rotation": {
                "angle": 45,
                "axis": "y",
                "origin": [
                    8.50919,
                    6.0646,
                    5.84919
                ]
            },
            "faces": {
                "north": {
                    "uv": [
                        13.875,
                        5,
                        13.875,
                        5.125
                    ],
                    "texture": "#5"
                },
                "east": {
                    "uv": [
                        13.875,
                        5,
                        13.875,
                        5.125
                    ],
                    "texture": "#5"
                },
                "south": {
                    "uv": [
                        13.875,
                        5,
                        13.875,
                        5.125
                    ],
                    "texture": "#5"
                },
                "west": {
                    "uv": [
                        13.875,
                        5,
                        13.875,
                        5.125
                    ],
                    "texture": "#5"
                },
                "up": {
                    "uv": [
                        13.875,
                        5,
                        13.875,
                        5.125
                    ],
                    "texture": "#5"
                },
                "down": {
                    "uv": [
                        13.875,
                        5,
                        13.875,
                        5.125
                    ],
                    "texture": "#5"
                }
            }
        },
        {
            "from": [
                8.34503,
                6.01276,
                5.45391
            ],
            "to": [
                8.67335,
                6.11644,
                6.24447
            ],
            "rotation": {
                "angle": 0,
                "axis": "y",
                "origin": [
                    8.50919,
                    6.0646,
                    5.84919
                ]
            },
            "faces": {
                "north": {
                    "uv": [
                        13.875,
                        5,
                        13.875,
                        5.125
                    ],
                    "texture": "#5"
                },
                "east": {
                    "uv": [
                        13.875,
                        5,
                        13.875,
                        5.125
                    ],
                    "texture": "#5"
                },
                "south": {
                    "uv": [
                        13.875,
                        5,
                        13.875,
                        5.125
                    ],
                    "texture": "#5"
                },
                "west": {
                    "uv": [
                        13.875,
                        5,
                        13.875,
                        5.125
                    ],
                    "texture": "#5"
                },
                "up": {
                    "uv": [
                        13.875,
                        5,
                        13.875,
                        5.125
                    ],
                    "texture": "#5"
                },
                "down": {
                    "uv": [
                        13.875,
                        5,
                        13.875,
                        5.125
                    ],
                    "texture": "#5"
                }
            }
        },
        {
            "from": [
                8.47584,
                6.02785,
                5.09729
            ],
            "to": [
                8.73504,
                6.07969,
                5.40401
            ],
            "rotation": {
                "angle": 22.5,
                "axis": "z",
                "origin": [
                    8.83984,
                    6.38392,
                    5.25065
                ]
            },
            "faces": {
                "north": {
                    "uv": [
                        4.25,
                        2.5,
                        4.25,
                        2.625
                    ],
                    "rotation": 90,
                    "texture": "#5"
                },
                "east": {
                    "uv": [
                        4.25,
                        2.5,
                        4.25,
                        2.625
                    ],
                    "rotation": 90,
                    "texture": "#5"
                },
                "south": {
                    "uv": [
                        4.25,
                        2.5,
                        4.25,
                        2.625
                    ],
                    "rotation": 90,
                    "texture": "#5"
                },
                "west": {
                    "uv": [
                        4.25,
                        2.5,
                        4.25,
                        2.625
                    ],
                    "rotation": 90,
                    "texture": "#5"
                },
                "up": {
                    "uv": [
                        4.25,
                        2.5,
                        4.25,
                        2.625
                    ],
                    "rotation": 90,
                    "texture": "#5"
                },
                "down": {
                    "uv": [
                        4.25,
                        2.5,
                        4.25,
                        2.625
                    ],
                    "rotation": 90,
                    "texture": "#5"
                }
            }
        },
        {
            "from": [
                8.14113,
                6.73572,
                5.09729
            ],
            "to": [
                8.88417,
                6.78756,
                5.40401
            ],
            "rotation": {
                "angle": 0,
                "axis": "y",
                "origin": [
                    8.49861,
                    6.34548,
                    6.68489
                ]
            },
            "faces": {
                "north": {
                    "uv": [
                        4.25,
                        2.5,
                        4.25,
                        2.625
                    ],
                    "rotation": 270,
                    "texture": "#5"
                },
                "east": {
                    "uv": [
                        4.25,
                        2.5,
                        4.25,
                        2.625
                    ],
                    "rotation": 270,
                    "texture": "#5"
                },
                "south": {
                    "uv": [
                        4.25,
                        2.5,
                        4.25,
                        2.625
                    ],
                    "rotation": 270,
                    "texture": "#5"
                },
                "west": {
                    "uv": [
                        4.25,
                        2.5,
                        4.25,
                        2.625
                    ],
                    "rotation": 270,
                    "texture": "#5"
                },
                "up": {
                    "uv": [
                        4.25,
                        2.5,
                        4.25,
                        2.625
                    ],
                    "rotation": 270,
                    "texture": "#5"
                },
                "down": {
                    "uv": [
                        4.25,
                        2.5,
                        4.25,
                        2.625
                    ],
                    "rotation": 270,
                    "texture": "#5"
                }
            }
        },
        {
            "from": [
                8.46735,
                6.35556,
                5.23553
            ],
            "to": [
                8.55375,
                6.44196,
                5.23553
            ],
            "rotation": {
                "angle": 0,
                "axis": "y",
                "origin": [
                    8.87877,
                    6.65652,
                    6.68489
                ]
            },
            "faces": {
                "north": {
                    "uv": [
                        8.875,
                        6.875,
                        8.875,
                        7
                    ],
                    "texture": "#5"
                },
                "east": {
                    "uv": [
                        8.875,
                        6.875,
                        8.875,
                        7
                    ],
                    "texture": "#5"
                },
                "south": {
                    "uv": [
                        8.875,
                        6.875,
                        8.875,
                        7
                    ],
                    "texture": "#5"
                },
                "west": {
                    "uv": [
                        8.875,
                        6.875,
                        8.875,
                        7
                    ],
                    "texture": "#5"
                },
                "up": {
                    "uv": [
                        8.875,
                        6.875,
                        8.875,
                        7
                    ],
                    "texture": "#5"
                },
                "down": {
                    "uv": [
                        8.875,
                        6.875,
                        8.875,
                        7
                    ],
                    "texture": "#5"
                }
            }
        },
        {
            "from": [
                7.97782,
                5.90512,
                5.09729
            ],
            "to": [
                8.23702,
                5.95696,
                5.40401
            ],
            "rotation": {
                "angle": -22.5,
                "axis": "z",
                "origin": [
                    8.3353,
                    5.54944,
                    6.68489
                ]
            },
            "faces": {
                "north": {
                    "uv": [
                        4.25,
                        2.5,
                        4.25,
                        2.625
                    ],
                    "rotation": 270,
                    "texture": "#5"
                },
                "east": {
                    "uv": [
                        4.25,
                        2.5,
                        4.25,
                        2.625
                    ],
                    "rotation": 270,
                    "texture": "#5"
                },
                "south": {
                    "uv": [
                        4.25,
                        2.5,
                        4.25,
                        2.625
                    ],
                    "rotation": 270,
                    "texture": "#5"
                },
                "west": {
                    "uv": [
                        4.25,
                        2.5,
                        4.25,
                        2.625
                    ],
                    "rotation": 270,
                    "texture": "#5"
                },
                "up": {
                    "uv": [
                        4.25,
                        2.5,
                        4.25,
                        2.625
                    ],
                    "rotation": 270,
                    "texture": "#5"
                },
                "down": {
                    "uv": [
                        4.25,
                        2.5,
                        4.25,
                        2.625
                    ],
                    "rotation": 270,
                    "texture": "#5"
                }
            }
        },
        {
            "from": [
                8.04195,
                6.28888,
                5.09729
            ],
            "to": [
                8.09379,
                6.54808,
                5.40401
            ],
            "rotation": {
                "angle": 0,
                "axis": "y",
                "origin": [
                    8.12464,
                    6.32313,
                    5.25065
                ]
            },
            "faces": {
                "north": {
                    "uv": [
                        4.25,
                        2.5,
                        4.25,
                        2.625
                    ],
                    "rotation": 180,
                    "texture": "#5"
                },
                "east": {
                    "uv": [
                        4.25,
                        2.5,
                        4.25,
                        2.625
                    ],
                    "rotation": 180,
                    "texture": "#5"
                },
                "south": {
                    "uv": [
                        4.25,
                        2.5,
                        4.25,
                        2.625
                    ],
                    "rotation": 180,
                    "texture": "#5"
                },
                "west": {
                    "uv": [
                        4.25,
                        2.5,
                        4.25,
                        2.625
                    ],
                    "rotation": 180,
                    "texture": "#5"
                },
                "up": {
                    "uv": [
                        4.25,
                        2.5,
                        4.25,
                        2.625
                    ],
                    "rotation": 180,
                    "texture": "#5"
                },
                "down": {
                    "uv": [
                        4.25,
                        2.5,
                        4.25,
                        2.625
                    ],
                    "rotation": 180,
                    "texture": "#5"
                }
            }
        },
        {
            "from": [
                8.92663,
                6.28888,
                5.09729
            ],
            "to": [
                8.97847,
                6.54808,
                5.40401
            ],
            "rotation": {
                "angle": 0,
                "axis": "y",
                "origin": [
                    8.83984,
                    6.41848,
                    5.25065
                ]
            },
            "faces": {
                "north": {
                    "uv": [
                        4.25,
                        2.5,
                        4.25,
                        2.625
                    ],
                    "texture": "#5"
                },
                "east": {
                    "uv": [
                        4.25,
                        2.5,
                        4.25,
                        2.625
                    ],
                    "texture": "#5"
                },
                "south": {
                    "uv": [
                        4.25,
                        2.5,
                        4.25,
                        2.625
                    ],
                    "texture": "#5"
                },
                "west": {
                    "uv": [
                        4.25,
                        2.5,
                        4.25,
                        2.625
                    ],
                    "texture": "#5"
                },
                "up": {
                    "uv": [
                        4.25,
                        2.5,
                        4.25,
                        2.625
                    ],
                    "texture": "#5"
                },
                "down": {
                    "uv": [
                        4.25,
                        2.5,
                        4.25,
                        2.625
                    ],
                    "texture": "#5"
                }
            }
        },
        {
            "from": [
                8.13719,
                5.94364,
                5.09729
            ],
            "to": [
                8.88023,
                6.0646,
                5.40401
            ],
            "rotation": {
                "angle": 0,
                "axis": "y",
                "origin": [
                    8.49467,
                    5.58797,
                    6.68489
                ]
            },
            "faces": {
                "north": {
                    "uv": [
                        4.25,
                        2.5,
                        4.25,
                        2.625
                    ],
                    "rotation": 270,
                    "texture": "#5"
                },
                "east": {
                    "uv": [
                        4.25,
                        2.5,
                        4.25,
                        2.625
                    ],
                    "rotation": 270,
                    "texture": "#5"
                },
                "south": {
                    "uv": [
                        4.25,
                        2.5,
                        4.25,
                        2.625
                    ],
                    "rotation": 270,
                    "texture": "#5"
                },
                "west": {
                    "uv": [
                        4.25,
                        2.5,
                        4.25,
                        2.625
                    ],
                    "rotation": 270,
                    "texture": "#5"
                },
                "up": {
                    "uv": [
                        4.25,
                        2.5,
                        4.25,
                        2.625
                    ],
                    "rotation": 270,
                    "texture": "#5"
                },
                "down": {
                    "uv": [
                        4.25,
                        2.5,
                        4.25,
                        2.625
                    ],
                    "rotation": 270,
                    "texture": "#5"
                }
            }
        },
        {
            "from": [
                8.13719,
                6.01276,
                6.75617
            ],
            "to": [
                8.88023,
                6.16828,
                7.23569
            ],
            "rotation": {
                "angle": 0,
                "axis": "y",
                "origin": [
                    8.49467,
                    5.65709,
                    8.51657
                ]
            },
            "faces": {
                "north": {
                    "uv": [
                        4.25,
                        2.5,
                        4.25,
                        2.625
                    ],
                    "rotation": 270,
                    "texture": "#5"
                },
                "east": {
                    "uv": [
                        4.25,
                        2.5,
                        4.25,
                        2.625
                    ],
                    "rotation": 270,
                    "texture": "#5"
                },
                "south": {
                    "uv": [
                        4.25,
                        2.5,
                        4.25,
                        2.625
                    ],
                    "rotation": 270,
                    "texture": "#5"
                },
                "west": {
                    "uv": [
                        4.25,
                        2.5,
                        4.25,
                        2.625
                    ],
                    "rotation": 270,
                    "texture": "#5"
                },
                "up": {
                    "uv": [
                        4.25,
                        2.5,
                        4.25,
                        2.625
                    ],
                    "rotation": 270,
                    "texture": "#5"
                },
                "down": {
                    "uv": [
                        4.25,
                        2.5,
                        4.25,
                        2.625
                    ],
                    "rotation": 270,
                    "texture": "#5"
                }
            }
        },
        {
            "from": [
                8.13719,
                5.90861,
                6.26712
            ],
            "to": [
                8.88023,
                6.06413,
                6.88488
            ],
            "rotation": {
                "angle": 0,
                "axis": "y",
                "origin": [
                    8.49467,
                    5.55293,
                    7.7856
                ]
            },
            "faces": {
                "north": {
                    "uv": [
                        4.25,
                        2.5,
                        4.25,
                        2.625
                    ],
                    "rotation": 270,
                    "texture": "#5"
                },
                "east": {
                    "uv": [
                        4.25,
                        2.5,
                        4.25,
                        2.625
                    ],
                    "rotation": 270,
                    "texture": "#5"
                },
                "south": {
                    "uv": [
                        4.25,
                        2.5,
                        4.25,
                        2.625
                    ],
                    "rotation": 270,
                    "texture": "#5"
                },
                "west": {
                    "uv": [
                        4.25,
                        2.5,
                        4.25,
                        2.625
                    ],
                    "rotation": 270,
                    "texture": "#5"
                },
                "up": {
                    "uv": [
                        4.25,
                        2.5,
                        4.25,
                        2.625
                    ],
                    "rotation": 270,
                    "texture": "#5"
                },
                "down": {
                    "uv": [
                        4.25,
                        2.5,
                        4.25,
                        2.625
                    ],
                    "rotation": 270,
                    "texture": "#5"
                }
            }
        },
        {
            "from": [
                8.13719,
                6.54184,
                6.58213
            ],
            "to": [
                8.88023,
                6.69736,
                6.85429
            ],
            "rotation": {
                "angle": -22.5,
                "axis": "x",
                "origin": [
                    8.49467,
                    6.18617,
                    8.13517
                ]
            },
            "faces": {
                "north": {
                    "uv": [
                        4.25,
                        2.5,
                        4.25,
                        2.625
                    ],
                    "rotation": 270,
                    "texture": "#5"
                },
                "east": {
                    "uv": [
                        4.25,
                        2.5,
                        4.25,
                        2.625
                    ],
                    "rotation": 270,
                    "texture": "#5"
                },
                "south": {
                    "uv": [
                        4.25,
                        2.5,
                        4.25,
                        2.625
                    ],
                    "rotation": 270,
                    "texture": "#5"
                },
                "west": {
                    "uv": [
                        4.25,
                        2.5,
                        4.25,
                        2.625
                    ],
                    "rotation": 270,
                    "texture": "#5"
                },
                "up": {
                    "uv": [
                        4.25,
                        2.5,
                        4.25,
                        2.625
                    ],
                    "rotation": 270,
                    "texture": "#5"
                },
                "down": {
                    "uv": [
                        4.25,
                        2.5,
                        4.25,
                        2.625
                    ],
                    "rotation": 270,
                    "texture": "#5"
                }
            }
        },
        {
            "from": [
                8.20728,
                6.49801,
                5.09729
            ],
            "to": [
                8.25912,
                6.75721,
                5.40401
            ],
            "rotation": {
                "angle": -22.5,
                "axis": "z",
                "origin": [
                    8.25048,
                    6.93865,
                    5.25065
                ]
            },
            "faces": {
                "north": {
                    "uv": [
                        4.25,
                        2.5,
                        4.25,
                        2.625
                    ],
                    "texture": "#5"
                },
                "east": {
                    "uv": [
                        4.25,
                        2.5,
                        4.25,
                        2.625
                    ],
                    "texture": "#5"
                },
                "south": {
                    "uv": [
                        4.25,
                        2.5,
                        4.25,
                        2.625
                    ],
                    "texture": "#5"
                },
                "west": {
                    "uv": [
                        4.25,
                        2.5,
                        4.25,
                        2.625
                    ],
                    "texture": "#5"
                },
                "up": {
                    "uv": [
                        4.25,
                        2.5,
                        4.25,
                        2.625
                    ],
                    "texture": "#5"
                },
                "down": {
                    "uv": [
                        4.25,
                        2.5,
                        4.25,
                        2.625
                    ],
                    "texture": "#5"
                }
            }
        },
        {
            "from": [
                8.96567,
                6.0926,
                5.09729
            ],
            "to": [
                9.01751,
                6.3518,
                5.40401
            ],
            "rotation": {
                "angle": -22.5,
                "axis": "z",
                "origin": [
                    8.83984,
                    6.41848,
                    5.25065
                ]
            },
            "faces": {
                "north": {
                    "uv": [
                        4.25,
                        2.5,
                        4.25,
                        2.625
                    ],
                    "rotation": 180,
                    "texture": "#5"
                },
                "east": {
                    "uv": [
                        4.25,
                        2.5,
                        4.25,
                        2.625
                    ],
                    "rotation": 180,
                    "texture": "#5"
                },
                "south": {
                    "uv": [
                        4.25,
                        2.5,
                        4.25,
                        2.625
                    ],
                    "rotation": 180,
                    "texture": "#5"
                },
                "west": {
                    "uv": [
                        4.25,
                        2.5,
                        4.25,
                        2.625
                    ],
                    "rotation": 180,
                    "texture": "#5"
                },
                "up": {
                    "uv": [
                        4.25,
                        2.5,
                        4.25,
                        2.625
                    ],
                    "rotation": 180,
                    "texture": "#5"
                },
                "down": {
                    "uv": [
                        4.25,
                        2.5,
                        4.25,
                        2.625
                    ],
                    "rotation": 180,
                    "texture": "#5"
                }
            }
        },
        {
            "from": [
                8.04876,
                6.06393,
                5.09729
            ],
            "to": [
                8.1006,
                6.32313,
                5.40401
            ],
            "rotation": {
                "angle": 22.5,
                "axis": "z",
                "origin": [
                    8.13146,
                    6.28888,
                    5.25065
                ]
            },
            "faces": {
                "north": {
                    "uv": [
                        4.25,
                        2.5,
                        4.25,
                        2.625
                    ],
                    "texture": "#5"
                },
                "east": {
                    "uv": [
                        4.25,
                        2.5,
                        4.25,
                        2.625
                    ],
                    "texture": "#5"
                },
                "south": {
                    "uv": [
                        4.25,
                        2.5,
                        4.25,
                        2.625
                    ],
                    "texture": "#5"
                },
                "west": {
                    "uv": [
                        4.25,
                        2.5,
                        4.25,
                        2.625
                    ],
                    "texture": "#5"
                },
                "up": {
                    "uv": [
                        4.25,
                        2.5,
                        4.25,
                        2.625
                    ],
                    "texture": "#5"
                },
                "down": {
                    "uv": [
                        4.25,
                        2.5,
                        4.25,
                        2.625
                    ],
                    "texture": "#5"
                }
            }
        },
        {
            "from": [
                8.96567,
                6.48517,
                5.09729
            ],
            "to": [
                9.01751,
                6.74437,
                5.40401
            ],
            "rotation": {
                "angle": 22.5,
                "axis": "z",
                "origin": [
                    8.83984,
                    6.41848,
                    5.25065
                ]
            },
            "faces": {
                "north": {
                    "uv": [
                        4.25,
                        2.5,
                        4.25,
                        2.625
                    ],
                    "rotation": 180,
                    "texture": "#5"
                },
                "east": {
                    "uv": [
                        4.25,
                        2.5,
                        4.25,
                        2.625
                    ],
                    "rotation": 180,
                    "texture": "#5"
                },
                "south": {
                    "uv": [
                        4.25,
                        2.5,
                        4.25,
                        2.625
                    ],
                    "rotation": 180,
                    "texture": "#5"
                },
                "west": {
                    "uv": [
                        4.25,
                        2.5,
                        4.25,
                        2.625
                    ],
                    "rotation": 180,
                    "texture": "#5"
                },
                "up": {
                    "uv": [
                        4.25,
                        2.5,
                        4.25,
                        2.625
                    ],
                    "rotation": 180,
                    "texture": "#5"
                },
                "down": {
                    "uv": [
                        4.25,
                        2.5,
                        4.25,
                        2.625
                    ],
                    "rotation": 180,
                    "texture": "#5"
                }
            }
        },
        {
            "from": [
                8.17175,
                5.73628,
                5.02817
            ],
            "to": [
                8.84567,
                5.94364,
                7.20113
            ],
            "rotation": {
                "angle": 0,
                "axis": "y",
                "origin": [
                    8.49467,
                    6.10637,
                    6.61577
                ]
            },
            "faces": {
                "north": {
                    "uv": [
                        8.125,
                        11.875,
                        8.125,
                        12
                    ],
                    "rotation": 270,
                    "texture": "#5"
                },
                "east": {
                    "uv": [
                        8.125,
                        11.875,
                        8.125,
                        12
                    ],
                    "rotation": 270,
                    "texture": "#5"
                },
                "south": {
                    "uv": [
                        8.125,
                        11.875,
                        8.125,
                        12
                    ],
                    "rotation": 270,
                    "texture": "#5"
                },
                "west": {
                    "uv": [
                        8.125,
                        11.875,
                        8.125,
                        12
                    ],
                    "rotation": 270,
                    "texture": "#5"
                },
                "up": {
                    "uv": [
                        8.125,
                        11.875,
                        8.125,
                        12
                    ],
                    "rotation": 270,
                    "texture": "#5"
                },
                "down": {
                    "uv": [
                        8.125,
                        11.875,
                        8.125,
                        12
                    ],
                    "rotation": 270,
                    "texture": "#5"
                }
            }
        }
    ],
    "display": {
        "thirdperson_righthand": {
            "translation": [
                -0.5,
                5.75,
                -1.25
            ],
            "scale": [
                1.2,
                1.2,
                1.2
            ]
        },
        "thirdperson_lefthand": {
            "translation": [
                0.25,
                5.75,
                -1.25
            ],
            "scale": [
                1.2,
                1.2,
                1.2
            ]
        },
        "firstperson_righthand": {
            "translation": [
                -0.5,
                7.25,
                -1.75
            ],
            "scale": [
                1.25,
                1.2,
                1.2
            ]
        },
        "firstperson_lefthand": {
            "translation": [
                -0.5,
                7.25,
                -1.75
            ],
            "scale": [
                1.25,
                1.2,
                1.2
            ]
        },
        "ground": {
            "translation": [
                0,
                11,
                0
            ],
            "scale": [
                1.5,
                1.5,
                1.5
            ]
        },
        "gui": {
            "rotation": [
                31,
                31,
                -23
            ],
            "translation": [
                4,
                8.5,
                0
            ],
            "scale": [
                2.2,
                2.2,
                2.2
            ]
        },
        "head": {
            "rotation": [
                90,
                90,
                0
            ],
            "translation": [
                0.5,
                6.5,
                7.5
            ],
            "scale": [
                2,
                2,
                2
            ]
        },
        "fixed": {
            "rotation": [
                0,
                90,
                0
            ],
            "translation": [
                0,
                6.75,
                0
            ],
            "scale": [
                2.5,
                2.5,
                2.5
            ]
        }
    }
}