{
    "textures": {
        "0": "gci:items/common/all_in_one",
        "2": "gci:items/common/mpz",
        "particle": "gci:items/common/all_in_one"
    },
    "elements": [
        {
            "from": [
                7.52317,
                8.40978,
                16.73593
            ],
            "to": [
                8.48573,
                9.74034,
                17.43006
            ],
            "rotation": {
                "angle": 0,
                "axis": "y",
                "origin": [
                    8.42014,
                    9.47443,
                    -19.76335
                ]
            },
            "faces": {
                "north": {
                    "uv": [
                        1.25,
                        1.125,
                        1.375,
                        1.125
                    ],
                    "rotation": 270,
                    "texture": "#0"
                },
                "east": {
                    "uv": [
                        1.25,
                        1.125,
                        1.375,
                        1.125
                    ],
                    "rotation": 270,
                    "texture": "#0"
                },
                "south": {
                    "uv": [
                        1.25,
                        1.125,
                        1.375,
                        1.125
                    ],
                    "rotation": 270,
                    "texture": "#0"
                },
                "west": {
                    "uv": [
                        1.25,
                        1.125,
                        1.375,
                        1.125
                    ],
                    "rotation": 270,
                    "texture": "#0"
                },
                "up": {
                    "uv": [
                        1.25,
                        1.125,
                        1.375,
                        1.125
                    ],
                    "rotation": 270,
                    "texture": "#0"
                },
                "down": {
                    "uv": [
                        1.25,
                        1.125,
                        1.375,
                        1.125
                    ],
                    "rotation": 270,
                    "texture": "#0"
                }
            }
        },
        {
            "from": [
                8.47933,
                8.3381,
                16.54526
            ],
            "to": [
                9.09757,
                9.81202,
                17.15194
            ],
            "rotation": {
                "angle": 0,
                "axis": "y",
                "origin": [
                    9.09598,
                    9.47443,
                    54.26337
                ]
            },
            "faces": {
                "north": {
                    "uv": [
                        4.375,
                        3.625,
                        4.375,
                        3.625
                    ],
                    "rotation": 270,
                    "texture": "#0"
                },
                "east": {
                    "uv": [
                        4.375,
                        3.625,
                        4.375,
                        3.625
                    ],
                    "rotation": 270,
                    "texture": "#0"
                },
                "south": {
                    "uv": [
                        4.375,
                        3.625,
                        4.375,
                        3.625
                    ],
                    "rotation": 270,
                    "texture": "#0"
                },
                "west": {
                    "uv": [
                        4.375,
                        3.625,
                        4.375,
                        3.625
                    ],
                    "rotation": 270,
                    "texture": "#0"
                },
                "up": {
                    "uv": [
                        4.375,
                        3.625,
                        4.375,
                        3.625
                    ],
                    "rotation": 270,
                    "texture": "#0"
                },
                "down": {
                    "uv": [
                        4.375,
                        3.625,
                        4.375,
                        3.625
                    ],
                    "rotation": 270,
                    "texture": "#0"
                }
            }
        },
        {
            "from": [
                8.65853,
                8.26642,
                16.54526
            ],
            "to": [
                8.91837,
                9.8837,
                17.15194
            ],
            "rotation": {
                "angle": 0,
                "axis": "y",
                "origin": [
                    9.09598,
                    9.47443,
                    54.26337
                ]
            },
            "faces": {
                "north": {
                    "uv": [
                        4.375,
                        3.625,
                        4.375,
                        3.625
                    ],
                    "rotation": 270,
                    "texture": "#0"
                },
                "east": {
                    "uv": [
                        4.375,
                        3.625,
                        4.375,
                        3.625
                    ],
                    "rotation": 270,
                    "texture": "#0"
                },
                "south": {
                    "uv": [
                        4.375,
                        3.625,
                        4.375,
                        3.625
                    ],
                    "rotation": 270,
                    "texture": "#0"
                },
                "west": {
                    "uv": [
                        4.375,
                        3.625,
                        4.375,
                        3.625
                    ],
                    "rotation": 270,
                    "texture": "#0"
                },
                "up": {
                    "uv": [
                        4.375,
                        3.625,
                        4.375,
                        3.625
                    ],
                    "rotation": 270,
                    "texture": "#0"
                },
                "down": {
                    "uv": [
                        4.375,
                        3.625,
                        4.375,
                        3.625
                    ],
                    "rotation": 270,
                    "texture": "#0"
                }
            }
        },
        {
            "from": [
                8.68854,
                8.49601,
                9.43547
            ],
            "to": [
                8.8879,
                10.11329,
                10.21705
            ],
            "rotation": {
                "angle": 0,
                "axis": "y",
                "origin": [
                    9.0655,
                    9.70402,
                    47.32848
                ]
            },
            "faces": {
                "north": {
                    "uv": [
                        4.25,
                        2.125,
                        4.25,
                        2.125
                    ],
                    "rotation": 270,
                    "texture": "#0"
                },
                "east": {
                    "uv": [
                        4.25,
                        2.125,
                        4.25,
                        2.125
                    ],
                    "rotation": 270,
                    "texture": "#0"
                },
                "south": {
                    "uv": [
                        4.25,
                        2.125,
                        4.25,
                        2.125
                    ],
                    "rotation": 270,
                    "texture": "#0"
                },
                "west": {
                    "uv": [
                        4.25,
                        2.125,
                        4.25,
                        2.125
                    ],
                    "rotation": 270,
                    "texture": "#0"
                },
                "up": {
                    "uv": [
                        4.25,
                        2.125,
                        4.25,
                        2.125
                    ],
                    "rotation": 270,
                    "texture": "#0"
                },
                "down": {
                    "uv": [
                        4.25,
                        2.125,
                        4.25,
                        2.125
                    ],
                    "rotation": 270,
                    "texture": "#0"
                }
            }
        },
        {
            "from": [
                8.68854,
                9.64289,
                9.17312
            ],
            "to": [
                8.8879,
                9.84225,
                9.91098
            ],
            "rotation": {
                "angle": 45,
                "axis": "z",
                "origin": [
                    8.78822,
                    9.74257,
                    9.52019
                ]
            },
            "faces": {
                "north": {
                    "uv": [
                        13.875,
                        4.75,
                        13.875,
                        5
                    ],
                    "rotation": 270,
                    "texture": "#0"
                },
                "east": {
                    "uv": [
                        13.875,
                        4.75,
                        13.875,
                        5
                    ],
                    "rotation": 270,
                    "texture": "#0"
                },
                "south": {
                    "uv": [
                        13.875,
                        4.75,
                        13.875,
                        5
                    ],
                    "rotation": 270,
                    "texture": "#0"
                },
                "west": {
                    "uv": [
                        13.875,
                        4.75,
                        13.875,
                        5
                    ],
                    "rotation": 270,
                    "texture": "#0"
                },
                "up": {
                    "uv": [
                        13.875,
                        5,
                        13.875,
                        4.75
                    ],
                    "rotation": 270,
                    "texture": "#0"
                },
                "down": {
                    "uv": [
                        13.875,
                        5,
                        13.875,
                        4.75
                    ],
                    "rotation": 270,
                    "texture": "#0"
                }
            }
        },
        {
            "from": [
                8.68854,
                6.99073,
                9.17312
            ],
            "to": [
                8.8879,
                7.19009,
                9.7798
            ],
            "rotation": {
                "angle": 45,
                "axis": "z",
                "origin": [
                    8.78822,
                    7.09041,
                    9.52019
                ]
            },
            "faces": {
                "north": {
                    "uv": [
                        13.875,
                        4.75,
                        13.875,
                        5
                    ],
                    "rotation": 270,
                    "texture": "#0"
                },
                "east": {
                    "uv": [
                        13.875,
                        4.75,
                        13.875,
                        5
                    ],
                    "rotation": 270,
                    "texture": "#0"
                },
                "south": {
                    "uv": [
                        13.875,
                        4.75,
                        13.875,
                        5
                    ],
                    "rotation": 270,
                    "texture": "#0"
                },
                "west": {
                    "uv": [
                        13.875,
                        4.75,
                        13.875,
                        5
                    ],
                    "rotation": 270,
                    "texture": "#0"
                },
                "up": {
                    "uv": [
                        13.875,
                        5,
                        13.875,
                        4.75
                    ],
                    "rotation": 270,
                    "texture": "#0"
                },
                "down": {
                    "uv": [
                        13.875,
                        5,
                        13.875,
                        4.75
                    ],
                    "rotation": 270,
                    "texture": "#0"
                }
            }
        },
        {
            "from": [
                8.78971,
                8.88754,
                16.54526
            ],
            "to": [
                8.97787,
                9.89554,
                17.15194
            ],
            "rotation": {
                "angle": 22.5,
                "axis": "z",
                "origin": [
                    8.84795,
                    9.0869,
                    16.8486
                ]
            },
            "faces": {
                "north": {
                    "uv": [
                        4.375,
                        3.625,
                        4.375,
                        3.625
                    ],
                    "rotation": 270,
                    "texture": "#0"
                },
                "east": {
                    "uv": [
                        4.375,
                        3.625,
                        4.375,
                        3.625
                    ],
                    "rotation": 270,
                    "texture": "#0"
                },
                "south": {
                    "uv": [
                        4.375,
                        3.625,
                        4.375,
                        3.625
                    ],
                    "rotation": 270,
                    "texture": "#0"
                },
                "west": {
                    "uv": [
                        4.375,
                        3.625,
                        4.375,
                        3.625
                    ],
                    "rotation": 270,
                    "texture": "#0"
                },
                "up": {
                    "uv": [
                        4.375,
                        3.625,
                        4.375,
                        3.625
                    ],
                    "rotation": 270,
                    "texture": "#0"
                },
                "down": {
                    "uv": [
                        4.375,
                        3.625,
                        4.375,
                        3.625
                    ],
                    "rotation": 270,
                    "texture": "#0"
                }
            }
        },
        {
            "from": [
                8.82019,
                9.26049,
                9.43547
            ],
            "to": [
                9.00835,
                10.12513,
                10.21705
            ],
            "rotation": {
                "angle": 22.5,
                "axis": "z",
                "origin": [
                    8.87843,
                    9.31649,
                    9.91371
                ]
            },
            "faces": {
                "north": {
                    "uv": [
                        4.25,
                        2.125,
                        4.25,
                        2.125
                    ],
                    "rotation": 270,
                    "texture": "#0"
                },
                "east": {
                    "uv": [
                        4.25,
                        2.125,
                        4.25,
                        2.125
                    ],
                    "rotation": 270,
                    "texture": "#0"
                },
                "south": {
                    "uv": [
                        4.25,
                        2.125,
                        4.25,
                        2.125
                    ],
                    "rotation": 270,
                    "texture": "#0"
                },
                "west": {
                    "uv": [
                        4.25,
                        2.125,
                        4.25,
                        2.125
                    ],
                    "rotation": 270,
                    "texture": "#0"
                },
                "up": {
                    "uv": [
                        4.25,
                        2.125,
                        4.25,
                        2.125
                    ],
                    "rotation": 270,
                    "texture": "#0"
                },
                "down": {
                    "uv": [
                        4.25,
                        2.125,
                        4.25,
                        2.125
                    ],
                    "rotation": 270,
                    "texture": "#0"
                }
            }
        },
        {
            "from": [
                8.72187,
                8.25456,
                16.54526
            ],
            "to": [
                8.91003,
                9.26256,
                17.15194
            ],
            "rotation": {
                "angle": 22.5,
                "axis": "z",
                "origin": [
                    8.79381,
                    8.76773,
                    16.8486
                ]
            },
            "faces": {
                "north": {
                    "uv": [
                        4.375,
                        3.625,
                        4.375,
                        3.625
                    ],
                    "rotation": 90,
                    "texture": "#0"
                },
                "east": {
                    "uv": [
                        4.375,
                        3.625,
                        4.375,
                        3.625
                    ],
                    "rotation": 90,
                    "texture": "#0"
                },
                "south": {
                    "uv": [
                        4.375,
                        3.625,
                        4.375,
                        3.625
                    ],
                    "rotation": 90,
                    "texture": "#0"
                },
                "west": {
                    "uv": [
                        4.375,
                        3.625,
                        4.375,
                        3.625
                    ],
                    "rotation": 90,
                    "texture": "#0"
                },
                "up": {
                    "uv": [
                        4.375,
                        3.625,
                        4.375,
                        3.625
                    ],
                    "rotation": 90,
                    "texture": "#0"
                },
                "down": {
                    "uv": [
                        4.375,
                        3.625,
                        4.375,
                        3.625
                    ],
                    "rotation": 90,
                    "texture": "#0"
                }
            }
        },
        {
            "from": [
                8.60447,
                8.91497,
                16.54526
            ],
            "to": [
                8.79263,
                9.92297,
                17.15194
            ],
            "rotation": {
                "angle": -22.5,
                "axis": "z",
                "origin": [
                    8.66271,
                    9.11433,
                    16.8486
                ]
            },
            "faces": {
                "north": {
                    "uv": [
                        4.375,
                        3.625,
                        4.375,
                        3.625
                    ],
                    "rotation": 270,
                    "texture": "#0"
                },
                "east": {
                    "uv": [
                        4.375,
                        3.625,
                        4.375,
                        3.625
                    ],
                    "rotation": 270,
                    "texture": "#0"
                },
                "south": {
                    "uv": [
                        4.375,
                        3.625,
                        4.375,
                        3.625
                    ],
                    "rotation": 270,
                    "texture": "#0"
                },
                "west": {
                    "uv": [
                        4.375,
                        3.625,
                        4.375,
                        3.625
                    ],
                    "rotation": 270,
                    "texture": "#0"
                },
                "up": {
                    "uv": [
                        4.375,
                        3.625,
                        4.375,
                        3.625
                    ],
                    "rotation": 270,
                    "texture": "#0"
                },
                "down": {
                    "uv": [
                        4.375,
                        3.625,
                        4.375,
                        3.625
                    ],
                    "rotation": 270,
                    "texture": "#0"
                }
            }
        },
        {
            "from": [
                8.574,
                9.25208,
                9.43547
            ],
            "to": [
                8.76216,
                10.15256,
                10.21705
            ],
            "rotation": {
                "angle": -22.5,
                "axis": "z",
                "origin": [
                    8.63224,
                    9.34392,
                    9.91371
                ]
            },
            "faces": {
                "north": {
                    "uv": [
                        4.25,
                        2.125,
                        4.25,
                        2.125
                    ],
                    "rotation": 270,
                    "texture": "#0"
                },
                "east": {
                    "uv": [
                        4.25,
                        2.125,
                        4.25,
                        2.125
                    ],
                    "rotation": 270,
                    "texture": "#0"
                },
                "south": {
                    "uv": [
                        4.25,
                        2.125,
                        4.25,
                        2.125
                    ],
                    "rotation": 270,
                    "texture": "#0"
                },
                "west": {
                    "uv": [
                        4.25,
                        2.125,
                        4.25,
                        2.125
                    ],
                    "rotation": 270,
                    "texture": "#0"
                },
                "up": {
                    "uv": [
                        4.25,
                        2.125,
                        4.25,
                        2.125
                    ],
                    "rotation": 270,
                    "texture": "#0"
                },
                "down": {
                    "uv": [
                        4.25,
                        2.125,
                        4.25,
                        2.125
                    ],
                    "rotation": 270,
                    "texture": "#0"
                }
            }
        },
        {
            "from": [
                8.67759,
                8.25456,
                16.54526
            ],
            "to": [
                8.86575,
                9.26256,
                17.15194
            ],
            "rotation": {
                "angle": -22.5,
                "axis": "z",
                "origin": [
                    8.79381,
                    8.76773,
                    16.8486
                ]
            },
            "faces": {
                "north": {
                    "uv": [
                        4.375,
                        3.625,
                        4.375,
                        3.625
                    ],
                    "rotation": 90,
                    "texture": "#0"
                },
                "east": {
                    "uv": [
                        4.375,
                        3.625,
                        4.375,
                        3.625
                    ],
                    "rotation": 90,
                    "texture": "#0"
                },
                "south": {
                    "uv": [
                        4.375,
                        3.625,
                        4.375,
                        3.625
                    ],
                    "rotation": 90,
                    "texture": "#0"
                },
                "west": {
                    "uv": [
                        4.375,
                        3.625,
                        4.375,
                        3.625
                    ],
                    "rotation": 90,
                    "texture": "#0"
                },
                "up": {
                    "uv": [
                        4.375,
                        3.625,
                        4.375,
                        3.625
                    ],
                    "rotation": 90,
                    "texture": "#0"
                },
                "down": {
                    "uv": [
                        4.375,
                        3.625,
                        4.375,
                        3.625
                    ],
                    "rotation": 90,
                    "texture": "#0"
                }
            }
        },
        {
            "from": [
                8.58685,
                9.4133,
                9.50557
            ],
            "to": [
                8.99005,
                9.74034,
                16.53979
            ],
            "rotation": {
                "angle": 0,
                "axis": "y",
                "origin": [
                    9.09598,
                    9.47443,
                    52.95162
                ]
            },
            "faces": {
                "north": {
                    "uv": [
                        4.25,
                        3.5,
                        4.25,
                        3.5
                    ],
                    "rotation": 270,
                    "texture": "#0"
                },
                "east": {
                    "uv": [
                        4.25,
                        3.5,
                        4.25,
                        3.5
                    ],
                    "rotation": 270,
                    "texture": "#0"
                },
                "south": {
                    "uv": [
                        4.25,
                        3.5,
                        4.25,
                        3.5
                    ],
                    "rotation": 270,
                    "texture": "#0"
                },
                "west": {
                    "uv": [
                        4.25,
                        3.5,
                        4.25,
                        3.5
                    ],
                    "rotation": 270,
                    "texture": "#0"
                },
                "up": {
                    "uv": [
                        4.25,
                        3.5,
                        4.25,
                        3.5
                    ],
                    "rotation": 270,
                    "texture": "#0"
                },
                "down": {
                    "uv": [
                        4.25,
                        3.5,
                        4.25,
                        3.5
                    ],
                    "rotation": 270,
                    "texture": "#0"
                }
            }
        },
        {
            "from": [
                8.51517,
                7.38464,
                9.39175
            ],
            "to": [
                9.06173,
                10.04128,
                10.21705
            ],
            "rotation": {
                "angle": 0,
                "axis": "y",
                "origin": [
                    9.09598,
                    9.48865,
                    52.96898
                ]
            },
            "faces": {
                "north": {
                    "uv": [
                        4.25,
                        2.125,
                        4.25,
                        2.125
                    ],
                    "rotation": 270,
                    "texture": "#0"
                },
                "east": {
                    "uv": [
                        4.25,
                        2.125,
                        4.25,
                        2.125
                    ],
                    "rotation": 270,
                    "texture": "#0"
                },
                "south": {
                    "uv": [
                        4.25,
                        2.125,
                        4.25,
                        2.125
                    ],
                    "rotation": 270,
                    "texture": "#0"
                },
                "west": {
                    "uv": [
                        4.25,
                        2.125,
                        4.25,
                        2.125
                    ],
                    "rotation": 270,
                    "texture": "#0"
                },
                "up": {
                    "uv": [
                        4.25,
                        2.125,
                        4.25,
                        2.125
                    ],
                    "rotation": 270,
                    "texture": "#0"
                },
                "down": {
                    "uv": [
                        4.25,
                        2.125,
                        4.25,
                        2.125
                    ],
                    "rotation": 270,
                    "texture": "#0"
                }
            }
        },
        {
            "from": [
                8.65853,
                7.3488,
                9.39175
            ],
            "to": [
                8.88253,
                9.75456,
                10.52313
            ],
            "rotation": {
                "angle": 0,
                "axis": "y",
                "origin": [
                    9.09598,
                    9.48865,
                    52.96898
                ]
            },
            "faces": {
                "north": {
                    "uv": [
                        4.25,
                        2.125,
                        4.25,
                        2.125
                    ],
                    "rotation": 270,
                    "texture": "#0"
                },
                "east": {
                    "uv": [
                        4.25,
                        2.125,
                        4.25,
                        2.125
                    ],
                    "rotation": 270,
                    "texture": "#0"
                },
                "south": {
                    "uv": [
                        4.25,
                        2.125,
                        4.25,
                        2.125
                    ],
                    "rotation": 270,
                    "texture": "#0"
                },
                "west": {
                    "uv": [
                        4.25,
                        2.125,
                        4.25,
                        2.125
                    ],
                    "rotation": 270,
                    "texture": "#0"
                },
                "up": {
                    "uv": [
                        4.25,
                        2.125,
                        4.25,
                        2.125
                    ],
                    "rotation": 270,
                    "texture": "#0"
                },
                "down": {
                    "uv": [
                        4.25,
                        2.125,
                        4.25,
                        2.125
                    ],
                    "rotation": 270,
                    "texture": "#0"
                }
            }
        },
        {
            "from": [
                8.65853,
                9.81358,
                10.11024
            ],
            "to": [
                8.88253,
                10.74094,
                10.55295
            ],
            "rotation": {
                "angle": 45,
                "axis": "x",
                "origin": [
                    8.77053,
                    10.27726,
                    9.08544
                ]
            },
            "faces": {
                "north": {
                    "uv": [
                        4.25,
                        2.125,
                        4.25,
                        2.125
                    ],
                    "texture": "#0"
                },
                "east": {
                    "uv": [
                        4.25,
                        2.125,
                        4.25,
                        2.125
                    ],
                    "texture": "#0"
                },
                "south": {
                    "uv": [
                        4.25,
                        2.125,
                        4.25,
                        2.125
                    ],
                    "texture": "#0"
                },
                "west": {
                    "uv": [
                        4.25,
                        2.125,
                        4.25,
                        2.125
                    ],
                    "texture": "#0"
                },
                "up": {
                    "uv": [
                        4.25,
                        2.125,
                        4.25,
                        2.125
                    ],
                    "texture": "#0"
                },
                "down": {
                    "uv": [
                        4.25,
                        2.125,
                        4.25,
                        2.125
                    ],
                    "texture": "#0"
                }
            }
        },
        {
            "from": [
                8.51517,
                6.79698,
                9.37439
            ],
            "to": [
                9.06173,
                9.99122,
                9.8499
            ],
            "rotation": {
                "angle": 0,
                "axis": "y",
                "origin": [
                    9.09598,
                    9.47443,
                    52.95162
                ]
            },
            "faces": {
                "north": {
                    "uv": [
                        4.25,
                        2.125,
                        4.25,
                        2.125
                    ],
                    "rotation": 270,
                    "texture": "#0"
                },
                "east": {
                    "uv": [
                        4.25,
                        2.125,
                        4.25,
                        2.125
                    ],
                    "rotation": 270,
                    "texture": "#0"
                },
                "south": {
                    "uv": [
                        4.25,
                        2.125,
                        4.25,
                        2.125
                    ],
                    "rotation": 270,
                    "texture": "#0"
                },
                "west": {
                    "uv": [
                        4.25,
                        2.125,
                        4.25,
                        2.125
                    ],
                    "rotation": 270,
                    "texture": "#0"
                },
                "up": {
                    "uv": [
                        4.25,
                        2.125,
                        4.25,
                        2.125
                    ],
                    "rotation": 270,
                    "texture": "#0"
                },
                "down": {
                    "uv": [
                        4.25,
                        2.125,
                        4.25,
                        2.125
                    ],
                    "rotation": 270,
                    "texture": "#0"
                }
            }
        },
        {
            "from": [
                8.47933,
                6.7253,
                9.19949
            ],
            "to": [
                9.09757,
                10.13458,
                9.5001
            ],
            "rotation": {
                "angle": 0,
                "axis": "y",
                "origin": [
                    9.09598,
                    9.47443,
                    52.77672
                ]
            },
            "faces": {
                "north": {
                    "uv": [
                        3,
                        2.875,
                        3,
                        3.125
                    ],
                    "rotation": 270,
                    "texture": "#0"
                },
                "east": {
                    "uv": [
                        3,
                        2.875,
                        3,
                        3.125
                    ],
                    "rotation": 270,
                    "texture": "#0"
                },
                "south": {
                    "uv": [
                        3,
                        2.875,
                        3,
                        3.125
                    ],
                    "rotation": 270,
                    "texture": "#0"
                },
                "west": {
                    "uv": [
                        3,
                        2.875,
                        3,
                        3.125
                    ],
                    "rotation": 270,
                    "texture": "#0"
                },
                "up": {
                    "uv": [
                        3,
                        3.125,
                        3,
                        2.875
                    ],
                    "rotation": 270,
                    "texture": "#0"
                },
                "down": {
                    "uv": [
                        3,
                        3.125,
                        3,
                        2.875
                    ],
                    "rotation": 270,
                    "texture": "#0"
                }
            }
        },
        {
            "from": [
                8.51517,
                7.1736,
                9.6392
            ],
            "to": [
                9.06173,
                7.50064,
                10.15843
            ],
            "rotation": {
                "angle": -45,
                "axis": "x",
                "origin": [
                    8.78845,
                    7.33712,
                    9.87695
                ]
            },
            "faces": {
                "north": {
                    "uv": [
                        4.25,
                        2.125,
                        4.25,
                        2.125
                    ],
                    "rotation": 270,
                    "texture": "#0"
                },
                "east": {
                    "uv": [
                        4.25,
                        2.125,
                        4.25,
                        2.125
                    ],
                    "rotation": 270,
                    "texture": "#0"
                },
                "south": {
                    "uv": [
                        4.25,
                        2.125,
                        4.25,
                        2.125
                    ],
                    "rotation": 270,
                    "texture": "#0"
                },
                "west": {
                    "uv": [
                        4.25,
                        2.125,
                        4.25,
                        2.125
                    ],
                    "rotation": 270,
                    "texture": "#0"
                },
                "up": {
                    "uv": [
                        4.25,
                        2.125,
                        4.25,
                        2.125
                    ],
                    "rotation": 270,
                    "texture": "#0"
                },
                "down": {
                    "uv": [
                        4.25,
                        2.125,
                        4.25,
                        2.125
                    ],
                    "rotation": 270,
                    "texture": "#0"
                }
            }
        },
        {
            "from": [
                8.65853,
                7.13776,
                9.50803
            ],
            "to": [
                8.88253,
                7.4648,
                10.46451
            ],
            "rotation": {
                "angle": -45,
                "axis": "x",
                "origin": [
                    8.60925,
                    7.30128,
                    10.18303
                ]
            },
            "faces": {
                "north": {
                    "uv": [
                        4.25,
                        2.125,
                        4.25,
                        2.125
                    ],
                    "rotation": 270,
                    "texture": "#0"
                },
                "east": {
                    "uv": [
                        4.25,
                        2.125,
                        4.25,
                        2.125
                    ],
                    "rotation": 270,
                    "texture": "#0"
                },
                "south": {
                    "uv": [
                        4.25,
                        2.125,
                        4.25,
                        2.125
                    ],
                    "rotation": 270,
                    "texture": "#0"
                },
                "west": {
                    "uv": [
                        4.25,
                        2.125,
                        4.25,
                        2.125
                    ],
                    "rotation": 270,
                    "texture": "#0"
                },
                "up": {
                    "uv": [
                        4.25,
                        2.125,
                        4.25,
                        2.125
                    ],
                    "rotation": 270,
                    "texture": "#0"
                },
                "down": {
                    "uv": [
                        4.25,
                        2.125,
                        4.25,
                        2.125
                    ],
                    "rotation": 270,
                    "texture": "#0"
                }
            }
        },
        {
            "from": [
                8.58685,
                8.44783,
                13.32672
            ],
            "to": [
                8.99005,
                8.77487,
                16.73179
            ],
            "rotation": {
                "angle": 0,
                "axis": "y",
                "origin": [
                    9.09598,
                    8.50896,
                    54.58653
                ]
            },
            "faces": {
                "north": {
                    "uv": [
                        4.25,
                        3.5,
                        4.25,
                        3.5
                    ],
                    "rotation": 270,
                    "texture": "#0"
                },
                "east": {
                    "uv": [
                        4.25,
                        3.5,
                        4.25,
                        3.5
                    ],
                    "rotation": 270,
                    "texture": "#0"
                },
                "south": {
                    "uv": [
                        4.25,
                        3.5,
                        4.25,
                        3.5
                    ],
                    "rotation": 270,
                    "texture": "#0"
                },
                "west": {
                    "uv": [
                        4.25,
                        3.5,
                        4.25,
                        3.5
                    ],
                    "rotation": 270,
                    "texture": "#0"
                },
                "up": {
                    "uv": [
                        4.25,
                        3.5,
                        4.25,
                        3.5
                    ],
                    "rotation": 270,
                    "texture": "#0"
                },
                "down": {
                    "uv": [
                        4.25,
                        3.5,
                        4.25,
                        3.5
                    ],
                    "rotation": 270,
                    "texture": "#0"
                }
            }
        },
        {
            "from": [
                8.58685,
                8.18137,
                9.41875
            ],
            "to": [
                8.99005,
                8.50841,
                13.43596
            ],
            "rotation": {
                "angle": -22.5,
                "axis": "x",
                "origin": [
                    8.80637,
                    8.41657,
                    12.5642
                ]
            },
            "faces": {
                "north": {
                    "uv": [
                        4.25,
                        3.5,
                        4.25,
                        3.5
                    ],
                    "rotation": 270,
                    "texture": "#0"
                },
                "east": {
                    "uv": [
                        4.25,
                        3.5,
                        4.25,
                        3.5
                    ],
                    "rotation": 270,
                    "texture": "#0"
                },
                "south": {
                    "uv": [
                        4.25,
                        3.5,
                        4.25,
                        3.5
                    ],
                    "rotation": 270,
                    "texture": "#0"
                },
                "west": {
                    "uv": [
                        4.25,
                        3.5,
                        4.25,
                        3.5
                    ],
                    "rotation": 270,
                    "texture": "#0"
                },
                "up": {
                    "uv": [
                        4.25,
                        3.5,
                        4.25,
                        3.5
                    ],
                    "rotation": 270,
                    "texture": "#0"
                },
                "down": {
                    "uv": [
                        4.25,
                        3.5,
                        4.25,
                        3.5
                    ],
                    "rotation": 270,
                    "texture": "#0"
                }
            }
        }
    ],
    "display": {
        "thirdperson_righthand": {
            "translation": [
                -0.75,
                0,
                -3.75
            ],
            "scale": [
                0.8,
                0.8,
                0.8
            ]
        },
        "thirdperson_lefthand": {
            "translation": [
                -0.75,
                0,
                -3.75
            ],
            "scale": [
                0.8,
                0.8,
                0.8
            ]
        },
        "firstperson_righthand": {
            "translation": [
                -5.5,
                4.75,
                0
            ],
            "scale": [
                1,
                1,
                0.9
            ]
        },
        "firstperson_lefthand": {
            "translation": [
                -5.5,
                4.75,
                0
            ],
            "scale": [
                1,
                1,
                0.9
            ]
        },
        "ground": {
            "rotation": [
                0,
                0,
                45
            ],
            "scale": [
                0.88,
                0.88,
                0.88
            ]
        },
        "gui": {
            "rotation": [
                20,
                27,
                -14
            ],
            "translation": [
                -1,
                2,
                0
            ]
        },
        "head": {
            "rotation": [
                0,
                122,
                90
            ],
            "translation": [
                -3.25,
                7.25,
                1.75
            ]
        },
        "fixed": {
            "rotation": [
                0,
                90,
                0
            ],
            "translation": [
                -1.75,
                0,
                -2.25
            ]
        }
    }
}